0:0:0:0:0:0:0:1 - - [09/Dec/2016:15:14:06 +0530] "GET /ITAFWebApplication/login.jsp HTTP/1.1" 200 27677
0:0:0:0:0:0:0:1 - - [09/Dec/2016:15:14:06 +0530] "GET /ITAFWebApplication/css/bootstrap.min.css HTTP/1.1" 200 121260
0:0:0:0:0:0:0:1 - - [09/Dec/2016:15:14:06 +0530] "GET /ITAFWebApplication/css/login.css HTTP/1.1" 200 1077
0:0:0:0:0:0:0:1 - - [09/Dec/2016:15:14:06 +0530] "GET /ITAFWebApplication/Images/iTAF_logo.png HTTP/1.1" 200 33472
0:0:0:0:0:0:0:1 - - [09/Dec/2016:15:14:06 +0530] "GET /ITAFWebApplication/fonts/glyphicons-halflings-regular.woff2 HTTP/1.1" 200 18028
0:0:0:0:0:0:0:1 - - [09/Dec/2016:15:14:06 +0530] "GET /ITAFWebApplication/js/login.js HTTP/1.1" 200 6947
0:0:0:0:0:0:0:1 - - [09/Dec/2016:15:14:12 +0530] "POST /ITAFWebApplication/login.do HTTP/1.1" 200 27738
0:0:0:0:0:0:0:1 - - [09/Dec/2016:15:14:12 +0530] "GET /ITAFWebApplication/js/login.js HTTP/1.1" 200 6947
0:0:0:0:0:0:0:1 - - [09/Dec/2016:15:14:19 +0530] "GET /ITAFWebApplication/css/demo3/try.css HTTP/1.1" 200 4871
0:0:0:0:0:0:0:1 - - [09/Dec/2016:15:14:19 +0530] "POST /ITAFWebApplication/login.do HTTP/1.1" 200 47732
0:0:0:0:0:0:0:1 - - [09/Dec/2016:15:14:19 +0530] "GET /ITAFWebApplication/css/demo3/responsiveTables.css HTTP/1.1" 200 182
0:0:0:0:0:0:0:1 - - [09/Dec/2016:15:14:19 +0530] "GET /ITAFWebApplication/js/jquery.min.js HTTP/1.1" 200 84380
0:0:0:0:0:0:0:1 - - [09/Dec/2016:15:14:19 +0530] "GET /ITAFWebApplication/js/bootstrap.min.js HTTP/1.1" 200 36868
0:0:0:0:0:0:0:1 - - [09/Dec/2016:15:14:19 +0530] "GET /ITAFWebApplication/js/objectCap.js HTTP/1.1" 200 11106
0:0:0:0:0:0:0:1 - - [09/Dec/2016:15:14:19 +0530] "GET /ITAFWebApplication/js/demo3/bootstrap-filestyle.min.js HTTP/1.1" 200 7190
0:0:0:0:0:0:0:1 - - [09/Dec/2016:15:14:19 +0530] "GET /ITAFWebApplication/js/demo3/searchTable.js HTTP/1.1" 200 1022
0:0:0:0:0:0:0:1 - - [09/Dec/2016:15:14:19 +0530] "GET /ITAFWebApplication/js/demo3/try.js HTTP/1.1" 200 45488
0:0:0:0:0:0:0:1 - - [09/Dec/2016:15:14:19 +0530] "GET /ITAFWebApplication/js/demo3/RowSorter.js HTTP/1.1" 200 8102
0:0:0:0:0:0:0:1 - - [09/Dec/2016:15:14:19 +0530] "GET /ITAFWebApplication/js/demo3/responsiveTables.js HTTP/1.1" 200 1886
0:0:0:0:0:0:0:1 - - [09/Dec/2016:15:14:21 +0530] "POST /ITAFWebApplication/itafexecute.do HTTP/1.1" 200 19286
0:0:0:0:0:0:0:1 - - [09/Dec/2016:15:14:21 +0530] "GET /ITAFWebApplication/js/loader.js HTTP/1.1" 200 70294
0:0:0:0:0:0:0:1 - - [09/Dec/2016:15:14:21 +0530] "GET /ITAFWebApplication/js/demo3/bootstrap-progressbar.js HTTP/1.1" 200 6284
0:0:0:0:0:0:0:1 - - [09/Dec/2016:15:14:21 +0530] "GET /ITAFWebApplication/js/demo3/executetry.js HTTP/1.1" 200 1945
0:0:0:0:0:0:0:1 - - [09/Dec/2016:15:14:39 +0530] "POST /ITAFWebApplication/itafexecute.do HTTP/1.1" 500 2221
0:0:0:0:0:0:0:1 - - [09/Dec/2016:15:16:05 +0530] "GET /ITAFWebApplication/ HTTP/1.1" 200 27677
0:0:0:0:0:0:0:1 - - [09/Dec/2016:15:16:05 +0530] "GET /ITAFWebApplication/js/login.js HTTP/1.1" 200 6947
0:0:0:0:0:0:0:1 - - [09/Dec/2016:15:16:14 +0530] "POST /ITAFWebApplication/login.do HTTP/1.1" 200 47732
0:0:0:0:0:0:0:1 - - [09/Dec/2016:15:16:53 +0530] "POST /ITAFWebApplication/itafexecute.do HTTP/1.1" 200 19286
0:0:0:0:0:0:0:1 - - [09/Dec/2016:15:17:05 +0530] "POST /ITAFWebApplication/itafexecute.do HTTP/1.1" 500 2221
0:0:0:0:0:0:0:1 - - [09/Dec/2016:15:17:31 +0530] "GET /ITAFWebApplication/ HTTP/1.1" 200 27677
0:0:0:0:0:0:0:1 - - [09/Dec/2016:15:17:37 +0530] "POST /ITAFWebApplication/login.do HTTP/1.1" 200 47732
0:0:0:0:0:0:0:1 - - [09/Dec/2016:15:17:45 +0530] "POST /ITAFWebApplication/itafpack.do HTTP/1.1" 200 74925
0:0:0:0:0:0:0:1 - - [09/Dec/2016:15:17:45 +0530] "GET /ITAFWebApplication/files/advancedReport.html?projectname=QBE&actionType=execute HTTP/1.1" 200 13185
0:0:0:0:0:0:0:1 - - [09/Dec/2016:15:35:46 +0530] "GET /ITAFWebApplication/login.jsp HTTP/1.1" 200 27677
0:0:0:0:0:0:0:1 - - [09/Dec/2016:15:35:46 +0530] "GET /ITAFWebApplication/css/login.css HTTP/1.1" 200 1077
0:0:0:0:0:0:0:1 - - [09/Dec/2016:15:35:46 +0530] "GET /ITAFWebApplication/css/bootstrap.min.css HTTP/1.1" 200 121260
0:0:0:0:0:0:0:1 - - [09/Dec/2016:15:35:46 +0530] "GET /ITAFWebApplication/Images/iTAF_logo.png HTTP/1.1" 200 33472
0:0:0:0:0:0:0:1 - - [09/Dec/2016:15:35:46 +0530] "GET /ITAFWebApplication/js/login.js HTTP/1.1" 200 6947
0:0:0:0:0:0:0:1 - - [09/Dec/2016:15:35:46 +0530] "GET /ITAFWebApplication/fonts/glyphicons-halflings-regular.woff2 HTTP/1.1" 200 18028
0:0:0:0:0:0:0:1 - - [09/Dec/2016:15:35:54 +0530] "GET /ITAFWebApplication/css/demo3/try.css HTTP/1.1" 200 4871
0:0:0:0:0:0:0:1 - - [09/Dec/2016:15:35:54 +0530] "POST /ITAFWebApplication/login.do HTTP/1.1" 200 47732
0:0:0:0:0:0:0:1 - - [09/Dec/2016:15:35:54 +0530] "GET /ITAFWebApplication/css/demo3/responsiveTables.css HTTP/1.1" 200 182
0:0:0:0:0:0:0:1 - - [09/Dec/2016:15:35:54 +0530] "GET /ITAFWebApplication/js/jquery.min.js HTTP/1.1" 200 84380
0:0:0:0:0:0:0:1 - - [09/Dec/2016:15:35:54 +0530] "GET /ITAFWebApplication/js/bootstrap.min.js HTTP/1.1" 200 36868
0:0:0:0:0:0:0:1 - - [09/Dec/2016:15:35:54 +0530] "GET /ITAFWebApplication/js/demo3/searchTable.js HTTP/1.1" 200 1022
0:0:0:0:0:0:0:1 - - [09/Dec/2016:15:35:54 +0530] "GET /ITAFWebApplication/js/demo3/bootstrap-filestyle.min.js HTTP/1.1" 200 7190
0:0:0:0:0:0:0:1 - - [09/Dec/2016:15:35:54 +0530] "GET /ITAFWebApplication/js/demo3/responsiveTables.js HTTP/1.1" 200 1886
0:0:0:0:0:0:0:1 - - [09/Dec/2016:15:35:54 +0530] "GET /ITAFWebApplication/js/demo3/RowSorter.js HTTP/1.1" 200 8102
0:0:0:0:0:0:0:1 - - [09/Dec/2016:15:35:54 +0530] "GET /ITAFWebApplication/js/demo3/try.js HTTP/1.1" 200 45488
0:0:0:0:0:0:0:1 - - [09/Dec/2016:15:35:54 +0530] "GET /ITAFWebApplication/js/objectCap.js HTTP/1.1" 200 11106
0:0:0:0:0:0:0:1 - - [09/Dec/2016:15:35:55 +0530] "POST /ITAFWebApplication/itafexecute.do HTTP/1.1" 200 19286
0:0:0:0:0:0:0:1 - - [09/Dec/2016:15:35:55 +0530] "GET /ITAFWebApplication/js/loader.js HTTP/1.1" 200 70294
0:0:0:0:0:0:0:1 - - [09/Dec/2016:15:35:55 +0530] "GET /ITAFWebApplication/js/demo3/executetry.js HTTP/1.1" 200 1945
0:0:0:0:0:0:0:1 - - [09/Dec/2016:15:35:55 +0530] "GET /ITAFWebApplication/js/demo3/bootstrap-progressbar.js HTTP/1.1" 200 6284
0:0:0:0:0:0:0:1 - - [09/Dec/2016:15:36:09 +0530] "POST /ITAFWebApplication/itafexecute.do HTTP/1.1" 500 1751
0:0:0:0:0:0:0:1 - - [09/Dec/2016:15:38:27 +0530] "GET /ITAFWebApplication/login.jsp HTTP/1.1" 200 27677
0:0:0:0:0:0:0:1 - - [09/Dec/2016:15:38:27 +0530] "GET /ITAFWebApplication/css/bootstrap.min.css HTTP/1.1" 200 121260
0:0:0:0:0:0:0:1 - - [09/Dec/2016:15:38:27 +0530] "GET /ITAFWebApplication/css/login.css HTTP/1.1" 200 1077
0:0:0:0:0:0:0:1 - - [09/Dec/2016:15:38:27 +0530] "GET /ITAFWebApplication/Images/iTAF_logo.png HTTP/1.1" 200 33472
0:0:0:0:0:0:0:1 - - [09/Dec/2016:15:38:27 +0530] "GET /ITAFWebApplication/js/login.js HTTP/1.1" 200 6947
0:0:0:0:0:0:0:1 - - [09/Dec/2016:15:38:27 +0530] "GET /ITAFWebApplication/fonts/glyphicons-halflings-regular.woff2 HTTP/1.1" 200 18028
0:0:0:0:0:0:0:1 - - [09/Dec/2016:15:38:37 +0530] "GET /ITAFWebApplication/css/demo3/try.css HTTP/1.1" 200 4871
0:0:0:0:0:0:0:1 - - [09/Dec/2016:15:38:37 +0530] "POST /ITAFWebApplication/login.do HTTP/1.1" 200 47732
0:0:0:0:0:0:0:1 - - [09/Dec/2016:15:38:37 +0530] "GET /ITAFWebApplication/css/demo3/responsiveTables.css HTTP/1.1" 200 182
0:0:0:0:0:0:0:1 - - [09/Dec/2016:15:38:37 +0530] "GET /ITAFWebApplication/js/jquery.min.js HTTP/1.1" 200 84380
0:0:0:0:0:0:0:1 - - [09/Dec/2016:15:38:37 +0530] "GET /ITAFWebApplication/js/bootstrap.min.js HTTP/1.1" 200 36868
0:0:0:0:0:0:0:1 - - [09/Dec/2016:15:38:37 +0530] "GET /ITAFWebApplication/js/demo3/searchTable.js HTTP/1.1" 200 1022
0:0:0:0:0:0:0:1 - - [09/Dec/2016:15:38:37 +0530] "GET /ITAFWebApplication/js/objectCap.js HTTP/1.1" 200 11106
0:0:0:0:0:0:0:1 - - [09/Dec/2016:15:38:37 +0530] "GET /ITAFWebApplication/js/demo3/try.js HTTP/1.1" 200 45488
0:0:0:0:0:0:0:1 - - [09/Dec/2016:15:38:37 +0530] "GET /ITAFWebApplication/js/demo3/RowSorter.js HTTP/1.1" 200 8102
0:0:0:0:0:0:0:1 - - [09/Dec/2016:15:38:37 +0530] "GET /ITAFWebApplication/js/demo3/responsiveTables.js HTTP/1.1" 200 1886
0:0:0:0:0:0:0:1 - - [09/Dec/2016:15:38:37 +0530] "GET /ITAFWebApplication/js/demo3/bootstrap-filestyle.min.js HTTP/1.1" 200 7190
0:0:0:0:0:0:0:1 - - [09/Dec/2016:15:39:02 +0530] "POST /ITAFWebApplication/itafexecute.do HTTP/1.1" 200 19286
0:0:0:0:0:0:0:1 - - [09/Dec/2016:15:39:02 +0530] "GET /ITAFWebApplication/js/loader.js HTTP/1.1" 200 70294
0:0:0:0:0:0:0:1 - - [09/Dec/2016:15:39:02 +0530] "GET /ITAFWebApplication/js/demo3/executetry.js HTTP/1.1" 200 1945
0:0:0:0:0:0:0:1 - - [09/Dec/2016:15:39:02 +0530] "GET /ITAFWebApplication/js/demo3/bootstrap-progressbar.js HTTP/1.1" 200 6284
0:0:0:0:0:0:0:1 - - [09/Dec/2016:15:41:43 +0530] "POST /ITAFWebApplication/itafexecute.do HTTP/1.1" 200 2
0:0:0:0:0:0:0:1 - - [09/Dec/2016:16:04:16 +0530] "POST /ITAFWebApplication/itafexecute.do HTTP/1.1" 200 47732
0:0:0:0:0:0:0:1 - - [09/Dec/2016:16:04:18 +0530] "POST /ITAFWebApplication/logout.do HTTP/1.1" 302 -
0:0:0:0:0:0:0:1 - - [09/Dec/2016:16:04:18 +0530] "GET /ITAFWebApplication/login.jsp HTTP/1.1" 200 27677
0:0:0:0:0:0:0:1 - - [09/Dec/2016:17:21:40 +0530] "GET /ITAFWebApplication/login.jsp HTTP/1.1" 200 27677
0:0:0:0:0:0:0:1 - - [09/Dec/2016:17:21:40 +0530] "GET /ITAFWebApplication/css/login.css HTTP/1.1" 200 1077
0:0:0:0:0:0:0:1 - - [09/Dec/2016:17:21:40 +0530] "GET /ITAFWebApplication/css/bootstrap.min.css HTTP/1.1" 200 121260
0:0:0:0:0:0:0:1 - - [09/Dec/2016:17:21:40 +0530] "GET /ITAFWebApplication/Images/iTAF_logo.png HTTP/1.1" 200 33472
0:0:0:0:0:0:0:1 - - [09/Dec/2016:17:21:41 +0530] "GET /ITAFWebApplication/js/login.js HTTP/1.1" 200 6947
0:0:0:0:0:0:0:1 - - [09/Dec/2016:17:21:41 +0530] "GET /ITAFWebApplication/fonts/glyphicons-halflings-regular.woff2 HTTP/1.1" 200 18028
0:0:0:0:0:0:0:1 - - [09/Dec/2016:17:21:46 +0530] "GET /ITAFWebApplication/css/demo3/try.css HTTP/1.1" 200 4871
0:0:0:0:0:0:0:1 - - [09/Dec/2016:17:21:46 +0530] "POST /ITAFWebApplication/login.do HTTP/1.1" 200 47732
0:0:0:0:0:0:0:1 - - [09/Dec/2016:17:21:46 +0530] "GET /ITAFWebApplication/css/demo3/responsiveTables.css HTTP/1.1" 200 182
0:0:0:0:0:0:0:1 - - [09/Dec/2016:17:21:46 +0530] "GET /ITAFWebApplication/js/jquery.min.js HTTP/1.1" 200 84380
0:0:0:0:0:0:0:1 - - [09/Dec/2016:17:21:46 +0530] "GET /ITAFWebApplication/js/demo3/bootstrap-filestyle.min.js HTTP/1.1" 200 7190
0:0:0:0:0:0:0:1 - - [09/Dec/2016:17:21:46 +0530] "GET /ITAFWebApplication/js/demo3/responsiveTables.js HTTP/1.1" 200 1886
0:0:0:0:0:0:0:1 - - [09/Dec/2016:17:21:46 +0530] "GET /ITAFWebApplication/js/demo3/RowSorter.js HTTP/1.1" 200 8102
0:0:0:0:0:0:0:1 - - [09/Dec/2016:17:21:46 +0530] "GET /ITAFWebApplication/js/objectCap.js HTTP/1.1" 200 11106
0:0:0:0:0:0:0:1 - - [09/Dec/2016:17:21:46 +0530] "GET /ITAFWebApplication/js/bootstrap.min.js HTTP/1.1" 200 36868
0:0:0:0:0:0:0:1 - - [09/Dec/2016:17:21:46 +0530] "GET /ITAFWebApplication/js/demo3/try.js HTTP/1.1" 200 45488
0:0:0:0:0:0:0:1 - - [09/Dec/2016:17:21:46 +0530] "GET /ITAFWebApplication/js/demo3/searchTable.js HTTP/1.1" 200 1022
0:0:0:0:0:0:0:1 - - [09/Dec/2016:17:21:50 +0530] "POST /ITAFWebApplication/itafexecute.do HTTP/1.1" 200 19286
0:0:0:0:0:0:0:1 - - [09/Dec/2016:17:21:50 +0530] "GET /ITAFWebApplication/js/loader.js HTTP/1.1" 200 70294
0:0:0:0:0:0:0:1 - - [09/Dec/2016:17:21:50 +0530] "GET /ITAFWebApplication/js/demo3/bootstrap-progressbar.js HTTP/1.1" 200 6284
0:0:0:0:0:0:0:1 - - [09/Dec/2016:17:21:50 +0530] "GET /ITAFWebApplication/js/demo3/executetry.js HTTP/1.1" 200 1945
0:0:0:0:0:0:0:1 - - [09/Dec/2016:17:22:16 +0530] "POST /ITAFWebApplication/itafexecute.do HTTP/1.1" 500 1751
0:0:0:0:0:0:0:1 - - [09/Dec/2016:17:30:27 +0530] "GET /favicon.ico HTTP/1.1" 200 21630
0:0:0:0:0:0:0:1 - - [09/Dec/2016:17:30:26 +0530] "POST /ITAFWebApplication/itafexecute.do HTTP/1.1" 200 19286
0:0:0:0:0:0:0:1 - - [09/Dec/2016:17:30:28 +0530] "POST /ITAFWebApplication/itafexecute.do HTTP/1.1" 200 47732
0:0:0:0:0:0:0:1 - - [09/Dec/2016:17:30:29 +0530] "POST /ITAFWebApplication/itafexecute.do HTTP/1.1" 200 19286
0:0:0:0:0:0:0:1 - - [09/Dec/2016:17:30:32 +0530] "POST /ITAFWebApplication/itafexecute.do HTTP/1.1" 200 18849
0:0:0:0:0:0:0:1 - - [09/Dec/2016:17:30:38 +0530] "POST /ITAFWebApplication/logout.do HTTP/1.1" 302 -
0:0:0:0:0:0:0:1 - - [09/Dec/2016:17:30:38 +0530] "GET /ITAFWebApplication/login.jsp HTTP/1.1" 200 27677
0:0:0:0:0:0:0:1 - - [09/Dec/2016:17:49:40 +0530] "GET /ITAFWebApplication/login.jsp HTTP/1.1" 200 27677
0:0:0:0:0:0:0:1 - - [09/Dec/2016:17:49:40 +0530] "GET /ITAFWebApplication/css/login.css HTTP/1.1" 200 1077
0:0:0:0:0:0:0:1 - - [09/Dec/2016:17:49:40 +0530] "GET /ITAFWebApplication/css/bootstrap.min.css HTTP/1.1" 200 121260
0:0:0:0:0:0:0:1 - - [09/Dec/2016:17:49:40 +0530] "GET /ITAFWebApplication/Images/iTAF_logo.png HTTP/1.1" 200 33472
0:0:0:0:0:0:0:1 - - [09/Dec/2016:17:49:40 +0530] "GET /ITAFWebApplication/js/login.js HTTP/1.1" 200 6947
0:0:0:0:0:0:0:1 - - [09/Dec/2016:17:49:40 +0530] "GET /ITAFWebApplication/fonts/glyphicons-halflings-regular.woff2 HTTP/1.1" 200 18028
0:0:0:0:0:0:0:1 - - [09/Dec/2016:17:49:46 +0530] "POST /ITAFWebApplication/login.do HTTP/1.1" 200 27738
0:0:0:0:0:0:0:1 - - [09/Dec/2016:17:49:53 +0530] "GET /ITAFWebApplication/css/demo3/try.css HTTP/1.1" 200 4871
0:0:0:0:0:0:0:1 - - [09/Dec/2016:17:49:53 +0530] "POST /ITAFWebApplication/login.do HTTP/1.1" 200 47732
0:0:0:0:0:0:0:1 - - [09/Dec/2016:17:49:53 +0530] "GET /ITAFWebApplication/js/jquery.min.js HTTP/1.1" 200 84380
0:0:0:0:0:0:0:1 - - [09/Dec/2016:17:49:53 +0530] "GET /ITAFWebApplication/css/demo3/responsiveTables.css HTTP/1.1" 200 182
0:0:0:0:0:0:0:1 - - [09/Dec/2016:17:49:53 +0530] "GET /ITAFWebApplication/js/objectCap.js HTTP/1.1" 200 11106
0:0:0:0:0:0:0:1 - - [09/Dec/2016:17:49:53 +0530] "GET /ITAFWebApplication/js/bootstrap.min.js HTTP/1.1" 200 36868
0:0:0:0:0:0:0:1 - - [09/Dec/2016:17:49:53 +0530] "GET /ITAFWebApplication/js/demo3/responsiveTables.js HTTP/1.1" 200 1886
0:0:0:0:0:0:0:1 - - [09/Dec/2016:17:49:53 +0530] "GET /ITAFWebApplication/js/demo3/try.js HTTP/1.1" 200 45488
0:0:0:0:0:0:0:1 - - [09/Dec/2016:17:49:53 +0530] "GET /ITAFWebApplication/js/demo3/searchTable.js HTTP/1.1" 200 1022
0:0:0:0:0:0:0:1 - - [09/Dec/2016:17:49:53 +0530] "GET /ITAFWebApplication/js/demo3/RowSorter.js HTTP/1.1" 200 8102
0:0:0:0:0:0:0:1 - - [09/Dec/2016:17:49:53 +0530] "GET /ITAFWebApplication/js/demo3/bootstrap-filestyle.min.js HTTP/1.1" 200 7190
0:0:0:0:0:0:0:1 - - [09/Dec/2016:17:49:57 +0530] "POST /ITAFWebApplication/itafexecute.do HTTP/1.1" 200 19286
0:0:0:0:0:0:0:1 - - [09/Dec/2016:17:49:57 +0530] "GET /ITAFWebApplication/js/demo3/bootstrap-progressbar.js HTTP/1.1" 200 6284
0:0:0:0:0:0:0:1 - - [09/Dec/2016:17:49:57 +0530] "GET /ITAFWebApplication/js/demo3/executetry.js HTTP/1.1" 200 1945
0:0:0:0:0:0:0:1 - - [09/Dec/2016:17:49:57 +0530] "GET /ITAFWebApplication/js/loader.js HTTP/1.1" 200 70294
0:0:0:0:0:0:0:1 - - [09/Dec/2016:17:49:58 +0530] "POST /ITAFWebApplication/itafexecute.do HTTP/1.1" 200 47732
0:0:0:0:0:0:0:1 - - [09/Dec/2016:17:50:01 +0530] "POST /ITAFWebApplication/itafexecute.do HTTP/1.1" 200 19286
0:0:0:0:0:0:0:1 - - [09/Dec/2016:17:53:28 +0530] "POST /ITAFWebApplication/itafexecute.do HTTP/1.1" 500 2406
0:0:0:0:0:0:0:1 - - [09/Dec/2016:17:54:12 +0530] "GET /favicon.ico HTTP/1.1" 200 21630
0:0:0:0:0:0:0:1 - - [09/Dec/2016:17:54:11 +0530] "POST /ITAFWebApplication/itafexecute.do HTTP/1.1" 200 19286
0:0:0:0:0:0:0:1 - - [09/Dec/2016:17:54:15 +0530] "POST /ITAFWebApplication/logout.do HTTP/1.1" 302 -
0:0:0:0:0:0:0:1 - - [09/Dec/2016:17:54:15 +0530] "GET /ITAFWebApplication/login.jsp HTTP/1.1" 200 27677
0:0:0:0:0:0:0:1 - - [09/Dec/2016:17:58:10 +0530] "GET /ITAFWebApplication/login.jsp HTTP/1.1" 200 27677
0:0:0:0:0:0:0:1 - - [09/Dec/2016:17:58:10 +0530] "GET /ITAFWebApplication/css/login.css HTTP/1.1" 200 1077
0:0:0:0:0:0:0:1 - - [09/Dec/2016:17:58:10 +0530] "GET /ITAFWebApplication/css/bootstrap.min.css HTTP/1.1" 200 121260
0:0:0:0:0:0:0:1 - - [09/Dec/2016:17:58:10 +0530] "GET /ITAFWebApplication/Images/iTAF_logo.png HTTP/1.1" 200 33472
0:0:0:0:0:0:0:1 - - [09/Dec/2016:17:58:10 +0530] "GET /ITAFWebApplication/js/login.js HTTP/1.1" 200 6947
0:0:0:0:0:0:0:1 - - [09/Dec/2016:17:58:10 +0530] "GET /ITAFWebApplication/fonts/glyphicons-halflings-regular.woff2 HTTP/1.1" 200 18028
0:0:0:0:0:0:0:1 - - [09/Dec/2016:17:58:16 +0530] "GET /ITAFWebApplication/css/demo3/try.css HTTP/1.1" 200 4871
0:0:0:0:0:0:0:1 - - [09/Dec/2016:17:58:16 +0530] "POST /ITAFWebApplication/login.do HTTP/1.1" 200 47732
0:0:0:0:0:0:0:1 - - [09/Dec/2016:17:58:16 +0530] "GET /ITAFWebApplication/js/jquery.min.js HTTP/1.1" 200 84380
0:0:0:0:0:0:0:1 - - [09/Dec/2016:17:58:16 +0530] "GET /ITAFWebApplication/css/demo3/responsiveTables.css HTTP/1.1" 200 182
0:0:0:0:0:0:0:1 - - [09/Dec/2016:17:58:16 +0530] "GET /ITAFWebApplication/js/demo3/responsiveTables.js HTTP/1.1" 200 1886
0:0:0:0:0:0:0:1 - - [09/Dec/2016:17:58:16 +0530] "GET /ITAFWebApplication/js/demo3/bootstrap-filestyle.min.js HTTP/1.1" 200 7190
0:0:0:0:0:0:0:1 - - [09/Dec/2016:17:58:16 +0530] "GET /ITAFWebApplication/js/demo3/RowSorter.js HTTP/1.1" 200 8102
0:0:0:0:0:0:0:1 - - [09/Dec/2016:17:58:16 +0530] "GET /ITAFWebApplication/js/objectCap.js HTTP/1.1" 200 11106
0:0:0:0:0:0:0:1 - - [09/Dec/2016:17:58:16 +0530] "GET /ITAFWebApplication/js/bootstrap.min.js HTTP/1.1" 200 36868
0:0:0:0:0:0:0:1 - - [09/Dec/2016:17:58:16 +0530] "GET /ITAFWebApplication/js/demo3/try.js HTTP/1.1" 200 45488
0:0:0:0:0:0:0:1 - - [09/Dec/2016:17:58:16 +0530] "GET /ITAFWebApplication/js/demo3/searchTable.js HTTP/1.1" 200 1022
0:0:0:0:0:0:0:1 - - [09/Dec/2016:17:58:18 +0530] "POST /ITAFWebApplication/itafexecute.do HTTP/1.1" 200 19286
0:0:0:0:0:0:0:1 - - [09/Dec/2016:17:58:18 +0530] "GET /ITAFWebApplication/js/demo3/executetry.js HTTP/1.1" 200 1945
0:0:0:0:0:0:0:1 - - [09/Dec/2016:17:58:18 +0530] "GET /ITAFWebApplication/js/loader.js HTTP/1.1" 200 70294
0:0:0:0:0:0:0:1 - - [09/Dec/2016:17:58:18 +0530] "GET /ITAFWebApplication/js/demo3/bootstrap-progressbar.js HTTP/1.1" 200 6284
0:0:0:0:0:0:0:1 - - [09/Dec/2016:17:58:25 +0530] "POST /ITAFWebApplication/itafexecute.do HTTP/1.1" 200 47732
0:0:0:0:0:0:0:1 - - [09/Dec/2016:17:59:11 +0530] "POST /ITAFWebApplication/itafexecute.do HTTP/1.1" 200 19286
0:0:0:0:0:0:0:1 - - [09/Dec/2016:17:59:25 +0530] "POST /ITAFWebApplication/itafexecute.do HTTP/1.1" 500 1751
0:0:0:0:0:0:0:1 - - [09/Dec/2016:18:03:09 +0530] "GET /ITAFWebApplication/login.jsp HTTP/1.1" 200 27677
0:0:0:0:0:0:0:1 - - [09/Dec/2016:18:03:09 +0530] "GET /ITAFWebApplication/css/login.css HTTP/1.1" 200 1077
0:0:0:0:0:0:0:1 - - [09/Dec/2016:18:03:09 +0530] "GET /ITAFWebApplication/css/bootstrap.min.css HTTP/1.1" 200 121260
0:0:0:0:0:0:0:1 - - [09/Dec/2016:18:03:09 +0530] "GET /ITAFWebApplication/Images/iTAF_logo.png HTTP/1.1" 200 33472
0:0:0:0:0:0:0:1 - - [09/Dec/2016:18:03:09 +0530] "GET /ITAFWebApplication/js/login.js HTTP/1.1" 200 6947
0:0:0:0:0:0:0:1 - - [09/Dec/2016:18:03:09 +0530] "GET /ITAFWebApplication/fonts/glyphicons-halflings-regular.woff2 HTTP/1.1" 200 18028
0:0:0:0:0:0:0:1 - - [09/Dec/2016:18:03:16 +0530] "GET /ITAFWebApplication/css/demo3/try.css HTTP/1.1" 200 4871
0:0:0:0:0:0:0:1 - - [09/Dec/2016:18:03:16 +0530] "POST /ITAFWebApplication/login.do HTTP/1.1" 200 47732
0:0:0:0:0:0:0:1 - - [09/Dec/2016:18:03:16 +0530] "GET /ITAFWebApplication/css/demo3/responsiveTables.css HTTP/1.1" 200 182
0:0:0:0:0:0:0:1 - - [09/Dec/2016:18:03:16 +0530] "GET /ITAFWebApplication/js/jquery.min.js HTTP/1.1" 200 84380
0:0:0:0:0:0:0:1 - - [09/Dec/2016:18:03:16 +0530] "GET /ITAFWebApplication/js/bootstrap.min.js HTTP/1.1" 200 36868
0:0:0:0:0:0:0:1 - - [09/Dec/2016:18:03:16 +0530] "GET /ITAFWebApplication/js/demo3/RowSorter.js HTTP/1.1" 200 8102
0:0:0:0:0:0:0:1 - - [09/Dec/2016:18:03:16 +0530] "GET /ITAFWebApplication/js/demo3/responsiveTables.js HTTP/1.1" 200 1886
0:0:0:0:0:0:0:1 - - [09/Dec/2016:18:03:16 +0530] "GET /ITAFWebApplication/js/demo3/bootstrap-filestyle.min.js HTTP/1.1" 200 7190
0:0:0:0:0:0:0:1 - - [09/Dec/2016:18:03:16 +0530] "GET /ITAFWebApplication/js/demo3/try.js HTTP/1.1" 200 45488
0:0:0:0:0:0:0:1 - - [09/Dec/2016:18:03:16 +0530] "GET /ITAFWebApplication/js/objectCap.js HTTP/1.1" 200 11106
0:0:0:0:0:0:0:1 - - [09/Dec/2016:18:03:16 +0530] "GET /ITAFWebApplication/js/demo3/searchTable.js HTTP/1.1" 200 1022
0:0:0:0:0:0:0:1 - - [09/Dec/2016:18:03:26 +0530] "POST /ITAFWebApplication/itafexecute.do HTTP/1.1" 200 19286
0:0:0:0:0:0:0:1 - - [09/Dec/2016:18:03:26 +0530] "GET /ITAFWebApplication/js/loader.js HTTP/1.1" 200 70294
0:0:0:0:0:0:0:1 - - [09/Dec/2016:18:03:26 +0530] "GET /ITAFWebApplication/js/demo3/executetry.js HTTP/1.1" 200 1945
0:0:0:0:0:0:0:1 - - [09/Dec/2016:18:03:26 +0530] "GET /ITAFWebApplication/js/demo3/bootstrap-progressbar.js HTTP/1.1" 200 6284
0:0:0:0:0:0:0:1 - - [09/Dec/2016:18:05:45 +0530] "POST /ITAFWebApplication/itafexecute.do HTTP/1.1" 200 2
0:0:0:0:0:0:0:1 - - [09/Dec/2016:18:06:32 +0530] "POST /ITAFWebApplication/itafexecute.do HTTP/1.1" 200 19286
0:0:0:0:0:0:0:1 - - [09/Dec/2016:18:10:34 +0530] "POST /ITAFWebApplication/itafexecute.do HTTP/1.1" 200 2
0:0:0:0:0:0:0:1 - - [09/Dec/2016:18:12:17 +0530] "POST /ITAFWebApplication/itafexecute.do HTTP/1.1" 200 19286
0:0:0:0:0:0:0:1 - - [09/Dec/2016:18:15:51 +0530] "POST /ITAFWebApplication/itafexecute.do HTTP/1.1" 200 2
0:0:0:0:0:0:0:1 - - [09/Dec/2016:18:16:53 +0530] "GET /ITAFWebApplication/login.jsp HTTP/1.1" 200 27677
0:0:0:0:0:0:0:1 - - [09/Dec/2016:18:16:53 +0530] "GET /ITAFWebApplication/css/login.css HTTP/1.1" 200 1077
0:0:0:0:0:0:0:1 - - [09/Dec/2016:18:16:53 +0530] "GET /ITAFWebApplication/css/bootstrap.min.css HTTP/1.1" 200 121260
0:0:0:0:0:0:0:1 - - [09/Dec/2016:18:16:53 +0530] "GET /ITAFWebApplication/Images/iTAF_logo.png HTTP/1.1" 200 33472
0:0:0:0:0:0:0:1 - - [09/Dec/2016:18:16:54 +0530] "GET /ITAFWebApplication/js/login.js HTTP/1.1" 200 6947
0:0:0:0:0:0:0:1 - - [09/Dec/2016:18:16:54 +0530] "GET /ITAFWebApplication/fonts/glyphicons-halflings-regular.woff2 HTTP/1.1" 200 18028
0:0:0:0:0:0:0:1 - - [09/Dec/2016:18:16:59 +0530] "POST /ITAFWebApplication/login.do HTTP/1.1" 200 27738
0:0:0:0:0:0:0:1 - - [09/Dec/2016:18:17:07 +0530] "GET /ITAFWebApplication/css/demo3/try.css HTTP/1.1" 200 4871
0:0:0:0:0:0:0:1 - - [09/Dec/2016:18:17:07 +0530] "POST /ITAFWebApplication/login.do HTTP/1.1" 200 47732
0:0:0:0:0:0:0:1 - - [09/Dec/2016:18:17:07 +0530] "GET /ITAFWebApplication/css/demo3/responsiveTables.css HTTP/1.1" 200 182
0:0:0:0:0:0:0:1 - - [09/Dec/2016:18:17:07 +0530] "GET /ITAFWebApplication/js/jquery.min.js HTTP/1.1" 200 84380
0:0:0:0:0:0:0:1 - - [09/Dec/2016:18:17:07 +0530] "GET /ITAFWebApplication/js/demo3/try.js HTTP/1.1" 200 45488
0:0:0:0:0:0:0:1 - - [09/Dec/2016:18:17:07 +0530] "GET /ITAFWebApplication/js/demo3/RowSorter.js HTTP/1.1" 200 8102
0:0:0:0:0:0:0:1 - - [09/Dec/2016:18:17:07 +0530] "GET /ITAFWebApplication/js/objectCap.js HTTP/1.1" 200 11106
0:0:0:0:0:0:0:1 - - [09/Dec/2016:18:17:07 +0530] "GET /ITAFWebApplication/js/bootstrap.min.js HTTP/1.1" 200 36868
0:0:0:0:0:0:0:1 - - [09/Dec/2016:18:17:07 +0530] "GET /ITAFWebApplication/js/demo3/searchTable.js HTTP/1.1" 200 1022
0:0:0:0:0:0:0:1 - - [09/Dec/2016:18:17:07 +0530] "GET /ITAFWebApplication/js/demo3/bootstrap-filestyle.min.js HTTP/1.1" 200 7190
0:0:0:0:0:0:0:1 - - [09/Dec/2016:18:17:07 +0530] "GET /ITAFWebApplication/js/demo3/responsiveTables.js HTTP/1.1" 200 1886
0:0:0:0:0:0:0:1 - - [09/Dec/2016:18:17:09 +0530] "POST /ITAFWebApplication/itafexecute.do HTTP/1.1" 200 19286
0:0:0:0:0:0:0:1 - - [09/Dec/2016:18:17:09 +0530] "GET /ITAFWebApplication/js/demo3/bootstrap-progressbar.js HTTP/1.1" 200 6284
0:0:0:0:0:0:0:1 - - [09/Dec/2016:18:17:09 +0530] "GET /ITAFWebApplication/js/loader.js HTTP/1.1" 200 70294
0:0:0:0:0:0:0:1 - - [09/Dec/2016:18:17:09 +0530] "GET /ITAFWebApplication/js/demo3/executetry.js HTTP/1.1" 200 1945
0:0:0:0:0:0:0:1 - - [09/Dec/2016:18:24:13 +0530] "POST /ITAFWebApplication/itafexecute.do HTTP/1.1" 200 2
0:0:0:0:0:0:0:1 - - [09/Dec/2016:18:32:52 +0530] "POST /ITAFWebApplication/itafexecute.do HTTP/1.1" 200 19286
0:0:0:0:0:0:0:1 - - [09/Dec/2016:18:38:39 +0530] "POST /ITAFWebApplication/itafexecute.do HTTP/1.1" 200 2
0:0:0:0:0:0:0:1 - - [09/Dec/2016:18:41:24 +0530] "POST /ITAFWebApplication/logout.do HTTP/1.1" 302 -
0:0:0:0:0:0:0:1 - - [09/Dec/2016:18:41:24 +0530] "GET /ITAFWebApplication/login.jsp HTTP/1.1" 200 27677
0:0:0:0:0:0:0:1 - - [09/Dec/2016:18:43:09 +0530] "GET /ITAFWebApplication/login.jsp HTTP/1.1" 200 27677
0:0:0:0:0:0:0:1 - - [09/Dec/2016:18:43:09 +0530] "GET /ITAFWebApplication/css/login.css HTTP/1.1" 200 1077
0:0:0:0:0:0:0:1 - - [09/Dec/2016:18:43:09 +0530] "GET /ITAFWebApplication/css/bootstrap.min.css HTTP/1.1" 200 121260
0:0:0:0:0:0:0:1 - - [09/Dec/2016:18:43:09 +0530] "GET /ITAFWebApplication/js/login.js HTTP/1.1" 200 6947
0:0:0:0:0:0:0:1 - - [09/Dec/2016:18:43:09 +0530] "GET /ITAFWebApplication/Images/iTAF_logo.png HTTP/1.1" 200 33472
0:0:0:0:0:0:0:1 - - [09/Dec/2016:18:43:09 +0530] "GET /ITAFWebApplication/fonts/glyphicons-halflings-regular.woff2 HTTP/1.1" 200 18028
0:0:0:0:0:0:0:1 - - [09/Dec/2016:18:43:16 +0530] "POST /ITAFWebApplication/login.do HTTP/1.1" 200 27738
0:0:0:0:0:0:0:1 - - [09/Dec/2016:18:43:23 +0530] "GET /ITAFWebApplication/css/demo3/try.css HTTP/1.1" 200 4871
0:0:0:0:0:0:0:1 - - [09/Dec/2016:18:43:23 +0530] "POST /ITAFWebApplication/login.do HTTP/1.1" 200 47732
0:0:0:0:0:0:0:1 - - [09/Dec/2016:18:43:23 +0530] "GET /ITAFWebApplication/js/jquery.min.js HTTP/1.1" 200 84380
0:0:0:0:0:0:0:1 - - [09/Dec/2016:18:43:23 +0530] "GET /ITAFWebApplication/css/demo3/responsiveTables.css HTTP/1.1" 200 182
0:0:0:0:0:0:0:1 - - [09/Dec/2016:18:43:23 +0530] "GET /ITAFWebApplication/js/demo3/bootstrap-filestyle.min.js HTTP/1.1" 200 7190
0:0:0:0:0:0:0:1 - - [09/Dec/2016:18:43:23 +0530] "GET /ITAFWebApplication/js/demo3/responsiveTables.js HTTP/1.1" 200 1886
0:0:0:0:0:0:0:1 - - [09/Dec/2016:18:43:23 +0530] "GET /ITAFWebApplication/js/bootstrap.min.js HTTP/1.1" 200 36868
0:0:0:0:0:0:0:1 - - [09/Dec/2016:18:43:23 +0530] "GET /ITAFWebApplication/js/demo3/try.js HTTP/1.1" 200 45488
0:0:0:0:0:0:0:1 - - [09/Dec/2016:18:43:23 +0530] "GET /ITAFWebApplication/js/objectCap.js HTTP/1.1" 200 11106
0:0:0:0:0:0:0:1 - - [09/Dec/2016:18:43:23 +0530] "GET /ITAFWebApplication/js/demo3/searchTable.js HTTP/1.1" 200 1022
0:0:0:0:0:0:0:1 - - [09/Dec/2016:18:43:23 +0530] "GET /ITAFWebApplication/js/demo3/RowSorter.js HTTP/1.1" 200 8102
0:0:0:0:0:0:0:1 - - [09/Dec/2016:18:44:15 +0530] "POST /ITAFWebApplication/itafexecute.do HTTP/1.1" 200 19286
0:0:0:0:0:0:0:1 - - [09/Dec/2016:18:44:15 +0530] "GET /ITAFWebApplication/js/demo3/executetry.js HTTP/1.1" 200 1945
0:0:0:0:0:0:0:1 - - [09/Dec/2016:18:44:15 +0530] "GET /ITAFWebApplication/js/demo3/bootstrap-progressbar.js HTTP/1.1" 200 6284
0:0:0:0:0:0:0:1 - - [09/Dec/2016:18:44:15 +0530] "GET /ITAFWebApplication/js/loader.js HTTP/1.1" 200 70294
0:0:0:0:0:0:0:1 - - [09/Dec/2016:18:47:14 +0530] "GET /favicon.ico HTTP/1.1" 200 21630
0:0:0:0:0:0:0:1 - - [09/Dec/2016:18:47:14 +0530] "POST /ITAFWebApplication/itafexecute.do HTTP/1.1" 200 19286
0:0:0:0:0:0:0:1 - - [09/Dec/2016:18:47:39 +0530] "POST /ITAFWebApplication/itafexecute.do HTTP/1.1" 200 2
0:0:0:0:0:0:0:1 - - [09/Dec/2016:18:48:18 +0530] "POST /ITAFWebApplication/logout.do HTTP/1.1" 302 -
0:0:0:0:0:0:0:1 - - [09/Dec/2016:18:48:18 +0530] "GET /ITAFWebApplication/login.jsp HTTP/1.1" 200 27677
0:0:0:0:0:0:0:1 - - [09/Dec/2016:18:49:02 +0530] "GET /ITAFWebApplication/login.jsp HTTP/1.1" 200 27677
0:0:0:0:0:0:0:1 - - [09/Dec/2016:18:49:02 +0530] "GET /ITAFWebApplication/css/login.css HTTP/1.1" 200 1077
0:0:0:0:0:0:0:1 - - [09/Dec/2016:18:49:02 +0530] "GET /ITAFWebApplication/css/bootstrap.min.css HTTP/1.1" 200 121260
0:0:0:0:0:0:0:1 - - [09/Dec/2016:18:49:02 +0530] "GET /ITAFWebApplication/Images/iTAF_logo.png HTTP/1.1" 200 33472
0:0:0:0:0:0:0:1 - - [09/Dec/2016:18:49:02 +0530] "GET /ITAFWebApplication/js/login.js HTTP/1.1" 200 6947
0:0:0:0:0:0:0:1 - - [09/Dec/2016:18:49:02 +0530] "GET /ITAFWebApplication/fonts/glyphicons-halflings-regular.woff2 HTTP/1.1" 200 18028
0:0:0:0:0:0:0:1 - - [09/Dec/2016:18:49:09 +0530] "GET /ITAFWebApplication/css/demo3/try.css HTTP/1.1" 200 4871
0:0:0:0:0:0:0:1 - - [09/Dec/2016:18:49:09 +0530] "POST /ITAFWebApplication/login.do HTTP/1.1" 200 47732
0:0:0:0:0:0:0:1 - - [09/Dec/2016:18:49:09 +0530] "GET /ITAFWebApplication/js/jquery.min.js HTTP/1.1" 200 84380
0:0:0:0:0:0:0:1 - - [09/Dec/2016:18:49:09 +0530] "GET /ITAFWebApplication/css/demo3/responsiveTables.css HTTP/1.1" 200 182
0:0:0:0:0:0:0:1 - - [09/Dec/2016:18:49:09 +0530] "GET /ITAFWebApplication/js/bootstrap.min.js HTTP/1.1" 200 36868
0:0:0:0:0:0:0:1 - - [09/Dec/2016:18:49:09 +0530] "GET /ITAFWebApplication/js/demo3/try.js HTTP/1.1" 200 45488
0:0:0:0:0:0:0:1 - - [09/Dec/2016:18:49:09 +0530] "GET /ITAFWebApplication/js/objectCap.js HTTP/1.1" 200 11106
0:0:0:0:0:0:0:1 - - [09/Dec/2016:18:49:09 +0530] "GET /ITAFWebApplication/js/demo3/searchTable.js HTTP/1.1" 200 1022
0:0:0:0:0:0:0:1 - - [09/Dec/2016:18:49:09 +0530] "GET /ITAFWebApplication/js/demo3/bootstrap-filestyle.min.js HTTP/1.1" 200 7190
0:0:0:0:0:0:0:1 - - [09/Dec/2016:18:49:09 +0530] "GET /ITAFWebApplication/js/demo3/RowSorter.js HTTP/1.1" 200 8102
0:0:0:0:0:0:0:1 - - [09/Dec/2016:18:49:09 +0530] "GET /ITAFWebApplication/js/demo3/responsiveTables.js HTTP/1.1" 200 1886
0:0:0:0:0:0:0:1 - - [09/Dec/2016:18:50:08 +0530] "POST /ITAFWebApplication/itafexecute.do HTTP/1.1" 200 19286
0:0:0:0:0:0:0:1 - - [09/Dec/2016:18:50:08 +0530] "GET /ITAFWebApplication/js/loader.js HTTP/1.1" 200 70294
0:0:0:0:0:0:0:1 - - [09/Dec/2016:18:50:08 +0530] "GET /ITAFWebApplication/js/demo3/executetry.js HTTP/1.1" 200 1945
0:0:0:0:0:0:0:1 - - [09/Dec/2016:18:50:08 +0530] "GET /ITAFWebApplication/js/demo3/bootstrap-progressbar.js HTTP/1.1" 200 6284
0:0:0:0:0:0:0:1 - - [09/Dec/2016:18:56:21 +0530] "POST /ITAFWebApplication/itafexecute.do HTTP/1.1" 200 2232
0:0:0:0:0:0:0:1 - - [09/Dec/2016:19:00:07 +0530] "POST /ITAFWebApplication/itafexecute.do HTTP/1.1" 200 47738
0:0:0:0:0:0:0:1 - - [09/Dec/2016:19:00:14 +0530] "POST /ITAFWebApplication/itafpack.do HTTP/1.1" 200 71525
0:0:0:0:0:0:0:1 - - [09/Dec/2016:19:00:14 +0530] "GET /ITAFWebApplication/files/advancedReport.html?projectname=QBE&actionType=execute HTTP/1.1" 200 23726
0:0:0:0:0:0:0:1 - - [09/Dec/2016:19:06:17 +0530] "POST /ITAFWebApplication/logout.do HTTP/1.1" 302 -
0:0:0:0:0:0:0:1 - - [09/Dec/2016:19:06:17 +0530] "GET /ITAFWebApplication/login.jsp HTTP/1.1" 200 27677
0:0:0:0:0:0:0:1 - - [09/Dec/2016:19:06:23 +0530] "POST /ITAFWebApplication/login.do HTTP/1.1" 200 27738
0:0:0:0:0:0:0:1 - - [09/Dec/2016:19:06:28 +0530] "POST /ITAFWebApplication/login.do HTTP/1.1" 200 27738
0:0:0:0:0:0:0:1 - - [09/Dec/2016:19:06:28 +0530] "GET /favicon.ico HTTP/1.1" 200 21630
0:0:0:0:0:0:0:1 - - [09/Dec/2016:19:06:32 +0530] "GET /favicon.ico HTTP/1.1" 200 21630
0:0:0:0:0:0:0:1 - - [09/Dec/2016:19:06:33 +0530] "GET /favicon.ico HTTP/1.1" 200 21630
0:0:0:0:0:0:0:1 - - [09/Dec/2016:19:06:30 +0530] "GET /ITAFWebApplication/login.do HTTP/1.1" 405 1106
0:0:0:0:0:0:0:1 - - [09/Dec/2016:19:06:32 +0530] "GET /ITAFWebApplication/login.do HTTP/1.1" 405 1106
0:0:0:0:0:0:0:1 - - [09/Dec/2016:19:06:33 +0530] "GET /ITAFWebApplication/login.do HTTP/1.1" 405 1106
0:0:0:0:0:0:0:1 - - [09/Dec/2016:19:06:39 +0530] "GET /ITAFWebApplication/login.jsp HTTP/1.1" 200 27677
0:0:0:0:0:0:0:1 - - [09/Dec/2016:19:06:39 +0530] "GET /ITAFWebApplication/css/login.css HTTP/1.1" 200 1077
0:0:0:0:0:0:0:1 - - [09/Dec/2016:19:06:39 +0530] "GET /ITAFWebApplication/css/bootstrap.min.css HTTP/1.1" 200 121260
0:0:0:0:0:0:0:1 - - [09/Dec/2016:19:06:39 +0530] "GET /ITAFWebApplication/js/login.js HTTP/1.1" 200 6947
0:0:0:0:0:0:0:1 - - [09/Dec/2016:19:06:39 +0530] "GET /ITAFWebApplication/Images/iTAF_logo.png HTTP/1.1" 200 33472
0:0:0:0:0:0:0:1 - - [09/Dec/2016:19:06:39 +0530] "GET /ITAFWebApplication/fonts/glyphicons-halflings-regular.woff2 HTTP/1.1" 200 18028
0:0:0:0:0:0:0:1 - - [09/Dec/2016:19:06:54 +0530] "POST /ITAFWebApplication/login.do HTTP/1.1" 200 47732
0:0:0:0:0:0:0:1 - - [09/Dec/2016:19:06:54 +0530] "GET /ITAFWebApplication/css/demo3/try.css HTTP/1.1" 200 4871
0:0:0:0:0:0:0:1 - - [09/Dec/2016:19:06:54 +0530] "GET /ITAFWebApplication/css/demo3/responsiveTables.css HTTP/1.1" 200 182
0:0:0:0:0:0:0:1 - - [09/Dec/2016:19:06:54 +0530] "GET /ITAFWebApplication/js/demo3/RowSorter.js HTTP/1.1" 200 8102
0:0:0:0:0:0:0:1 - - [09/Dec/2016:19:06:54 +0530] "GET /ITAFWebApplication/js/demo3/searchTable.js HTTP/1.1" 200 1022
0:0:0:0:0:0:0:1 - - [09/Dec/2016:19:06:54 +0530] "GET /ITAFWebApplication/js/objectCap.js HTTP/1.1" 200 11106
0:0:0:0:0:0:0:1 - - [09/Dec/2016:19:06:54 +0530] "GET /ITAFWebApplication/js/bootstrap.min.js HTTP/1.1" 200 36868
0:0:0:0:0:0:0:1 - - [09/Dec/2016:19:06:54 +0530] "GET /ITAFWebApplication/js/demo3/bootstrap-filestyle.min.js HTTP/1.1" 200 7190
0:0:0:0:0:0:0:1 - - [09/Dec/2016:19:06:54 +0530] "GET /ITAFWebApplication/js/jquery.min.js HTTP/1.1" 200 84380
0:0:0:0:0:0:0:1 - - [09/Dec/2016:19:06:54 +0530] "GET /ITAFWebApplication/js/demo3/try.js HTTP/1.1" 200 45488
0:0:0:0:0:0:0:1 - - [09/Dec/2016:19:06:54 +0530] "GET /ITAFWebApplication/js/demo3/responsiveTables.js HTTP/1.1" 200 1886
0:0:0:0:0:0:0:1 - - [09/Dec/2016:19:07:03 +0530] "POST /ITAFWebApplication/itafpack.do HTTP/1.1" 200 71525
0:0:0:0:0:0:0:1 - - [09/Dec/2016:19:07:03 +0530] "GET /ITAFWebApplication/files/advancedReport.html?projectname=QBE&actionType=execute HTTP/1.1" 200 23726
0:0:0:0:0:0:0:1 - - [09/Dec/2016:19:07:55 +0530] "POST /ITAFWebApplication/itafpack.do HTTP/1.1" 200 49401
0:0:0:0:0:0:0:1 - - [09/Dec/2016:19:07:55 +0530] "GET /ITAFWebApplication/files/advancedReport.html?projectname=POC_QBE&actionType=execute HTTP/1.1" 200 -
0:0:0:0:0:0:0:1 - - [09/Dec/2016:19:08:30 +0530] "POST /ITAFWebApplication/itafpack.do HTTP/1.1" 200 72708
0:0:0:0:0:0:0:1 - - [09/Dec/2016:19:08:30 +0530] "GET /ITAFWebApplication/files/advancedReport.html?projectname=QBE&actionType=execute HTTP/1.1" 200 23726
0:0:0:0:0:0:0:1 - - [09/Dec/2016:19:08:53 +0530] "POST /ITAFWebApplication/itafpack.do HTTP/1.1" 500 2722
0:0:0:0:0:0:0:1 - - [09/Dec/2016:19:08:53 +0530] "POST /ITAFWebApplication/itafpack.do HTTP/1.1" 200 32812
0:0:0:0:0:0:0:1 - - [09/Dec/2016:19:09:12 +0530] "POST /ITAFWebApplication/itafpack.do HTTP/1.1" 200 72711
0:0:0:0:0:0:0:1 - - [09/Dec/2016:19:09:12 +0530] "GET /ITAFWebApplication/files/advancedReport.html?projectname=QBE&actionType=execute HTTP/1.1" 200 23726
0:0:0:0:0:0:0:1 - - [09/Dec/2016:19:09:13 +0530] "GET /favicon.ico HTTP/1.1" 200 21630
0:0:0:0:0:0:0:1 - - [09/Dec/2016:19:09:20 +0530] "POST /ITAFWebApplication/itafpack.do HTTP/1.1" 200 47753
0:0:0:0:0:0:0:1 - - [09/Dec/2016:19:09:26 +0530] "POST /ITAFWebApplication/itafpack.do HTTP/1.1" 200 71529
0:0:0:0:0:0:0:1 - - [09/Dec/2016:19:09:26 +0530] "GET /ITAFWebApplication/files/advancedReport.html?projectname=QBE&actionType=execute HTTP/1.1" 200 23726
0:0:0:0:0:0:0:1 - - [09/Dec/2016:19:09:28 +0530] "POST /ITAFWebApplication/itafpack.do HTTP/1.1" 200 71691
0:0:0:0:0:0:0:1 - - [09/Dec/2016:19:09:28 +0530] "GET /ITAFWebApplication/files/advancedReport.html?projectname=QBE&actionType=execute HTTP/1.1" 200 23726
0:0:0:0:0:0:0:1 - - [09/Dec/2016:19:09:57 +0530] "POST /ITAFWebApplication/itafpack.do HTTP/1.1" 200 84935
0:0:0:0:0:0:0:1 - - [09/Dec/2016:19:09:58 +0530] "GET /ITAFWebApplication/files/advancedReport.html?projectname=QBE&actionType=execute HTTP/1.1" 200 23726
0:0:0:0:0:0:0:1 - - [09/Dec/2016:19:10:05 +0530] "POST /ITAFWebApplication/Seleniumservice/resources/startStopObjectCapture HTTP/1.1" 500 4666
0:0:0:0:0:0:0:1 - - [09/Dec/2016:19:10:10 +0530] "POST /ITAFWebApplication/Seleniumservice/resources/startStopObjectCapture HTTP/1.1" 200 34
0:0:0:0:0:0:0:1 - - [09/Dec/2016:19:10:10 +0530] "GET /ITAFWebApplication/js/inject.js HTTP/1.1" 200 14541
0:0:0:0:0:0:0:1 - - [09/Dec/2016:19:10:43 +0530] "POST /ITAFWebApplication/Seleniumservice/resources/startStopObjectCapture HTTP/1.1" 200 1293
0:0:0:0:0:0:0:1 - - [09/Dec/2016:19:10:52 +0530] "POST /ITAFWebApplication/itafpack.do HTTP/1.1" 200 71707
0:0:0:0:0:0:0:1 - - [09/Dec/2016:19:10:52 +0530] "GET /ITAFWebApplication/files/advancedReport.html?projectname=QBE&actionType=execute HTTP/1.1" 200 23726
0:0:0:0:0:0:0:1 - - [09/Dec/2016:19:10:55 +0530] "POST /ITAFWebApplication/Seleniumservice/resources/startStopObjectCapture HTTP/1.1" 200 1294
0:0:0:0:0:0:0:1 - - [09/Dec/2016:19:10:59 +0530] "POST /ITAFWebApplication/Seleniumservice/resources/startStopObjectCapture HTTP/1.1" 200 1294
0:0:0:0:0:0:0:1 - - [09/Dec/2016:19:11:03 +0530] "POST /ITAFWebApplication/Seleniumservice/resources/startStopObjectCapture HTTP/1.1" 200 1294
0:0:0:0:0:0:0:1 - - [09/Dec/2016:19:11:06 +0530] "POST /ITAFWebApplication/itafpack.do HTTP/1.1" 200 84943
0:0:0:0:0:0:0:1 - - [09/Dec/2016:19:11:06 +0530] "GET /ITAFWebApplication/files/advancedReport.html?projectname=QBE&actionType=execute HTTP/1.1" 200 23726
0:0:0:0:0:0:0:1 - - [09/Dec/2016:19:11:07 +0530] "POST /ITAFWebApplication/Seleniumservice/resources/startStopObjectCapture HTTP/1.1" 200 1294
0:0:0:0:0:0:0:1 - - [09/Dec/2016:19:11:11 +0530] "POST /ITAFWebApplication/Seleniumservice/resources/startStopObjectCapture HTTP/1.1" 200 1294
0:0:0:0:0:0:0:1 - - [09/Dec/2016:19:11:20 +0530] "POST /ITAFWebApplication/Seleniumservice/resources/startStopObjectCapture HTTP/1.1" 200 34
0:0:0:0:0:0:0:1 - - [09/Dec/2016:19:11:20 +0530] "GET /ITAFWebApplication/js/inject.js HTTP/1.1" 200 14541
0:0:0:0:0:0:0:1 - - [09/Dec/2016:19:11:33 +0530] "POST /ITAFWebApplication/Seleniumservice/resources/startStopObjectCapture HTTP/1.1" 200 1070
0:0:0:0:0:0:0:1 - - [09/Dec/2016:19:12:02 +0530] "POST /ITAFWebApplication/itafpack.do HTTP/1.1" 200 71708
0:0:0:0:0:0:0:1 - - [09/Dec/2016:19:12:03 +0530] "GET /ITAFWebApplication/files/advancedReport.html?projectname=QBE&actionType=execute HTTP/1.1" 200 23726
0:0:0:0:0:0:0:1 - - [09/Dec/2016:19:12:28 +0530] "POST /ITAFWebApplication/itafpack.do HTTP/1.1" 200 73899
0:0:0:0:0:0:0:1 - - [09/Dec/2016:19:12:28 +0530] "GET /ITAFWebApplication/files/advancedReport.html?projectname=QBE&actionType=execute HTTP/1.1" 200 23726
0:0:0:0:0:0:0:1 - - [09/Dec/2016:19:12:31 +0530] "POST /ITAFWebApplication/itafpack.do HTTP/1.1" 200 74711
0:0:0:0:0:0:0:1 - - [09/Dec/2016:19:12:31 +0530] "GET /ITAFWebApplication/files/advancedReport.html?projectname=QBE&actionType=execute HTTP/1.1" 200 23726
0:0:0:0:0:0:0:1 - - [09/Dec/2016:19:12:37 +0530] "POST /ITAFWebApplication/itafpack.do HTTP/1.1" 200 74873
0:0:0:0:0:0:0:1 - - [09/Dec/2016:19:12:37 +0530] "GET /ITAFWebApplication/files/advancedReport.html?projectname=QBE&actionType=execute HTTP/1.1" 200 23726
0:0:0:0:0:0:0:1 - - [09/Dec/2016:19:12:43 +0530] "POST /ITAFWebApplication/itafpack.do HTTP/1.1" 200 93341
0:0:0:0:0:0:0:1 - - [09/Dec/2016:19:12:43 +0530] "GET /ITAFWebApplication/files/advancedReport.html?projectname=QBE&actionType=execute HTTP/1.1" 200 23726
0:0:0:0:0:0:0:1 - - [09/Dec/2016:19:12:48 +0530] "POST /ITAFWebApplication/itafpack.do HTTP/1.1" 200 93525
0:0:0:0:0:0:0:1 - - [09/Dec/2016:19:12:48 +0530] "GET /ITAFWebApplication/files/advancedReport.html?projectname=QBE&actionType=execute HTTP/1.1" 200 23726
0:0:0:0:0:0:0:1 - - [09/Dec/2016:19:14:00 +0530] "POST /ITAFWebApplication/itafpack.do HTTP/1.1" 200 71533
0:0:0:0:0:0:0:1 - - [09/Dec/2016:19:14:00 +0530] "GET /ITAFWebApplication/files/advancedReport.html?projectname=QBE&actionType=execute HTTP/1.1" 200 23726
0:0:0:0:0:0:0:1 - - [09/Dec/2016:19:14:48 +0530] "POST /ITAFWebApplication/itafpack.do HTTP/1.1" 200 1080708
0:0:0:0:0:0:0:1 - - [09/Dec/2016:19:14:48 +0530] "GET /ITAFWebApplication/files/advancedReport.html?projectname=QBE&actionType=execute HTTP/1.1" 200 23726
0:0:0:0:0:0:0:1 - - [09/Dec/2016:19:15:31 +0530] "POST /ITAFWebApplication/itafpack.do HTTP/1.1" 200 93368
0:0:0:0:0:0:0:1 - - [09/Dec/2016:19:15:31 +0530] "GET /ITAFWebApplication/files/advancedReport.html?projectname=QBE&actionType=execute HTTP/1.1" 200 23726
0:0:0:0:0:0:0:1 - - [09/Dec/2016:19:15:49 +0530] "POST /ITAFWebApplication/itafpack.do HTTP/1.1" 200 93525
0:0:0:0:0:0:0:1 - - [09/Dec/2016:19:15:49 +0530] "GET /ITAFWebApplication/files/advancedReport.html?projectname=QBE&actionType=execute HTTP/1.1" 200 23726
0:0:0:0:0:0:0:1 - - [09/Dec/2016:19:15:52 +0530] "POST /ITAFWebApplication/itafexecute.do HTTP/1.1" 200 19286
0:0:0:0:0:0:0:1 - - [09/Dec/2016:19:15:52 +0530] "GET /ITAFWebApplication/js/demo3/executetry.js HTTP/1.1" 200 1945
0:0:0:0:0:0:0:1 - - [09/Dec/2016:19:15:52 +0530] "GET /ITAFWebApplication/js/loader.js HTTP/1.1" 200 70294
0:0:0:0:0:0:0:1 - - [09/Dec/2016:19:15:52 +0530] "GET /ITAFWebApplication/js/demo3/bootstrap-progressbar.js HTTP/1.1" 200 6284
0:0:0:0:0:0:0:1 - - [09/Dec/2016:19:15:56 +0530] "POST /ITAFWebApplication/itafexecute.do HTTP/1.1" 200 47732
0:0:0:0:0:0:0:1 - - [09/Dec/2016:19:16:10 +0530] "POST /ITAFWebApplication/logout.do HTTP/1.1" 302 -
0:0:0:0:0:0:0:1 - - [09/Dec/2016:19:16:10 +0530] "GET /ITAFWebApplication/login.jsp HTTP/1.1" 200 27677
0:0:0:0:0:0:0:1 - - [09/Dec/2016:19:16:58 +0530] "POST /ITAFWebApplication/login.do HTTP/1.1" 200 47732
0:0:0:0:0:0:0:1 - - [09/Dec/2016:19:17:08 +0530] "POST /ITAFWebApplication/itafpack.do HTTP/1.1" 200 71533
0:0:0:0:0:0:0:1 - - [09/Dec/2016:19:17:08 +0530] "GET /ITAFWebApplication/files/advancedReport.html?projectname=QBE&actionType=execute HTTP/1.1" 200 23726
0:0:0:0:0:0:0:1 - - [09/Dec/2016:19:17:44 +0530] "POST /ITAFWebApplication/logout.do HTTP/1.1" 302 -
0:0:0:0:0:0:0:1 - - [09/Dec/2016:19:17:44 +0530] "GET /ITAFWebApplication/login.jsp HTTP/1.1" 200 27677
0:0:0:0:0:0:0:1 - - [09/Dec/2016:19:18:01 +0530] "GET /ITAFWebApplication/login.jsp HTTP/1.1" 200 27677
0:0:0:0:0:0:0:1 - - [09/Dec/2016:19:18:01 +0530] "GET /ITAFWebApplication/css/login.css HTTP/1.1" 200 1077
0:0:0:0:0:0:0:1 - - [09/Dec/2016:19:18:01 +0530] "GET /ITAFWebApplication/css/bootstrap.min.css HTTP/1.1" 200 121260
0:0:0:0:0:0:0:1 - - [09/Dec/2016:19:18:01 +0530] "GET /ITAFWebApplication/Images/iTAF_logo.png HTTP/1.1" 200 33472
0:0:0:0:0:0:0:1 - - [09/Dec/2016:19:18:01 +0530] "GET /ITAFWebApplication/js/login.js HTTP/1.1" 200 6947
0:0:0:0:0:0:0:1 - - [09/Dec/2016:19:18:01 +0530] "GET /ITAFWebApplication/fonts/glyphicons-halflings-regular.woff2 HTTP/1.1" 200 18028
0:0:0:0:0:0:0:1 - - [09/Dec/2016:19:18:07 +0530] "POST /ITAFWebApplication/login.do HTTP/1.1" 200 47732
0:0:0:0:0:0:0:1 - - [09/Dec/2016:19:18:07 +0530] "GET /ITAFWebApplication/css/demo3/try.css HTTP/1.1" 200 4871
0:0:0:0:0:0:0:1 - - [09/Dec/2016:19:18:07 +0530] "GET /ITAFWebApplication/css/demo3/responsiveTables.css HTTP/1.1" 200 182
0:0:0:0:0:0:0:1 - - [09/Dec/2016:19:18:07 +0530] "GET /ITAFWebApplication/js/jquery.min.js HTTP/1.1" 200 84380
0:0:0:0:0:0:0:1 - - [09/Dec/2016:19:18:07 +0530] "GET /ITAFWebApplication/js/demo3/responsiveTables.js HTTP/1.1" 200 1886
0:0:0:0:0:0:0:1 - - [09/Dec/2016:19:18:07 +0530] "GET /ITAFWebApplication/js/demo3/searchTable.js HTTP/1.1" 200 1022
0:0:0:0:0:0:0:1 - - [09/Dec/2016:19:18:07 +0530] "GET /ITAFWebApplication/js/demo3/bootstrap-filestyle.min.js HTTP/1.1" 200 7190
0:0:0:0:0:0:0:1 - - [09/Dec/2016:19:18:07 +0530] "GET /ITAFWebApplication/js/objectCap.js HTTP/1.1" 200 11106
0:0:0:0:0:0:0:1 - - [09/Dec/2016:19:18:07 +0530] "GET /ITAFWebApplication/js/demo3/try.js HTTP/1.1" 200 45488
0:0:0:0:0:0:0:1 - - [09/Dec/2016:19:18:07 +0530] "GET /ITAFWebApplication/js/demo3/RowSorter.js HTTP/1.1" 200 8102
0:0:0:0:0:0:0:1 - - [09/Dec/2016:19:18:07 +0530] "GET /ITAFWebApplication/js/bootstrap.min.js HTTP/1.1" 200 36868
0:0:0:0:0:0:0:1 - - [09/Dec/2016:19:18:35 +0530] "POST /ITAFWebApplication/logout.do HTTP/1.1" 302 -
0:0:0:0:0:0:0:1 - - [09/Dec/2016:19:18:35 +0530] "GET /ITAFWebApplication/login.jsp HTTP/1.1" 200 27677
0:0:0:0:0:0:0:1 - - [09/Dec/2016:19:19:16 +0530] "POST /ITAFWebApplication/login.do HTTP/1.1" 200 47732
0:0:0:0:0:0:0:1 - - [09/Dec/2016:19:19:24 +0530] "POST /ITAFWebApplication/itafpack.do HTTP/1.1" 200 71533
0:0:0:0:0:0:0:1 - - [09/Dec/2016:19:19:24 +0530] "GET /ITAFWebApplication/files/advancedReport.html?projectname=QBE&actionType=execute HTTP/1.1" 200 23726
0:0:0:0:0:0:0:1 - - [09/Dec/2016:19:20:26 +0530] "POST /ITAFWebApplication/itafpack.do HTTP/1.1" 200 49401
0:0:0:0:0:0:0:1 - - [09/Dec/2016:19:20:26 +0530] "GET /ITAFWebApplication/files/advancedReport.html?projectname=QBE_POC&actionType=execute HTTP/1.1" 200 -
0:0:0:0:0:0:0:1 - - [09/Dec/2016:19:20:36 +0530] "POST /ITAFWebApplication/itafpack.do HTTP/1.1" 200 49257
0:0:0:0:0:0:0:1 - - [09/Dec/2016:19:20:36 +0530] "GET /ITAFWebApplication/files/advancedReport.html?projectname=QBE_POC&actionType=execute HTTP/1.1" 200 -
0:0:0:0:0:0:0:1 - - [09/Dec/2016:19:21:33 +0530] "POST /ITAFWebApplication/itafpack.do HTTP/1.1" 200 49257
0:0:0:0:0:0:0:1 - - [09/Dec/2016:19:21:33 +0530] "GET /ITAFWebApplication/files/advancedReport.html?projectname=QBE_POC&actionType=execute HTTP/1.1" 200 -
0:0:0:0:0:0:0:1 - - [09/Dec/2016:19:22:31 +0530] "POST /ITAFWebApplication/itafpack.do HTTP/1.1" 200 49677
0:0:0:0:0:0:0:1 - - [09/Dec/2016:19:22:31 +0530] "GET /ITAFWebApplication/files/advancedReport.html?projectname=QBE_POC&actionType=execute HTTP/1.1" 200 -
0:0:0:0:0:0:0:1 - - [09/Dec/2016:19:22:49 +0530] "POST /ITAFWebApplication/itafpack.do HTTP/1.1" 200 66747
0:0:0:0:0:0:0:1 - - [09/Dec/2016:19:22:49 +0530] "GET /ITAFWebApplication/files/advancedReport.html?projectname=QBE_POC&actionType=execute HTTP/1.1" 200 -
0:0:0:0:0:0:0:1 - - [09/Dec/2016:19:23:11 +0530] "POST /ITAFWebApplication/Seleniumservice/resources/startStopObjectCapture HTTP/1.1" 200 34
0:0:0:0:0:0:0:1 - - [09/Dec/2016:19:23:15 +0530] "GET /ITAFWebApplication/js/inject.js HTTP/1.1" 200 14541
0:0:0:0:0:0:0:1 - - [09/Dec/2016:19:23:26 +0530] "POST /ITAFWebApplication/Seleniumservice/resources/startStopObjectCapture HTTP/1.1" 200 1060
0:0:0:0:0:0:0:1 - - [09/Dec/2016:19:23:32 +0530] "POST /ITAFWebApplication/Seleniumservice/resources/updateCSV HTTP/1.1" 204 -
0:0:0:0:0:0:0:1 - - [09/Dec/2016:19:23:40 +0530] "POST /ITAFWebApplication/Seleniumservice/resources/updateCSV HTTP/1.1" 204 -
0:0:0:0:0:0:0:1 - - [09/Dec/2016:19:23:54 +0530] "POST /ITAFWebApplication/itafpack.do HTTP/1.1" 200 54481
0:0:0:0:0:0:0:1 - - [09/Dec/2016:19:23:54 +0530] "GET /ITAFWebApplication/files/advancedReport.html?projectname=QBE_POC&actionType=execute HTTP/1.1" 200 -
0:0:0:0:0:0:0:1 - - [09/Dec/2016:19:24:02 +0530] "POST /ITAFWebApplication/itafpack.do HTTP/1.1" 200 48915
0:0:0:0:0:0:0:1 - - [09/Dec/2016:19:24:19 +0530] "POST /ITAFWebApplication/itafpack.do HTTP/1.1" 200 54454
0:0:0:0:0:0:0:1 - - [09/Dec/2016:19:24:19 +0530] "GET /ITAFWebApplication/files/advancedReport.html?projectname=QBE_POC&actionType=execute HTTP/1.1" 200 -
0:0:0:0:0:0:0:1 - - [09/Dec/2016:19:24:24 +0530] "POST /ITAFWebApplication/itafpack.do HTTP/1.1" 200 54481
0:0:0:0:0:0:0:1 - - [09/Dec/2016:19:24:24 +0530] "GET /ITAFWebApplication/files/advancedReport.html?projectname=QBE_POC&actionType=execute HTTP/1.1" 200 -
0:0:0:0:0:0:0:1 - - [09/Dec/2016:19:24:27 +0530] "POST /ITAFWebApplication/itafpack.do HTTP/1.1" 200 48915
0:0:0:0:0:0:0:1 - - [09/Dec/2016:19:24:35 +0530] "POST /ITAFWebApplication/itafpack.do HTTP/1.1" 200 54454
0:0:0:0:0:0:0:1 - - [09/Dec/2016:19:24:35 +0530] "GET /ITAFWebApplication/files/advancedReport.html?projectname=QBE_POC&actionType=execute HTTP/1.1" 200 -
0:0:0:0:0:0:0:1 - - [09/Dec/2016:19:24:47 +0530] "POST /ITAFWebApplication/Seleniumservice/resources/startStopObjectCapture HTTP/1.1" 200 34
0:0:0:0:0:0:0:1 - - [09/Dec/2016:19:24:50 +0530] "GET /ITAFWebApplication/js/inject.js HTTP/1.1" 200 14541
0:0:0:0:0:0:0:1 - - [09/Dec/2016:19:25:02 +0530] "POST /ITAFWebApplication/Seleniumservice/resources/startStopObjectCapture HTTP/1.1" 200 1060
0:0:0:0:0:0:0:1 - - [09/Dec/2016:19:25:26 +0530] "POST /ITAFWebApplication/itafpack.do HTTP/1.1" 200 54481
0:0:0:0:0:0:0:1 - - [09/Dec/2016:19:25:26 +0530] "GET /ITAFWebApplication/files/advancedReport.html?projectname=QBE_POC&actionType=execute HTTP/1.1" 200 -
0:0:0:0:0:0:0:1 - - [09/Dec/2016:19:25:44 +0530] "POST /ITAFWebApplication/Seleniumservice/resources/startStopObjectCapture HTTP/1.1" 200 34
0:0:0:0:0:0:0:1 - - [09/Dec/2016:19:25:45 +0530] "GET /ITAFWebApplication/js/inject.js HTTP/1.1" 200 14541
0:0:0:0:0:0:0:1 - - [09/Dec/2016:19:25:53 +0530] "POST /ITAFWebApplication/Seleniumservice/resources/startStopObjectCapture HTTP/1.1" 200 1060
0:0:0:0:0:0:0:1 - - [09/Dec/2016:19:27:59 +0530] "POST /ITAFWebApplication/Seleniumservice/resources/startStopObjectCapture HTTP/1.1" 200 347
0:0:0:0:0:0:0:1 - - [09/Dec/2016:19:28:00 +0530] "POST /ITAFWebApplication/Seleniumservice/resources/startStopObjectCapture HTTP/1.1" 200 347
0:0:0:0:0:0:0:1 - - [09/Dec/2016:19:28:02 +0530] "POST /ITAFWebApplication/Seleniumservice/resources/updateCSV HTTP/1.1" 500 4653
0:0:0:0:0:0:0:1 - - [09/Dec/2016:19:28:06 +0530] "POST /ITAFWebApplication/Seleniumservice/resources/updateCSV HTTP/1.1" 204 -
0:0:0:0:0:0:0:1 - - [09/Dec/2016:19:28:09 +0530] "POST /ITAFWebApplication/itafpack.do HTTP/1.1" 200 54481
0:0:0:0:0:0:0:1 - - [09/Dec/2016:19:28:09 +0530] "GET /ITAFWebApplication/files/advancedReport.html?projectname=QBE_POC&actionType=execute HTTP/1.1" 200 -
0:0:0:0:0:0:0:1 - - [09/Dec/2016:19:28:16 +0530] "POST /ITAFWebApplication/itafpack.do HTTP/1.1" 200 54481
0:0:0:0:0:0:0:1 - - [09/Dec/2016:19:28:16 +0530] "GET /ITAFWebApplication/files/advancedReport.html?projectname=QBE_POC&actionType=execute HTTP/1.1" 200 -
0:0:0:0:0:0:0:1 - - [09/Dec/2016:19:28:34 +0530] "POST /ITAFWebApplication/Seleniumservice/resources/startStopObjectCapture HTTP/1.1" 200 34
0:0:0:0:0:0:0:1 - - [09/Dec/2016:19:28:35 +0530] "GET /ITAFWebApplication/js/inject.js HTTP/1.1" 200 14541
0:0:0:0:0:0:0:1 - - [09/Dec/2016:19:28:48 +0530] "POST /ITAFWebApplication/Seleniumservice/resources/startStopObjectCapture HTTP/1.1" 200 1060
0:0:0:0:0:0:0:1 - - [09/Dec/2016:19:28:57 +0530] "POST /ITAFWebApplication/Seleniumservice/resources/updateCSV HTTP/1.1" 204 -
0:0:0:0:0:0:0:1 - - [09/Dec/2016:19:29:04 +0530] "POST /ITAFWebApplication/itafpack.do HTTP/1.1" 200 75478
0:0:0:0:0:0:0:1 - - [09/Dec/2016:19:29:04 +0530] "GET /ITAFWebApplication/files/advancedReport.html?projectname=QBE_POC&actionType=execute HTTP/1.1" 200 -
0:0:0:0:0:0:0:1 - - [09/Dec/2016:19:29:24 +0530] "POST /ITAFWebApplication/Seleniumservice/resources/startStopObjectCapture HTTP/1.1" 200 34
0:0:0:0:0:0:0:1 - - [09/Dec/2016:19:29:25 +0530] "GET /ITAFWebApplication/js/inject.js HTTP/1.1" 200 14541
0:0:0:0:0:0:0:1 - - [09/Dec/2016:19:29:38 +0530] "POST /ITAFWebApplication/Seleniumservice/resources/startStopObjectCapture HTTP/1.1" 200 1060
0:0:0:0:0:0:0:1 - - [09/Dec/2016:19:29:45 +0530] "POST /ITAFWebApplication/Seleniumservice/resources/updateCSV HTTP/1.1" 204 -
0:0:0:0:0:0:0:1 - - [09/Dec/2016:19:29:52 +0530] "POST /ITAFWebApplication/itafpack.do HTTP/1.1" 200 75478
0:0:0:0:0:0:0:1 - - [09/Dec/2016:19:29:52 +0530] "GET /ITAFWebApplication/files/advancedReport.html?projectname=QBE_POC&actionType=execute HTTP/1.1" 200 -
0:0:0:0:0:0:0:1 - - [09/Dec/2016:19:30:19 +0530] "POST /ITAFWebApplication/itafpack.do HTTP/1.1" 200 47753
0:0:0:0:0:0:0:1 - - [09/Dec/2016:19:30:39 +0530] "POST /ITAFWebApplication/logout.do HTTP/1.1" 302 -
0:0:0:0:0:0:0:1 - - [09/Dec/2016:19:30:39 +0530] "GET /ITAFWebApplication/login.jsp HTTP/1.1" 200 27677
0:0:0:0:0:0:0:1 - - [09/Dec/2016:19:35:03 +0530] "POST /ITAFWebApplication/login.do HTTP/1.1" 200 47732
0:0:0:0:0:0:0:1 - - [09/Dec/2016:19:38:37 +0530] "GET /ITAFWebApplication/login.jsp HTTP/1.1" 200 27677
0:0:0:0:0:0:0:1 - - [09/Dec/2016:19:38:37 +0530] "GET /ITAFWebApplication/css/bootstrap.min.css HTTP/1.1" 200 121260
0:0:0:0:0:0:0:1 - - [09/Dec/2016:19:38:37 +0530] "GET /ITAFWebApplication/css/login.css HTTP/1.1" 200 1077
0:0:0:0:0:0:0:1 - - [09/Dec/2016:19:38:37 +0530] "GET /ITAFWebApplication/Images/iTAF_logo.png HTTP/1.1" 200 33472
0:0:0:0:0:0:0:1 - - [09/Dec/2016:19:38:37 +0530] "GET /ITAFWebApplication/js/login.js HTTP/1.1" 200 6947
0:0:0:0:0:0:0:1 - - [09/Dec/2016:19:38:37 +0530] "GET /ITAFWebApplication/fonts/glyphicons-halflings-regular.woff2 HTTP/1.1" 200 18028
0:0:0:0:0:0:0:1 - - [09/Dec/2016:19:38:44 +0530] "GET /ITAFWebApplication/css/demo3/try.css HTTP/1.1" 200 4871
0:0:0:0:0:0:0:1 - - [09/Dec/2016:19:38:44 +0530] "POST /ITAFWebApplication/login.do HTTP/1.1" 200 47732
0:0:0:0:0:0:0:1 - - [09/Dec/2016:19:38:44 +0530] "GET /ITAFWebApplication/css/demo3/responsiveTables.css HTTP/1.1" 200 182
0:0:0:0:0:0:0:1 - - [09/Dec/2016:19:38:44 +0530] "GET /ITAFWebApplication/js/jquery.min.js HTTP/1.1" 200 84380
0:0:0:0:0:0:0:1 - - [09/Dec/2016:19:38:44 +0530] "GET /ITAFWebApplication/js/demo3/try.js HTTP/1.1" 200 45488
0:0:0:0:0:0:0:1 - - [09/Dec/2016:19:38:44 +0530] "GET /ITAFWebApplication/js/demo3/RowSorter.js HTTP/1.1" 200 8102
0:0:0:0:0:0:0:1 - - [09/Dec/2016:19:38:44 +0530] "GET /ITAFWebApplication/js/demo3/responsiveTables.js HTTP/1.1" 200 1886
0:0:0:0:0:0:0:1 - - [09/Dec/2016:19:38:44 +0530] "GET /ITAFWebApplication/js/demo3/searchTable.js HTTP/1.1" 200 1022
0:0:0:0:0:0:0:1 - - [09/Dec/2016:19:38:44 +0530] "GET /ITAFWebApplication/js/demo3/bootstrap-filestyle.min.js HTTP/1.1" 200 7190
0:0:0:0:0:0:0:1 - - [09/Dec/2016:19:38:44 +0530] "GET /ITAFWebApplication/js/bootstrap.min.js HTTP/1.1" 200 36868
0:0:0:0:0:0:0:1 - - [09/Dec/2016:19:38:44 +0530] "GET /ITAFWebApplication/js/objectCap.js HTTP/1.1" 200 11106
0:0:0:0:0:0:0:1 - - [09/Dec/2016:19:38:57 +0530] "GET /favicon.ico HTTP/1.1" 200 21630
0:0:0:0:0:0:0:1 - - [09/Dec/2016:19:38:51 +0530] "POST /ITAFWebApplication/itafpack.do HTTP/1.1" 500 2628
0:0:0:0:0:0:0:1 - - [09/Dec/2016:19:38:56 +0530] "POST /ITAFWebApplication/login.do HTTP/1.1" 200 47732
0:0:0:0:0:0:0:1 - - [09/Dec/2016:19:39:01 +0530] "POST /ITAFWebApplication/itafpack.do HTTP/1.1" 500 2415
0:0:0:0:0:0:0:1 - - [09/Dec/2016:19:40:53 +0530] "GET /ITAFWebApplication/login.jsp HTTP/1.1" 200 27677
0:0:0:0:0:0:0:1 - - [09/Dec/2016:19:40:53 +0530] "GET /ITAFWebApplication/css/login.css HTTP/1.1" 200 1077
0:0:0:0:0:0:0:1 - - [09/Dec/2016:19:40:53 +0530] "GET /ITAFWebApplication/css/bootstrap.min.css HTTP/1.1" 200 121260
0:0:0:0:0:0:0:1 - - [09/Dec/2016:19:40:53 +0530] "GET /ITAFWebApplication/Images/iTAF_logo.png HTTP/1.1" 200 33472
0:0:0:0:0:0:0:1 - - [09/Dec/2016:19:40:53 +0530] "GET /ITAFWebApplication/js/login.js HTTP/1.1" 200 6947
0:0:0:0:0:0:0:1 - - [09/Dec/2016:19:40:53 +0530] "GET /ITAFWebApplication/fonts/glyphicons-halflings-regular.woff2 HTTP/1.1" 200 18028
0:0:0:0:0:0:0:1 - - [09/Dec/2016:19:41:01 +0530] "POST /ITAFWebApplication/login.do HTTP/1.1" 200 47732
0:0:0:0:0:0:0:1 - - [09/Dec/2016:19:41:01 +0530] "GET /ITAFWebApplication/css/demo3/try.css HTTP/1.1" 200 4871
0:0:0:0:0:0:0:1 - - [09/Dec/2016:19:41:01 +0530] "GET /ITAFWebApplication/css/demo3/responsiveTables.css HTTP/1.1" 200 182
0:0:0:0:0:0:0:1 - - [09/Dec/2016:19:41:01 +0530] "GET /ITAFWebApplication/js/jquery.min.js HTTP/1.1" 200 84380
0:0:0:0:0:0:0:1 - - [09/Dec/2016:19:41:01 +0530] "GET /ITAFWebApplication/js/demo3/try.js HTTP/1.1" 200 45488
0:0:0:0:0:0:0:1 - - [09/Dec/2016:19:41:01 +0530] "GET /ITAFWebApplication/js/demo3/responsiveTables.js HTTP/1.1" 200 1886
0:0:0:0:0:0:0:1 - - [09/Dec/2016:19:41:01 +0530] "GET /ITAFWebApplication/js/demo3/searchTable.js HTTP/1.1" 200 1022
0:0:0:0:0:0:0:1 - - [09/Dec/2016:19:41:01 +0530] "GET /ITAFWebApplication/js/bootstrap.min.js HTTP/1.1" 200 36868
0:0:0:0:0:0:0:1 - - [09/Dec/2016:19:41:01 +0530] "GET /ITAFWebApplication/js/demo3/RowSorter.js HTTP/1.1" 200 8102
0:0:0:0:0:0:0:1 - - [09/Dec/2016:19:41:01 +0530] "GET /ITAFWebApplication/js/demo3/bootstrap-filestyle.min.js HTTP/1.1" 200 7190
0:0:0:0:0:0:0:1 - - [09/Dec/2016:19:41:01 +0530] "GET /ITAFWebApplication/js/objectCap.js HTTP/1.1" 200 11106
0:0:0:0:0:0:0:1 - - [09/Dec/2016:19:41:06 +0530] "POST /ITAFWebApplication/itafpack.do HTTP/1.1" 200 71533
0:0:0:0:0:0:0:1 - - [09/Dec/2016:19:41:06 +0530] "GET /ITAFWebApplication/files/advancedReport.html?projectname=QBE&actionType=execute HTTP/1.1" 200 23726
0:0:0:0:0:0:0:1 - - [09/Dec/2016:19:41:42 +0530] "POST /ITAFWebApplication/itafpack.do HTTP/1.1" 200 49432
0:0:0:0:0:0:0:1 - - [09/Dec/2016:19:41:42 +0530] "GET /ITAFWebApplication/files/advancedReport.html?projectname=Demo_QBE&actionType=execute HTTP/1.1" 200 -
0:0:0:0:0:0:0:1 - - [09/Dec/2016:19:41:55 +0530] "POST /ITAFWebApplication/itafpack.do HTTP/1.1" 200 32812
0:0:0:0:0:0:0:1 - - [09/Dec/2016:19:41:55 +0530] "POST /ITAFWebApplication/itafpack.do HTTP/1.1" 200 49289
0:0:0:0:0:0:0:1 - - [09/Dec/2016:19:41:55 +0530] "GET /ITAFWebApplication/files/advancedReport.html?projectname=Demo_QBE&actionType=execute HTTP/1.1" 200 -
0:0:0:0:0:0:0:1 - - [09/Dec/2016:19:43:05 +0530] "POST /ITAFWebApplication/itafpack.do HTTP/1.1" 200 49708
0:0:0:0:0:0:0:1 - - [09/Dec/2016:19:43:05 +0530] "GET /ITAFWebApplication/files/advancedReport.html?projectname=Demo_QBE&actionType=execute HTTP/1.1" 200 -
0:0:0:0:0:0:0:1 - - [09/Dec/2016:19:43:24 +0530] "POST /ITAFWebApplication/itafpack.do HTTP/1.1" 200 66765
0:0:0:0:0:0:0:1 - - [09/Dec/2016:19:43:24 +0530] "GET /ITAFWebApplication/files/advancedReport.html?projectname=Demo_QBE&actionType=execute HTTP/1.1" 200 -
0:0:0:0:0:0:0:1 - - [09/Dec/2016:19:43:57 +0530] "POST /ITAFWebApplication/Seleniumservice/resources/startStopObjectCapture HTTP/1.1" 200 34
0:0:0:0:0:0:0:1 - - [09/Dec/2016:19:44:00 +0530] "GET /ITAFWebApplication/js/inject.js HTTP/1.1" 200 14541
0:0:0:0:0:0:0:1 - - [09/Dec/2016:19:44:16 +0530] "POST /ITAFWebApplication/Seleniumservice/resources/startStopObjectCapture HTTP/1.1" 200 109
0:0:0:0:0:0:0:1 - - [09/Dec/2016:19:45:01 +0530] "POST /ITAFWebApplication/Seleniumservice/resources/startStopObjectCapture HTTP/1.1" 200 1293
0:0:0:0:0:0:0:1 - - [09/Dec/2016:19:45:32 +0530] "POST /ITAFWebApplication/logout.do HTTP/1.1" 302 -
0:0:0:0:0:0:0:1 - - [09/Dec/2016:19:45:32 +0530] "GET /ITAFWebApplication/login.jsp HTTP/1.1" 200 27677
0:0:0:0:0:0:0:1 - - [09/Dec/2016:19:49:23 +0530] "GET /ITAFWebApplication/login.jsp HTTP/1.1" 200 27677
0:0:0:0:0:0:0:1 - - [09/Dec/2016:19:49:23 +0530] "GET /ITAFWebApplication/css/login.css HTTP/1.1" 200 1077
0:0:0:0:0:0:0:1 - - [09/Dec/2016:19:49:23 +0530] "GET /ITAFWebApplication/css/bootstrap.min.css HTTP/1.1" 200 121260
0:0:0:0:0:0:0:1 - - [09/Dec/2016:19:49:23 +0530] "GET /ITAFWebApplication/js/login.js HTTP/1.1" 200 6947
0:0:0:0:0:0:0:1 - - [09/Dec/2016:19:49:23 +0530] "GET /ITAFWebApplication/Images/iTAF_logo.png HTTP/1.1" 200 33472
0:0:0:0:0:0:0:1 - - [09/Dec/2016:19:49:23 +0530] "GET /ITAFWebApplication/fonts/glyphicons-halflings-regular.woff2 HTTP/1.1" 200 18028
0:0:0:0:0:0:0:1 - - [09/Dec/2016:19:49:30 +0530] "POST /ITAFWebApplication/login.do HTTP/1.1" 200 48916
0:0:0:0:0:0:0:1 - - [09/Dec/2016:19:49:30 +0530] "GET /ITAFWebApplication/css/demo3/try.css HTTP/1.1" 200 4871
0:0:0:0:0:0:0:1 - - [09/Dec/2016:19:49:30 +0530] "GET /ITAFWebApplication/js/jquery.min.js HTTP/1.1" 200 84380
0:0:0:0:0:0:0:1 - - [09/Dec/2016:19:49:30 +0530] "GET /ITAFWebApplication/css/demo3/responsiveTables.css HTTP/1.1" 200 182
0:0:0:0:0:0:0:1 - - [09/Dec/2016:19:49:30 +0530] "GET /ITAFWebApplication/js/demo3/RowSorter.js HTTP/1.1" 200 8102
0:0:0:0:0:0:0:1 - - [09/Dec/2016:19:49:30 +0530] "GET /ITAFWebApplication/js/demo3/try.js HTTP/1.1" 200 45488
0:0:0:0:0:0:0:1 - - [09/Dec/2016:19:49:30 +0530] "GET /ITAFWebApplication/js/demo3/searchTable.js HTTP/1.1" 200 1022
0:0:0:0:0:0:0:1 - - [09/Dec/2016:19:49:30 +0530] "GET /ITAFWebApplication/js/objectCap.js HTTP/1.1" 200 11106
0:0:0:0:0:0:0:1 - - [09/Dec/2016:19:49:30 +0530] "GET /ITAFWebApplication/js/bootstrap.min.js HTTP/1.1" 200 36868
0:0:0:0:0:0:0:1 - - [09/Dec/2016:19:49:30 +0530] "GET /ITAFWebApplication/js/demo3/bootstrap-filestyle.min.js HTTP/1.1" 200 7190
0:0:0:0:0:0:0:1 - - [09/Dec/2016:19:49:30 +0530] "GET /ITAFWebApplication/js/demo3/responsiveTables.js HTTP/1.1" 200 1886
0:0:0:0:0:0:0:1 - - [09/Dec/2016:19:49:37 +0530] "POST /ITAFWebApplication/itafpack.do HTTP/1.1" 200 47754
0:0:0:0:0:0:0:1 - - [09/Dec/2016:19:49:42 +0530] "POST /ITAFWebApplication/itafpack.do HTTP/1.1" 200 71533
0:0:0:0:0:0:0:1 - - [09/Dec/2016:19:49:42 +0530] "GET /ITAFWebApplication/files/advancedReport.html?projectname=QBE&actionType=execute HTTP/1.1" 200 23726
0:0:0:0:0:0:0:1 - - [09/Dec/2016:19:49:51 +0530] "POST /ITAFWebApplication/logout.do HTTP/1.1" 302 -
0:0:0:0:0:0:0:1 - - [09/Dec/2016:19:49:51 +0530] "GET /ITAFWebApplication/login.jsp HTTP/1.1" 200 27677
0:0:0:0:0:0:0:1 - - [09/Dec/2016:19:52:57 +0530] "POST /ITAFWebApplication/login.do HTTP/1.1" 200 47732
0:0:0:0:0:0:0:1 - - [09/Dec/2016:19:53:04 +0530] "POST /ITAFWebApplication/itafpack.do HTTP/1.1" 200 71533
0:0:0:0:0:0:0:1 - - [09/Dec/2016:19:53:04 +0530] "GET /ITAFWebApplication/files/advancedReport.html?projectname=QBE&actionType=execute HTTP/1.1" 200 23726
0:0:0:0:0:0:0:1 - - [09/Dec/2016:19:54:05 +0530] "POST /ITAFWebApplication/itafpack.do HTTP/1.1" 200 49370
0:0:0:0:0:0:0:1 - - [09/Dec/2016:19:54:05 +0530] "GET /ITAFWebApplication/files/advancedReport.html?projectname=QBEPOC&actionType=execute HTTP/1.1" 200 -
0:0:0:0:0:0:0:1 - - [09/Dec/2016:19:54:14 +0530] "POST /ITAFWebApplication/itafpack.do HTTP/1.1" 200 49224
0:0:0:0:0:0:0:1 - - [09/Dec/2016:19:54:14 +0530] "GET /ITAFWebApplication/files/advancedReport.html?projectname=QBEPOC&actionType=execute HTTP/1.1" 200 -
0:0:0:0:0:0:0:1 - - [09/Dec/2016:19:57:51 +0530] "POST /ITAFWebApplication/itafpack.do HTTP/1.1" 200 49528
0:0:0:0:0:0:0:1 - - [09/Dec/2016:19:57:51 +0530] "GET /ITAFWebApplication/files/advancedReport.html?projectname=QBEPOC&actionType=execute HTTP/1.1" 200 -
0:0:0:0:0:0:0:1 - - [09/Dec/2016:19:58:25 +0530] "POST /ITAFWebApplication/itafpack.do HTTP/1.1" 200 66563
0:0:0:0:0:0:0:1 - - [09/Dec/2016:19:58:25 +0530] "GET /ITAFWebApplication/files/advancedReport.html?projectname=QBEPOC&actionType=execute HTTP/1.1" 200 -
0:0:0:0:0:0:0:1 - - [09/Dec/2016:19:59:41 +0530] "POST /ITAFWebApplication/Seleniumservice/resources/startStopObjectCapture HTTP/1.1" 200 34
0:0:0:0:0:0:0:1 - - [09/Dec/2016:19:59:45 +0530] "GET /ITAFWebApplication/js/inject.js HTTP/1.1" 200 14541
0:0:0:0:0:0:0:1 - - [09/Dec/2016:20:00:07 +0530] "POST /ITAFWebApplication/Seleniumservice/resources/startStopObjectCapture HTTP/1.1" 200 1527
0:0:0:0:0:0:0:1 - - [09/Dec/2016:20:00:21 +0530] "POST /ITAFWebApplication/Seleniumservice/resources/updateCSV HTTP/1.1" 204 -
0:0:0:0:0:0:0:1 - - [09/Dec/2016:20:00:29 +0530] "POST /ITAFWebApplication/itafpack.do HTTP/1.1" 200 84107
0:0:0:0:0:0:0:1 - - [09/Dec/2016:20:00:29 +0530] "GET /ITAFWebApplication/files/advancedReport.html?projectname=QBEPOC&actionType=execute HTTP/1.1" 200 -
0:0:0:0:0:0:0:1 - - [09/Dec/2016:20:00:51 +0530] "POST /ITAFWebApplication/itafpack.do HTTP/1.1" 200 84313
0:0:0:0:0:0:0:1 - - [09/Dec/2016:20:00:51 +0530] "GET /ITAFWebApplication/files/advancedReport.html?projectname=QBEPOC&actionType=execute HTTP/1.1" 200 -
0:0:0:0:0:0:0:1 - - [09/Dec/2016:20:00:52 +0530] "POST /ITAFWebApplication/itafpack.do HTTP/1.1" 200 84161
0:0:0:0:0:0:0:1 - - [09/Dec/2016:20:00:53 +0530] "GET /ITAFWebApplication/files/advancedReport.html?projectname=QBEPOC&actionType=execute HTTP/1.1" 200 -
0:0:0:0:0:0:0:1 - - [09/Dec/2016:20:00:59 +0530] "POST /ITAFWebApplication/itafpack.do HTTP/1.1" 200 84313
0:0:0:0:0:0:0:1 - - [09/Dec/2016:20:00:59 +0530] "GET /ITAFWebApplication/files/advancedReport.html?projectname=QBEPOC&actionType=execute HTTP/1.1" 200 -
0:0:0:0:0:0:0:1 - - [09/Dec/2016:20:01:09 +0530] "POST /ITAFWebApplication/itafpack.do HTTP/1.1" 200 84161
0:0:0:0:0:0:0:1 - - [09/Dec/2016:20:01:09 +0530] "GET /ITAFWebApplication/files/advancedReport.html?projectname=QBEPOC&actionType=execute HTTP/1.1" 200 -
0:0:0:0:0:0:0:1 - - [09/Dec/2016:20:01:19 +0530] "POST /ITAFWebApplication/itafpack.do HTTP/1.1" 200 32812
0:0:0:0:0:0:0:1 - - [09/Dec/2016:20:01:19 +0530] "POST /ITAFWebApplication/itafpack.do HTTP/1.1" 200 32812
0:0:0:0:0:0:0:1 - - [09/Dec/2016:20:01:19 +0530] "POST /ITAFWebApplication/itafpack.do HTTP/1.1" 200 84313
0:0:0:0:0:0:0:1 - - [09/Dec/2016:20:01:19 +0530] "GET /ITAFWebApplication/files/advancedReport.html?projectname=QBEPOC&actionType=execute HTTP/1.1" 200 -
0:0:0:0:0:0:0:1 - - [09/Dec/2016:20:02:11 +0530] "POST /ITAFWebApplication/itafpack.do HTTP/1.1" 200 58643
0:0:0:0:0:0:0:1 - - [09/Dec/2016:20:02:11 +0530] "GET /ITAFWebApplication/files/advancedReport.html?projectname=QBEPOC&actionType=execute HTTP/1.1" 200 -
0:0:0:0:0:0:0:1 - - [09/Dec/2016:20:02:31 +0530] "POST /ITAFWebApplication/itafpack.do HTTP/1.1" 200 60217
0:0:0:0:0:0:0:1 - - [09/Dec/2016:20:02:31 +0530] "GET /ITAFWebApplication/files/advancedReport.html?projectname=QBEPOC&actionType=execute HTTP/1.1" 200 -
0:0:0:0:0:0:0:1 - - [09/Dec/2016:20:03:47 +0530] "POST /ITAFWebApplication/itafpack.do HTTP/1.1" 200 54442
0:0:0:0:0:0:0:1 - - [09/Dec/2016:20:03:47 +0530] "GET /ITAFWebApplication/files/advancedReport.html?projectname=QBEPOC&actionType=execute HTTP/1.1" 200 -
0:0:0:0:0:0:0:1 - - [09/Dec/2016:20:05:56 +0530] "POST /ITAFWebApplication/logout.do HTTP/1.1" 302 -
0:0:0:0:0:0:0:1 - - [09/Dec/2016:20:05:56 +0530] "GET /ITAFWebApplication/login.jsp HTTP/1.1" 200 27677
0:0:0:0:0:0:0:1 - - [09/Dec/2016:20:09:22 +0530] "POST /ITAFWebApplication/login.do HTTP/1.1" 200 48914
0:0:0:0:0:0:0:1 - - [09/Dec/2016:20:09:25 +0530] "POST /ITAFWebApplication/itafpack.do HTTP/1.1" 200 54287
0:0:0:0:0:0:0:1 - - [09/Dec/2016:20:09:25 +0530] "GET /ITAFWebApplication/files/advancedReport.html?projectname=QBEPOC&actionType=execute HTTP/1.1" 200 -
0:0:0:0:0:0:0:1 - - [09/Dec/2016:20:10:06 +0530] "POST /ITAFWebApplication/itafpack.do HTTP/1.1" 200 32812
0:0:0:0:0:0:0:1 - - [09/Dec/2016:20:10:06 +0530] "POST /ITAFWebApplication/itafpack.do HTTP/1.1" 200 58673
0:0:0:0:0:0:0:1 - - [09/Dec/2016:20:10:06 +0530] "GET /ITAFWebApplication/files/advancedReport.html?projectname=QBEPOC&actionType=execute HTTP/1.1" 200 -
0:0:0:0:0:0:0:1 - - [09/Dec/2016:20:10:17 +0530] "POST /ITAFWebApplication/itafpack.do HTTP/1.1" 200 58707
0:0:0:0:0:0:0:1 - - [09/Dec/2016:20:10:17 +0530] "GET /ITAFWebApplication/files/advancedReport.html?projectname=QBEPOC&actionType=execute HTTP/1.1" 200 -
0:0:0:0:0:0:0:1 - - [09/Dec/2016:20:10:33 +0530] "POST /ITAFWebApplication/itafpack.do HTTP/1.1" 200 60358
0:0:0:0:0:0:0:1 - - [09/Dec/2016:20:10:33 +0530] "GET /ITAFWebApplication/files/advancedReport.html?projectname=QBEPOC&actionType=execute HTTP/1.1" 200 -
0:0:0:0:0:0:0:1 - - [09/Dec/2016:20:10:45 +0530] "POST /ITAFWebApplication/itafpack.do HTTP/1.1" 200 58552
0:0:0:0:0:0:0:1 - - [09/Dec/2016:20:10:46 +0530] "GET /ITAFWebApplication/files/advancedReport.html?projectname=QBEPOC&actionType=execute HTTP/1.1" 200 -
0:0:0:0:0:0:0:1 - - [09/Dec/2016:20:10:57 +0530] "POST /ITAFWebApplication/itafpack.do HTTP/1.1" 200 60358
0:0:0:0:0:0:0:1 - - [09/Dec/2016:20:10:57 +0530] "GET /ITAFWebApplication/files/advancedReport.html?projectname=QBEPOC&actionType=execute HTTP/1.1" 200 -
0:0:0:0:0:0:0:1 - - [09/Dec/2016:20:11:00 +0530] "POST /ITAFWebApplication/itafpack.do HTTP/1.1" 200 61160
0:0:0:0:0:0:0:1 - - [09/Dec/2016:20:11:00 +0530] "GET /ITAFWebApplication/files/advancedReport.html?projectname=QBEPOC&actionType=execute HTTP/1.1" 200 -
0:0:0:0:0:0:0:1 - - [09/Dec/2016:20:11:12 +0530] "POST /ITAFWebApplication/itafpack.do HTTP/1.1" 200 61332
0:0:0:0:0:0:0:1 - - [09/Dec/2016:20:11:12 +0530] "GET /ITAFWebApplication/files/advancedReport.html?projectname=QBEPOC&actionType=execute HTTP/1.1" 200 -
0:0:0:0:0:0:0:1 - - [09/Dec/2016:20:12:36 +0530] "POST /ITAFWebApplication/logout.do HTTP/1.1" 302 -
0:0:0:0:0:0:0:1 - - [09/Dec/2016:20:12:36 +0530] "GET /ITAFWebApplication/login.jsp HTTP/1.1" 200 27677
0:0:0:0:0:0:0:1 - - [09/Dec/2016:20:12:43 +0530] "POST /ITAFWebApplication/login.do HTTP/1.1" 200 48914
0:0:0:0:0:0:0:1 - - [09/Dec/2016:20:12:47 +0530] "POST /ITAFWebApplication/itafpack.do HTTP/1.1" 200 72763
0:0:0:0:0:0:0:1 - - [09/Dec/2016:20:12:47 +0530] "GET /ITAFWebApplication/files/advancedReport.html?projectname=QBEPOC&actionType=execute HTTP/1.1" 200 23726
0:0:0:0:0:0:0:1 - - [09/Dec/2016:20:12:56 +0530] "POST /ITAFWebApplication/itafpack.do HTTP/1.1" 200 75130
0:0:0:0:0:0:0:1 - - [09/Dec/2016:20:12:56 +0530] "GET /ITAFWebApplication/files/advancedReport.html?projectname=QBEPOC&actionType=execute HTTP/1.1" 200 23726
0:0:0:0:0:0:0:1 - - [09/Dec/2016:20:13:34 +0530] "POST /ITAFWebApplication/itafpack.do HTTP/1.1" 200 94602
0:0:0:0:0:0:0:1 - - [09/Dec/2016:20:13:34 +0530] "GET /ITAFWebApplication/files/advancedReport.html?projectname=QBEPOC&actionType=execute HTTP/1.1" 200 23726
0:0:0:0:0:0:0:1 - - [09/Dec/2016:20:13:52 +0530] "POST /ITAFWebApplication/itafpack.do HTTP/1.1" 200 94756
0:0:0:0:0:0:0:1 - - [09/Dec/2016:20:13:53 +0530] "GET /ITAFWebApplication/files/advancedReport.html?projectname=QBEPOC&actionType=execute HTTP/1.1" 200 23726
0:0:0:0:0:0:0:1 - - [09/Dec/2016:20:13:54 +0530] "POST /ITAFWebApplication/itafpack.do HTTP/1.1" 200 94602
0:0:0:0:0:0:0:1 - - [09/Dec/2016:20:13:54 +0530] "GET /ITAFWebApplication/files/advancedReport.html?projectname=QBEPOC&actionType=execute HTTP/1.1" 200 23726
0:0:0:0:0:0:0:1 - - [09/Dec/2016:20:13:58 +0530] "POST /ITAFWebApplication/itafpack.do HTTP/1.1" 200 94756
0:0:0:0:0:0:0:1 - - [09/Dec/2016:20:13:58 +0530] "GET /ITAFWebApplication/files/advancedReport.html?projectname=QBEPOC&actionType=execute HTTP/1.1" 200 23726
0:0:0:0:0:0:0:1 - - [09/Dec/2016:20:14:04 +0530] "POST /ITAFWebApplication/itafexecute.do HTTP/1.1" 200 19379
0:0:0:0:0:0:0:1 - - [09/Dec/2016:20:14:04 +0530] "GET /ITAFWebApplication/js/demo3/executetry.js HTTP/1.1" 200 1945
0:0:0:0:0:0:0:1 - - [09/Dec/2016:20:14:04 +0530] "GET /ITAFWebApplication/js/demo3/bootstrap-progressbar.js HTTP/1.1" 200 6284
0:0:0:0:0:0:0:1 - - [09/Dec/2016:20:14:04 +0530] "GET /ITAFWebApplication/js/loader.js HTTP/1.1" 200 70294
0:0:0:0:0:0:0:1 - - [09/Dec/2016:20:22:00 +0530] "POST /ITAFWebApplication/itafexecute.do HTTP/1.1" 200 48914
0:0:0:0:0:0:0:1 - - [09/Dec/2016:20:22:06 +0530] "POST /ITAFWebApplication/itafpack.do HTTP/1.1" 200 47752
0:0:0:0:0:0:0:1 - - [09/Dec/2016:20:22:12 +0530] "POST /ITAFWebApplication/itafpack.do HTTP/1.1" 200 71533
0:0:0:0:0:0:0:1 - - [09/Dec/2016:20:22:12 +0530] "GET /ITAFWebApplication/files/advancedReport.html?projectname=QBE&actionType=execute HTTP/1.1" 200 23726
0:0:0:0:0:0:0:1 - - [09/Dec/2016:20:23:28 +0530] "POST /ITAFWebApplication/logout.do HTTP/1.1" 302 -
0:0:0:0:0:0:0:1 - - [09/Dec/2016:20:23:28 +0530] "GET /ITAFWebApplication/login.jsp HTTP/1.1" 200 27677
0:0:0:0:0:0:0:1 - - [09/Dec/2016:20:51:27 +0530] "GET /ITAFWebApplication/login.do HTTP/1.1" 302 -
0:0:0:0:0:0:0:1 - - [09/Dec/2016:20:51:27 +0530] "GET /ITAFWebApplication/login.jsp HTTP/1.1" 200 27677
0:0:0:0:0:0:0:1 - - [09/Dec/2016:20:51:28 +0530] "GET /ITAFWebApplication/css/login.css HTTP/1.1" 200 1077
0:0:0:0:0:0:0:1 - - [09/Dec/2016:20:51:28 +0530] "GET /ITAFWebApplication/css/bootstrap.min.css HTTP/1.1" 200 121260
0:0:0:0:0:0:0:1 - - [09/Dec/2016:20:51:28 +0530] "GET /ITAFWebApplication/js/login.js HTTP/1.1" 200 6947
0:0:0:0:0:0:0:1 - - [09/Dec/2016:20:51:28 +0530] "GET /ITAFWebApplication/Images/iTAF_logo.png HTTP/1.1" 200 33472
0:0:0:0:0:0:0:1 - - [09/Dec/2016:20:51:28 +0530] "GET /ITAFWebApplication/fonts/glyphicons-halflings-regular.woff2 HTTP/1.1" 200 18028
0:0:0:0:0:0:0:1 - - [09/Dec/2016:20:51:36 +0530] "GET /ITAFWebApplication/css/demo3/try.css HTTP/1.1" 200 4871
0:0:0:0:0:0:0:1 - - [09/Dec/2016:20:51:36 +0530] "POST /ITAFWebApplication/login.do HTTP/1.1" 200 47732
0:0:0:0:0:0:0:1 - - [09/Dec/2016:20:51:36 +0530] "GET /ITAFWebApplication/css/demo3/responsiveTables.css HTTP/1.1" 200 182
0:0:0:0:0:0:0:1 - - [09/Dec/2016:20:51:36 +0530] "GET /ITAFWebApplication/js/jquery.min.js HTTP/1.1" 200 84380
0:0:0:0:0:0:0:1 - - [09/Dec/2016:20:51:36 +0530] "GET /ITAFWebApplication/js/bootstrap.min.js HTTP/1.1" 200 36868
0:0:0:0:0:0:0:1 - - [09/Dec/2016:20:51:36 +0530] "GET /ITAFWebApplication/js/demo3/bootstrap-filestyle.min.js HTTP/1.1" 200 7190
0:0:0:0:0:0:0:1 - - [09/Dec/2016:20:51:36 +0530] "GET /ITAFWebApplication/js/objectCap.js HTTP/1.1" 200 11106
0:0:0:0:0:0:0:1 - - [09/Dec/2016:20:51:36 +0530] "GET /ITAFWebApplication/js/demo3/RowSorter.js HTTP/1.1" 200 8102
0:0:0:0:0:0:0:1 - - [09/Dec/2016:20:51:36 +0530] "GET /ITAFWebApplication/js/demo3/responsiveTables.js HTTP/1.1" 200 1886
0:0:0:0:0:0:0:1 - - [09/Dec/2016:20:51:36 +0530] "GET /ITAFWebApplication/js/demo3/searchTable.js HTTP/1.1" 200 1022
0:0:0:0:0:0:0:1 - - [09/Dec/2016:20:51:36 +0530] "GET /ITAFWebApplication/js/demo3/try.js HTTP/1.1" 200 45488
0:0:0:0:0:0:0:1 - - [09/Dec/2016:20:52:33 +0530] "POST /ITAFWebApplication/logout.do HTTP/1.1" 302 -
0:0:0:0:0:0:0:1 - - [09/Dec/2016:20:52:33 +0530] "GET /ITAFWebApplication/login.jsp HTTP/1.1" 200 27677
0:0:0:0:0:0:0:1 - - [09/Dec/2016:20:52:45 +0530] "POST /ITAFWebApplication/login.do HTTP/1.1" 200 47732
0:0:0:0:0:0:0:1 - - [09/Dec/2016:20:52:52 +0530] "POST /ITAFWebApplication/itafpack.do HTTP/1.1" 200 75846
0:0:0:0:0:0:0:1 - - [09/Dec/2016:20:52:52 +0530] "GET /ITAFWebApplication/files/advancedReport.html?projectname=QBE&actionType=execute HTTP/1.1" 200 23726
0:0:0:0:0:0:0:1 - - [09/Dec/2016:20:53:07 +0530] "POST /ITAFWebApplication/itafpack.do HTTP/1.1" 200 76007
0:0:0:0:0:0:0:1 - - [09/Dec/2016:20:53:07 +0530] "GET /ITAFWebApplication/files/advancedReport.html?projectname=QBE&actionType=execute HTTP/1.1" 200 23726
0:0:0:0:0:0:0:1 - - [09/Dec/2016:20:53:11 +0530] "POST /ITAFWebApplication/itafexecute.do HTTP/1.1" 200 19286
0:0:0:0:0:0:0:1 - - [09/Dec/2016:20:53:11 +0530] "GET /ITAFWebApplication/js/demo3/executetry.js HTTP/1.1" 200 1945
0:0:0:0:0:0:0:1 - - [09/Dec/2016:20:53:11 +0530] "GET /ITAFWebApplication/js/loader.js HTTP/1.1" 200 70294
0:0:0:0:0:0:0:1 - - [09/Dec/2016:20:53:11 +0530] "GET /ITAFWebApplication/js/demo3/bootstrap-progressbar.js HTTP/1.1" 200 6284
0:0:0:0:0:0:0:1 - - [09/Dec/2016:20:54:00 +0530] "POST /ITAFWebApplication/itafexecute.do HTTP/1.1" 200 323
0:0:0:0:0:0:0:1 - - [09/Dec/2016:20:56:01 +0530] "GET /ITAFWebApplication/ HTTP/1.1" 302 -
0:0:0:0:0:0:0:1 - - [09/Dec/2016:20:56:01 +0530] "GET /ITAFWebApplication/login.jsp HTTP/1.1" 200 27677
0:0:0:0:0:0:0:1 - - [09/Dec/2016:20:56:01 +0530] "GET /ITAFWebApplication/css/login.css HTTP/1.1" 200 1077
0:0:0:0:0:0:0:1 - - [09/Dec/2016:20:56:01 +0530] "GET /ITAFWebApplication/css/bootstrap.min.css HTTP/1.1" 200 121260
0:0:0:0:0:0:0:1 - - [09/Dec/2016:20:56:01 +0530] "GET /ITAFWebApplication/js/login.js HTTP/1.1" 200 6947
0:0:0:0:0:0:0:1 - - [09/Dec/2016:20:56:01 +0530] "GET /ITAFWebApplication/Images/iTAF_logo.png HTTP/1.1" 200 33472
0:0:0:0:0:0:0:1 - - [09/Dec/2016:20:56:02 +0530] "GET /ITAFWebApplication/fonts/glyphicons-halflings-regular.woff2 HTTP/1.1" 200 18028
0:0:0:0:0:0:0:1 - - [09/Dec/2016:20:56:11 +0530] "POST /ITAFWebApplication/login.do HTTP/1.1" 200 47732
0:0:0:0:0:0:0:1 - - [09/Dec/2016:20:56:11 +0530] "GET /ITAFWebApplication/css/demo3/try.css HTTP/1.1" 200 4871
0:0:0:0:0:0:0:1 - - [09/Dec/2016:20:56:11 +0530] "GET /ITAFWebApplication/css/demo3/responsiveTables.css HTTP/1.1" 200 182
0:0:0:0:0:0:0:1 - - [09/Dec/2016:20:56:11 +0530] "GET /ITAFWebApplication/js/jquery.min.js HTTP/1.1" 200 84380
0:0:0:0:0:0:0:1 - - [09/Dec/2016:20:56:11 +0530] "GET /ITAFWebApplication/js/demo3/searchTable.js HTTP/1.1" 200 1022
0:0:0:0:0:0:0:1 - - [09/Dec/2016:20:56:11 +0530] "GET /ITAFWebApplication/js/objectCap.js HTTP/1.1" 200 11106
0:0:0:0:0:0:0:1 - - [09/Dec/2016:20:56:11 +0530] "GET /ITAFWebApplication/js/bootstrap.min.js HTTP/1.1" 200 36868
0:0:0:0:0:0:0:1 - - [09/Dec/2016:20:56:11 +0530] "GET /ITAFWebApplication/js/demo3/RowSorter.js HTTP/1.1" 200 8102
0:0:0:0:0:0:0:1 - - [09/Dec/2016:20:56:11 +0530] "GET /ITAFWebApplication/js/demo3/try.js HTTP/1.1" 200 45488
0:0:0:0:0:0:0:1 - - [09/Dec/2016:20:56:11 +0530] "GET /ITAFWebApplication/js/demo3/bootstrap-filestyle.min.js HTTP/1.1" 200 7190
0:0:0:0:0:0:0:1 - - [09/Dec/2016:20:56:11 +0530] "GET /ITAFWebApplication/js/demo3/responsiveTables.js HTTP/1.1" 200 1886
0:0:0:0:0:0:0:1 - - [09/Dec/2016:20:56:26 +0530] "POST /ITAFWebApplication/itafpack.do HTTP/1.1" 200 75849
0:0:0:0:0:0:0:1 - - [09/Dec/2016:20:56:26 +0530] "GET /ITAFWebApplication/files/advancedReport.html?projectname=QBE&actionType=execute HTTP/1.1" 200 12698
0:0:0:0:0:0:0:1 - - [09/Dec/2016:20:56:56 +0530] "POST /ITAFWebApplication/itafpack.do HTTP/1.1" 200 49619
0:0:0:0:0:0:0:1 - - [09/Dec/2016:20:56:56 +0530] "GET /ITAFWebApplication/files/advancedReport.html?projectname=QBE_Automation&actionType=execute HTTP/1.1" 200 -
0:0:0:0:0:0:0:1 - - [09/Dec/2016:20:57:21 +0530] "POST /ITAFWebApplication/itafpack.do HTTP/1.1" 200 49606
0:0:0:0:0:0:0:1 - - [09/Dec/2016:20:57:21 +0530] "GET /ITAFWebApplication/files/advancedReport.html?projectname=QBE_Automation&actionType=execute HTTP/1.1" 200 -
0:0:0:0:0:0:0:1 - - [09/Dec/2016:20:57:27 +0530] "POST /ITAFWebApplication/itafpack.do HTTP/1.1" 200 49739
0:0:0:0:0:0:0:1 - - [09/Dec/2016:20:57:27 +0530] "GET /ITAFWebApplication/files/advancedReport.html?projectname=QBE_Automation&actionType=execute HTTP/1.1" 200 -
0:0:0:0:0:0:0:1 - - [09/Dec/2016:20:57:33 +0530] "POST /ITAFWebApplication/itafpack.do HTTP/1.1" 200 66813
0:0:0:0:0:0:0:1 - - [09/Dec/2016:20:57:33 +0530] "GET /ITAFWebApplication/files/advancedReport.html?projectname=QBE_Automation&actionType=execute HTTP/1.1" 200 -
0:0:0:0:0:0:0:1 - - [09/Dec/2016:20:57:46 +0530] "POST /ITAFWebApplication/Seleniumservice/resources/startStopObjectCapture HTTP/1.1" 200 34
0:0:0:0:0:0:0:1 - - [09/Dec/2016:20:58:16 +0530] "POST /ITAFWebApplication/Seleniumservice/resources/startStopObjectCapture HTTP/1.1" 200 19
0:0:0:0:0:0:0:1 - - [09/Dec/2016:20:58:30 +0530] "POST /ITAFWebApplication/Seleniumservice/resources/startStopObjectCapture HTTP/1.1" 200 34
0:0:0:0:0:0:0:1 - - [09/Dec/2016:20:59:13 +0530] "POST /ITAFWebApplication/Seleniumservice/resources/startStopObjectCapture HTTP/1.1" 200 19
0:0:0:0:0:0:0:1 - - [09/Dec/2016:20:59:18 +0530] "POST /ITAFWebApplication/itafpack.do HTTP/1.1" 200 66669
0:0:0:0:0:0:0:1 - - [09/Dec/2016:20:59:18 +0530] "GET /ITAFWebApplication/files/advancedReport.html?projectname=QBE_Automation&actionType=execute HTTP/1.1" 200 -
0:0:0:0:0:0:0:1 - - [09/Dec/2016:20:59:30 +0530] "POST /ITAFWebApplication/itafpack.do HTTP/1.1" 200 77039
0:0:0:0:0:0:0:1 - - [09/Dec/2016:20:59:30 +0530] "GET /ITAFWebApplication/files/advancedReport.html?projectname=QBE&actionType=execute HTTP/1.1" 200 12698
0:0:0:0:0:0:0:1 - - [09/Dec/2016:20:59:36 +0530] "POST /ITAFWebApplication/itafpack.do HTTP/1.1" 200 1086214
0:0:0:0:0:0:0:1 - - [09/Dec/2016:20:59:36 +0530] "GET /ITAFWebApplication/files/advancedReport.html?projectname=QBE&actionType=execute HTTP/1.1" 200 12698
0:0:0:0:0:0:0:1 - - [09/Dec/2016:20:59:53 +0530] "POST /ITAFWebApplication/itafpack.do HTTP/1.1" 200 79400
0:0:0:0:0:0:0:1 - - [09/Dec/2016:20:59:53 +0530] "GET /ITAFWebApplication/files/advancedReport.html?projectname=QBE&actionType=execute HTTP/1.1" 200 12698
0:0:0:0:0:0:0:1 - - [09/Dec/2016:20:59:56 +0530] "POST /ITAFWebApplication/itafpack.do HTTP/1.1" 200 80198
0:0:0:0:0:0:0:1 - - [09/Dec/2016:20:59:56 +0530] "GET /ITAFWebApplication/files/advancedReport.html?projectname=QBE&actionType=execute HTTP/1.1" 200 12698
0:0:0:0:0:0:0:1 - - [09/Dec/2016:20:59:59 +0530] "POST /ITAFWebApplication/itafpack.do HTTP/1.1" 200 86270
0:0:0:0:0:0:0:1 - - [09/Dec/2016:20:59:59 +0530] "GET /ITAFWebApplication/files/advancedReport.html?projectname=QBE&actionType=execute HTTP/1.1" 200 12698
0:0:0:0:0:0:0:1 - - [09/Dec/2016:21:00:30 +0530] "POST /ITAFWebApplication/itafpack.do HTTP/1.1" 200 85930
0:0:0:0:0:0:0:1 - - [09/Dec/2016:21:00:30 +0530] "GET /ITAFWebApplication/files/advancedReport.html?projectname=QBE&actionType=execute HTTP/1.1" 200 12698
0:0:0:0:0:0:0:1 - - [09/Dec/2016:21:00:32 +0530] "POST /ITAFWebApplication/itafpack.do HTTP/1.1" 200 79665
0:0:0:0:0:0:0:1 - - [09/Dec/2016:21:00:32 +0530] "GET /ITAFWebApplication/files/advancedReport.html?projectname=QBE&actionType=execute HTTP/1.1" 200 12698
0:0:0:0:0:0:0:1 - - [09/Dec/2016:21:00:36 +0530] "POST /ITAFWebApplication/itafpack.do HTTP/1.1" 200 80198
0:0:0:0:0:0:0:1 - - [09/Dec/2016:21:00:36 +0530] "GET /ITAFWebApplication/files/advancedReport.html?projectname=QBE&actionType=execute HTTP/1.1" 200 12698
0:0:0:0:0:0:0:1 - - [09/Dec/2016:21:00:40 +0530] "POST /ITAFWebApplication/itafpack.do HTTP/1.1" 200 86270
0:0:0:0:0:0:0:1 - - [09/Dec/2016:21:00:40 +0530] "GET /ITAFWebApplication/files/advancedReport.html?projectname=QBE&actionType=execute HTTP/1.1" 200 12698
0:0:0:0:0:0:0:1 - - [09/Dec/2016:21:00:42 +0530] "POST /ITAFWebApplication/itafpack.do HTTP/1.1" 200 79408
0:0:0:0:0:0:0:1 - - [09/Dec/2016:21:00:42 +0530] "GET /ITAFWebApplication/files/advancedReport.html?projectname=QBE&actionType=execute HTTP/1.1" 200 12698
0:0:0:0:0:0:0:1 - - [09/Dec/2016:21:00:45 +0530] "POST /ITAFWebApplication/itafpack.do HTTP/1.1" 200 82563
0:0:0:0:0:0:0:1 - - [09/Dec/2016:21:00:45 +0530] "GET /ITAFWebApplication/files/advancedReport.html?projectname=QBE&actionType=execute HTTP/1.1" 200 12698
0:0:0:0:0:0:0:1 - - [09/Dec/2016:21:00:51 +0530] "POST /ITAFWebApplication/itafpack.do HTTP/1.1" 200 98875
0:0:0:0:0:0:0:1 - - [09/Dec/2016:21:00:51 +0530] "GET /ITAFWebApplication/files/advancedReport.html?projectname=QBE&actionType=execute HTTP/1.1" 200 12698
0:0:0:0:0:0:0:1 - - [09/Dec/2016:21:01:02 +0530] "POST /ITAFWebApplication/itafexecute.do HTTP/1.1" 200 19395
0:0:0:0:0:0:0:1 - - [09/Dec/2016:21:01:02 +0530] "GET /ITAFWebApplication/js/demo3/bootstrap-progressbar.js HTTP/1.1" 200 6284
0:0:0:0:0:0:0:1 - - [09/Dec/2016:21:01:02 +0530] "GET /ITAFWebApplication/js/demo3/executetry.js HTTP/1.1" 200 1945
0:0:0:0:0:0:0:1 - - [09/Dec/2016:21:01:02 +0530] "GET /ITAFWebApplication/js/loader.js HTTP/1.1" 200 70294
0:0:0:0:0:0:0:1 - - [09/Dec/2016:21:01:08 +0530] "POST /ITAFWebApplication/itafexecute.do HTTP/1.1" 200 48928
0:0:0:0:0:0:0:1 - - [09/Dec/2016:21:01:39 +0530] "POST /ITAFWebApplication/itafpack.do HTTP/1.1" 200 77039
0:0:0:0:0:0:0:1 - - [09/Dec/2016:21:01:39 +0530] "GET /ITAFWebApplication/files/advancedReport.html?projectname=QBE&actionType=execute HTTP/1.1" 200 12698
0:0:0:0:0:0:0:1 - - [09/Dec/2016:21:02:49 +0530] "POST /ITAFWebApplication/itafpack.do HTTP/1.1" 200 78854
0:0:0:0:0:0:0:1 - - [09/Dec/2016:21:02:49 +0530] "GET /ITAFWebApplication/files/advancedReport.html?projectname=QBE&actionType=execute HTTP/1.1" 200 12698
0:0:0:0:0:0:0:1 - - [09/Dec/2016:21:02:53 +0530] "POST /ITAFWebApplication/itafpack.do HTTP/1.1" 200 98875
0:0:0:0:0:0:0:1 - - [09/Dec/2016:21:02:53 +0530] "GET /ITAFWebApplication/files/advancedReport.html?projectname=QBE&actionType=execute HTTP/1.1" 200 12698
0:0:0:0:0:0:0:1 - - [09/Dec/2016:21:03:56 +0530] "POST /ITAFWebApplication/itafpack.do HTTP/1.1" 200 77039
0:0:0:0:0:0:0:1 - - [09/Dec/2016:21:03:56 +0530] "GET /ITAFWebApplication/files/advancedReport.html?projectname=QBE&actionType=execute HTTP/1.1" 200 12698
0:0:0:0:0:0:0:1 - - [09/Dec/2016:21:04:15 +0530] "POST /ITAFWebApplication/logout.do HTTP/1.1" 302 -
0:0:0:0:0:0:0:1 - - [09/Dec/2016:21:04:15 +0530] "GET /ITAFWebApplication/login.jsp HTTP/1.1" 200 27677
0:0:0:0:0:0:0:1 - - [09/Dec/2016:21:05:15 +0530] "GET /ITAFWebApplication/ HTTP/1.1" 302 -
0:0:0:0:0:0:0:1 - - [09/Dec/2016:21:05:15 +0530] "GET /ITAFWebApplication/login.jsp HTTP/1.1" 200 27677
0:0:0:0:0:0:0:1 - - [09/Dec/2016:21:05:15 +0530] "GET /ITAFWebApplication/css/login.css HTTP/1.1" 200 1077
0:0:0:0:0:0:0:1 - - [09/Dec/2016:21:05:15 +0530] "GET /ITAFWebApplication/css/bootstrap.min.css HTTP/1.1" 200 121260
0:0:0:0:0:0:0:1 - - [09/Dec/2016:21:05:15 +0530] "GET /ITAFWebApplication/js/login.js HTTP/1.1" 200 6947
0:0:0:0:0:0:0:1 - - [09/Dec/2016:21:05:15 +0530] "GET /ITAFWebApplication/Images/iTAF_logo.png HTTP/1.1" 200 33472
0:0:0:0:0:0:0:1 - - [09/Dec/2016:21:05:15 +0530] "GET /ITAFWebApplication/fonts/glyphicons-halflings-regular.woff2 HTTP/1.1" 200 18028
0:0:0:0:0:0:0:1 - - [09/Dec/2016:21:05:25 +0530] "POST /ITAFWebApplication/login.do HTTP/1.1" 200 27738
0:0:0:0:0:0:0:1 - - [09/Dec/2016:21:05:32 +0530] "POST /ITAFWebApplication/login.do HTTP/1.1" 200 48922
0:0:0:0:0:0:0:1 - - [09/Dec/2016:21:05:32 +0530] "GET /ITAFWebApplication/css/demo3/try.css HTTP/1.1" 200 4871
0:0:0:0:0:0:0:1 - - [09/Dec/2016:21:05:32 +0530] "GET /ITAFWebApplication/css/demo3/responsiveTables.css HTTP/1.1" 200 182
0:0:0:0:0:0:0:1 - - [09/Dec/2016:21:05:32 +0530] "GET /ITAFWebApplication/js/jquery.min.js HTTP/1.1" 200 84380
0:0:0:0:0:0:0:1 - - [09/Dec/2016:21:05:32 +0530] "GET /ITAFWebApplication/js/bootstrap.min.js HTTP/1.1" 200 36868
0:0:0:0:0:0:0:1 - - [09/Dec/2016:21:05:32 +0530] "GET /ITAFWebApplication/js/demo3/RowSorter.js HTTP/1.1" 200 8102
0:0:0:0:0:0:0:1 - - [09/Dec/2016:21:05:32 +0530] "GET /ITAFWebApplication/js/demo3/bootstrap-filestyle.min.js HTTP/1.1" 200 7190
0:0:0:0:0:0:0:1 - - [09/Dec/2016:21:05:32 +0530] "GET /ITAFWebApplication/js/objectCap.js HTTP/1.1" 200 11106
0:0:0:0:0:0:0:1 - - [09/Dec/2016:21:05:32 +0530] "GET /ITAFWebApplication/js/demo3/searchTable.js HTTP/1.1" 200 1022
0:0:0:0:0:0:0:1 - - [09/Dec/2016:21:05:32 +0530] "GET /ITAFWebApplication/js/demo3/responsiveTables.js HTTP/1.1" 200 1886
0:0:0:0:0:0:0:1 - - [09/Dec/2016:21:05:32 +0530] "GET /ITAFWebApplication/js/demo3/try.js HTTP/1.1" 200 45488
0:0:0:0:0:0:0:1 - - [09/Dec/2016:21:05:39 +0530] "POST /ITAFWebApplication/itafpack.do HTTP/1.1" 200 73867
0:0:0:0:0:0:0:1 - - [09/Dec/2016:21:05:39 +0530] "GET /ITAFWebApplication/files/advancedReport.html?projectname=QBE&actionType=execute HTTP/1.1" 200 12698
0:0:0:0:0:0:0:1 - - [09/Dec/2016:21:05:45 +0530] "POST /ITAFWebApplication/itafpack.do HTTP/1.1" 200 76228
0:0:0:0:0:0:0:1 - - [09/Dec/2016:21:05:45 +0530] "GET /ITAFWebApplication/files/advancedReport.html?projectname=QBE&actionType=execute HTTP/1.1" 200 12698
0:0:0:0:0:0:0:1 - - [09/Dec/2016:21:05:47 +0530] "POST /ITAFWebApplication/itafpack.do HTTP/1.1" 200 77039
0:0:0:0:0:0:0:1 - - [09/Dec/2016:21:05:47 +0530] "GET /ITAFWebApplication/files/advancedReport.html?projectname=QBE&actionType=execute HTTP/1.1" 200 12698
0:0:0:0:0:0:0:1 - - [09/Dec/2016:21:05:49 +0530] "POST /ITAFWebApplication/itafpack.do HTTP/1.1" 200 83313
0:0:0:0:0:0:0:1 - - [09/Dec/2016:21:05:49 +0530] "GET /ITAFWebApplication/files/advancedReport.html?projectname=QBE&actionType=execute HTTP/1.1" 200 12698
0:0:0:0:0:0:0:1 - - [09/Dec/2016:21:05:58 +0530] "POST /ITAFWebApplication/itafexecute.do HTTP/1.1" 200 19395
0:0:0:0:0:0:0:1 - - [09/Dec/2016:21:05:58 +0530] "GET /ITAFWebApplication/js/demo3/bootstrap-progressbar.js HTTP/1.1" 200 6284
0:0:0:0:0:0:0:1 - - [09/Dec/2016:21:05:58 +0530] "GET /ITAFWebApplication/js/loader.js HTTP/1.1" 200 70294
0:0:0:0:0:0:0:1 - - [09/Dec/2016:21:05:58 +0530] "GET /ITAFWebApplication/js/demo3/executetry.js HTTP/1.1" 200 1945
0:0:0:0:0:0:0:1 - - [09/Dec/2016:21:13:33 +0530] "POST /ITAFWebApplication/itafexecute.do HTTP/1.1" 200 2232
0:0:0:0:0:0:0:1 - - [09/Dec/2016:21:14:28 +0530] "POST /ITAFWebApplication/itafexecute.do HTTP/1.1" 200 235
0:0:0:0:0:0:0:1 - - [09/Dec/2016:21:14:28 +0530] "GET /ITAFWebApplication/files/advancedReport.html?projectname=QBE&actionType=execute HTTP/1.1" 200 23724
0:0:0:0:0:0:0:1 - - [09/Dec/2016:21:18:45 +0530] "GET /ITAFWebApplication/login.jsp HTTP/1.1" 200 27677
0:0:0:0:0:0:0:1 - - [09/Dec/2016:21:18:45 +0530] "GET /ITAFWebApplication/css/login.css HTTP/1.1" 200 1077
0:0:0:0:0:0:0:1 - - [09/Dec/2016:21:18:45 +0530] "GET /ITAFWebApplication/css/bootstrap.min.css HTTP/1.1" 200 121260
0:0:0:0:0:0:0:1 - - [09/Dec/2016:21:18:45 +0530] "GET /ITAFWebApplication/js/login.js HTTP/1.1" 200 6947
0:0:0:0:0:0:0:1 - - [09/Dec/2016:21:18:45 +0530] "GET /ITAFWebApplication/Images/iTAF_logo.png HTTP/1.1" 200 33472
0:0:0:0:0:0:0:1 - - [09/Dec/2016:21:18:46 +0530] "GET /ITAFWebApplication/fonts/glyphicons-halflings-regular.woff2 HTTP/1.1" 200 18028
0:0:0:0:0:0:0:1 - - [09/Dec/2016:21:18:52 +0530] "GET /ITAFWebApplication/css/demo3/try.css HTTP/1.1" 200 4871
0:0:0:0:0:0:0:1 - - [09/Dec/2016:21:18:52 +0530] "POST /ITAFWebApplication/login.do HTTP/1.1" 200 48922
0:0:0:0:0:0:0:1 - - [09/Dec/2016:21:18:52 +0530] "GET /ITAFWebApplication/css/demo3/responsiveTables.css HTTP/1.1" 200 182
0:0:0:0:0:0:0:1 - - [09/Dec/2016:21:18:52 +0530] "GET /ITAFWebApplication/js/jquery.min.js HTTP/1.1" 200 84380
0:0:0:0:0:0:0:1 - - [09/Dec/2016:21:18:52 +0530] "GET /ITAFWebApplication/js/bootstrap.min.js HTTP/1.1" 200 36868
0:0:0:0:0:0:0:1 - - [09/Dec/2016:21:18:52 +0530] "GET /ITAFWebApplication/js/demo3/responsiveTables.js HTTP/1.1" 200 1886
0:0:0:0:0:0:0:1 - - [09/Dec/2016:21:18:52 +0530] "GET /ITAFWebApplication/js/demo3/RowSorter.js HTTP/1.1" 200 8102
0:0:0:0:0:0:0:1 - - [09/Dec/2016:21:18:52 +0530] "GET /ITAFWebApplication/js/demo3/searchTable.js HTTP/1.1" 200 1022
0:0:0:0:0:0:0:1 - - [09/Dec/2016:21:18:52 +0530] "GET /ITAFWebApplication/js/objectCap.js HTTP/1.1" 200 11106
0:0:0:0:0:0:0:1 - - [09/Dec/2016:21:18:52 +0530] "GET /ITAFWebApplication/js/demo3/try.js HTTP/1.1" 200 45488
0:0:0:0:0:0:0:1 - - [09/Dec/2016:21:18:52 +0530] "GET /ITAFWebApplication/js/demo3/bootstrap-filestyle.min.js HTTP/1.1" 200 7190
0:0:0:0:0:0:0:1 - - [09/Dec/2016:21:19:00 +0530] "POST /ITAFWebApplication/itafpack.do HTTP/1.1" 200 54529
0:0:0:0:0:0:0:1 - - [09/Dec/2016:21:19:00 +0530] "GET /ITAFWebApplication/files/advancedReport.html?projectname=QBE_Automation&actionType=execute HTTP/1.1" 200 -
0:0:0:0:0:0:0:1 - - [09/Dec/2016:21:19:59 +0530] "POST /ITAFWebApplication/Seleniumservice/resources/startStopObjectCapture HTTP/1.1" 200 34
0:0:0:0:0:0:0:1 - - [09/Dec/2016:21:29:38 +0530] "GET /ITAFWebApplication/login.jsp HTTP/1.1" 200 27677
0:0:0:0:0:0:0:1 - - [09/Dec/2016:21:29:38 +0530] "GET /ITAFWebApplication/css/login.css HTTP/1.1" 200 1077
0:0:0:0:0:0:0:1 - - [09/Dec/2016:21:29:38 +0530] "GET /ITAFWebApplication/css/bootstrap.min.css HTTP/1.1" 200 121260
0:0:0:0:0:0:0:1 - - [09/Dec/2016:21:29:38 +0530] "GET /ITAFWebApplication/js/login.js HTTP/1.1" 200 6947
0:0:0:0:0:0:0:1 - - [09/Dec/2016:21:29:38 +0530] "GET /ITAFWebApplication/Images/iTAF_logo.png HTTP/1.1" 200 33472
0:0:0:0:0:0:0:1 - - [09/Dec/2016:21:29:38 +0530] "GET /ITAFWebApplication/fonts/glyphicons-halflings-regular.woff2 HTTP/1.1" 200 18028
0:0:0:0:0:0:0:1 - - [09/Dec/2016:21:29:46 +0530] "GET /ITAFWebApplication/css/demo3/try.css HTTP/1.1" 200 4871
0:0:0:0:0:0:0:1 - - [09/Dec/2016:21:29:46 +0530] "POST /ITAFWebApplication/login.do HTTP/1.1" 200 48922
0:0:0:0:0:0:0:1 - - [09/Dec/2016:21:29:46 +0530] "GET /ITAFWebApplication/css/demo3/responsiveTables.css HTTP/1.1" 200 182
0:0:0:0:0:0:0:1 - - [09/Dec/2016:21:29:46 +0530] "GET /ITAFWebApplication/js/demo3/RowSorter.js HTTP/1.1" 200 8102
0:0:0:0:0:0:0:1 - - [09/Dec/2016:21:29:46 +0530] "GET /ITAFWebApplication/js/jquery.min.js HTTP/1.1" 200 84380
0:0:0:0:0:0:0:1 - - [09/Dec/2016:21:29:46 +0530] "GET /ITAFWebApplication/js/demo3/bootstrap-filestyle.min.js HTTP/1.1" 200 7190
0:0:0:0:0:0:0:1 - - [09/Dec/2016:21:29:46 +0530] "GET /ITAFWebApplication/js/demo3/responsiveTables.js HTTP/1.1" 200 1886
0:0:0:0:0:0:0:1 - - [09/Dec/2016:21:29:46 +0530] "GET /ITAFWebApplication/js/bootstrap.min.js HTTP/1.1" 200 36868
0:0:0:0:0:0:0:1 - - [09/Dec/2016:21:29:46 +0530] "GET /ITAFWebApplication/js/objectCap.js HTTP/1.1" 200 11106
0:0:0:0:0:0:0:1 - - [09/Dec/2016:21:29:46 +0530] "GET /ITAFWebApplication/js/demo3/searchTable.js HTTP/1.1" 200 1022
0:0:0:0:0:0:0:1 - - [09/Dec/2016:21:29:46 +0530] "GET /ITAFWebApplication/js/demo3/try.js HTTP/1.1" 200 45488
0:0:0:0:0:0:0:1 - - [09/Dec/2016:21:29:53 +0530] "POST /ITAFWebApplication/itafpack.do HTTP/1.1" 200 54529
0:0:0:0:0:0:0:1 - - [09/Dec/2016:21:29:53 +0530] "GET /ITAFWebApplication/files/advancedReport.html?projectname=QBE_Automation&actionType=execute HTTP/1.1" 200 -
0:0:0:0:0:0:0:1 - - [09/Dec/2016:21:29:56 +0530] "POST /ITAFWebApplication/itafpack.do HTTP/1.1" 200 73867
0:0:0:0:0:0:0:1 - - [09/Dec/2016:21:29:56 +0530] "GET /ITAFWebApplication/files/advancedReport.html?projectname=QBE&actionType=execute HTTP/1.1" 200 23724
0:0:0:0:0:0:0:1 - - [09/Dec/2016:21:30:02 +0530] "POST /ITAFWebApplication/itafpack.do HTTP/1.1" 200 54529
0:0:0:0:0:0:0:1 - - [09/Dec/2016:21:30:02 +0530] "GET /ITAFWebApplication/files/advancedReport.html?projectname=QBE_Automation&actionType=execute HTTP/1.1" 200 -
0:0:0:0:0:0:0:1 - - [09/Dec/2016:21:30:15 +0530] "POST /ITAFWebApplication/Seleniumservice/resources/startStopObjectCapture HTTP/1.1" 200 34
0:0:0:0:0:0:0:1 - - [09/Dec/2016:21:30:15 +0530] "GET /ITAFWebApplication/js/inject.js HTTP/1.1" 200 14541
0:0:0:0:0:0:0:1 - - [09/Dec/2016:21:30:40 +0530] "POST /ITAFWebApplication/Seleniumservice/resources/startStopObjectCapture HTTP/1.1" 200 1535
0:0:0:0:0:0:0:1 - - [09/Dec/2016:21:30:44 +0530] "POST /ITAFWebApplication/Seleniumservice/resources/updateCSV HTTP/1.1" 204 -
0:0:0:0:0:0:0:1 - - [09/Dec/2016:21:30:51 +0530] "POST /ITAFWebApplication/itafpack.do HTTP/1.1" 200 84365
0:0:0:0:0:0:0:1 - - [09/Dec/2016:21:30:51 +0530] "GET /ITAFWebApplication/files/advancedReport.html?projectname=QBE_Automation&actionType=execute HTTP/1.1" 200 -
0:0:0:0:0:0:0:1 - - [09/Dec/2016:21:30:59 +0530] "POST /ITAFWebApplication/itafpack.do HTTP/1.1" 200 84563
0:0:0:0:0:0:0:1 - - [09/Dec/2016:21:30:59 +0530] "GET /ITAFWebApplication/files/advancedReport.html?projectname=QBE_Automation&actionType=execute HTTP/1.1" 200 -
0:0:0:0:0:0:0:1 - - [09/Dec/2016:21:31:25 +0530] "POST /ITAFWebApplication/itafpack.do HTTP/1.1" 200 58884
0:0:0:0:0:0:0:1 - - [09/Dec/2016:21:31:25 +0530] "GET /ITAFWebApplication/files/advancedReport.html?projectname=QBE_Automation&actionType=execute HTTP/1.1" 200 -
0:0:0:0:0:0:0:1 - - [09/Dec/2016:21:31:31 +0530] "POST /ITAFWebApplication/itafpack.do HTTP/1.1" 200 58918
0:0:0:0:0:0:0:1 - - [09/Dec/2016:21:31:31 +0530] "GET /ITAFWebApplication/files/advancedReport.html?projectname=QBE_Automation&actionType=execute HTTP/1.1" 200 -
0:0:0:0:0:0:0:1 - - [09/Dec/2016:21:31:36 +0530] "POST /ITAFWebApplication/itafpack.do HTTP/1.1" 200 60577
0:0:0:0:0:0:0:1 - - [09/Dec/2016:21:31:36 +0530] "GET /ITAFWebApplication/files/advancedReport.html?projectname=QBE_Automation&actionType=execute HTTP/1.1" 200 -
0:0:0:0:0:0:0:1 - - [09/Dec/2016:21:31:38 +0530] "POST /ITAFWebApplication/itafpack.do HTTP/1.1" 200 61375
0:0:0:0:0:0:0:1 - - [09/Dec/2016:21:31:38 +0530] "GET /ITAFWebApplication/files/advancedReport.html?projectname=QBE_Automation&actionType=execute HTTP/1.1" 200 -
0:0:0:0:0:0:0:1 - - [09/Dec/2016:21:31:51 +0530] "POST /ITAFWebApplication/itafpack.do HTTP/1.1" 200 61540
0:0:0:0:0:0:0:1 - - [09/Dec/2016:21:31:51 +0530] "GET /ITAFWebApplication/files/advancedReport.html?projectname=QBE_Automation&actionType=execute HTTP/1.1" 200 -
0:0:0:0:0:0:0:1 - - [09/Dec/2016:21:31:55 +0530] "POST /ITAFWebApplication/itafpack.do HTTP/1.1" 200 58773
0:0:0:0:0:0:0:1 - - [09/Dec/2016:21:31:55 +0530] "GET /ITAFWebApplication/files/advancedReport.html?projectname=QBE_Automation&actionType=execute HTTP/1.1" 200 -
0:0:0:0:0:0:0:1 - - [09/Dec/2016:21:32:08 +0530] "POST /ITAFWebApplication/itafpack.do HTTP/1.1" 200 63990
0:0:0:0:0:0:0:1 - - [09/Dec/2016:21:32:08 +0530] "GET /ITAFWebApplication/files/advancedReport.html?projectname=QBE_Automation&actionType=execute HTTP/1.1" 200 -
0:0:0:0:0:0:0:1 - - [09/Dec/2016:21:32:21 +0530] "POST /ITAFWebApplication/itafpack.do HTTP/1.1" 200 47760
0:0:0:0:0:0:0:1 - - [09/Dec/2016:21:32:37 +0530] "POST /ITAFWebApplication/itafpack.do HTTP/1.1" 200 72671
0:0:0:0:0:0:0:1 - - [09/Dec/2016:21:32:37 +0530] "GET /ITAFWebApplication/files/advancedReport.html?projectname=QBE&actionType=execute HTTP/1.1" 200 23724
0:0:0:0:0:0:0:1 - - [09/Dec/2016:21:33:43 +0530] "POST /ITAFWebApplication/itafpack.do HTTP/1.1" 200 49526
0:0:0:0:0:0:0:1 - - [09/Dec/2016:21:33:43 +0530] "GET /ITAFWebApplication/files/advancedReport.html?projectname=QBE%20Billing&actionType=execute HTTP/1.1" 200 -
0:0:0:0:0:0:0:1 - - [09/Dec/2016:21:33:45 +0530] "POST /ITAFWebApplication/itafpack.do HTTP/1.1" 200 49385
0:0:0:0:0:0:0:1 - - [09/Dec/2016:21:33:45 +0530] "GET /ITAFWebApplication/files/advancedReport.html?projectname=QBE%20Billing&actionType=execute HTTP/1.1" 200 -
0:0:0:0:0:0:0:1 - - [09/Dec/2016:21:33:59 +0530] "POST /ITAFWebApplication/itafpack.do HTTP/1.1" 200 49522
0:0:0:0:0:0:0:1 - - [09/Dec/2016:21:33:59 +0530] "GET /ITAFWebApplication/files/advancedReport.html?projectname=QBE%20Billing&actionType=execute HTTP/1.1" 200 -
0:0:0:0:0:0:0:1 - - [09/Dec/2016:21:34:04 +0530] "POST /ITAFWebApplication/itafpack.do HTTP/1.1" 200 49658
0:0:0:0:0:0:0:1 - - [09/Dec/2016:21:34:04 +0530] "GET /ITAFWebApplication/files/advancedReport.html?projectname=QBE%20Billing&actionType=execute HTTP/1.1" 200 -
0:0:0:0:0:0:0:1 - - [09/Dec/2016:21:34:09 +0530] "POST /ITAFWebApplication/itafpack.do HTTP/1.1" 200 66667
0:0:0:0:0:0:0:1 - - [09/Dec/2016:21:34:09 +0530] "GET /ITAFWebApplication/files/advancedReport.html?projectname=QBE%20Billing&actionType=execute HTTP/1.1" 200 -
0:0:0:0:0:0:0:1 - - [09/Dec/2016:21:34:20 +0530] "POST /ITAFWebApplication/Seleniumservice/resources/startStopObjectCapture HTTP/1.1" 200 34
0:0:0:0:0:0:0:1 - - [09/Dec/2016:21:34:20 +0530] "GET /ITAFWebApplication/js/inject.js HTTP/1.1" 200 14541
0:0:0:0:0:0:0:1 - - [09/Dec/2016:21:34:58 +0530] "POST /ITAFWebApplication/Seleniumservice/resources/startStopObjectCapture HTTP/1.1" 200 109
0:0:0:0:0:0:0:1 - - [09/Dec/2016:21:35:30 +0530] "POST /ITAFWebApplication/itafpack.do HTTP/1.1" 200 54405
0:0:0:0:0:0:0:1 - - [09/Dec/2016:21:35:30 +0530] "GET /ITAFWebApplication/files/advancedReport.html?projectname=QBE%20Billing&actionType=execute HTTP/1.1" 200 -
0:0:0:0:0:0:0:1 - - [09/Dec/2016:21:35:43 +0530] "POST /ITAFWebApplication/Seleniumservice/resources/startStopObjectCapture HTTP/1.1" 200 34
0:0:0:0:0:0:0:1 - - [09/Dec/2016:21:35:45 +0530] "GET /ITAFWebApplication/js/inject.js HTTP/1.1" 200 14541
0:0:0:0:0:0:0:1 - - [09/Dec/2016:21:36:03 +0530] "POST /ITAFWebApplication/Seleniumservice/resources/startStopObjectCapture HTTP/1.1" 200 1293
0:0:0:0:0:0:0:1 - - [09/Dec/2016:21:36:07 +0530] "POST /ITAFWebApplication/itafpack.do HTTP/1.1" 200 47757
0:0:0:0:0:0:0:1 - - [09/Dec/2016:21:36:25 +0530] "POST /ITAFWebApplication/logout.do HTTP/1.1" 302 -
0:0:0:0:0:0:0:1 - - [09/Dec/2016:21:36:25 +0530] "GET /ITAFWebApplication/login.jsp HTTP/1.1" 200 27677
