0:0:0:0:0:0:0:1 - - [06/Apr/2017:15:52:32 +0530] "GET /ITAFWebApplication/login.jsp HTTP/1.1" 200 27677
0:0:0:0:0:0:0:1 - - [06/Apr/2017:15:52:32 +0530] "GET /ITAFWebApplication/css/login.css HTTP/1.1" 200 1077
0:0:0:0:0:0:0:1 - - [06/Apr/2017:15:52:32 +0530] "GET /ITAFWebApplication/js/login.js HTTP/1.1" 200 6947
0:0:0:0:0:0:0:1 - - [06/Apr/2017:15:52:32 +0530] "GET /ITAFWebApplication/Images/iTAF_logo.png HTTP/1.1" 200 33472
0:0:0:0:0:0:0:1 - - [06/Apr/2017:15:52:32 +0530] "GET /ITAFWebApplication/css/bootstrap.min.css HTTP/1.1" 200 121260
0:0:0:0:0:0:0:1 - - [06/Apr/2017:15:52:32 +0530] "GET /ITAFWebApplication/fonts/glyphicons-halflings-regular.woff2 HTTP/1.1" 200 18028
0:0:0:0:0:0:0:1 - - [06/Apr/2017:15:52:40 +0530] "GET /ITAFWebApplication/css/demo3/try.css HTTP/1.1" 200 4871
0:0:0:0:0:0:0:1 - - [06/Apr/2017:15:52:40 +0530] "POST /ITAFWebApplication/login.do HTTP/1.1" 200 56039
0:0:0:0:0:0:0:1 - - [06/Apr/2017:15:52:40 +0530] "GET /ITAFWebApplication/css/demo3/responsiveTables.css HTTP/1.1" 200 182
0:0:0:0:0:0:0:1 - - [06/Apr/2017:15:52:40 +0530] "GET /ITAFWebApplication/js/jquery.min.js HTTP/1.1" 200 84380
0:0:0:0:0:0:0:1 - - [06/Apr/2017:15:52:40 +0530] "GET /ITAFWebApplication/js/bootstrap.min.js HTTP/1.1" 200 36868
0:0:0:0:0:0:0:1 - - [06/Apr/2017:15:52:40 +0530] "GET /ITAFWebApplication/js/demo3/responsiveTables.js HTTP/1.1" 200 1886
0:0:0:0:0:0:0:1 - - [06/Apr/2017:15:52:40 +0530] "GET /ITAFWebApplication/js/demo3/try.js HTTP/1.1" 200 45488
0:0:0:0:0:0:0:1 - - [06/Apr/2017:15:52:40 +0530] "GET /ITAFWebApplication/js/demo3/bootstrap-filestyle.min.js HTTP/1.1" 200 7190
0:0:0:0:0:0:0:1 - - [06/Apr/2017:15:52:40 +0530] "GET /ITAFWebApplication/js/demo3/RowSorter.js HTTP/1.1" 200 8102
0:0:0:0:0:0:0:1 - - [06/Apr/2017:15:52:40 +0530] "GET /ITAFWebApplication/js/demo3/searchTable.js HTTP/1.1" 200 1022
0:0:0:0:0:0:0:1 - - [06/Apr/2017:15:52:40 +0530] "GET /ITAFWebApplication/js/objectCap.js HTTP/1.1" 200 11106
0:0:0:0:0:0:0:1 - - [06/Apr/2017:15:52:59 +0530] "GET /ITAFWebApplication/css/demo3/try.css HTTP/1.1" 200 4871
0:0:0:0:0:0:0:1 - - [06/Apr/2017:15:52:59 +0530] "GET /ITAFWebApplication/css/bootstrap.min.css HTTP/1.1" 200 121260
0:0:0:0:0:0:0:1 - - [06/Apr/2017:15:52:59 +0530] "POST /ITAFWebApplication/itafpack.do HTTP/1.1" 200 70792
0:0:0:0:0:0:0:1 - - [06/Apr/2017:15:52:59 +0530] "GET /ITAFWebApplication/css/demo3/responsiveTables.css HTTP/1.1" 200 182
0:0:0:0:0:0:0:1 - - [06/Apr/2017:15:52:59 +0530] "GET /ITAFWebApplication/files/advancedReport.html?projectname=LibertyMutual&actionType=execute HTTP/1.1" 200 17400
0:0:0:0:0:0:0:1 - - [06/Apr/2017:15:53:02 +0530] "POST /ITAFWebApplication/itafpack.do HTTP/1.1" 200 70795
0:0:0:0:0:0:0:1 - - [06/Apr/2017:15:53:02 +0530] "GET /ITAFWebApplication/css/bootstrap.min.css HTTP/1.1" 200 121260
0:0:0:0:0:0:0:1 - - [06/Apr/2017:15:53:02 +0530] "GET /ITAFWebApplication/css/demo3/try.css HTTP/1.1" 200 4871
0:0:0:0:0:0:0:1 - - [06/Apr/2017:15:53:02 +0530] "GET /ITAFWebApplication/css/demo3/responsiveTables.css HTTP/1.1" 200 182
0:0:0:0:0:0:0:1 - - [06/Apr/2017:15:53:02 +0530] "GET /ITAFWebApplication/files/advancedReport.html?projectname=LibertyMutual&actionType=execute HTTP/1.1" 200 17400
0:0:0:0:0:0:0:1 - - [06/Apr/2017:15:53:22 +0530] "GET /ITAFWebApplication/css/bootstrap.min.css HTTP/1.1" 200 121260
0:0:0:0:0:0:0:1 - - [06/Apr/2017:15:53:22 +0530] "GET /ITAFWebApplication/css/demo3/try.css HTTP/1.1" 200 4871
0:0:0:0:0:0:0:1 - - [06/Apr/2017:15:53:22 +0530] "GET /ITAFWebApplication/css/demo3/responsiveTables.css HTTP/1.1" 200 182
0:0:0:0:0:0:0:1 - - [06/Apr/2017:15:53:22 +0530] "GET /ITAFWebApplication/js/jquery.min.map HTTP/1.1" 404 1064
0:0:0:0:0:0:0:1 - - [06/Apr/2017:15:53:22 +0530] "GET /ITAFWebApplication/css/bootstrap.min.css.map HTTP/1.1" 404 1080
0:0:0:0:0:0:0:1 - - [06/Apr/2017:15:54:03 +0530] "GET /ITAFWebApplication/js/jquery.min.map HTTP/1.1" 404 1064
0:0:0:0:0:0:0:1 - - [06/Apr/2017:15:54:03 +0530] "GET /ITAFWebApplication/css/bootstrap.min.css.map HTTP/1.1" 404 1080
0:0:0:0:0:0:0:1 - - [06/Apr/2017:15:58:17 +0530] "POST /ITAFWebApplication/itafpack.do HTTP/1.1" 200 73851
0:0:0:0:0:0:0:1 - - [06/Apr/2017:15:58:17 +0530] "GET /ITAFWebApplication/css/bootstrap.min.css.map HTTP/1.1" 404 1080
0:0:0:0:0:0:0:1 - - [06/Apr/2017:15:58:17 +0530] "GET /ITAFWebApplication/js/jquery.min.map HTTP/1.1" 404 1064
0:0:0:0:0:0:0:1 - - [06/Apr/2017:15:58:31 +0530] "GET /ITAFWebApplication/files/advancedReport.html?projectname=LibertyMutual&actionType=execute HTTP/1.1" 200 17400
0:0:0:0:0:0:0:1 - - [06/Apr/2017:15:58:31 +0530] "GET /ITAFWebApplication/css/bootstrap.min.css.map HTTP/1.1" 404 1080
0:0:0:0:0:0:0:1 - - [06/Apr/2017:15:58:54 +0530] "GET /ITAFWebApplication/css/bootstrap.min.css HTTP/1.1" 200 121260
0:0:0:0:0:0:0:1 - - [06/Apr/2017:15:58:54 +0530] "GET /ITAFWebApplication/css/demo3/try.css HTTP/1.1" 200 4871
0:0:0:0:0:0:0:1 - - [06/Apr/2017:15:58:54 +0530] "POST /ITAFWebApplication/itafpack.do HTTP/1.1" 200 73878
0:0:0:0:0:0:0:1 - - [06/Apr/2017:15:58:54 +0530] "GET /ITAFWebApplication/css/demo3/responsiveTables.css HTTP/1.1" 200 182
0:0:0:0:0:0:0:1 - - [06/Apr/2017:15:58:54 +0530] "GET /ITAFWebApplication/files/advancedReport.html?projectname=LibertyMutual&actionType=execute HTTP/1.1" 200 17400
0:0:0:0:0:0:0:1 - - [06/Apr/2017:15:59:45 +0530] "GET /ITAFWebApplication/css/bootstrap.min.css HTTP/1.1" 200 121260
0:0:0:0:0:0:0:1 - - [06/Apr/2017:15:59:45 +0530] "GET /ITAFWebApplication/css/demo3/try.css HTTP/1.1" 200 4871
0:0:0:0:0:0:0:1 - - [06/Apr/2017:15:59:45 +0530] "POST /ITAFWebApplication/itafpack.do HTTP/1.1" 200 73908
0:0:0:0:0:0:0:1 - - [06/Apr/2017:15:59:45 +0530] "GET /ITAFWebApplication/css/demo3/responsiveTables.css HTTP/1.1" 200 182
0:0:0:0:0:0:0:1 - - [06/Apr/2017:15:59:45 +0530] "GET /ITAFWebApplication/files/advancedReport.html?projectname=LibertyMutual&actionType=execute HTTP/1.1" 200 17400
0:0:0:0:0:0:0:1 - - [06/Apr/2017:16:00:33 +0530] "GET /ITAFWebApplication/css/demo3/try.css HTTP/1.1" 200 4871
0:0:0:0:0:0:0:1 - - [06/Apr/2017:16:00:33 +0530] "GET /ITAFWebApplication/css/bootstrap.min.css HTTP/1.1" 200 121260
0:0:0:0:0:0:0:1 - - [06/Apr/2017:16:00:33 +0530] "GET /ITAFWebApplication/css/demo3/responsiveTables.css HTTP/1.1" 200 182
0:0:0:0:0:0:0:1 - - [06/Apr/2017:16:00:33 +0530] "POST /ITAFWebApplication/uploaddownload.do HTTP/1.1" 200 84958
0:0:0:0:0:0:0:1 - - [06/Apr/2017:16:00:33 +0530] "GET /ITAFWebApplication/files/advancedReport.html?projectname=LibertyMutual&actionType=execute HTTP/1.1" 200 17400
0:0:0:0:0:0:0:1 - - [06/Apr/2017:18:44:21 +0530] "POST /ITAFWebApplication/uploaddownload.do HTTP/1.1" 302 -
0:0:0:0:0:0:0:1 - - [06/Apr/2017:18:44:21 +0530] "GET /ITAFWebApplication/login.jsp HTTP/1.1" 200 27677
0:0:0:0:0:0:0:1 - - [06/Apr/2017:18:44:21 +0530] "GET /ITAFWebApplication/css/login.css HTTP/1.1" 200 1077
0:0:0:0:0:0:0:1 - - [06/Apr/2017:18:44:21 +0530] "GET /ITAFWebApplication/css/bootstrap.min.css HTTP/1.1" 200 121260
0:0:0:0:0:0:0:1 - - [06/Apr/2017:18:44:26 +0530] "POST /ITAFWebApplication/login.do HTTP/1.1" 200 27738
0:0:0:0:0:0:0:1 - - [06/Apr/2017:18:44:31 +0530] "POST /ITAFWebApplication/login.do HTTP/1.1" 200 27738
0:0:0:0:0:0:0:1 - - [06/Apr/2017:18:44:39 +0530] "POST /ITAFWebApplication/login.do HTTP/1.1" 200 56039
0:0:0:0:0:0:0:1 - - [06/Apr/2017:18:44:39 +0530] "GET /ITAFWebApplication/css/demo3/try.css HTTP/1.1" 200 4871
0:0:0:0:0:0:0:1 - - [06/Apr/2017:18:44:39 +0530] "GET /ITAFWebApplication/css/demo3/responsiveTables.css HTTP/1.1" 200 182
0:0:0:0:0:0:0:1 - - [06/Apr/2017:18:44:45 +0530] "POST /ITAFWebApplication/itafpack.do HTTP/1.1" 200 84823
0:0:0:0:0:0:0:1 - - [06/Apr/2017:18:44:45 +0530] "GET /ITAFWebApplication/files/advancedReport.html?projectname=LibertyMutual&actionType=execute HTTP/1.1" 200 17400
0:0:0:0:0:0:0:1 - - [06/Apr/2017:18:44:47 +0530] "POST /ITAFWebApplication/itafpack.do HTTP/1.1" 200 84826
0:0:0:0:0:0:0:1 - - [06/Apr/2017:18:44:47 +0530] "GET /ITAFWebApplication/css/bootstrap.min.css HTTP/1.1" 200 121260
0:0:0:0:0:0:0:1 - - [06/Apr/2017:18:44:47 +0530] "GET /ITAFWebApplication/css/demo3/try.css HTTP/1.1" 200 4871
0:0:0:0:0:0:0:1 - - [06/Apr/2017:18:44:47 +0530] "GET /ITAFWebApplication/files/advancedReport.html?projectname=LibertyMutual&actionType=execute HTTP/1.1" 200 17400
0:0:0:0:0:0:0:1 - - [06/Apr/2017:18:44:53 +0530] "POST /ITAFWebApplication/uploaddownload.do HTTP/1.1" 200 72911
0:0:0:0:0:0:0:1 - - [06/Apr/2017:18:44:53 +0530] "GET /ITAFWebApplication/files/advancedReport.html?projectname=LibertyMutual&actionType=execute HTTP/1.1" 200 17400
