0:0:0:0:0:0:0:1 - - [02/Nov/2016:08:14:35 -0500] "GET /ITAFWebApplication/login.jsp HTTP/1.1" 200 27677
0:0:0:0:0:0:0:1 - - [02/Nov/2016:08:14:35 -0500] "GET /ITAFWebApplication/css/bootstrap.min.css HTTP/1.1" 200 121260
0:0:0:0:0:0:0:1 - - [02/Nov/2016:08:14:35 -0500] "GET /ITAFWebApplication/css/login.css HTTP/1.1" 200 1077
0:0:0:0:0:0:0:1 - - [02/Nov/2016:08:14:35 -0500] "GET /ITAFWebApplication/js/login.js HTTP/1.1" 200 6947
0:0:0:0:0:0:0:1 - - [02/Nov/2016:08:14:35 -0500] "GET /ITAFWebApplication/Images/iTAF_logo.png HTTP/1.1" 200 33472
0:0:0:0:0:0:0:1 - - [02/Nov/2016:08:14:35 -0500] "GET /ITAFWebApplication/fonts/glyphicons-halflings-regular.woff2 HTTP/1.1" 200 18028
0:0:0:0:0:0:0:1 - - [02/Nov/2016:08:14:46 -0500] "GET /ITAFWebApplication/css/demo3/try.css HTTP/1.1" 200 4871
0:0:0:0:0:0:0:1 - - [02/Nov/2016:08:14:46 -0500] "POST /ITAFWebApplication/login.do HTTP/1.1" 200 49839
0:0:0:0:0:0:0:1 - - [02/Nov/2016:08:14:46 -0500] "GET /ITAFWebApplication/js/jquery.min.js HTTP/1.1" 200 84380
0:0:0:0:0:0:0:1 - - [02/Nov/2016:08:14:46 -0500] "GET /ITAFWebApplication/css/demo3/responsiveTables.css HTTP/1.1" 200 182
0:0:0:0:0:0:0:1 - - [02/Nov/2016:08:14:46 -0500] "GET /ITAFWebApplication/js/demo3/try.js HTTP/1.1" 200 46054
0:0:0:0:0:0:0:1 - - [02/Nov/2016:08:14:46 -0500] "GET /ITAFWebApplication/js/demo3/responsiveTables.js HTTP/1.1" 200 1886
0:0:0:0:0:0:0:1 - - [02/Nov/2016:08:14:46 -0500] "GET /ITAFWebApplication/js/objectCap.js HTTP/1.1" 200 11106
0:0:0:0:0:0:0:1 - - [02/Nov/2016:08:14:46 -0500] "GET /ITAFWebApplication/js/demo3/searchTable.js HTTP/1.1" 200 1022
0:0:0:0:0:0:0:1 - - [02/Nov/2016:08:14:46 -0500] "GET /ITAFWebApplication/js/demo3/bootstrap-filestyle.min.js HTTP/1.1" 200 7190
0:0:0:0:0:0:0:1 - - [02/Nov/2016:08:14:46 -0500] "GET /ITAFWebApplication/js/bootstrap.min.js HTTP/1.1" 200 36868
0:0:0:0:0:0:0:1 - - [02/Nov/2016:08:14:46 -0500] "GET /ITAFWebApplication/js/demo3/RowSorter.js HTTP/1.1" 200 8102
