172.16.202.83 - - [19/Sep/2016:11:14:39 +0530] "GET /ITAFWebApplication/login.jsp HTTP/1.1" 200 27710
172.16.202.83 - - [19/Sep/2016:11:14:39 +0530] "GET /ITAFWebApplication/iTAF_logo1.gif HTTP/1.1" 302 -
172.16.202.83 - - [19/Sep/2016:11:14:39 +0530] "GET /ITAFWebApplication/css/login.css HTTP/1.1" 302 -
172.16.202.83 - - [19/Sep/2016:11:14:39 +0530] "GET /ITAFWebApplication/css/bootstrap.min.css HTTP/1.1" 302 -
172.16.202.83 - - [19/Sep/2016:11:14:39 +0530] "GET /ITAFWebApplication/login.jsp HTTP/1.1" 200 27710
172.16.202.83 - - [19/Sep/2016:11:14:39 +0530] "GET /ITAFWebApplication/css/login.jsp HTTP/1.1" 404 1056
172.16.202.83 - - [19/Sep/2016:11:14:39 +0530] "GET /ITAFWebApplication/css/login.jsp HTTP/1.1" 404 1056
172.16.202.83 - - [19/Sep/2016:11:14:39 +0530] "GET /ITAFWebApplication/js/login.js HTTP/1.1" 302 -
172.16.202.83 - - [19/Sep/2016:11:14:40 +0530] "GET /ITAFWebApplication/js/login.jsp HTTP/1.1" 404 1054
