0:0:0:0:0:0:0:1 - - [11/Nov/2016:06:11:26 -0600] "GET /favicon.ico HTTP/1.1" 200 21630
0:0:0:0:0:0:0:1 - - [11/Nov/2016:06:11:26 -0600] "GET /ITAFWebApplication/login.jsp HTTP/1.1" 200 27677
0:0:0:0:0:0:0:1 - - [11/Nov/2016:06:11:26 -0600] "GET /ITAFWebApplication/css/login.css HTTP/1.1" 200 1077
0:0:0:0:0:0:0:1 - - [11/Nov/2016:06:11:26 -0600] "GET /ITAFWebApplication/css/bootstrap.min.css HTTP/1.1" 200 121260
0:0:0:0:0:0:0:1 - - [11/Nov/2016:06:11:26 -0600] "GET /ITAFWebApplication/js/login.js HTTP/1.1" 200 6947
0:0:0:0:0:0:0:1 - - [11/Nov/2016:06:11:26 -0600] "GET /ITAFWebApplication/Images/iTAF_logo.png HTTP/1.1" 200 33472
0:0:0:0:0:0:0:1 - - [11/Nov/2016:06:11:26 -0600] "GET /ITAFWebApplication/fonts/glyphicons-halflings-regular.woff2 HTTP/1.1" 200 18028
0:0:0:0:0:0:0:1 - - [11/Nov/2016:06:11:48 -0600] "POST /ITAFWebApplication/login.do HTTP/1.1" 200 27738
0:0:0:0:0:0:0:1 - - [11/Nov/2016:06:12:03 -0600] "GET /ITAFWebApplication/css/demo3/try.css HTTP/1.1" 200 4871
0:0:0:0:0:0:0:1 - - [11/Nov/2016:06:12:03 -0600] "POST /ITAFWebApplication/login.do HTTP/1.1" 200 52485
0:0:0:0:0:0:0:1 - - [11/Nov/2016:06:12:03 -0600] "GET /ITAFWebApplication/css/demo3/responsiveTables.css HTTP/1.1" 200 182
0:0:0:0:0:0:0:1 - - [11/Nov/2016:06:12:03 -0600] "GET /ITAFWebApplication/js/jquery.min.js HTTP/1.1" 200 84380
0:0:0:0:0:0:0:1 - - [11/Nov/2016:06:12:03 -0600] "GET /ITAFWebApplication/js/bootstrap.min.js HTTP/1.1" 200 36868
0:0:0:0:0:0:0:1 - - [11/Nov/2016:06:12:03 -0600] "GET /ITAFWebApplication/js/demo3/responsiveTables.js HTTP/1.1" 200 1886
0:0:0:0:0:0:0:1 - - [11/Nov/2016:06:12:03 -0600] "GET /ITAFWebApplication/js/demo3/bootstrap-filestyle.min.js HTTP/1.1" 200 7190
0:0:0:0:0:0:0:1 - - [11/Nov/2016:06:12:03 -0600] "GET /ITAFWebApplication/js/objectCap.js HTTP/1.1" 200 11106
0:0:0:0:0:0:0:1 - - [11/Nov/2016:06:12:03 -0600] "GET /ITAFWebApplication/js/demo3/searchTable.js HTTP/1.1" 200 1022
0:0:0:0:0:0:0:1 - - [11/Nov/2016:06:12:03 -0600] "GET /ITAFWebApplication/js/demo3/RowSorter.js HTTP/1.1" 200 8102
0:0:0:0:0:0:0:1 - - [11/Nov/2016:06:12:03 -0600] "GET /ITAFWebApplication/js/demo3/try.js HTTP/1.1" 200 45488
0:0:0:0:0:0:0:1 - - [11/Nov/2016:06:12:13 -0600] "POST /ITAFWebApplication/itafpack.do HTTP/1.1" 200 79823
0:0:0:0:0:0:0:1 - - [11/Nov/2016:06:12:13 -0600] "GET /ITAFWebApplication/files/advancedReport.html?projectname=ACCC_OPAS&actionType=execute HTTP/1.1" 200 24234
0:0:0:0:0:0:0:1 - - [11/Nov/2016:06:12:14 -0600] "POST /ITAFWebApplication/itafpack.do HTTP/1.1" 200 79979
0:0:0:0:0:0:0:1 - - [11/Nov/2016:06:12:14 -0600] "GET /ITAFWebApplication/files/advancedReport.html?projectname=ACCC_OPAS&actionType=execute HTTP/1.1" 200 24234
0:0:0:0:0:0:0:1 - - [11/Nov/2016:06:13:17 -0600] "POST /ITAFWebApplication/itafpack.do HTTP/1.1" 200 79979
0:0:0:0:0:0:0:1 - - [11/Nov/2016:06:13:17 -0600] "GET /ITAFWebApplication/files/advancedReport.html?projectname=ACCC_OPAS&actionType=execute HTTP/1.1" 200 24234
0:0:0:0:0:0:0:1 - - [11/Nov/2016:06:13:22 -0600] "POST /ITAFWebApplication/itafpack.do HTTP/1.1" 200 81829
0:0:0:0:0:0:0:1 - - [11/Nov/2016:06:13:22 -0600] "GET /ITAFWebApplication/files/advancedReport.html?projectname=ACCC_OPAS&actionType=execute HTTP/1.1" 200 24234
0:0:0:0:0:0:0:1 - - [11/Nov/2016:06:13:28 -0600] "POST /ITAFWebApplication/itafpack.do HTTP/1.1" 200 84176
0:0:0:0:0:0:0:1 - - [11/Nov/2016:06:13:28 -0600] "GET /ITAFWebApplication/files/advancedReport.html?projectname=ACCC_OPAS&actionType=execute HTTP/1.1" 200 24234
0:0:0:0:0:0:0:1 - - [11/Nov/2016:06:13:41 -0600] "POST /ITAFWebApplication/itafpack.do HTTP/1.1" 200 84332
0:0:0:0:0:0:0:1 - - [11/Nov/2016:06:13:41 -0600] "GET /ITAFWebApplication/files/advancedReport.html?projectname=ACCC_OPAS&actionType=execute HTTP/1.1" 200 24234
0:0:0:0:0:0:0:1 - - [11/Nov/2016:06:13:56 -0600] "POST /ITAFWebApplication/itafpack.do HTTP/1.1" 200 84188
0:0:0:0:0:0:0:1 - - [11/Nov/2016:06:13:56 -0600] "GET /ITAFWebApplication/files/advancedReport.html?projectname=ACCC_OPAS&actionType=execute HTTP/1.1" 200 24234
0:0:0:0:0:0:0:1 - - [11/Nov/2016:06:14:02 -0600] "POST /ITAFWebApplication/itafpack.do HTTP/1.1" 200 84344
0:0:0:0:0:0:0:1 - - [11/Nov/2016:06:14:02 -0600] "GET /ITAFWebApplication/files/advancedReport.html?projectname=ACCC_OPAS&actionType=execute HTTP/1.1" 200 24234
0:0:0:0:0:0:0:1 - - [11/Nov/2016:06:14:08 -0600] "POST /ITAFWebApplication/itafpack.do HTTP/1.1" 200 84150
0:0:0:0:0:0:0:1 - - [11/Nov/2016:06:14:08 -0600] "GET /ITAFWebApplication/files/advancedReport.html?projectname=ACCC_OPAS&actionType=execute HTTP/1.1" 200 24234
0:0:0:0:0:0:0:1 - - [11/Nov/2016:06:14:13 -0600] "POST /ITAFWebApplication/itafpack.do HTTP/1.1" 200 84306
0:0:0:0:0:0:0:1 - - [11/Nov/2016:06:14:13 -0600] "GET /ITAFWebApplication/files/advancedReport.html?projectname=ACCC_OPAS&actionType=execute HTTP/1.1" 200 24234
0:0:0:0:0:0:0:1 - - [11/Nov/2016:06:14:36 -0600] "POST /ITAFWebApplication/itafpack.do HTTP/1.1" 200 84150
0:0:0:0:0:0:0:1 - - [11/Nov/2016:06:14:36 -0600] "GET /ITAFWebApplication/files/advancedReport.html?projectname=ACCC_OPAS&actionType=execute HTTP/1.1" 200 24234
0:0:0:0:0:0:0:1 - - [11/Nov/2016:06:14:42 -0600] "POST /ITAFWebApplication/itafpack.do HTTP/1.1" 200 84306
0:0:0:0:0:0:0:1 - - [11/Nov/2016:06:14:42 -0600] "GET /ITAFWebApplication/files/advancedReport.html?projectname=ACCC_OPAS&actionType=execute HTTP/1.1" 200 24234
0:0:0:0:0:0:0:1 - - [11/Nov/2016:06:14:45 -0600] "POST /ITAFWebApplication/itafpack.do HTTP/1.1" 200 84176
0:0:0:0:0:0:0:1 - - [11/Nov/2016:06:14:46 -0600] "GET /ITAFWebApplication/files/advancedReport.html?projectname=ACCC_OPAS&actionType=execute HTTP/1.1" 200 24234
0:0:0:0:0:0:0:1 - - [11/Nov/2016:06:14:56 -0600] "POST /ITAFWebApplication/itafpack.do HTTP/1.1" 200 84332
0:0:0:0:0:0:0:1 - - [11/Nov/2016:06:14:57 -0600] "GET /ITAFWebApplication/files/advancedReport.html?projectname=ACCC_OPAS&actionType=execute HTTP/1.1" 200 24234
