20-Feb-2017 10:55:33.123 INFO [localhost-startStop-1] org.apache.catalina.core.ApplicationContext.log RequestLoggingFilter initialized
20-Feb-2017 10:55:33.124 INFO [localhost-startStop-1] org.apache.catalina.core.ApplicationContext.log AuthenticationFilter initialized
20-Feb-2017 10:55:33.124 INFO [localhost-startStop-1] org.apache.catalina.core.ApplicationContext.log AuthenticationFilter initialized
20-Feb-2017 10:55:33.124 INFO [localhost-startStop-1] org.apache.catalina.core.ApplicationContext.log RequestLoggingFilter initialized
20-Feb-2017 10:55:35.658 INFO [localhost-startStop-1] org.apache.catalina.core.ApplicationContext.log ContextListener: contextInitialized()
20-Feb-2017 10:55:35.658 INFO [localhost-startStop-1] org.apache.catalina.core.ApplicationContext.log SessionListener: contextInitialized()
20-Feb-2017 10:58:54.853 INFO [https-openssl-nio-8443-exec-8] org.apache.catalina.core.ApplicationContext.log Requested Resource::/ITAFWebApplication/
20-Feb-2017 10:58:54.854 INFO [https-openssl-nio-8443-exec-8] org.apache.catalina.core.ApplicationContext.log Unauthorized access request
20-Feb-2017 10:58:54.872 INFO [https-openssl-nio-8443-exec-8] org.apache.catalina.core.ApplicationContext.log Requested Resource::/ITAFWebApplication/login.jsp
20-Feb-2017 10:58:55.108 INFO [https-openssl-nio-8443-exec-6] org.apache.catalina.core.ApplicationContext.log 0:0:0:0:0:0:0:1::Cookie::{JSESSIONID,E151204848F3BD3D6B2EA19C1A9484EC}
20-Feb-2017 10:58:55.108 INFO [https-openssl-nio-8443-exec-3] org.apache.catalina.core.ApplicationContext.log 0:0:0:0:0:0:0:1::Cookie::{JSESSIONID,E151204848F3BD3D6B2EA19C1A9484EC}
20-Feb-2017 10:58:55.108 INFO [https-openssl-nio-8443-exec-6] org.apache.catalina.core.ApplicationContext.log Requested Resource::/ITAFWebApplication/css/login.css
20-Feb-2017 10:58:55.108 INFO [https-openssl-nio-8443-exec-3] org.apache.catalina.core.ApplicationContext.log Requested Resource::/ITAFWebApplication/css/bootstrap.min.css
20-Feb-2017 10:58:55.279 INFO [https-openssl-nio-8443-exec-1] org.apache.catalina.core.ApplicationContext.log 0:0:0:0:0:0:0:1::Cookie::{JSESSIONID,E151204848F3BD3D6B2EA19C1A9484EC}
20-Feb-2017 10:58:55.280 INFO [https-openssl-nio-8443-exec-1] org.apache.catalina.core.ApplicationContext.log Requested Resource::/ITAFWebApplication/js/login.js
20-Feb-2017 10:58:55.312 INFO [https-openssl-nio-8443-exec-7] org.apache.catalina.core.ApplicationContext.log 0:0:0:0:0:0:0:1::Cookie::{JSESSIONID,E151204848F3BD3D6B2EA19C1A9484EC}
20-Feb-2017 10:58:55.313 INFO [https-openssl-nio-8443-exec-7] org.apache.catalina.core.ApplicationContext.log Requested Resource::/ITAFWebApplication/Images/iTAF_logo.png
20-Feb-2017 10:58:55.388 INFO [https-openssl-nio-8443-exec-4] org.apache.catalina.core.ApplicationContext.log 0:0:0:0:0:0:0:1::Cookie::{JSESSIONID,E151204848F3BD3D6B2EA19C1A9484EC}
20-Feb-2017 10:58:55.388 INFO [https-openssl-nio-8443-exec-4] org.apache.catalina.core.ApplicationContext.log Requested Resource::/ITAFWebApplication/fonts/glyphicons-halflings-regular.woff2
20-Feb-2017 11:04:27.634 INFO [https-openssl-nio-8443-exec-1] org.apache.catalina.core.ApplicationContext.log 0:0:0:0:0:0:0:1::Request Params::{user=admin}
20-Feb-2017 11:04:27.634 INFO [https-openssl-nio-8443-exec-1] org.apache.catalina.core.ApplicationContext.log 0:0:0:0:0:0:0:1::Request Params::{password=password10}
20-Feb-2017 11:04:27.634 INFO [https-openssl-nio-8443-exec-1] org.apache.catalina.core.ApplicationContext.log 0:0:0:0:0:0:0:1::Cookie::{JSESSIONID,E151204848F3BD3D6B2EA19C1A9484EC}
20-Feb-2017 11:04:27.634 INFO [https-openssl-nio-8443-exec-1] org.apache.catalina.core.ApplicationContext.log Requested Resource::/ITAFWebApplication/login.do
20-Feb-2017 11:04:28.895 INFO [https-openssl-nio-8443-exec-6] org.apache.catalina.core.ApplicationContext.log 0:0:0:0:0:0:0:1::Cookie::{JSESSIONID,E151204848F3BD3D6B2EA19C1A9484EC}
20-Feb-2017 11:04:28.895 INFO [https-openssl-nio-8443-exec-6] org.apache.catalina.core.ApplicationContext.log 0:0:0:0:0:0:0:1::Cookie::{user,admin}
20-Feb-2017 11:04:28.895 INFO [https-openssl-nio-8443-exec-6] org.apache.catalina.core.ApplicationContext.log Requested Resource::/ITAFWebApplication/css/bootstrap.min.css
20-Feb-2017 11:04:28.896 INFO [https-openssl-nio-8443-exec-10] org.apache.catalina.core.ApplicationContext.log 0:0:0:0:0:0:0:1::Cookie::{JSESSIONID,E151204848F3BD3D6B2EA19C1A9484EC}
20-Feb-2017 11:04:28.896 INFO [https-openssl-nio-8443-exec-10] org.apache.catalina.core.ApplicationContext.log 0:0:0:0:0:0:0:1::Cookie::{user,admin}
20-Feb-2017 11:04:28.896 INFO [https-openssl-nio-8443-exec-10] org.apache.catalina.core.ApplicationContext.log Requested Resource::/ITAFWebApplication/css/demo3/try.css
20-Feb-2017 11:04:29.061 INFO [https-openssl-nio-8443-exec-3] org.apache.catalina.core.ApplicationContext.log 0:0:0:0:0:0:0:1::Cookie::{JSESSIONID,E151204848F3BD3D6B2EA19C1A9484EC}
20-Feb-2017 11:04:29.061 INFO [https-openssl-nio-8443-exec-3] org.apache.catalina.core.ApplicationContext.log 0:0:0:0:0:0:0:1::Cookie::{user,admin}
20-Feb-2017 11:04:29.061 INFO [https-openssl-nio-8443-exec-3] org.apache.catalina.core.ApplicationContext.log Requested Resource::/ITAFWebApplication/css/demo3/responsiveTables.css
20-Feb-2017 11:04:29.075 INFO [https-openssl-nio-8443-exec-7] org.apache.catalina.core.ApplicationContext.log 0:0:0:0:0:0:0:1::Cookie::{JSESSIONID,E151204848F3BD3D6B2EA19C1A9484EC}
20-Feb-2017 11:04:29.075 INFO [https-openssl-nio-8443-exec-4] org.apache.catalina.core.ApplicationContext.log 0:0:0:0:0:0:0:1::Cookie::{JSESSIONID,E151204848F3BD3D6B2EA19C1A9484EC}
20-Feb-2017 11:04:29.075 INFO [https-openssl-nio-8443-exec-7] org.apache.catalina.core.ApplicationContext.log 0:0:0:0:0:0:0:1::Cookie::{user,admin}
20-Feb-2017 11:04:29.075 INFO [https-openssl-nio-8443-exec-4] org.apache.catalina.core.ApplicationContext.log 0:0:0:0:0:0:0:1::Cookie::{user,admin}
20-Feb-2017 11:04:29.075 INFO [https-openssl-nio-8443-exec-7] org.apache.catalina.core.ApplicationContext.log Requested Resource::/ITAFWebApplication/js/bootstrap.min.js
20-Feb-2017 11:04:29.075 INFO [https-openssl-nio-8443-exec-4] org.apache.catalina.core.ApplicationContext.log Requested Resource::/ITAFWebApplication/js/jquery.min.js
20-Feb-2017 11:04:29.085 INFO [https-openssl-nio-8443-exec-8] org.apache.catalina.core.ApplicationContext.log 0:0:0:0:0:0:0:1::Cookie::{JSESSIONID,E151204848F3BD3D6B2EA19C1A9484EC}
20-Feb-2017 11:04:29.085 INFO [https-openssl-nio-8443-exec-8] org.apache.catalina.core.ApplicationContext.log 0:0:0:0:0:0:0:1::Cookie::{user,admin}
20-Feb-2017 11:04:29.085 INFO [https-openssl-nio-8443-exec-8] org.apache.catalina.core.ApplicationContext.log Requested Resource::/ITAFWebApplication/js/demo3/try.js
20-Feb-2017 11:04:29.088 INFO [https-openssl-nio-8443-exec-9] org.apache.catalina.core.ApplicationContext.log 0:0:0:0:0:0:0:1::Cookie::{JSESSIONID,E151204848F3BD3D6B2EA19C1A9484EC}
20-Feb-2017 11:04:29.089 INFO [https-openssl-nio-8443-exec-9] org.apache.catalina.core.ApplicationContext.log 0:0:0:0:0:0:0:1::Cookie::{user,admin}
20-Feb-2017 11:04:29.089 INFO [https-openssl-nio-8443-exec-9] org.apache.catalina.core.ApplicationContext.log Requested Resource::/ITAFWebApplication/js/demo3/bootstrap-filestyle.min.js
20-Feb-2017 11:04:29.089 INFO [https-openssl-nio-8443-exec-2] org.apache.catalina.core.ApplicationContext.log 0:0:0:0:0:0:0:1::Cookie::{JSESSIONID,E151204848F3BD3D6B2EA19C1A9484EC}
20-Feb-2017 11:04:29.089 INFO [https-openssl-nio-8443-exec-2] org.apache.catalina.core.ApplicationContext.log 0:0:0:0:0:0:0:1::Cookie::{user,admin}
20-Feb-2017 11:04:29.089 INFO [https-openssl-nio-8443-exec-2] org.apache.catalina.core.ApplicationContext.log Requested Resource::/ITAFWebApplication/js/objectCap.js
20-Feb-2017 11:04:29.091 INFO [https-openssl-nio-8443-exec-5] org.apache.catalina.core.ApplicationContext.log 0:0:0:0:0:0:0:1::Cookie::{JSESSIONID,E151204848F3BD3D6B2EA19C1A9484EC}
20-Feb-2017 11:04:29.091 INFO [https-openssl-nio-8443-exec-5] org.apache.catalina.core.ApplicationContext.log 0:0:0:0:0:0:0:1::Cookie::{user,admin}
20-Feb-2017 11:04:29.091 INFO [https-openssl-nio-8443-exec-5] org.apache.catalina.core.ApplicationContext.log Requested Resource::/ITAFWebApplication/js/demo3/RowSorter.js
20-Feb-2017 11:04:29.097 INFO [https-openssl-nio-8443-exec-1] org.apache.catalina.core.ApplicationContext.log 0:0:0:0:0:0:0:1::Cookie::{JSESSIONID,E151204848F3BD3D6B2EA19C1A9484EC}
20-Feb-2017 11:04:29.097 INFO [https-openssl-nio-8443-exec-1] org.apache.catalina.core.ApplicationContext.log 0:0:0:0:0:0:0:1::Cookie::{user,admin}
20-Feb-2017 11:04:29.097 INFO [https-openssl-nio-8443-exec-1] org.apache.catalina.core.ApplicationContext.log Requested Resource::/ITAFWebApplication/js/demo3/searchTable.js
20-Feb-2017 11:04:29.109 INFO [https-openssl-nio-8443-exec-3] org.apache.catalina.core.ApplicationContext.log 0:0:0:0:0:0:0:1::Cookie::{JSESSIONID,E151204848F3BD3D6B2EA19C1A9484EC}
20-Feb-2017 11:04:29.109 INFO [https-openssl-nio-8443-exec-3] org.apache.catalina.core.ApplicationContext.log 0:0:0:0:0:0:0:1::Cookie::{user,admin}
20-Feb-2017 11:04:29.109 INFO [https-openssl-nio-8443-exec-3] org.apache.catalina.core.ApplicationContext.log Requested Resource::/ITAFWebApplication/js/demo3/responsiveTables.js
20-Feb-2017 11:04:31.004 INFO [https-openssl-nio-8443-exec-10] org.apache.catalina.core.ApplicationContext.log 0:0:0:0:0:0:0:1::Request Params::{navigationAction=execute}
20-Feb-2017 11:04:31.004 INFO [https-openssl-nio-8443-exec-10] org.apache.catalina.core.ApplicationContext.log 0:0:0:0:0:0:0:1::Cookie::{JSESSIONID,E151204848F3BD3D6B2EA19C1A9484EC}
20-Feb-2017 11:04:31.004 INFO [https-openssl-nio-8443-exec-10] org.apache.catalina.core.ApplicationContext.log 0:0:0:0:0:0:0:1::Cookie::{user,admin}
20-Feb-2017 11:04:31.005 INFO [https-openssl-nio-8443-exec-10] org.apache.catalina.core.ApplicationContext.log Requested Resource::/ITAFWebApplication/itafexecute.do
20-Feb-2017 11:04:31.121 INFO [https-openssl-nio-8443-exec-6] org.apache.catalina.core.ApplicationContext.log 0:0:0:0:0:0:0:1::Cookie::{JSESSIONID,E151204848F3BD3D6B2EA19C1A9484EC}
20-Feb-2017 11:04:31.121 INFO [https-openssl-nio-8443-exec-6] org.apache.catalina.core.ApplicationContext.log 0:0:0:0:0:0:0:1::Cookie::{user,admin}
20-Feb-2017 11:04:31.121 INFO [https-openssl-nio-8443-exec-6] org.apache.catalina.core.ApplicationContext.log Requested Resource::/ITAFWebApplication/css/bootstrap.min.css
20-Feb-2017 11:04:31.126 INFO [https-openssl-nio-8443-exec-7] org.apache.catalina.core.ApplicationContext.log 0:0:0:0:0:0:0:1::Cookie::{JSESSIONID,E151204848F3BD3D6B2EA19C1A9484EC}
20-Feb-2017 11:04:31.126 INFO [https-openssl-nio-8443-exec-7] org.apache.catalina.core.ApplicationContext.log 0:0:0:0:0:0:0:1::Cookie::{user,admin}
20-Feb-2017 11:04:31.126 INFO [https-openssl-nio-8443-exec-7] org.apache.catalina.core.ApplicationContext.log Requested Resource::/ITAFWebApplication/css/demo3/try.css
20-Feb-2017 11:04:31.129 INFO [https-openssl-nio-8443-exec-7] org.apache.catalina.core.ApplicationContext.log 0:0:0:0:0:0:0:1::Cookie::{JSESSIONID,E151204848F3BD3D6B2EA19C1A9484EC}
20-Feb-2017 11:04:31.129 INFO [https-openssl-nio-8443-exec-7] org.apache.catalina.core.ApplicationContext.log 0:0:0:0:0:0:0:1::Cookie::{user,admin}
20-Feb-2017 11:04:31.129 INFO [https-openssl-nio-8443-exec-7] org.apache.catalina.core.ApplicationContext.log Requested Resource::/ITAFWebApplication/js/demo3/executetry.js
20-Feb-2017 11:04:31.129 INFO [https-openssl-nio-8443-exec-8] org.apache.catalina.core.ApplicationContext.log 0:0:0:0:0:0:0:1::Cookie::{JSESSIONID,E151204848F3BD3D6B2EA19C1A9484EC}
20-Feb-2017 11:04:31.129 INFO [https-openssl-nio-8443-exec-8] org.apache.catalina.core.ApplicationContext.log 0:0:0:0:0:0:0:1::Cookie::{user,admin}
20-Feb-2017 11:04:31.129 INFO [https-openssl-nio-8443-exec-8] org.apache.catalina.core.ApplicationContext.log Requested Resource::/ITAFWebApplication/js/loader.js
20-Feb-2017 11:04:31.131 INFO [https-openssl-nio-8443-exec-2] org.apache.catalina.core.ApplicationContext.log 0:0:0:0:0:0:0:1::Cookie::{JSESSIONID,E151204848F3BD3D6B2EA19C1A9484EC}
20-Feb-2017 11:04:31.131 INFO [https-openssl-nio-8443-exec-2] org.apache.catalina.core.ApplicationContext.log 0:0:0:0:0:0:0:1::Cookie::{user,admin}
20-Feb-2017 11:04:31.131 INFO [https-openssl-nio-8443-exec-2] org.apache.catalina.core.ApplicationContext.log Requested Resource::/ITAFWebApplication/js/demo3/bootstrap-progressbar.js
20-Feb-2017 11:04:43.306 INFO [https-openssl-nio-8443-exec-8] org.apache.catalina.core.ApplicationContext.log 0:0:0:0:0:0:0:1::Request Params::{executeAction=execute}
20-Feb-2017 11:04:43.306 INFO [https-openssl-nio-8443-exec-8] org.apache.catalina.core.ApplicationContext.log 0:0:0:0:0:0:0:1::Request Params::{exeproject=SafeAuto}
20-Feb-2017 11:04:43.306 INFO [https-openssl-nio-8443-exec-8] org.apache.catalina.core.ApplicationContext.log 0:0:0:0:0:0:0:1::Cookie::{JSESSIONID,E151204848F3BD3D6B2EA19C1A9484EC}
20-Feb-2017 11:04:43.306 INFO [https-openssl-nio-8443-exec-8] org.apache.catalina.core.ApplicationContext.log 0:0:0:0:0:0:0:1::Cookie::{user,admin}
20-Feb-2017 11:04:43.306 INFO [https-openssl-nio-8443-exec-8] org.apache.catalina.core.ApplicationContext.log Requested Resource::/ITAFWebApplication/itafexecute.do
20-Feb-2017 11:04:43.655 SEVERE [https-openssl-nio-8443-exec-8] org.apache.catalina.core.StandardWrapperValve.invoke Servlet.service() for servlet [ITAFExecutionServlet] in context with path [/ITAFWebApplication] threw exception [Servlet execution threw an exception] with root cause
 java.lang.IncompatibleClassChangeError: Expected static method iTAFSeleniumWeb.WebDriver.setParentURLPath(Ljava/lang/String;)V
	at com.majesco.itaf.servlet.actions.ITAFExecutionServlet.doPost(ITAFExecutionServlet.java:137)
	at javax.servlet.http.HttpServlet.service(HttpServlet.java:648)
	at javax.servlet.http.HttpServlet.service(HttpServlet.java:729)
	at org.apache.catalina.core.ApplicationFilterChain.internalDoFilter(ApplicationFilterChain.java:230)
	at org.apache.catalina.core.ApplicationFilterChain.doFilter(ApplicationFilterChain.java:165)
	at org.apache.tomcat.websocket.server.WsFilter.doFilter(WsFilter.java:52)
	at org.apache.catalina.core.ApplicationFilterChain.internalDoFilter(ApplicationFilterChain.java:192)
	at org.apache.catalina.core.ApplicationFilterChain.doFilter(ApplicationFilterChain.java:165)
	at com.majesco.itaf.servlet.filter.AuthenticationFilter.doFilter(AuthenticationFilter.java:42)
	at org.apache.catalina.core.ApplicationFilterChain.internalDoFilter(ApplicationFilterChain.java:192)
	at org.apache.catalina.core.ApplicationFilterChain.doFilter(ApplicationFilterChain.java:165)
	at com.majesco.itaf.servlet.filter.RequestLoggingFilter.doFilter(RequestLoggingFilter.java:46)
	at org.apache.catalina.core.ApplicationFilterChain.internalDoFilter(ApplicationFilterChain.java:192)
	at org.apache.catalina.core.ApplicationFilterChain.doFilter(ApplicationFilterChain.java:165)
	at org.apache.catalina.core.StandardWrapperValve.invoke(StandardWrapperValve.java:198)
	at org.apache.catalina.core.StandardContextValve.invoke(StandardContextValve.java:108)
	at org.apache.catalina.authenticator.AuthenticatorBase.invoke(AuthenticatorBase.java:472)
	at org.apache.catalina.valves.AbstractAccessLogValve.invoke(AbstractAccessLogValve.java:620)
	at org.apache.catalina.core.StandardHostValve.invoke(StandardHostValve.java:140)
	at org.apache.catalina.valves.ErrorReportValve.invoke(ErrorReportValve.java:79)
	at org.apache.catalina.valves.AbstractAccessLogValve.invoke(AbstractAccessLogValve.java:620)
	at org.apache.catalina.core.StandardEngineValve.invoke(StandardEngineValve.java:87)
	at org.apache.catalina.connector.CoyoteAdapter.service(CoyoteAdapter.java:349)
	at org.apache.coyote.http11.Http11Processor.service(Http11Processor.java:784)
	at org.apache.coyote.AbstractProcessorLight.process(AbstractProcessorLight.java:66)
	at org.apache.coyote.AbstractProtocol$ConnectionHandler.process(AbstractProtocol.java:802)
	at org.apache.tomcat.util.net.NioEndpoint$SocketProcessor.doRun(NioEndpoint.java:1410)
	at org.apache.tomcat.util.net.SocketProcessorBase.run(SocketProcessorBase.java:49)
	at java.util.concurrent.ThreadPoolExecutor.runWorker(ThreadPoolExecutor.java:1142)
	at java.util.concurrent.ThreadPoolExecutor$Worker.run(ThreadPoolExecutor.java:617)
	at org.apache.tomcat.util.threads.TaskThread$WrappingRunnable.run(TaskThread.java:61)
	at java.lang.Thread.run(Thread.java:745)

20-Feb-2017 11:06:15.720 INFO [https-openssl-nio-8443-exec-2] org.apache.catalina.core.ApplicationContext.log 0:0:0:0:0:0:0:1::Cookie::{JSESSIONID,E151204848F3BD3D6B2EA19C1A9484EC}
20-Feb-2017 11:06:15.720 INFO [https-openssl-nio-8443-exec-2] org.apache.catalina.core.ApplicationContext.log 0:0:0:0:0:0:0:1::Cookie::{user,admin}
20-Feb-2017 11:06:15.720 INFO [https-openssl-nio-8443-exec-2] org.apache.catalina.core.ApplicationContext.log Requested Resource::/ITAFWebApplication/
20-Feb-2017 11:06:15.737 INFO [https-openssl-nio-8443-exec-6] org.apache.catalina.core.ApplicationContext.log 0:0:0:0:0:0:0:1::Cookie::{JSESSIONID,E151204848F3BD3D6B2EA19C1A9484EC}
20-Feb-2017 11:06:15.737 INFO [https-openssl-nio-8443-exec-6] org.apache.catalina.core.ApplicationContext.log 0:0:0:0:0:0:0:1::Cookie::{user,admin}
20-Feb-2017 11:06:15.737 INFO [https-openssl-nio-8443-exec-6] org.apache.catalina.core.ApplicationContext.log Requested Resource::/ITAFWebApplication/css/login.css
20-Feb-2017 11:06:15.740 INFO [https-openssl-nio-8443-exec-10] org.apache.catalina.core.ApplicationContext.log 0:0:0:0:0:0:0:1::Cookie::{JSESSIONID,E151204848F3BD3D6B2EA19C1A9484EC}
20-Feb-2017 11:06:15.740 INFO [https-openssl-nio-8443-exec-10] org.apache.catalina.core.ApplicationContext.log 0:0:0:0:0:0:0:1::Cookie::{user,admin}
20-Feb-2017 11:06:15.740 INFO [https-openssl-nio-8443-exec-10] org.apache.catalina.core.ApplicationContext.log Requested Resource::/ITAFWebApplication/css/bootstrap.min.css
20-Feb-2017 11:16:12.090 INFO [localhost-startStop-2] org.apache.catalina.core.ApplicationContext.log SessionListener: contextDestroyed()
20-Feb-2017 11:16:12.090 INFO [localhost-startStop-2] org.apache.catalina.core.ApplicationContext.log ContextListener: contextDestroyed()
20-Feb-2017 11:17:26.341 INFO [localhost-startStop-1] org.apache.catalina.core.ApplicationContext.log RequestLoggingFilter initialized
20-Feb-2017 11:17:26.341 INFO [localhost-startStop-1] org.apache.catalina.core.ApplicationContext.log AuthenticationFilter initialized
20-Feb-2017 11:17:26.342 INFO [localhost-startStop-1] org.apache.catalina.core.ApplicationContext.log AuthenticationFilter initialized
20-Feb-2017 11:17:26.342 INFO [localhost-startStop-1] org.apache.catalina.core.ApplicationContext.log RequestLoggingFilter initialized
20-Feb-2017 11:17:28.311 INFO [localhost-startStop-1] org.apache.catalina.core.ApplicationContext.log ContextListener: contextInitialized()
20-Feb-2017 11:17:28.311 INFO [localhost-startStop-1] org.apache.catalina.core.ApplicationContext.log SessionListener: contextInitialized()
20-Feb-2017 11:17:35.979 INFO [https-openssl-nio-8443-exec-10] org.apache.catalina.core.ApplicationContext.log Requested Resource::/ITAFWebApplication/
20-Feb-2017 11:17:35.979 INFO [https-openssl-nio-8443-exec-10] org.apache.catalina.core.ApplicationContext.log Unauthorized access request
20-Feb-2017 11:17:35.984 INFO [https-openssl-nio-8443-exec-10] org.apache.catalina.core.ApplicationContext.log Requested Resource::/ITAFWebApplication/login.jsp
20-Feb-2017 11:17:36.062 INFO [https-openssl-nio-8443-exec-7] org.apache.catalina.core.ApplicationContext.log 0:0:0:0:0:0:0:1::Cookie::{JSESSIONID,62738C1EBFF8799F009516537F744447}
20-Feb-2017 11:17:36.063 INFO [https-openssl-nio-8443-exec-7] org.apache.catalina.core.ApplicationContext.log Requested Resource::/ITAFWebApplication/css/login.css
20-Feb-2017 11:17:36.066 INFO [https-openssl-nio-8443-exec-5] org.apache.catalina.core.ApplicationContext.log 0:0:0:0:0:0:0:1::Cookie::{JSESSIONID,62738C1EBFF8799F009516537F744447}
20-Feb-2017 11:17:36.066 INFO [https-openssl-nio-8443-exec-5] org.apache.catalina.core.ApplicationContext.log Requested Resource::/ITAFWebApplication/css/bootstrap.min.css
20-Feb-2017 11:17:36.091 INFO [https-openssl-nio-8443-exec-9] org.apache.catalina.core.ApplicationContext.log 0:0:0:0:0:0:0:1::Cookie::{JSESSIONID,62738C1EBFF8799F009516537F744447}
20-Feb-2017 11:17:36.091 INFO [https-openssl-nio-8443-exec-9] org.apache.catalina.core.ApplicationContext.log Requested Resource::/ITAFWebApplication/js/login.js
20-Feb-2017 11:17:36.095 INFO [https-openssl-nio-8443-exec-1] org.apache.catalina.core.ApplicationContext.log 0:0:0:0:0:0:0:1::Cookie::{JSESSIONID,62738C1EBFF8799F009516537F744447}
20-Feb-2017 11:17:36.095 INFO [https-openssl-nio-8443-exec-1] org.apache.catalina.core.ApplicationContext.log Requested Resource::/ITAFWebApplication/Images/iTAF_logo.png
20-Feb-2017 11:17:36.098 INFO [https-openssl-nio-8443-exec-10] org.apache.catalina.core.ApplicationContext.log 0:0:0:0:0:0:0:1::Cookie::{JSESSIONID,62738C1EBFF8799F009516537F744447}
20-Feb-2017 11:17:36.098 INFO [https-openssl-nio-8443-exec-10] org.apache.catalina.core.ApplicationContext.log Requested Resource::/ITAFWebApplication/fonts/glyphicons-halflings-regular.woff2
20-Feb-2017 11:17:41.119 INFO [https-openssl-nio-8443-exec-2] org.apache.catalina.core.ApplicationContext.log 0:0:0:0:0:0:0:1::Request Params::{user=admin}
20-Feb-2017 11:17:41.119 INFO [https-openssl-nio-8443-exec-2] org.apache.catalina.core.ApplicationContext.log 0:0:0:0:0:0:0:1::Request Params::{password=password10}
20-Feb-2017 11:17:41.119 INFO [https-openssl-nio-8443-exec-2] org.apache.catalina.core.ApplicationContext.log 0:0:0:0:0:0:0:1::Cookie::{JSESSIONID,62738C1EBFF8799F009516537F744447}
20-Feb-2017 11:17:41.119 INFO [https-openssl-nio-8443-exec-2] org.apache.catalina.core.ApplicationContext.log Requested Resource::/ITAFWebApplication/login.do
20-Feb-2017 11:17:41.465 INFO [https-openssl-nio-8443-exec-9] org.apache.catalina.core.ApplicationContext.log 0:0:0:0:0:0:0:1::Cookie::{JSESSIONID,62738C1EBFF8799F009516537F744447}
20-Feb-2017 11:17:41.465 INFO [https-openssl-nio-8443-exec-9] org.apache.catalina.core.ApplicationContext.log 0:0:0:0:0:0:0:1::Cookie::{user,admin}
20-Feb-2017 11:17:41.465 INFO [https-openssl-nio-8443-exec-9] org.apache.catalina.core.ApplicationContext.log Requested Resource::/ITAFWebApplication/css/bootstrap.min.css
20-Feb-2017 11:17:41.465 INFO [https-openssl-nio-8443-exec-1] org.apache.catalina.core.ApplicationContext.log 0:0:0:0:0:0:0:1::Cookie::{JSESSIONID,62738C1EBFF8799F009516537F744447}
20-Feb-2017 11:17:41.465 INFO [https-openssl-nio-8443-exec-1] org.apache.catalina.core.ApplicationContext.log 0:0:0:0:0:0:0:1::Cookie::{user,admin}
20-Feb-2017 11:17:41.465 INFO [https-openssl-nio-8443-exec-1] org.apache.catalina.core.ApplicationContext.log Requested Resource::/ITAFWebApplication/css/demo3/try.css
20-Feb-2017 11:17:41.603 INFO [https-openssl-nio-8443-exec-5] org.apache.catalina.core.ApplicationContext.log 0:0:0:0:0:0:0:1::Cookie::{JSESSIONID,62738C1EBFF8799F009516537F744447}
20-Feb-2017 11:17:41.603 INFO [https-openssl-nio-8443-exec-5] org.apache.catalina.core.ApplicationContext.log 0:0:0:0:0:0:0:1::Cookie::{user,admin}
20-Feb-2017 11:17:41.603 INFO [https-openssl-nio-8443-exec-5] org.apache.catalina.core.ApplicationContext.log Requested Resource::/ITAFWebApplication/css/demo3/responsiveTables.css
20-Feb-2017 11:17:41.608 INFO [https-openssl-nio-8443-exec-7] org.apache.catalina.core.ApplicationContext.log 0:0:0:0:0:0:0:1::Cookie::{JSESSIONID,62738C1EBFF8799F009516537F744447}
20-Feb-2017 11:17:41.608 INFO [https-openssl-nio-8443-exec-7] org.apache.catalina.core.ApplicationContext.log 0:0:0:0:0:0:0:1::Cookie::{user,admin}
20-Feb-2017 11:17:41.609 INFO [https-openssl-nio-8443-exec-7] org.apache.catalina.core.ApplicationContext.log Requested Resource::/ITAFWebApplication/js/jquery.min.js
20-Feb-2017 11:17:41.609 INFO [https-openssl-nio-8443-exec-5] org.apache.catalina.core.ApplicationContext.log 0:0:0:0:0:0:0:1::Cookie::{JSESSIONID,62738C1EBFF8799F009516537F744447}
20-Feb-2017 11:17:41.609 INFO [https-openssl-nio-8443-exec-5] org.apache.catalina.core.ApplicationContext.log 0:0:0:0:0:0:0:1::Cookie::{user,admin}
20-Feb-2017 11:17:41.609 INFO [https-openssl-nio-8443-exec-5] org.apache.catalina.core.ApplicationContext.log Requested Resource::/ITAFWebApplication/js/bootstrap.min.js
20-Feb-2017 11:17:41.614 INFO [https-openssl-nio-8443-exec-7] org.apache.catalina.core.ApplicationContext.log 0:0:0:0:0:0:0:1::Cookie::{JSESSIONID,62738C1EBFF8799F009516537F744447}
20-Feb-2017 11:17:41.614 INFO [https-openssl-nio-8443-exec-7] org.apache.catalina.core.ApplicationContext.log 0:0:0:0:0:0:0:1::Cookie::{user,admin}
20-Feb-2017 11:17:41.614 INFO [https-openssl-nio-8443-exec-7] org.apache.catalina.core.ApplicationContext.log Requested Resource::/ITAFWebApplication/js/demo3/try.js
20-Feb-2017 11:17:41.619 INFO [https-openssl-nio-8443-exec-6] org.apache.catalina.core.ApplicationContext.log 0:0:0:0:0:0:0:1::Cookie::{JSESSIONID,62738C1EBFF8799F009516537F744447}
20-Feb-2017 11:17:41.619 INFO [https-openssl-nio-8443-exec-6] org.apache.catalina.core.ApplicationContext.log 0:0:0:0:0:0:0:1::Cookie::{user,admin}
20-Feb-2017 11:17:41.619 INFO [https-openssl-nio-8443-exec-6] org.apache.catalina.core.ApplicationContext.log Requested Resource::/ITAFWebApplication/js/demo3/RowSorter.js
20-Feb-2017 11:17:41.634 INFO [https-openssl-nio-8443-exec-12] org.apache.catalina.core.ApplicationContext.log 0:0:0:0:0:0:0:1::Cookie::{JSESSIONID,62738C1EBFF8799F009516537F744447}
20-Feb-2017 11:17:41.634 INFO [https-openssl-nio-8443-exec-12] org.apache.catalina.core.ApplicationContext.log 0:0:0:0:0:0:0:1::Cookie::{user,admin}
20-Feb-2017 11:17:41.634 INFO [https-openssl-nio-8443-exec-12] org.apache.catalina.core.ApplicationContext.log Requested Resource::/ITAFWebApplication/js/objectCap.js
20-Feb-2017 11:17:41.644 INFO [https-openssl-nio-8443-exec-9] org.apache.catalina.core.ApplicationContext.log 0:0:0:0:0:0:0:1::Cookie::{JSESSIONID,62738C1EBFF8799F009516537F744447}
20-Feb-2017 11:17:41.644 INFO [https-openssl-nio-8443-exec-9] org.apache.catalina.core.ApplicationContext.log 0:0:0:0:0:0:0:1::Cookie::{user,admin}
20-Feb-2017 11:17:41.644 INFO [https-openssl-nio-8443-exec-9] org.apache.catalina.core.ApplicationContext.log Requested Resource::/ITAFWebApplication/js/demo3/searchTable.js
20-Feb-2017 11:17:41.648 INFO [https-openssl-nio-8443-exec-11] org.apache.catalina.core.ApplicationContext.log 0:0:0:0:0:0:0:1::Cookie::{JSESSIONID,62738C1EBFF8799F009516537F744447}
20-Feb-2017 11:17:41.648 INFO [https-openssl-nio-8443-exec-11] org.apache.catalina.core.ApplicationContext.log 0:0:0:0:0:0:0:1::Cookie::{user,admin}
20-Feb-2017 11:17:41.648 INFO [https-openssl-nio-8443-exec-11] org.apache.catalina.core.ApplicationContext.log Requested Resource::/ITAFWebApplication/js/demo3/bootstrap-filestyle.min.js
20-Feb-2017 11:17:41.650 INFO [https-openssl-nio-8443-exec-7] org.apache.catalina.core.ApplicationContext.log 0:0:0:0:0:0:0:1::Cookie::{JSESSIONID,62738C1EBFF8799F009516537F744447}
20-Feb-2017 11:17:41.650 INFO [https-openssl-nio-8443-exec-7] org.apache.catalina.core.ApplicationContext.log 0:0:0:0:0:0:0:1::Cookie::{user,admin}
20-Feb-2017 11:17:41.650 INFO [https-openssl-nio-8443-exec-7] org.apache.catalina.core.ApplicationContext.log Requested Resource::/ITAFWebApplication/js/demo3/responsiveTables.js
20-Feb-2017 11:17:42.851 INFO [https-openssl-nio-8443-exec-6] org.apache.catalina.core.ApplicationContext.log 0:0:0:0:0:0:0:1::Request Params::{navigationAction=execute}
20-Feb-2017 11:17:42.851 INFO [https-openssl-nio-8443-exec-6] org.apache.catalina.core.ApplicationContext.log 0:0:0:0:0:0:0:1::Cookie::{JSESSIONID,62738C1EBFF8799F009516537F744447}
20-Feb-2017 11:17:42.851 INFO [https-openssl-nio-8443-exec-6] org.apache.catalina.core.ApplicationContext.log 0:0:0:0:0:0:0:1::Cookie::{user,admin}
20-Feb-2017 11:17:42.851 INFO [https-openssl-nio-8443-exec-6] org.apache.catalina.core.ApplicationContext.log Requested Resource::/ITAFWebApplication/itafexecute.do
20-Feb-2017 11:17:42.983 INFO [https-openssl-nio-8443-exec-4] org.apache.catalina.core.ApplicationContext.log 0:0:0:0:0:0:0:1::Cookie::{JSESSIONID,62738C1EBFF8799F009516537F744447}
20-Feb-2017 11:17:42.984 INFO [https-openssl-nio-8443-exec-1] org.apache.catalina.core.ApplicationContext.log 0:0:0:0:0:0:0:1::Cookie::{JSESSIONID,62738C1EBFF8799F009516537F744447}
20-Feb-2017 11:17:42.984 INFO [https-openssl-nio-8443-exec-1] org.apache.catalina.core.ApplicationContext.log 0:0:0:0:0:0:0:1::Cookie::{user,admin}
20-Feb-2017 11:17:42.984 INFO [https-openssl-nio-8443-exec-1] org.apache.catalina.core.ApplicationContext.log Requested Resource::/ITAFWebApplication/css/demo3/try.css
20-Feb-2017 11:17:42.984 INFO [https-openssl-nio-8443-exec-4] org.apache.catalina.core.ApplicationContext.log 0:0:0:0:0:0:0:1::Cookie::{user,admin}
20-Feb-2017 11:17:42.984 INFO [https-openssl-nio-8443-exec-4] org.apache.catalina.core.ApplicationContext.log Requested Resource::/ITAFWebApplication/css/bootstrap.min.css
20-Feb-2017 11:17:42.986 INFO [https-openssl-nio-8443-exec-4] org.apache.catalina.core.ApplicationContext.log 0:0:0:0:0:0:0:1::Cookie::{JSESSIONID,62738C1EBFF8799F009516537F744447}
20-Feb-2017 11:17:42.986 INFO [https-openssl-nio-8443-exec-4] org.apache.catalina.core.ApplicationContext.log 0:0:0:0:0:0:0:1::Cookie::{user,admin}
20-Feb-2017 11:17:42.987 INFO [https-openssl-nio-8443-exec-2] org.apache.catalina.core.ApplicationContext.log 0:0:0:0:0:0:0:1::Cookie::{JSESSIONID,62738C1EBFF8799F009516537F744447}
20-Feb-2017 11:17:42.987 INFO [https-openssl-nio-8443-exec-2] org.apache.catalina.core.ApplicationContext.log 0:0:0:0:0:0:0:1::Cookie::{user,admin}
20-Feb-2017 11:17:42.988 INFO [https-openssl-nio-8443-exec-2] org.apache.catalina.core.ApplicationContext.log Requested Resource::/ITAFWebApplication/js/demo3/executetry.js
20-Feb-2017 11:17:42.989 INFO [https-openssl-nio-8443-exec-4] org.apache.catalina.core.ApplicationContext.log Requested Resource::/ITAFWebApplication/js/loader.js
20-Feb-2017 11:17:42.990 INFO [https-openssl-nio-8443-exec-1] org.apache.catalina.core.ApplicationContext.log 0:0:0:0:0:0:0:1::Cookie::{JSESSIONID,62738C1EBFF8799F009516537F744447}
20-Feb-2017 11:17:42.990 INFO [https-openssl-nio-8443-exec-1] org.apache.catalina.core.ApplicationContext.log 0:0:0:0:0:0:0:1::Cookie::{user,admin}
20-Feb-2017 11:17:42.991 INFO [https-openssl-nio-8443-exec-1] org.apache.catalina.core.ApplicationContext.log Requested Resource::/ITAFWebApplication/js/demo3/bootstrap-progressbar.js
20-Feb-2017 11:17:54.620 INFO [https-openssl-nio-8443-exec-4] org.apache.catalina.core.ApplicationContext.log 0:0:0:0:0:0:0:1::Request Params::{executeAction=execute}
20-Feb-2017 11:17:54.621 INFO [https-openssl-nio-8443-exec-4] org.apache.catalina.core.ApplicationContext.log 0:0:0:0:0:0:0:1::Request Params::{exeproject=SafeAuto}
20-Feb-2017 11:17:54.621 INFO [https-openssl-nio-8443-exec-4] org.apache.catalina.core.ApplicationContext.log 0:0:0:0:0:0:0:1::Cookie::{JSESSIONID,62738C1EBFF8799F009516537F744447}
20-Feb-2017 11:17:54.621 INFO [https-openssl-nio-8443-exec-4] org.apache.catalina.core.ApplicationContext.log 0:0:0:0:0:0:0:1::Cookie::{user,admin}
20-Feb-2017 11:17:54.621 INFO [https-openssl-nio-8443-exec-4] org.apache.catalina.core.ApplicationContext.log Requested Resource::/ITAFWebApplication/itafexecute.do
20-Feb-2017 11:17:55.032 SEVERE [https-openssl-nio-8443-exec-4] org.apache.catalina.core.StandardWrapperValve.invoke Servlet.service() for servlet [ITAFExecutionServlet] in context with path [/ITAFWebApplication] threw exception [Servlet execution threw an exception] with root cause
 java.lang.IncompatibleClassChangeError: Expected static method iTAFSeleniumWeb.WebDriver.setParentURLPath(Ljava/lang/String;)V
	at com.majesco.itaf.servlet.actions.ITAFExecutionServlet.doPost(ITAFExecutionServlet.java:137)
	at javax.servlet.http.HttpServlet.service(HttpServlet.java:648)
	at javax.servlet.http.HttpServlet.service(HttpServlet.java:729)
	at org.apache.catalina.core.ApplicationFilterChain.internalDoFilter(ApplicationFilterChain.java:230)
	at org.apache.catalina.core.ApplicationFilterChain.doFilter(ApplicationFilterChain.java:165)
	at org.apache.tomcat.websocket.server.WsFilter.doFilter(WsFilter.java:52)
	at org.apache.catalina.core.ApplicationFilterChain.internalDoFilter(ApplicationFilterChain.java:192)
	at org.apache.catalina.core.ApplicationFilterChain.doFilter(ApplicationFilterChain.java:165)
	at com.majesco.itaf.servlet.filter.AuthenticationFilter.doFilter(AuthenticationFilter.java:42)
	at org.apache.catalina.core.ApplicationFilterChain.internalDoFilter(ApplicationFilterChain.java:192)
	at org.apache.catalina.core.ApplicationFilterChain.doFilter(ApplicationFilterChain.java:165)
	at com.majesco.itaf.servlet.filter.RequestLoggingFilter.doFilter(RequestLoggingFilter.java:46)
	at org.apache.catalina.core.ApplicationFilterChain.internalDoFilter(ApplicationFilterChain.java:192)
	at org.apache.catalina.core.ApplicationFilterChain.doFilter(ApplicationFilterChain.java:165)
	at org.apache.catalina.core.StandardWrapperValve.invoke(StandardWrapperValve.java:198)
	at org.apache.catalina.core.StandardContextValve.invoke(StandardContextValve.java:108)
	at org.apache.catalina.authenticator.AuthenticatorBase.invoke(AuthenticatorBase.java:472)
	at org.apache.catalina.valves.AbstractAccessLogValve.invoke(AbstractAccessLogValve.java:620)
	at org.apache.catalina.core.StandardHostValve.invoke(StandardHostValve.java:140)
	at org.apache.catalina.valves.ErrorReportValve.invoke(ErrorReportValve.java:79)
	at org.apache.catalina.valves.AbstractAccessLogValve.invoke(AbstractAccessLogValve.java:620)
	at org.apache.catalina.core.StandardEngineValve.invoke(StandardEngineValve.java:87)
	at org.apache.catalina.connector.CoyoteAdapter.service(CoyoteAdapter.java:349)
	at org.apache.coyote.http11.Http11Processor.service(Http11Processor.java:784)
	at org.apache.coyote.AbstractProcessorLight.process(AbstractProcessorLight.java:66)
	at org.apache.coyote.AbstractProtocol$ConnectionHandler.process(AbstractProtocol.java:802)
	at org.apache.tomcat.util.net.NioEndpoint$SocketProcessor.doRun(NioEndpoint.java:1410)
	at org.apache.tomcat.util.net.SocketProcessorBase.run(SocketProcessorBase.java:49)
	at java.util.concurrent.ThreadPoolExecutor.runWorker(ThreadPoolExecutor.java:1142)
	at java.util.concurrent.ThreadPoolExecutor$Worker.run(ThreadPoolExecutor.java:617)
	at org.apache.tomcat.util.threads.TaskThread$WrappingRunnable.run(TaskThread.java:61)
	at java.lang.Thread.run(Thread.java:745)

20-Feb-2017 11:18:50.932 INFO [localhost-startStop-2] org.apache.catalina.core.ApplicationContext.log SessionListener: contextDestroyed()
20-Feb-2017 11:18:50.932 INFO [localhost-startStop-2] org.apache.catalina.core.ApplicationContext.log ContextListener: contextDestroyed()
20-Feb-2017 11:19:39.741 INFO [localhost-startStop-1] org.apache.catalina.core.ApplicationContext.log RequestLoggingFilter initialized
20-Feb-2017 11:19:39.742 INFO [localhost-startStop-1] org.apache.catalina.core.ApplicationContext.log AuthenticationFilter initialized
20-Feb-2017 11:19:39.742 INFO [localhost-startStop-1] org.apache.catalina.core.ApplicationContext.log AuthenticationFilter initialized
20-Feb-2017 11:19:39.742 INFO [localhost-startStop-1] org.apache.catalina.core.ApplicationContext.log RequestLoggingFilter initialized
20-Feb-2017 11:19:41.141 INFO [localhost-startStop-1] org.apache.catalina.core.ApplicationContext.log ContextListener: contextInitialized()
20-Feb-2017 11:19:41.141 INFO [localhost-startStop-1] org.apache.catalina.core.ApplicationContext.log SessionListener: contextInitialized()
20-Feb-2017 11:19:46.951 INFO [https-openssl-nio-8443-exec-2] org.apache.catalina.core.ApplicationContext.log Requested Resource::/ITAFWebApplication/
20-Feb-2017 11:19:46.951 INFO [https-openssl-nio-8443-exec-2] org.apache.catalina.core.ApplicationContext.log Unauthorized access request
20-Feb-2017 11:19:46.956 INFO [https-openssl-nio-8443-exec-2] org.apache.catalina.core.ApplicationContext.log Requested Resource::/ITAFWebApplication/login.jsp
20-Feb-2017 11:19:47.033 INFO [https-openssl-nio-8443-exec-5] org.apache.catalina.core.ApplicationContext.log 0:0:0:0:0:0:0:1::Cookie::{JSESSIONID,651EFD5776C6E3DDBDE6721192999B1A}
20-Feb-2017 11:19:47.033 INFO [https-openssl-nio-8443-exec-5] org.apache.catalina.core.ApplicationContext.log Requested Resource::/ITAFWebApplication/css/login.css
20-Feb-2017 11:19:47.040 INFO [https-openssl-nio-8443-exec-1] org.apache.catalina.core.ApplicationContext.log 0:0:0:0:0:0:0:1::Cookie::{JSESSIONID,651EFD5776C6E3DDBDE6721192999B1A}
20-Feb-2017 11:19:47.040 INFO [https-openssl-nio-8443-exec-1] org.apache.catalina.core.ApplicationContext.log Requested Resource::/ITAFWebApplication/css/bootstrap.min.css
20-Feb-2017 11:19:47.047 INFO [https-openssl-nio-8443-exec-7] org.apache.catalina.core.ApplicationContext.log 0:0:0:0:0:0:0:1::Cookie::{JSESSIONID,651EFD5776C6E3DDBDE6721192999B1A}
20-Feb-2017 11:19:47.048 INFO [https-openssl-nio-8443-exec-7] org.apache.catalina.core.ApplicationContext.log Requested Resource::/ITAFWebApplication/js/login.js
20-Feb-2017 11:19:47.049 INFO [https-openssl-nio-8443-exec-10] org.apache.catalina.core.ApplicationContext.log 0:0:0:0:0:0:0:1::Cookie::{JSESSIONID,651EFD5776C6E3DDBDE6721192999B1A}
20-Feb-2017 11:19:47.049 INFO [https-openssl-nio-8443-exec-10] org.apache.catalina.core.ApplicationContext.log Requested Resource::/ITAFWebApplication/Images/iTAF_logo.png
20-Feb-2017 11:19:47.092 INFO [https-openssl-nio-8443-exec-3] org.apache.catalina.core.ApplicationContext.log 0:0:0:0:0:0:0:1::Cookie::{JSESSIONID,651EFD5776C6E3DDBDE6721192999B1A}
20-Feb-2017 11:19:47.092 INFO [https-openssl-nio-8443-exec-3] org.apache.catalina.core.ApplicationContext.log Requested Resource::/ITAFWebApplication/fonts/glyphicons-halflings-regular.woff2
20-Feb-2017 11:19:52.739 INFO [https-openssl-nio-8443-exec-5] org.apache.catalina.core.ApplicationContext.log 0:0:0:0:0:0:0:1::Request Params::{user=admin}
20-Feb-2017 11:19:52.739 INFO [https-openssl-nio-8443-exec-5] org.apache.catalina.core.ApplicationContext.log 0:0:0:0:0:0:0:1::Request Params::{password=password10}
20-Feb-2017 11:19:52.739 INFO [https-openssl-nio-8443-exec-5] org.apache.catalina.core.ApplicationContext.log 0:0:0:0:0:0:0:1::Cookie::{JSESSIONID,651EFD5776C6E3DDBDE6721192999B1A}
20-Feb-2017 11:19:52.739 INFO [https-openssl-nio-8443-exec-5] org.apache.catalina.core.ApplicationContext.log Requested Resource::/ITAFWebApplication/login.do
20-Feb-2017 11:19:53.089 INFO [https-openssl-nio-8443-exec-3] org.apache.catalina.core.ApplicationContext.log 0:0:0:0:0:0:0:1::Cookie::{JSESSIONID,651EFD5776C6E3DDBDE6721192999B1A}
20-Feb-2017 11:19:53.089 INFO [https-openssl-nio-8443-exec-3] org.apache.catalina.core.ApplicationContext.log 0:0:0:0:0:0:0:1::Cookie::{user,admin}
20-Feb-2017 11:19:53.090 INFO [https-openssl-nio-8443-exec-3] org.apache.catalina.core.ApplicationContext.log Requested Resource::/ITAFWebApplication/css/bootstrap.min.css
20-Feb-2017 11:19:53.109 INFO [https-openssl-nio-8443-exec-2] org.apache.catalina.core.ApplicationContext.log 0:0:0:0:0:0:0:1::Cookie::{JSESSIONID,651EFD5776C6E3DDBDE6721192999B1A}
20-Feb-2017 11:19:53.110 INFO [https-openssl-nio-8443-exec-2] org.apache.catalina.core.ApplicationContext.log 0:0:0:0:0:0:0:1::Cookie::{user,admin}
20-Feb-2017 11:19:53.110 INFO [https-openssl-nio-8443-exec-2] org.apache.catalina.core.ApplicationContext.log Requested Resource::/ITAFWebApplication/css/demo3/try.css
20-Feb-2017 11:19:53.199 INFO [https-openssl-nio-8443-exec-4] org.apache.catalina.core.ApplicationContext.log 0:0:0:0:0:0:0:1::Cookie::{JSESSIONID,651EFD5776C6E3DDBDE6721192999B1A}
20-Feb-2017 11:19:53.199 INFO [https-openssl-nio-8443-exec-4] org.apache.catalina.core.ApplicationContext.log 0:0:0:0:0:0:0:1::Cookie::{user,admin}
20-Feb-2017 11:19:53.199 INFO [https-openssl-nio-8443-exec-4] org.apache.catalina.core.ApplicationContext.log Requested Resource::/ITAFWebApplication/css/demo3/responsiveTables.css
20-Feb-2017 11:19:53.203 INFO [https-openssl-nio-8443-exec-4] org.apache.catalina.core.ApplicationContext.log 0:0:0:0:0:0:0:1::Cookie::{JSESSIONID,651EFD5776C6E3DDBDE6721192999B1A}
20-Feb-2017 11:19:53.203 INFO [https-openssl-nio-8443-exec-4] org.apache.catalina.core.ApplicationContext.log 0:0:0:0:0:0:0:1::Cookie::{user,admin}
20-Feb-2017 11:19:53.203 INFO [https-openssl-nio-8443-exec-4] org.apache.catalina.core.ApplicationContext.log Requested Resource::/ITAFWebApplication/js/bootstrap.min.js
20-Feb-2017 11:19:53.206 INFO [https-openssl-nio-8443-exec-8] org.apache.catalina.core.ApplicationContext.log 0:0:0:0:0:0:0:1::Cookie::{JSESSIONID,651EFD5776C6E3DDBDE6721192999B1A}
20-Feb-2017 11:19:53.206 INFO [https-openssl-nio-8443-exec-8] org.apache.catalina.core.ApplicationContext.log 0:0:0:0:0:0:0:1::Cookie::{user,admin}
20-Feb-2017 11:19:53.206 INFO [https-openssl-nio-8443-exec-8] org.apache.catalina.core.ApplicationContext.log Requested Resource::/ITAFWebApplication/js/jquery.min.js
20-Feb-2017 11:19:53.210 INFO [https-openssl-nio-8443-exec-7] org.apache.catalina.core.ApplicationContext.log 0:0:0:0:0:0:0:1::Cookie::{JSESSIONID,651EFD5776C6E3DDBDE6721192999B1A}
20-Feb-2017 11:19:53.210 INFO [https-openssl-nio-8443-exec-7] org.apache.catalina.core.ApplicationContext.log 0:0:0:0:0:0:0:1::Cookie::{user,admin}
20-Feb-2017 11:19:53.210 INFO [https-openssl-nio-8443-exec-7] org.apache.catalina.core.ApplicationContext.log Requested Resource::/ITAFWebApplication/js/demo3/try.js
20-Feb-2017 11:19:53.216 INFO [https-openssl-nio-8443-exec-6] org.apache.catalina.core.ApplicationContext.log 0:0:0:0:0:0:0:1::Cookie::{JSESSIONID,651EFD5776C6E3DDBDE6721192999B1A}
20-Feb-2017 11:19:53.216 INFO [https-openssl-nio-8443-exec-6] org.apache.catalina.core.ApplicationContext.log 0:0:0:0:0:0:0:1::Cookie::{user,admin}
20-Feb-2017 11:19:53.216 INFO [https-openssl-nio-8443-exec-6] org.apache.catalina.core.ApplicationContext.log Requested Resource::/ITAFWebApplication/js/demo3/searchTable.js
20-Feb-2017 11:19:53.217 INFO [https-openssl-nio-8443-exec-5] org.apache.catalina.core.ApplicationContext.log 0:0:0:0:0:0:0:1::Cookie::{JSESSIONID,651EFD5776C6E3DDBDE6721192999B1A}
20-Feb-2017 11:19:53.217 INFO [https-openssl-nio-8443-exec-5] org.apache.catalina.core.ApplicationContext.log 0:0:0:0:0:0:0:1::Cookie::{user,admin}
20-Feb-2017 11:19:53.217 INFO [https-openssl-nio-8443-exec-5] org.apache.catalina.core.ApplicationContext.log Requested Resource::/ITAFWebApplication/js/demo3/RowSorter.js
20-Feb-2017 11:19:53.225 INFO [https-openssl-nio-8443-exec-10] org.apache.catalina.core.ApplicationContext.log 0:0:0:0:0:0:0:1::Cookie::{JSESSIONID,651EFD5776C6E3DDBDE6721192999B1A}
20-Feb-2017 11:19:53.225 INFO [https-openssl-nio-8443-exec-10] org.apache.catalina.core.ApplicationContext.log 0:0:0:0:0:0:0:1::Cookie::{user,admin}
20-Feb-2017 11:19:53.225 INFO [https-openssl-nio-8443-exec-10] org.apache.catalina.core.ApplicationContext.log Requested Resource::/ITAFWebApplication/js/objectCap.js
20-Feb-2017 11:19:53.226 INFO [https-openssl-nio-8443-exec-2] org.apache.catalina.core.ApplicationContext.log 0:0:0:0:0:0:0:1::Cookie::{JSESSIONID,651EFD5776C6E3DDBDE6721192999B1A}
20-Feb-2017 11:19:53.226 INFO [https-openssl-nio-8443-exec-2] org.apache.catalina.core.ApplicationContext.log 0:0:0:0:0:0:0:1::Cookie::{user,admin}
20-Feb-2017 11:19:53.226 INFO [https-openssl-nio-8443-exec-2] org.apache.catalina.core.ApplicationContext.log Requested Resource::/ITAFWebApplication/js/demo3/responsiveTables.js
20-Feb-2017 11:19:53.227 INFO [https-openssl-nio-8443-exec-1] org.apache.catalina.core.ApplicationContext.log 0:0:0:0:0:0:0:1::Cookie::{JSESSIONID,651EFD5776C6E3DDBDE6721192999B1A}
20-Feb-2017 11:19:53.227 INFO [https-openssl-nio-8443-exec-1] org.apache.catalina.core.ApplicationContext.log 0:0:0:0:0:0:0:1::Cookie::{user,admin}
20-Feb-2017 11:19:53.227 INFO [https-openssl-nio-8443-exec-1] org.apache.catalina.core.ApplicationContext.log Requested Resource::/ITAFWebApplication/js/demo3/bootstrap-filestyle.min.js
20-Feb-2017 11:19:54.426 INFO [https-openssl-nio-8443-exec-3] org.apache.catalina.core.ApplicationContext.log 0:0:0:0:0:0:0:1::Request Params::{navigationAction=execute}
20-Feb-2017 11:19:54.426 INFO [https-openssl-nio-8443-exec-3] org.apache.catalina.core.ApplicationContext.log 0:0:0:0:0:0:0:1::Cookie::{JSESSIONID,651EFD5776C6E3DDBDE6721192999B1A}
20-Feb-2017 11:19:54.426 INFO [https-openssl-nio-8443-exec-3] org.apache.catalina.core.ApplicationContext.log 0:0:0:0:0:0:0:1::Cookie::{user,admin}
20-Feb-2017 11:19:54.426 INFO [https-openssl-nio-8443-exec-3] org.apache.catalina.core.ApplicationContext.log Requested Resource::/ITAFWebApplication/itafexecute.do
20-Feb-2017 11:19:54.572 INFO [https-openssl-nio-8443-exec-8] org.apache.catalina.core.ApplicationContext.log 0:0:0:0:0:0:0:1::Cookie::{JSESSIONID,651EFD5776C6E3DDBDE6721192999B1A}
20-Feb-2017 11:19:54.572 INFO [https-openssl-nio-8443-exec-8] org.apache.catalina.core.ApplicationContext.log 0:0:0:0:0:0:0:1::Cookie::{user,admin}
20-Feb-2017 11:19:54.572 INFO [https-openssl-nio-8443-exec-8] org.apache.catalina.core.ApplicationContext.log Requested Resource::/ITAFWebApplication/js/demo3/executetry.js
20-Feb-2017 11:19:54.572 INFO [https-openssl-nio-8443-exec-4] org.apache.catalina.core.ApplicationContext.log 0:0:0:0:0:0:0:1::Cookie::{JSESSIONID,651EFD5776C6E3DDBDE6721192999B1A}
20-Feb-2017 11:19:54.572 INFO [https-openssl-nio-8443-exec-4] org.apache.catalina.core.ApplicationContext.log 0:0:0:0:0:0:0:1::Cookie::{user,admin}
20-Feb-2017 11:19:54.572 INFO [https-openssl-nio-8443-exec-4] org.apache.catalina.core.ApplicationContext.log Requested Resource::/ITAFWebApplication/js/demo3/bootstrap-progressbar.js
20-Feb-2017 11:19:54.574 INFO [https-openssl-nio-8443-exec-9] org.apache.catalina.core.ApplicationContext.log 0:0:0:0:0:0:0:1::Cookie::{JSESSIONID,651EFD5776C6E3DDBDE6721192999B1A}
20-Feb-2017 11:19:54.574 INFO [https-openssl-nio-8443-exec-9] org.apache.catalina.core.ApplicationContext.log 0:0:0:0:0:0:0:1::Cookie::{user,admin}
20-Feb-2017 11:19:54.574 INFO [https-openssl-nio-8443-exec-9] org.apache.catalina.core.ApplicationContext.log Requested Resource::/ITAFWebApplication/js/loader.js
20-Feb-2017 11:20:08.681 INFO [https-openssl-nio-8443-exec-4] org.apache.catalina.core.ApplicationContext.log 0:0:0:0:0:0:0:1::Request Params::{executeAction=execute}
20-Feb-2017 11:20:08.682 INFO [https-openssl-nio-8443-exec-4] org.apache.catalina.core.ApplicationContext.log 0:0:0:0:0:0:0:1::Request Params::{exeproject=SafeAuto}
20-Feb-2017 11:20:08.682 INFO [https-openssl-nio-8443-exec-4] org.apache.catalina.core.ApplicationContext.log 0:0:0:0:0:0:0:1::Cookie::{JSESSIONID,651EFD5776C6E3DDBDE6721192999B1A}
20-Feb-2017 11:20:08.682 INFO [https-openssl-nio-8443-exec-4] org.apache.catalina.core.ApplicationContext.log 0:0:0:0:0:0:0:1::Cookie::{user,admin}
20-Feb-2017 11:20:08.682 INFO [https-openssl-nio-8443-exec-4] org.apache.catalina.core.ApplicationContext.log Requested Resource::/ITAFWebApplication/itafexecute.do
20-Feb-2017 11:21:56.822 INFO [localhost-startStop-2] org.apache.catalina.core.ApplicationContext.log SessionListener: contextDestroyed()
20-Feb-2017 11:21:56.823 INFO [localhost-startStop-2] org.apache.catalina.core.ApplicationContext.log ContextListener: contextDestroyed()
20-Feb-2017 11:52:02.315 INFO [localhost-startStop-1] org.apache.catalina.core.ApplicationContext.log RequestLoggingFilter initialized
20-Feb-2017 11:52:02.316 INFO [localhost-startStop-1] org.apache.catalina.core.ApplicationContext.log AuthenticationFilter initialized
20-Feb-2017 11:52:02.316 INFO [localhost-startStop-1] org.apache.catalina.core.ApplicationContext.log AuthenticationFilter initialized
20-Feb-2017 11:52:02.316 INFO [localhost-startStop-1] org.apache.catalina.core.ApplicationContext.log RequestLoggingFilter initialized
20-Feb-2017 11:52:04.182 INFO [localhost-startStop-1] org.apache.catalina.core.ApplicationContext.log ContextListener: contextInitialized()
20-Feb-2017 11:52:04.182 INFO [localhost-startStop-1] org.apache.catalina.core.ApplicationContext.log SessionListener: contextInitialized()
20-Feb-2017 11:52:24.391 INFO [https-openssl-nio-8443-exec-10] org.apache.catalina.core.ApplicationContext.log Requested Resource::/ITAFWebApplication/
20-Feb-2017 11:52:24.392 INFO [https-openssl-nio-8443-exec-10] org.apache.catalina.core.ApplicationContext.log Unauthorized access request
20-Feb-2017 11:52:24.396 INFO [https-openssl-nio-8443-exec-10] org.apache.catalina.core.ApplicationContext.log Requested Resource::/ITAFWebApplication/login.jsp
20-Feb-2017 11:52:24.502 INFO [https-openssl-nio-8443-exec-8] org.apache.catalina.core.ApplicationContext.log 0:0:0:0:0:0:0:1::Cookie::{JSESSIONID,5D14BCF7B777B5008D9729C01472A0F9}
20-Feb-2017 11:52:24.502 INFO [https-openssl-nio-8443-exec-8] org.apache.catalina.core.ApplicationContext.log Requested Resource::/ITAFWebApplication/css/login.css
20-Feb-2017 11:52:24.509 INFO [https-openssl-nio-8443-exec-5] org.apache.catalina.core.ApplicationContext.log 0:0:0:0:0:0:0:1::Cookie::{JSESSIONID,5D14BCF7B777B5008D9729C01472A0F9}
20-Feb-2017 11:52:24.509 INFO [https-openssl-nio-8443-exec-5] org.apache.catalina.core.ApplicationContext.log Requested Resource::/ITAFWebApplication/css/bootstrap.min.css
20-Feb-2017 11:52:24.513 INFO [https-openssl-nio-8443-exec-4] org.apache.catalina.core.ApplicationContext.log 0:0:0:0:0:0:0:1::Cookie::{JSESSIONID,5D14BCF7B777B5008D9729C01472A0F9}
20-Feb-2017 11:52:24.513 INFO [https-openssl-nio-8443-exec-4] org.apache.catalina.core.ApplicationContext.log Requested Resource::/ITAFWebApplication/js/login.js
20-Feb-2017 11:52:24.518 INFO [https-openssl-nio-8443-exec-1] org.apache.catalina.core.ApplicationContext.log 0:0:0:0:0:0:0:1::Cookie::{JSESSIONID,5D14BCF7B777B5008D9729C01472A0F9}
20-Feb-2017 11:52:24.518 INFO [https-openssl-nio-8443-exec-1] org.apache.catalina.core.ApplicationContext.log Requested Resource::/ITAFWebApplication/Images/iTAF_logo.png
20-Feb-2017 11:52:24.559 INFO [https-openssl-nio-8443-exec-7] org.apache.catalina.core.ApplicationContext.log 0:0:0:0:0:0:0:1::Cookie::{JSESSIONID,5D14BCF7B777B5008D9729C01472A0F9}
20-Feb-2017 11:52:24.560 INFO [https-openssl-nio-8443-exec-7] org.apache.catalina.core.ApplicationContext.log Requested Resource::/ITAFWebApplication/fonts/glyphicons-halflings-regular.woff2
20-Feb-2017 11:52:29.943 INFO [https-openssl-nio-8443-exec-8] org.apache.catalina.core.ApplicationContext.log 0:0:0:0:0:0:0:1::Request Params::{user=admin}
20-Feb-2017 11:52:29.943 INFO [https-openssl-nio-8443-exec-8] org.apache.catalina.core.ApplicationContext.log 0:0:0:0:0:0:0:1::Request Params::{password=password10}
20-Feb-2017 11:52:29.943 INFO [https-openssl-nio-8443-exec-8] org.apache.catalina.core.ApplicationContext.log 0:0:0:0:0:0:0:1::Cookie::{JSESSIONID,5D14BCF7B777B5008D9729C01472A0F9}
20-Feb-2017 11:52:29.943 INFO [https-openssl-nio-8443-exec-8] org.apache.catalina.core.ApplicationContext.log Requested Resource::/ITAFWebApplication/login.do
20-Feb-2017 11:52:30.318 INFO [https-openssl-nio-8443-exec-10] org.apache.catalina.core.ApplicationContext.log 0:0:0:0:0:0:0:1::Cookie::{JSESSIONID,5D14BCF7B777B5008D9729C01472A0F9}
20-Feb-2017 11:52:30.318 INFO [https-openssl-nio-8443-exec-10] org.apache.catalina.core.ApplicationContext.log 0:0:0:0:0:0:0:1::Cookie::{user,admin}
20-Feb-2017 11:52:30.318 INFO [https-openssl-nio-8443-exec-10] org.apache.catalina.core.ApplicationContext.log Requested Resource::/ITAFWebApplication/css/bootstrap.min.css
20-Feb-2017 11:52:30.328 INFO [https-openssl-nio-8443-exec-5] org.apache.catalina.core.ApplicationContext.log 0:0:0:0:0:0:0:1::Cookie::{JSESSIONID,5D14BCF7B777B5008D9729C01472A0F9}
20-Feb-2017 11:52:30.328 INFO [https-openssl-nio-8443-exec-5] org.apache.catalina.core.ApplicationContext.log 0:0:0:0:0:0:0:1::Cookie::{user,admin}
20-Feb-2017 11:52:30.328 INFO [https-openssl-nio-8443-exec-5] org.apache.catalina.core.ApplicationContext.log Requested Resource::/ITAFWebApplication/css/demo3/try.css
20-Feb-2017 11:52:30.516 INFO [https-openssl-nio-8443-exec-6] org.apache.catalina.core.ApplicationContext.log 0:0:0:0:0:0:0:1::Cookie::{JSESSIONID,5D14BCF7B777B5008D9729C01472A0F9}
20-Feb-2017 11:52:30.517 INFO [https-openssl-nio-8443-exec-6] org.apache.catalina.core.ApplicationContext.log 0:0:0:0:0:0:0:1::Cookie::{user,admin}
20-Feb-2017 11:52:30.517 INFO [https-openssl-nio-8443-exec-6] org.apache.catalina.core.ApplicationContext.log Requested Resource::/ITAFWebApplication/css/demo3/responsiveTables.css
20-Feb-2017 11:52:30.517 INFO [https-openssl-nio-8443-exec-7] org.apache.catalina.core.ApplicationContext.log 0:0:0:0:0:0:0:1::Cookie::{JSESSIONID,5D14BCF7B777B5008D9729C01472A0F9}
20-Feb-2017 11:52:30.517 INFO [https-openssl-nio-8443-exec-7] org.apache.catalina.core.ApplicationContext.log 0:0:0:0:0:0:0:1::Cookie::{user,admin}
20-Feb-2017 11:52:30.517 INFO [https-openssl-nio-8443-exec-7] org.apache.catalina.core.ApplicationContext.log Requested Resource::/ITAFWebApplication/js/jquery.min.js
20-Feb-2017 11:52:30.518 INFO [https-openssl-nio-8443-exec-4] org.apache.catalina.core.ApplicationContext.log 0:0:0:0:0:0:0:1::Cookie::{JSESSIONID,5D14BCF7B777B5008D9729C01472A0F9}
20-Feb-2017 11:52:30.518 INFO [https-openssl-nio-8443-exec-4] org.apache.catalina.core.ApplicationContext.log 0:0:0:0:0:0:0:1::Cookie::{user,admin}
20-Feb-2017 11:52:30.518 INFO [https-openssl-nio-8443-exec-4] org.apache.catalina.core.ApplicationContext.log Requested Resource::/ITAFWebApplication/js/bootstrap.min.js
20-Feb-2017 11:52:30.523 INFO [https-openssl-nio-8443-exec-1] org.apache.catalina.core.ApplicationContext.log 0:0:0:0:0:0:0:1::Cookie::{JSESSIONID,5D14BCF7B777B5008D9729C01472A0F9}
20-Feb-2017 11:52:30.524 INFO [https-openssl-nio-8443-exec-1] org.apache.catalina.core.ApplicationContext.log 0:0:0:0:0:0:0:1::Cookie::{user,admin}
20-Feb-2017 11:52:30.524 INFO [https-openssl-nio-8443-exec-1] org.apache.catalina.core.ApplicationContext.log Requested Resource::/ITAFWebApplication/js/demo3/try.js
20-Feb-2017 11:52:30.533 INFO [https-openssl-nio-8443-exec-1] org.apache.catalina.core.ApplicationContext.log 0:0:0:0:0:0:0:1::Cookie::{JSESSIONID,5D14BCF7B777B5008D9729C01472A0F9}
20-Feb-2017 11:52:30.533 INFO [https-openssl-nio-8443-exec-1] org.apache.catalina.core.ApplicationContext.log 0:0:0:0:0:0:0:1::Cookie::{user,admin}
20-Feb-2017 11:52:30.533 INFO [https-openssl-nio-8443-exec-1] org.apache.catalina.core.ApplicationContext.log Requested Resource::/ITAFWebApplication/js/objectCap.js
20-Feb-2017 11:52:30.533 INFO [https-openssl-nio-8443-exec-9] org.apache.catalina.core.ApplicationContext.log 0:0:0:0:0:0:0:1::Cookie::{JSESSIONID,5D14BCF7B777B5008D9729C01472A0F9}
20-Feb-2017 11:52:30.533 INFO [https-openssl-nio-8443-exec-9] org.apache.catalina.core.ApplicationContext.log 0:0:0:0:0:0:0:1::Cookie::{user,admin}
20-Feb-2017 11:52:30.533 INFO [https-openssl-nio-8443-exec-9] org.apache.catalina.core.ApplicationContext.log Requested Resource::/ITAFWebApplication/js/demo3/RowSorter.js
20-Feb-2017 11:52:30.538 INFO [https-openssl-nio-8443-exec-4] org.apache.catalina.core.ApplicationContext.log 0:0:0:0:0:0:0:1::Cookie::{JSESSIONID,5D14BCF7B777B5008D9729C01472A0F9}
20-Feb-2017 11:52:30.538 INFO [https-openssl-nio-8443-exec-4] org.apache.catalina.core.ApplicationContext.log 0:0:0:0:0:0:0:1::Cookie::{user,admin}
20-Feb-2017 11:52:30.538 INFO [https-openssl-nio-8443-exec-1] org.apache.catalina.core.ApplicationContext.log 0:0:0:0:0:0:0:1::Cookie::{JSESSIONID,5D14BCF7B777B5008D9729C01472A0F9}
20-Feb-2017 11:52:30.538 INFO [https-openssl-nio-8443-exec-1] org.apache.catalina.core.ApplicationContext.log 0:0:0:0:0:0:0:1::Cookie::{user,admin}
20-Feb-2017 11:52:30.538 INFO [https-openssl-nio-8443-exec-1] org.apache.catalina.core.ApplicationContext.log Requested Resource::/ITAFWebApplication/js/demo3/searchTable.js
20-Feb-2017 11:52:30.541 INFO [https-openssl-nio-8443-exec-4] org.apache.catalina.core.ApplicationContext.log Requested Resource::/ITAFWebApplication/js/demo3/bootstrap-filestyle.min.js
20-Feb-2017 11:52:30.543 INFO [https-openssl-nio-8443-exec-5] org.apache.catalina.core.ApplicationContext.log 0:0:0:0:0:0:0:1::Cookie::{JSESSIONID,5D14BCF7B777B5008D9729C01472A0F9}
20-Feb-2017 11:52:30.543 INFO [https-openssl-nio-8443-exec-5] org.apache.catalina.core.ApplicationContext.log 0:0:0:0:0:0:0:1::Cookie::{user,admin}
20-Feb-2017 11:52:30.543 INFO [https-openssl-nio-8443-exec-5] org.apache.catalina.core.ApplicationContext.log Requested Resource::/ITAFWebApplication/js/demo3/responsiveTables.js
20-Feb-2017 11:52:32.157 INFO [https-openssl-nio-8443-exec-2] org.apache.catalina.core.ApplicationContext.log 0:0:0:0:0:0:0:1::Request Params::{navigationAction=execute}
20-Feb-2017 11:52:32.157 INFO [https-openssl-nio-8443-exec-2] org.apache.catalina.core.ApplicationContext.log 0:0:0:0:0:0:0:1::Cookie::{JSESSIONID,5D14BCF7B777B5008D9729C01472A0F9}
20-Feb-2017 11:52:32.157 INFO [https-openssl-nio-8443-exec-2] org.apache.catalina.core.ApplicationContext.log 0:0:0:0:0:0:0:1::Cookie::{user,admin}
20-Feb-2017 11:52:32.157 INFO [https-openssl-nio-8443-exec-2] org.apache.catalina.core.ApplicationContext.log Requested Resource::/ITAFWebApplication/itafexecute.do
20-Feb-2017 11:52:32.322 INFO [https-openssl-nio-8443-exec-7] org.apache.catalina.core.ApplicationContext.log 0:0:0:0:0:0:0:1::Cookie::{JSESSIONID,5D14BCF7B777B5008D9729C01472A0F9}
20-Feb-2017 11:52:32.322 INFO [https-openssl-nio-8443-exec-7] org.apache.catalina.core.ApplicationContext.log 0:0:0:0:0:0:0:1::Cookie::{user,admin}
20-Feb-2017 11:52:32.322 INFO [https-openssl-nio-8443-exec-5] org.apache.catalina.core.ApplicationContext.log 0:0:0:0:0:0:0:1::Cookie::{JSESSIONID,5D14BCF7B777B5008D9729C01472A0F9}
20-Feb-2017 11:52:32.322 INFO [https-openssl-nio-8443-exec-5] org.apache.catalina.core.ApplicationContext.log 0:0:0:0:0:0:0:1::Cookie::{user,admin}
20-Feb-2017 11:52:32.322 INFO [https-openssl-nio-8443-exec-7] org.apache.catalina.core.ApplicationContext.log Requested Resource::/ITAFWebApplication/js/demo3/executetry.js
20-Feb-2017 11:52:32.322 INFO [https-openssl-nio-8443-exec-5] org.apache.catalina.core.ApplicationContext.log Requested Resource::/ITAFWebApplication/js/loader.js
20-Feb-2017 11:52:32.324 INFO [https-openssl-nio-8443-exec-4] org.apache.catalina.core.ApplicationContext.log 0:0:0:0:0:0:0:1::Cookie::{JSESSIONID,5D14BCF7B777B5008D9729C01472A0F9}
20-Feb-2017 11:52:32.324 INFO [https-openssl-nio-8443-exec-4] org.apache.catalina.core.ApplicationContext.log 0:0:0:0:0:0:0:1::Cookie::{user,admin}
20-Feb-2017 11:52:32.325 INFO [https-openssl-nio-8443-exec-4] org.apache.catalina.core.ApplicationContext.log Requested Resource::/ITAFWebApplication/js/demo3/bootstrap-progressbar.js
20-Feb-2017 11:52:43.524 INFO [https-openssl-nio-8443-exec-5] org.apache.catalina.core.ApplicationContext.log 0:0:0:0:0:0:0:1::Request Params::{executeAction=execute}
20-Feb-2017 11:52:43.524 INFO [https-openssl-nio-8443-exec-5] org.apache.catalina.core.ApplicationContext.log 0:0:0:0:0:0:0:1::Request Params::{exeproject=SafeAuto}
20-Feb-2017 11:52:43.524 INFO [https-openssl-nio-8443-exec-5] org.apache.catalina.core.ApplicationContext.log 0:0:0:0:0:0:0:1::Cookie::{JSESSIONID,5D14BCF7B777B5008D9729C01472A0F9}
20-Feb-2017 11:52:43.525 INFO [https-openssl-nio-8443-exec-5] org.apache.catalina.core.ApplicationContext.log 0:0:0:0:0:0:0:1::Cookie::{user,admin}
20-Feb-2017 11:52:43.525 INFO [https-openssl-nio-8443-exec-5] org.apache.catalina.core.ApplicationContext.log Requested Resource::/ITAFWebApplication/itafexecute.do
20-Feb-2017 11:52:44.649 SEVERE [https-openssl-nio-8443-exec-5] org.apache.catalina.core.StandardWrapperValve.invoke Servlet.service() for servlet [ITAFExecutionServlet] in context with path [/ITAFWebApplication] threw exception
 java.lang.NullPointerException
	at iTAFSeleniumWeb.WebDriver.initiateITAF(WebDriver.java:168)
	at com.majesco.itaf.servlet.actions.ITAFExecutionServlet.doPost(ITAFExecutionServlet.java:139)
	at javax.servlet.http.HttpServlet.service(HttpServlet.java:648)
	at javax.servlet.http.HttpServlet.service(HttpServlet.java:729)
	at org.apache.catalina.core.ApplicationFilterChain.internalDoFilter(ApplicationFilterChain.java:230)
	at org.apache.catalina.core.ApplicationFilterChain.doFilter(ApplicationFilterChain.java:165)
	at org.apache.tomcat.websocket.server.WsFilter.doFilter(WsFilter.java:52)
	at org.apache.catalina.core.ApplicationFilterChain.internalDoFilter(ApplicationFilterChain.java:192)
	at org.apache.catalina.core.ApplicationFilterChain.doFilter(ApplicationFilterChain.java:165)
	at com.majesco.itaf.servlet.filter.AuthenticationFilter.doFilter(AuthenticationFilter.java:42)
	at org.apache.catalina.core.ApplicationFilterChain.internalDoFilter(ApplicationFilterChain.java:192)
	at org.apache.catalina.core.ApplicationFilterChain.doFilter(ApplicationFilterChain.java:165)
	at com.majesco.itaf.servlet.filter.RequestLoggingFilter.doFilter(RequestLoggingFilter.java:46)
	at org.apache.catalina.core.ApplicationFilterChain.internalDoFilter(ApplicationFilterChain.java:192)
	at org.apache.catalina.core.ApplicationFilterChain.doFilter(ApplicationFilterChain.java:165)
	at org.apache.catalina.core.StandardWrapperValve.invoke(StandardWrapperValve.java:198)
	at org.apache.catalina.core.StandardContextValve.invoke(StandardContextValve.java:108)
	at org.apache.catalina.authenticator.AuthenticatorBase.invoke(AuthenticatorBase.java:472)
	at org.apache.catalina.valves.AbstractAccessLogValve.invoke(AbstractAccessLogValve.java:620)
	at org.apache.catalina.core.StandardHostValve.invoke(StandardHostValve.java:140)
	at org.apache.catalina.valves.ErrorReportValve.invoke(ErrorReportValve.java:79)
	at org.apache.catalina.valves.AbstractAccessLogValve.invoke(AbstractAccessLogValve.java:620)
	at org.apache.catalina.core.StandardEngineValve.invoke(StandardEngineValve.java:87)
	at org.apache.catalina.connector.CoyoteAdapter.service(CoyoteAdapter.java:349)
	at org.apache.coyote.http11.Http11Processor.service(Http11Processor.java:784)
	at org.apache.coyote.AbstractProcessorLight.process(AbstractProcessorLight.java:66)
	at org.apache.coyote.AbstractProtocol$ConnectionHandler.process(AbstractProtocol.java:802)
	at org.apache.tomcat.util.net.NioEndpoint$SocketProcessor.doRun(NioEndpoint.java:1410)
	at org.apache.tomcat.util.net.SocketProcessorBase.run(SocketProcessorBase.java:49)
	at java.util.concurrent.ThreadPoolExecutor.runWorker(ThreadPoolExecutor.java:1142)
	at java.util.concurrent.ThreadPoolExecutor$Worker.run(ThreadPoolExecutor.java:617)
	at org.apache.tomcat.util.threads.TaskThread$WrappingRunnable.run(TaskThread.java:61)
	at java.lang.Thread.run(Thread.java:745)

20-Feb-2017 11:59:35.519 INFO [localhost-startStop-2] org.apache.catalina.core.ApplicationContext.log SessionListener: contextDestroyed()
20-Feb-2017 11:59:35.520 INFO [localhost-startStop-2] org.apache.catalina.core.ApplicationContext.log ContextListener: contextDestroyed()
20-Feb-2017 12:06:36.532 INFO [localhost-startStop-1] org.apache.catalina.core.ApplicationContext.log RequestLoggingFilter initialized
20-Feb-2017 12:06:36.533 INFO [localhost-startStop-1] org.apache.catalina.core.ApplicationContext.log AuthenticationFilter initialized
20-Feb-2017 12:06:36.533 INFO [localhost-startStop-1] org.apache.catalina.core.ApplicationContext.log AuthenticationFilter initialized
20-Feb-2017 12:06:36.533 INFO [localhost-startStop-1] org.apache.catalina.core.ApplicationContext.log RequestLoggingFilter initialized
20-Feb-2017 12:06:38.741 INFO [localhost-startStop-1] org.apache.catalina.core.ApplicationContext.log ContextListener: contextInitialized()
20-Feb-2017 12:06:38.741 INFO [localhost-startStop-1] org.apache.catalina.core.ApplicationContext.log SessionListener: contextInitialized()
20-Feb-2017 12:06:52.644 INFO [https-openssl-nio-8443-exec-9] org.apache.catalina.core.ApplicationContext.log Requested Resource::/ITAFWebApplication/
20-Feb-2017 12:06:52.644 INFO [https-openssl-nio-8443-exec-9] org.apache.catalina.core.ApplicationContext.log Unauthorized access request
20-Feb-2017 12:06:52.650 INFO [https-openssl-nio-8443-exec-9] org.apache.catalina.core.ApplicationContext.log Requested Resource::/ITAFWebApplication/login.jsp
20-Feb-2017 12:06:52.742 INFO [https-openssl-nio-8443-exec-6] org.apache.catalina.core.ApplicationContext.log 0:0:0:0:0:0:0:1::Cookie::{JSESSIONID,62531F633EEAF027D1046C060197CB82}
20-Feb-2017 12:06:52.743 INFO [https-openssl-nio-8443-exec-6] org.apache.catalina.core.ApplicationContext.log Requested Resource::/ITAFWebApplication/css/login.css
20-Feb-2017 12:06:52.752 INFO [https-openssl-nio-8443-exec-5] org.apache.catalina.core.ApplicationContext.log 0:0:0:0:0:0:0:1::Cookie::{JSESSIONID,62531F633EEAF027D1046C060197CB82}
20-Feb-2017 12:06:52.752 INFO [https-openssl-nio-8443-exec-5] org.apache.catalina.core.ApplicationContext.log Requested Resource::/ITAFWebApplication/css/bootstrap.min.css
20-Feb-2017 12:06:52.756 INFO [https-openssl-nio-8443-exec-6] org.apache.catalina.core.ApplicationContext.log 0:0:0:0:0:0:0:1::Cookie::{JSESSIONID,62531F633EEAF027D1046C060197CB82}
20-Feb-2017 12:06:52.756 INFO [https-openssl-nio-8443-exec-6] org.apache.catalina.core.ApplicationContext.log Requested Resource::/ITAFWebApplication/js/login.js
20-Feb-2017 12:06:52.764 INFO [https-openssl-nio-8443-exec-7] org.apache.catalina.core.ApplicationContext.log 0:0:0:0:0:0:0:1::Cookie::{JSESSIONID,62531F633EEAF027D1046C060197CB82}
20-Feb-2017 12:06:52.764 INFO [https-openssl-nio-8443-exec-7] org.apache.catalina.core.ApplicationContext.log Requested Resource::/ITAFWebApplication/Images/iTAF_logo.png
20-Feb-2017 12:06:52.814 INFO [https-openssl-nio-8443-exec-3] org.apache.catalina.core.ApplicationContext.log 0:0:0:0:0:0:0:1::Cookie::{JSESSIONID,62531F633EEAF027D1046C060197CB82}
20-Feb-2017 12:06:52.814 INFO [https-openssl-nio-8443-exec-3] org.apache.catalina.core.ApplicationContext.log Requested Resource::/ITAFWebApplication/fonts/glyphicons-halflings-regular.woff2
20-Feb-2017 12:06:58.847 INFO [https-openssl-nio-8443-exec-10] org.apache.catalina.core.ApplicationContext.log 0:0:0:0:0:0:0:1::Request Params::{user=admin}
20-Feb-2017 12:06:58.847 INFO [https-openssl-nio-8443-exec-10] org.apache.catalina.core.ApplicationContext.log 0:0:0:0:0:0:0:1::Request Params::{password=password10}
20-Feb-2017 12:06:58.847 INFO [https-openssl-nio-8443-exec-10] org.apache.catalina.core.ApplicationContext.log 0:0:0:0:0:0:0:1::Cookie::{JSESSIONID,62531F633EEAF027D1046C060197CB82}
20-Feb-2017 12:06:58.847 INFO [https-openssl-nio-8443-exec-10] org.apache.catalina.core.ApplicationContext.log Requested Resource::/ITAFWebApplication/login.do
20-Feb-2017 12:06:59.104 INFO [https-openssl-nio-8443-exec-1] org.apache.catalina.core.ApplicationContext.log 0:0:0:0:0:0:0:1::Cookie::{JSESSIONID,62531F633EEAF027D1046C060197CB82}
20-Feb-2017 12:06:59.104 INFO [https-openssl-nio-8443-exec-1] org.apache.catalina.core.ApplicationContext.log 0:0:0:0:0:0:0:1::Cookie::{user,admin}
20-Feb-2017 12:06:59.104 INFO [https-openssl-nio-8443-exec-1] org.apache.catalina.core.ApplicationContext.log Requested Resource::/ITAFWebApplication/css/bootstrap.min.css
20-Feb-2017 12:06:59.121 INFO [https-openssl-nio-8443-exec-9] org.apache.catalina.core.ApplicationContext.log 0:0:0:0:0:0:0:1::Cookie::{JSESSIONID,62531F633EEAF027D1046C060197CB82}
20-Feb-2017 12:06:59.121 INFO [https-openssl-nio-8443-exec-9] org.apache.catalina.core.ApplicationContext.log 0:0:0:0:0:0:0:1::Cookie::{user,admin}
20-Feb-2017 12:06:59.121 INFO [https-openssl-nio-8443-exec-9] org.apache.catalina.core.ApplicationContext.log Requested Resource::/ITAFWebApplication/css/demo3/try.css
20-Feb-2017 12:06:59.166 INFO [https-openssl-nio-8443-exec-10] org.apache.catalina.core.ApplicationContext.log 0:0:0:0:0:0:0:1::Cookie::{JSESSIONID,62531F633EEAF027D1046C060197CB82}
20-Feb-2017 12:06:59.166 INFO [https-openssl-nio-8443-exec-10] org.apache.catalina.core.ApplicationContext.log 0:0:0:0:0:0:0:1::Cookie::{user,admin}
20-Feb-2017 12:06:59.166 INFO [https-openssl-nio-8443-exec-10] org.apache.catalina.core.ApplicationContext.log Requested Resource::/ITAFWebApplication/css/demo3/responsiveTables.css
20-Feb-2017 12:06:59.171 INFO [https-openssl-nio-8443-exec-10] org.apache.catalina.core.ApplicationContext.log 0:0:0:0:0:0:0:1::Cookie::{JSESSIONID,62531F633EEAF027D1046C060197CB82}
20-Feb-2017 12:06:59.171 INFO [https-openssl-nio-8443-exec-10] org.apache.catalina.core.ApplicationContext.log 0:0:0:0:0:0:0:1::Cookie::{user,admin}
20-Feb-2017 12:06:59.171 INFO [https-openssl-nio-8443-exec-10] org.apache.catalina.core.ApplicationContext.log Requested Resource::/ITAFWebApplication/js/jquery.min.js
20-Feb-2017 12:06:59.175 INFO [https-openssl-nio-8443-exec-3] org.apache.catalina.core.ApplicationContext.log 0:0:0:0:0:0:0:1::Cookie::{JSESSIONID,62531F633EEAF027D1046C060197CB82}
20-Feb-2017 12:06:59.175 INFO [https-openssl-nio-8443-exec-3] org.apache.catalina.core.ApplicationContext.log 0:0:0:0:0:0:0:1::Cookie::{user,admin}
20-Feb-2017 12:06:59.175 INFO [https-openssl-nio-8443-exec-3] org.apache.catalina.core.ApplicationContext.log Requested Resource::/ITAFWebApplication/js/bootstrap.min.js
20-Feb-2017 12:06:59.183 INFO [https-openssl-nio-8443-exec-4] org.apache.catalina.core.ApplicationContext.log 0:0:0:0:0:0:0:1::Cookie::{JSESSIONID,62531F633EEAF027D1046C060197CB82}
20-Feb-2017 12:06:59.185 INFO [https-openssl-nio-8443-exec-4] org.apache.catalina.core.ApplicationContext.log 0:0:0:0:0:0:0:1::Cookie::{user,admin}
20-Feb-2017 12:06:59.185 INFO [https-openssl-nio-8443-exec-4] org.apache.catalina.core.ApplicationContext.log Requested Resource::/ITAFWebApplication/js/demo3/try.js
20-Feb-2017 12:06:59.199 INFO [https-openssl-nio-8443-exec-4] org.apache.catalina.core.ApplicationContext.log 0:0:0:0:0:0:0:1::Cookie::{JSESSIONID,62531F633EEAF027D1046C060197CB82}
20-Feb-2017 12:06:59.199 INFO [https-openssl-nio-8443-exec-4] org.apache.catalina.core.ApplicationContext.log 0:0:0:0:0:0:0:1::Cookie::{user,admin}
20-Feb-2017 12:06:59.199 INFO [https-openssl-nio-8443-exec-4] org.apache.catalina.core.ApplicationContext.log Requested Resource::/ITAFWebApplication/js/objectCap.js
20-Feb-2017 12:06:59.207 INFO [https-openssl-nio-8443-exec-2] org.apache.catalina.core.ApplicationContext.log 0:0:0:0:0:0:0:1::Cookie::{JSESSIONID,62531F633EEAF027D1046C060197CB82}
20-Feb-2017 12:06:59.207 INFO [https-openssl-nio-8443-exec-2] org.apache.catalina.core.ApplicationContext.log 0:0:0:0:0:0:0:1::Cookie::{user,admin}
20-Feb-2017 12:06:59.207 INFO [https-openssl-nio-8443-exec-2] org.apache.catalina.core.ApplicationContext.log Requested Resource::/ITAFWebApplication/js/demo3/searchTable.js
20-Feb-2017 12:06:59.218 INFO [https-openssl-nio-8443-exec-5] org.apache.catalina.core.ApplicationContext.log 0:0:0:0:0:0:0:1::Cookie::{JSESSIONID,62531F633EEAF027D1046C060197CB82}
20-Feb-2017 12:06:59.218 INFO [https-openssl-nio-8443-exec-5] org.apache.catalina.core.ApplicationContext.log 0:0:0:0:0:0:0:1::Cookie::{user,admin}
20-Feb-2017 12:06:59.218 INFO [https-openssl-nio-8443-exec-5] org.apache.catalina.core.ApplicationContext.log Requested Resource::/ITAFWebApplication/js/demo3/RowSorter.js
20-Feb-2017 12:06:59.221 INFO [https-openssl-nio-8443-exec-5] org.apache.catalina.core.ApplicationContext.log 0:0:0:0:0:0:0:1::Cookie::{JSESSIONID,62531F633EEAF027D1046C060197CB82}
20-Feb-2017 12:06:59.221 INFO [https-openssl-nio-8443-exec-5] org.apache.catalina.core.ApplicationContext.log 0:0:0:0:0:0:0:1::Cookie::{user,admin}
20-Feb-2017 12:06:59.222 INFO [https-openssl-nio-8443-exec-5] org.apache.catalina.core.ApplicationContext.log Requested Resource::/ITAFWebApplication/js/demo3/bootstrap-filestyle.min.js
20-Feb-2017 12:06:59.236 INFO [https-openssl-nio-8443-exec-9] org.apache.catalina.core.ApplicationContext.log 0:0:0:0:0:0:0:1::Cookie::{JSESSIONID,62531F633EEAF027D1046C060197CB82}
20-Feb-2017 12:06:59.236 INFO [https-openssl-nio-8443-exec-9] org.apache.catalina.core.ApplicationContext.log 0:0:0:0:0:0:0:1::Cookie::{user,admin}
20-Feb-2017 12:06:59.236 INFO [https-openssl-nio-8443-exec-9] org.apache.catalina.core.ApplicationContext.log Requested Resource::/ITAFWebApplication/js/demo3/responsiveTables.js
20-Feb-2017 12:07:00.414 INFO [https-openssl-nio-8443-exec-6] org.apache.catalina.core.ApplicationContext.log 0:0:0:0:0:0:0:1::Request Params::{navigationAction=execute}
20-Feb-2017 12:07:00.414 INFO [https-openssl-nio-8443-exec-6] org.apache.catalina.core.ApplicationContext.log 0:0:0:0:0:0:0:1::Cookie::{JSESSIONID,62531F633EEAF027D1046C060197CB82}
20-Feb-2017 12:07:00.414 INFO [https-openssl-nio-8443-exec-6] org.apache.catalina.core.ApplicationContext.log 0:0:0:0:0:0:0:1::Cookie::{user,admin}
20-Feb-2017 12:07:00.414 INFO [https-openssl-nio-8443-exec-6] org.apache.catalina.core.ApplicationContext.log Requested Resource::/ITAFWebApplication/itafexecute.do
20-Feb-2017 12:07:00.545 INFO [https-openssl-nio-8443-exec-3] org.apache.catalina.core.ApplicationContext.log 0:0:0:0:0:0:0:1::Cookie::{JSESSIONID,62531F633EEAF027D1046C060197CB82}
20-Feb-2017 12:07:00.545 INFO [https-openssl-nio-8443-exec-3] org.apache.catalina.core.ApplicationContext.log 0:0:0:0:0:0:0:1::Cookie::{user,admin}
20-Feb-2017 12:07:00.546 INFO [https-openssl-nio-8443-exec-3] org.apache.catalina.core.ApplicationContext.log Requested Resource::/ITAFWebApplication/js/demo3/executetry.js
20-Feb-2017 12:07:00.548 INFO [https-openssl-nio-8443-exec-3] org.apache.catalina.core.ApplicationContext.log 0:0:0:0:0:0:0:1::Cookie::{JSESSIONID,62531F633EEAF027D1046C060197CB82}
20-Feb-2017 12:07:00.548 INFO [https-openssl-nio-8443-exec-3] org.apache.catalina.core.ApplicationContext.log 0:0:0:0:0:0:0:1::Cookie::{user,admin}
20-Feb-2017 12:07:00.548 INFO [https-openssl-nio-8443-exec-3] org.apache.catalina.core.ApplicationContext.log Requested Resource::/ITAFWebApplication/js/demo3/bootstrap-progressbar.js
20-Feb-2017 12:07:00.550 INFO [https-openssl-nio-8443-exec-3] org.apache.catalina.core.ApplicationContext.log 0:0:0:0:0:0:0:1::Cookie::{JSESSIONID,62531F633EEAF027D1046C060197CB82}
20-Feb-2017 12:07:00.550 INFO [https-openssl-nio-8443-exec-3] org.apache.catalina.core.ApplicationContext.log 0:0:0:0:0:0:0:1::Cookie::{user,admin}
20-Feb-2017 12:07:00.550 INFO [https-openssl-nio-8443-exec-3] org.apache.catalina.core.ApplicationContext.log Requested Resource::/ITAFWebApplication/js/loader.js
20-Feb-2017 12:07:11.340 INFO [https-openssl-nio-8443-exec-3] org.apache.catalina.core.ApplicationContext.log 0:0:0:0:0:0:0:1::Request Params::{executeAction=execute}
20-Feb-2017 12:07:11.340 INFO [https-openssl-nio-8443-exec-3] org.apache.catalina.core.ApplicationContext.log 0:0:0:0:0:0:0:1::Request Params::{exeproject=SafeAuto}
20-Feb-2017 12:07:11.340 INFO [https-openssl-nio-8443-exec-3] org.apache.catalina.core.ApplicationContext.log 0:0:0:0:0:0:0:1::Cookie::{JSESSIONID,62531F633EEAF027D1046C060197CB82}
20-Feb-2017 12:07:11.340 INFO [https-openssl-nio-8443-exec-3] org.apache.catalina.core.ApplicationContext.log 0:0:0:0:0:0:0:1::Cookie::{user,admin}
20-Feb-2017 12:07:11.341 INFO [https-openssl-nio-8443-exec-3] org.apache.catalina.core.ApplicationContext.log Requested Resource::/ITAFWebApplication/itafexecute.do
20-Feb-2017 12:07:12.243 SEVERE [https-openssl-nio-8443-exec-3] org.apache.catalina.core.StandardWrapperValve.invoke Servlet.service() for servlet [ITAFExecutionServlet] in context with path [/ITAFWebApplication] threw exception
 java.lang.NullPointerException
	at iTAFSeleniumWeb.WebDriver.initiateITAF(WebDriver.java:168)
	at com.majesco.itaf.servlet.actions.ITAFExecutionServlet.doPost(ITAFExecutionServlet.java:139)
	at javax.servlet.http.HttpServlet.service(HttpServlet.java:648)
	at javax.servlet.http.HttpServlet.service(HttpServlet.java:729)
	at org.apache.catalina.core.ApplicationFilterChain.internalDoFilter(ApplicationFilterChain.java:230)
	at org.apache.catalina.core.ApplicationFilterChain.doFilter(ApplicationFilterChain.java:165)
	at org.apache.tomcat.websocket.server.WsFilter.doFilter(WsFilter.java:52)
	at org.apache.catalina.core.ApplicationFilterChain.internalDoFilter(ApplicationFilterChain.java:192)
	at org.apache.catalina.core.ApplicationFilterChain.doFilter(ApplicationFilterChain.java:165)
	at com.majesco.itaf.servlet.filter.AuthenticationFilter.doFilter(AuthenticationFilter.java:42)
	at org.apache.catalina.core.ApplicationFilterChain.internalDoFilter(ApplicationFilterChain.java:192)
	at org.apache.catalina.core.ApplicationFilterChain.doFilter(ApplicationFilterChain.java:165)
	at com.majesco.itaf.servlet.filter.RequestLoggingFilter.doFilter(RequestLoggingFilter.java:46)
	at org.apache.catalina.core.ApplicationFilterChain.internalDoFilter(ApplicationFilterChain.java:192)
	at org.apache.catalina.core.ApplicationFilterChain.doFilter(ApplicationFilterChain.java:165)
	at org.apache.catalina.core.StandardWrapperValve.invoke(StandardWrapperValve.java:198)
	at org.apache.catalina.core.StandardContextValve.invoke(StandardContextValve.java:108)
	at org.apache.catalina.authenticator.AuthenticatorBase.invoke(AuthenticatorBase.java:472)
	at org.apache.catalina.valves.AbstractAccessLogValve.invoke(AbstractAccessLogValve.java:620)
	at org.apache.catalina.core.StandardHostValve.invoke(StandardHostValve.java:140)
	at org.apache.catalina.valves.ErrorReportValve.invoke(ErrorReportValve.java:79)
	at org.apache.catalina.valves.AbstractAccessLogValve.invoke(AbstractAccessLogValve.java:620)
	at org.apache.catalina.core.StandardEngineValve.invoke(StandardEngineValve.java:87)
	at org.apache.catalina.connector.CoyoteAdapter.service(CoyoteAdapter.java:349)
	at org.apache.coyote.http11.Http11Processor.service(Http11Processor.java:784)
	at org.apache.coyote.AbstractProcessorLight.process(AbstractProcessorLight.java:66)
	at org.apache.coyote.AbstractProtocol$ConnectionHandler.process(AbstractProtocol.java:802)
	at org.apache.tomcat.util.net.NioEndpoint$SocketProcessor.doRun(NioEndpoint.java:1410)
	at org.apache.tomcat.util.net.SocketProcessorBase.run(SocketProcessorBase.java:49)
	at java.util.concurrent.ThreadPoolExecutor.runWorker(ThreadPoolExecutor.java:1142)
	at java.util.concurrent.ThreadPoolExecutor$Worker.run(ThreadPoolExecutor.java:617)
	at org.apache.tomcat.util.threads.TaskThread$WrappingRunnable.run(TaskThread.java:61)
	at java.lang.Thread.run(Thread.java:745)

20-Feb-2017 12:08:41.392 INFO [localhost-startStop-2] org.apache.catalina.core.ApplicationContext.log SessionListener: contextDestroyed()
20-Feb-2017 12:08:41.392 INFO [localhost-startStop-2] org.apache.catalina.core.ApplicationContext.log ContextListener: contextDestroyed()
