0:0:0:0:0:0:0:1 - - [04/Oct/2016:10:01:58 +0530] "POST /ITAFWebApplication/logout.do HTTP/1.1" 302 -
0:0:0:0:0:0:0:1 - - [04/Oct/2016:10:01:58 +0530] "GET /ITAFWebApplication/login.jsp HTTP/1.1" 200 27678
0:0:0:0:0:0:0:1 - - [04/Oct/2016:10:01:59 +0530] "GET /ITAFWebApplication/Images/iTAF_logo.png HTTP/1.1" 200 33472
0:0:0:0:0:0:0:1 - - [04/Oct/2016:12:14:57 +0530] "POST /ITAFWebApplication/login.do HTTP/1.1" 302 -
0:0:0:0:0:0:0:1 - - [04/Oct/2016:12:14:57 +0530] "GET /ITAFWebApplication/login.jsp HTTP/1.1" 200 27678
0:0:0:0:0:0:0:1 - - [04/Oct/2016:12:15:08 +0530] "POST /ITAFWebApplication/login.do HTTP/1.1" 200 50595
0:0:0:0:0:0:0:1 - - [04/Oct/2016:12:15:08 +0530] "GET /ITAFWebApplication/css/demo3/try.css HTTP/1.1" 304 -
0:0:0:0:0:0:0:1 - - [04/Oct/2016:12:15:08 +0530] "GET /ITAFWebApplication/js/demo3/try.js HTTP/1.1" 304 -
0:0:0:0:0:0:0:1 - - [04/Oct/2016:12:15:08 +0530] "GET /ITAFWebApplication/js/demo3/searchTable.js HTTP/1.1" 304 -
0:0:0:0:0:0:0:1 - - [04/Oct/2016:12:16:34 +0530] "POST /ITAFWebApplication/itafpack.do HTTP/1.1" 200 53153
0:0:0:0:0:0:0:1 - - [04/Oct/2016:12:16:34 +0530] "GET /ITAFWebApplication/files/advancedReport.html?projectname=TestGeicoApp&actionType=execute HTTP/1.1" 200 -
0:0:0:0:0:0:0:1 - - [04/Oct/2016:12:16:38 +0530] "POST /ITAFWebApplication/itafpack.do HTTP/1.1" 200 52627
0:0:0:0:0:0:0:1 - - [04/Oct/2016:12:16:38 +0530] "GET /ITAFWebApplication/files/advancedReport.html?projectname=TestGeicoApp&actionType=execute HTTP/1.1" 200 -
0:0:0:0:0:0:0:1 - - [04/Oct/2016:12:17:02 +0530] "POST /ITAFWebApplication/itafpack.do HTTP/1.1" 200 52707
0:0:0:0:0:0:0:1 - - [04/Oct/2016:12:17:03 +0530] "GET /ITAFWebApplication/files/advancedReport.html?projectname=TestGeicoApp&actionType=execute HTTP/1.1" 200 -
0:0:0:0:0:0:0:1 - - [04/Oct/2016:12:17:28 +0530] "GET /ITAFWebApplication/main.jsp HTTP/1.1" 200 14193
0:0:0:0:0:0:0:1 - - [04/Oct/2016:12:17:28 +0530] "GET /ITAFWebApplication/css/bootstrap.min.css HTTP/1.1" 200 121260
0:0:0:0:0:0:0:1 - - [04/Oct/2016:12:17:28 +0530] "GET /ITAFWebApplication/js/jquery.min.js HTTP/1.1" 200 84380
0:0:0:0:0:0:0:1 - - [04/Oct/2016:12:17:28 +0530] "GET /ITAFWebApplication/js/demo3/responsiveTables.js HTTP/1.1" 200 1886
0:0:0:0:0:0:0:1 - - [04/Oct/2016:12:17:28 +0530] "GET /ITAFWebApplication/css/demo3/try.css HTTP/1.1" 200 4663
0:0:0:0:0:0:0:1 - - [04/Oct/2016:12:17:28 +0530] "GET /ITAFWebApplication/js/bootstrap.min.js HTTP/1.1" 200 36868
0:0:0:0:0:0:0:1 - - [04/Oct/2016:12:17:28 +0530] "GET /favicon.ico HTTP/1.1" 200 21630
0:0:0:0:0:0:0:1 - - [04/Oct/2016:12:17:28 +0530] "POST /ITAFWebApplication/Seleniumservice/resources/startITAF HTTP/1.1" 204 -
0:0:0:0:0:0:0:1 - - [04/Oct/2016:12:17:28 +0530] "POST /ITAFWebApplication/Seleniumservice/resources/getProjectDetails HTTP/1.1" 200 131
0:0:0:0:0:0:0:1 - - [04/Oct/2016:12:17:28 +0530] "GET /ITAFWebApplication/js/inject.js HTTP/1.1" 200 14249
0:0:0:0:0:0:0:1 - - [04/Oct/2016:12:17:28 +0530] "POST /ITAFWebApplication/Seleniumservice/resources/injectScript HTTP/1.1" 204 -
0:0:0:0:0:0:0:1 - - [04/Oct/2016:12:17:51 +0530] "POST /ITAFWebApplication/Seleniumservice/resources/injectScript HTTP/1.1" 204 -
0:0:0:0:0:0:0:1 - - [04/Oct/2016:12:18:48 +0530] "POST /ITAFWebApplication/Seleniumservice/resources/injectScript HTTP/1.1" 204 -
0:0:0:0:0:0:0:1 - - [04/Oct/2016:12:19:06 +0530] "POST /ITAFWebApplication/Seleniumservice/resources/injectScript HTTP/1.1" 204 -
0:0:0:0:0:0:0:1 - - [04/Oct/2016:12:19:10 +0530] "POST /ITAFWebApplication/Seleniumservice/resources/injectScript HTTP/1.1" 204 -
0:0:0:0:0:0:0:1 - - [04/Oct/2016:12:19:44 +0530] "POST /ITAFWebApplication/Seleniumservice/resources/injectScript HTTP/1.1" 204 -
0:0:0:0:0:0:0:1 - - [04/Oct/2016:12:32:12 +0530] "POST /ITAFWebApplication/Seleniumservice/resources/updateCSV HTTP/1.1" 500 4652
0:0:0:0:0:0:0:1 - - [04/Oct/2016:12:32:21 +0530] "POST /ITAFWebApplication/itafpack.do HTTP/1.1" 302 -
0:0:0:0:0:0:0:1 - - [04/Oct/2016:12:32:21 +0530] "GET /ITAFWebApplication/login.jsp HTTP/1.1" 200 27678
0:0:0:0:0:0:0:1 - - [04/Oct/2016:12:32:29 +0530] "POST /ITAFWebApplication/login.do HTTP/1.1" 200 51749
0:0:0:0:0:0:0:1 - - [04/Oct/2016:12:32:39 +0530] "POST /ITAFWebApplication/itafpack.do HTTP/1.1" 200 52708
0:0:0:0:0:0:0:1 - - [04/Oct/2016:12:32:39 +0530] "GET /ITAFWebApplication/files/advancedReport.html?projectname=TestGeicoApp&actionType=execute HTTP/1.1" 200 -
0:0:0:0:0:0:0:1 - - [04/Oct/2016:12:32:41 +0530] "POST /ITAFWebApplication/itafpack.do HTTP/1.1" 200 53199
0:0:0:0:0:0:0:1 - - [04/Oct/2016:12:32:41 +0530] "GET /ITAFWebApplication/files/advancedReport.html?projectname=TestGeicoApp&actionType=execute HTTP/1.1" 200 -
0:0:0:0:0:0:0:1 - - [04/Oct/2016:12:32:48 +0530] "POST /ITAFWebApplication/itafpack.do HTTP/1.1" 200 70520
0:0:0:0:0:0:0:1 - - [04/Oct/2016:12:32:48 +0530] "GET /ITAFWebApplication/files/advancedReport.html?projectname=TestGeicoApp&actionType=execute HTTP/1.1" 200 -
0:0:0:0:0:0:0:1 - - [04/Oct/2016:12:32:51 +0530] "GET /ITAFWebApplication/main.jsp HTTP/1.1" 200 14193
0:0:0:0:0:0:0:1 - - [04/Oct/2016:12:32:51 +0530] "GET /ITAFWebApplication/css/bootstrap.min.css HTTP/1.1" 200 121260
0:0:0:0:0:0:0:1 - - [04/Oct/2016:12:32:51 +0530] "GET /ITAFWebApplication/js/jquery.min.js HTTP/1.1" 200 84380
0:0:0:0:0:0:0:1 - - [04/Oct/2016:12:32:51 +0530] "GET /ITAFWebApplication/js/demo3/responsiveTables.js HTTP/1.1" 200 1886
0:0:0:0:0:0:0:1 - - [04/Oct/2016:12:32:51 +0530] "GET /ITAFWebApplication/js/bootstrap.min.js HTTP/1.1" 200 36868
0:0:0:0:0:0:0:1 - - [04/Oct/2016:12:32:51 +0530] "GET /ITAFWebApplication/css/demo3/try.css HTTP/1.1" 200 4663
0:0:0:0:0:0:0:1 - - [04/Oct/2016:12:32:52 +0530] "GET /favicon.ico HTTP/1.1" 200 21630
0:0:0:0:0:0:0:1 - - [04/Oct/2016:12:32:52 +0530] "POST /ITAFWebApplication/Seleniumservice/resources/startITAF HTTP/1.1" 204 -
0:0:0:0:0:0:0:1 - - [04/Oct/2016:12:32:52 +0530] "POST /ITAFWebApplication/Seleniumservice/resources/getProjectDetails HTTP/1.1" 200 154
0:0:0:0:0:0:0:1 - - [04/Oct/2016:12:32:52 +0530] "GET /ITAFWebApplication/js/inject.js HTTP/1.1" 200 14249
0:0:0:0:0:0:0:1 - - [04/Oct/2016:12:32:52 +0530] "POST /ITAFWebApplication/Seleniumservice/resources/injectScript HTTP/1.1" 204 -
0:0:0:0:0:0:0:1 - - [04/Oct/2016:12:33:23 +0530] "POST /ITAFWebApplication/Seleniumservice/resources/injectScript HTTP/1.1" 204 -
0:0:0:0:0:0:0:1 - - [04/Oct/2016:12:33:33 +0530] "POST /ITAFWebApplication/Seleniumservice/resources/updateCSV HTTP/1.1" 500 4652
0:0:0:0:0:0:0:1 - - [04/Oct/2016:12:34:59 +0530] "POST /ITAFWebApplication/Seleniumservice/resources/injectScript HTTP/1.1" 204 -
0:0:0:0:0:0:0:1 - - [04/Oct/2016:12:35:13 +0530] "POST /ITAFWebApplication/Seleniumservice/resources/updateCSV HTTP/1.1" 500 4652
0:0:0:0:0:0:0:1 - - [04/Oct/2016:12:38:52 +0530] "POST /ITAFWebApplication/Seleniumservice/resources/updateCSV HTTP/1.1" 500 4652
0:0:0:0:0:0:0:1 - - [04/Oct/2016:16:24:45 +0530] "POST /ITAFWebApplication/itafpack.do HTTP/1.1" 302 -
0:0:0:0:0:0:0:1 - - [04/Oct/2016:16:24:45 +0530] "GET /ITAFWebApplication/login.jsp HTTP/1.1" 200 27678
0:0:0:0:0:0:0:1 - - [04/Oct/2016:16:24:45 +0530] "GET /ITAFWebApplication/css/login.css HTTP/1.1" 304 -
0:0:0:0:0:0:0:1 - - [04/Oct/2016:16:24:45 +0530] "GET /ITAFWebApplication/css/bootstrap.min.css HTTP/1.1" 304 -
0:0:0:0:0:0:0:1 - - [04/Oct/2016:16:24:45 +0530] "GET /ITAFWebApplication/js/login.js HTTP/1.1" 304 -
0:0:0:0:0:0:0:1 - - [04/Oct/2016:16:24:45 +0530] "GET /ITAFWebApplication/Images/iTAF_logo.png HTTP/1.1" 304 -
0:0:0:0:0:0:0:1 - - [04/Oct/2016:16:24:45 +0530] "GET /ITAFWebApplication/fonts/glyphicons-halflings-regular.woff2 HTTP/1.1" 304 -
0:0:0:0:0:0:0:1 - - [04/Oct/2016:16:24:46 +0530] "GET /favicon.ico HTTP/1.1" 200 21630
0:0:0:0:0:0:0:1 - - [04/Oct/2016:16:24:53 +0530] "GET /ITAFWebApplication/css/demo3/try.css HTTP/1.1" 304 -
0:0:0:0:0:0:0:1 - - [04/Oct/2016:16:24:53 +0530] "POST /ITAFWebApplication/login.do HTTP/1.1" 200 51749
0:0:0:0:0:0:0:1 - - [04/Oct/2016:16:24:53 +0530] "GET /ITAFWebApplication/js/demo3/try.js HTTP/1.1" 304 -
0:0:0:0:0:0:0:1 - - [04/Oct/2016:16:25:14 +0530] "POST /ITAFWebApplication/itafpack.do HTTP/1.1" 200 60005
0:0:0:0:0:0:0:1 - - [04/Oct/2016:16:25:14 +0530] "GET /ITAFWebApplication/files/advancedReport.html?projectname=adactin&actionType=execute HTTP/1.1" 200 13511
0:0:0:0:0:0:0:1 - - [04/Oct/2016:16:51:25 +0530] "POST /ITAFWebApplication/logout.do HTTP/1.1" 302 -
0:0:0:0:0:0:0:1 - - [04/Oct/2016:16:51:25 +0530] "GET /ITAFWebApplication/login.jsp HTTP/1.1" 200 27678
0:0:0:0:0:0:0:1 - - [04/Oct/2016:16:51:25 +0530] "GET /ITAFWebApplication/css/bootstrap.min.css.map HTTP/1.1" 404 1080
0:0:0:0:0:0:0:1 - - [04/Oct/2016:16:54:54 +0530] "POST /ITAFWebApplication/login.do HTTP/1.1" 200 51749
0:0:0:0:0:0:0:1 - - [04/Oct/2016:16:54:54 +0530] "GET /ITAFWebApplication/css/bootstrap.min.css.map HTTP/1.1" 404 1080
0:0:0:0:0:0:0:1 - - [04/Oct/2016:16:54:54 +0530] "GET /ITAFWebApplication/css/bootstrap.min.css.map HTTP/1.1" 404 1080
0:0:0:0:0:0:0:1 - - [04/Oct/2016:16:54:54 +0530] "GET /ITAFWebApplication/js/jquery.min.map HTTP/1.1" 404 1064
0:0:0:0:0:0:0:1 - - [04/Oct/2016:16:54:54 +0530] "GET /ITAFWebApplication/css/bootstrap.min.css.map HTTP/1.1" 404 1080
0:0:0:0:0:0:0:1 - - [04/Oct/2016:18:01:36 +0530] "POST /ITAFWebApplication/login.do HTTP/1.1" 302 -
0:0:0:0:0:0:0:1 - - [04/Oct/2016:18:01:36 +0530] "GET /ITAFWebApplication/login.jsp HTTP/1.1" 200 27678
0:0:0:0:0:0:0:1 - - [04/Oct/2016:18:01:36 +0530] "GET /ITAFWebApplication/css/login.css HTTP/1.1" 304 -
0:0:0:0:0:0:0:1 - - [04/Oct/2016:18:01:36 +0530] "GET /ITAFWebApplication/css/bootstrap.min.css HTTP/1.1" 304 -
0:0:0:0:0:0:0:1 - - [04/Oct/2016:18:01:36 +0530] "GET /ITAFWebApplication/js/login.js HTTP/1.1" 304 -
0:0:0:0:0:0:0:1 - - [04/Oct/2016:18:01:36 +0530] "GET /ITAFWebApplication/Images/iTAF_logo.png HTTP/1.1" 304 -
0:0:0:0:0:0:0:1 - - [04/Oct/2016:18:01:36 +0530] "GET /ITAFWebApplication/fonts/glyphicons-halflings-regular.woff2 HTTP/1.1" 304 -
0:0:0:0:0:0:0:1 - - [04/Oct/2016:18:01:37 +0530] "GET /favicon.ico HTTP/1.1" 200 21630
0:0:0:0:0:0:0:1 - - [04/Oct/2016:18:01:44 +0530] "POST /ITAFWebApplication/login.do HTTP/1.1" 200 51749
0:0:0:0:0:0:0:1 - - [04/Oct/2016:18:01:58 +0530] "POST /ITAFWebApplication/itafpack.do HTTP/1.1" 200 54280
0:0:0:0:0:0:0:1 - - [04/Oct/2016:18:01:58 +0530] "GET /ITAFWebApplication/files/advancedReport.html?projectname=progressive&actionType=execute HTTP/1.1" 200 -
0:0:0:0:0:0:0:1 - - [04/Oct/2016:18:02:10 +0530] "POST /ITAFWebApplication/itafpack.do HTTP/1.1" 200 53754
0:0:0:0:0:0:0:1 - - [04/Oct/2016:18:02:10 +0530] "GET /ITAFWebApplication/files/advancedReport.html?projectname=progressive&actionType=execute HTTP/1.1" 200 -
0:0:0:0:0:0:0:1 - - [04/Oct/2016:18:02:36 +0530] "POST /ITAFWebApplication/itafpack.do HTTP/1.1" 200 53829
0:0:0:0:0:0:0:1 - - [04/Oct/2016:18:02:36 +0530] "GET /ITAFWebApplication/files/advancedReport.html?projectname=progressive&actionType=execute HTTP/1.1" 200 -
0:0:0:0:0:0:0:1 - - [04/Oct/2016:18:02:50 +0530] "POST /ITAFWebApplication/itafpack.do HTTP/1.1" 200 71611
0:0:0:0:0:0:0:1 - - [04/Oct/2016:18:02:50 +0530] "GET /ITAFWebApplication/files/advancedReport.html?projectname=progressive&actionType=execute HTTP/1.1" 200 -
0:0:0:0:0:0:0:1 - - [04/Oct/2016:18:02:58 +0530] "GET /ITAFWebApplication/main.jsp HTTP/1.1" 200 14193
0:0:0:0:0:0:0:1 - - [04/Oct/2016:18:02:58 +0530] "GET /ITAFWebApplication/css/bootstrap.min.css HTTP/1.1" 200 121260
0:0:0:0:0:0:0:1 - - [04/Oct/2016:18:02:58 +0530] "GET /ITAFWebApplication/css/demo3/try.css HTTP/1.1" 200 4663
0:0:0:0:0:0:0:1 - - [04/Oct/2016:18:02:58 +0530] "GET /ITAFWebApplication/js/jquery.min.js HTTP/1.1" 200 84380
0:0:0:0:0:0:0:1 - - [04/Oct/2016:18:02:58 +0530] "GET /ITAFWebApplication/js/bootstrap.min.js HTTP/1.1" 200 36868
0:0:0:0:0:0:0:1 - - [04/Oct/2016:18:02:58 +0530] "GET /ITAFWebApplication/js/demo3/responsiveTables.js HTTP/1.1" 200 1886
0:0:0:0:0:0:0:1 - - [04/Oct/2016:18:02:58 +0530] "GET /favicon.ico HTTP/1.1" 200 21630
0:0:0:0:0:0:0:1 - - [04/Oct/2016:18:02:58 +0530] "POST /ITAFWebApplication/Seleniumservice/resources/startITAF HTTP/1.1" 204 -
0:0:0:0:0:0:0:1 - - [04/Oct/2016:18:02:58 +0530] "POST /ITAFWebApplication/Seleniumservice/resources/getProjectDetails HTTP/1.1" 200 154
0:0:0:0:0:0:0:1 - - [04/Oct/2016:18:02:58 +0530] "GET /ITAFWebApplication/js/inject.js HTTP/1.1" 200 14249
0:0:0:0:0:0:0:1 - - [04/Oct/2016:18:02:58 +0530] "POST /ITAFWebApplication/Seleniumservice/resources/injectScript HTTP/1.1" 204 -
0:0:0:0:0:0:0:1 - - [04/Oct/2016:18:03:14 +0530] "POST /ITAFWebApplication/Seleniumservice/resources/injectScript HTTP/1.1" 204 -
0:0:0:0:0:0:0:1 - - [04/Oct/2016:18:03:26 +0530] "GET /ITAFWebApplication/js/jquery.min.map HTTP/1.1" 404 1064
0:0:0:0:0:0:0:1 - - [04/Oct/2016:18:03:26 +0530] "GET /ITAFWebApplication/css/bootstrap.min.css.map HTTP/1.1" 404 1080
0:0:0:0:0:0:0:1 - - [04/Oct/2016:18:05:47 +0530] "GET /ITAFWebApplication/js/jquery.min.map HTTP/1.1" 404 1064
0:0:0:0:0:0:0:1 - - [04/Oct/2016:18:05:47 +0530] "GET /ITAFWebApplication/css/bootstrap.min.css.map HTTP/1.1" 404 1080
0:0:0:0:0:0:0:1 - - [04/Oct/2016:18:36:28 +0530] "POST /ITAFWebApplication/itafpack.do HTTP/1.1" 302 -
0:0:0:0:0:0:0:1 - - [04/Oct/2016:18:36:28 +0530] "GET /ITAFWebApplication/login.jsp HTTP/1.1" 200 27678
0:0:0:0:0:0:0:1 - - [04/Oct/2016:18:36:28 +0530] "GET /ITAFWebApplication/css/login.css HTTP/1.1" 304 -
0:0:0:0:0:0:0:1 - - [04/Oct/2016:18:36:28 +0530] "GET /ITAFWebApplication/css/bootstrap.min.css HTTP/1.1" 304 -
0:0:0:0:0:0:0:1 - - [04/Oct/2016:18:36:28 +0530] "GET /ITAFWebApplication/js/login.js HTTP/1.1" 304 -
0:0:0:0:0:0:0:1 - - [04/Oct/2016:18:36:28 +0530] "GET /ITAFWebApplication/Images/iTAF_logo.png HTTP/1.1" 304 -
0:0:0:0:0:0:0:1 - - [04/Oct/2016:18:36:28 +0530] "GET /ITAFWebApplication/fonts/glyphicons-halflings-regular.woff2 HTTP/1.1" 304 -
0:0:0:0:0:0:0:1 - - [04/Oct/2016:18:36:29 +0530] "GET /favicon.ico HTTP/1.1" 200 21630
0:0:0:0:0:0:0:1 - - [04/Oct/2016:18:36:36 +0530] "POST /ITAFWebApplication/login.do HTTP/1.1" 200 52902
0:0:0:0:0:0:0:1 - - [04/Oct/2016:18:36:43 +0530] "POST /ITAFWebApplication/itafpack.do HTTP/1.1" 200 59021
0:0:0:0:0:0:0:1 - - [04/Oct/2016:18:36:43 +0530] "GET /ITAFWebApplication/files/advancedReport.html?projectname=progressive&actionType=execute HTTP/1.1" 200 -
0:0:0:0:0:0:0:1 - - [04/Oct/2016:18:36:48 +0530] "GET /ITAFWebApplication/main.jsp HTTP/1.1" 200 14193
0:0:0:0:0:0:0:1 - - [04/Oct/2016:18:36:48 +0530] "GET /ITAFWebApplication/css/bootstrap.min.css HTTP/1.1" 200 121260
0:0:0:0:0:0:0:1 - - [04/Oct/2016:18:36:48 +0530] "GET /ITAFWebApplication/js/jquery.min.js HTTP/1.1" 200 84380
0:0:0:0:0:0:0:1 - - [04/Oct/2016:18:36:48 +0530] "GET /ITAFWebApplication/css/demo3/try.css HTTP/1.1" 200 4663
0:0:0:0:0:0:0:1 - - [04/Oct/2016:18:36:48 +0530] "GET /ITAFWebApplication/js/demo3/responsiveTables.js HTTP/1.1" 200 1886
0:0:0:0:0:0:0:1 - - [04/Oct/2016:18:36:48 +0530] "GET /ITAFWebApplication/js/bootstrap.min.js HTTP/1.1" 200 36868
0:0:0:0:0:0:0:1 - - [04/Oct/2016:18:36:48 +0530] "GET /favicon.ico HTTP/1.1" 200 21630
0:0:0:0:0:0:0:1 - - [04/Oct/2016:18:36:48 +0530] "POST /ITAFWebApplication/Seleniumservice/resources/getProjectDetails HTTP/1.1" 200 154
0:0:0:0:0:0:0:1 - - [04/Oct/2016:18:36:48 +0530] "POST /ITAFWebApplication/Seleniumservice/resources/startITAF HTTP/1.1" 204 -
0:0:0:0:0:0:0:1 - - [04/Oct/2016:18:36:48 +0530] "POST /ITAFWebApplication/Seleniumservice/resources/injectScript HTTP/1.1" 204 -
0:0:0:0:0:0:0:1 - - [04/Oct/2016:18:36:48 +0530] "GET /ITAFWebApplication/js/inject.js HTTP/1.1" 200 14263
0:0:0:0:0:0:0:1 - - [04/Oct/2016:18:37:07 +0530] "GET /ITAFWebApplication/js/inject.js HTTP/1.1" 304 -
0:0:0:0:0:0:0:1 - - [04/Oct/2016:18:37:07 +0530] "POST /ITAFWebApplication/Seleniumservice/resources/injectScript HTTP/1.1" 204 -
