0:0:0:0:0:0:0:1 - - [16/Feb/2017:11:02:00 +0530] "GET /ITAFWebApplication/ HTTP/1.1" 302 -
0:0:0:0:0:0:0:1 - - [16/Feb/2017:11:02:01 +0530] "GET /ITAFWebApplication/login.jsp HTTP/1.1" 200 27677
0:0:0:0:0:0:0:1 - - [16/Feb/2017:11:02:01 +0530] "GET /ITAFWebApplication/css/bootstrap.min.css HTTP/1.1" 200 121260
0:0:0:0:0:0:0:1 - - [16/Feb/2017:11:02:01 +0530] "GET /ITAFWebApplication/css/login.css HTTP/1.1" 200 1077
0:0:0:0:0:0:0:1 - - [16/Feb/2017:11:02:01 +0530] "GET /ITAFWebApplication/js/login.js HTTP/1.1" 200 6947
0:0:0:0:0:0:0:1 - - [16/Feb/2017:11:02:01 +0530] "GET /ITAFWebApplication/Images/iTAF_logo.png HTTP/1.1" 200 33472
0:0:0:0:0:0:0:1 - - [16/Feb/2017:11:02:01 +0530] "GET /ITAFWebApplication/fonts/glyphicons-halflings-regular.woff2 HTTP/1.1" 200 18028
0:0:0:0:0:0:0:1 - - [16/Feb/2017:11:02:09 +0530] "GET /ITAFWebApplication/css/bootstrap.min.css HTTP/1.1" 200 121260
0:0:0:0:0:0:0:1 - - [16/Feb/2017:11:02:09 +0530] "GET /ITAFWebApplication/css/demo3/try.css HTTP/1.1" 200 4871
0:0:0:0:0:0:0:1 - - [16/Feb/2017:11:02:09 +0530] "POST /ITAFWebApplication/login.do HTTP/1.1" 200 52479
0:0:0:0:0:0:0:1 - - [16/Feb/2017:11:02:09 +0530] "GET /ITAFWebApplication/css/demo3/responsiveTables.css HTTP/1.1" 200 182
0:0:0:0:0:0:0:1 - - [16/Feb/2017:11:02:09 +0530] "GET /ITAFWebApplication/js/jquery.min.js HTTP/1.1" 200 84380
0:0:0:0:0:0:0:1 - - [16/Feb/2017:11:02:09 +0530] "GET /ITAFWebApplication/js/bootstrap.min.js HTTP/1.1" 200 36868
0:0:0:0:0:0:0:1 - - [16/Feb/2017:11:02:09 +0530] "GET /ITAFWebApplication/js/demo3/bootstrap-filestyle.min.js HTTP/1.1" 200 7190
0:0:0:0:0:0:0:1 - - [16/Feb/2017:11:02:09 +0530] "GET /ITAFWebApplication/js/demo3/searchTable.js HTTP/1.1" 200 1022
0:0:0:0:0:0:0:1 - - [16/Feb/2017:11:02:09 +0530] "GET /ITAFWebApplication/js/demo3/responsiveTables.js HTTP/1.1" 200 1886
0:0:0:0:0:0:0:1 - - [16/Feb/2017:11:02:09 +0530] "GET /ITAFWebApplication/js/demo3/try.js HTTP/1.1" 200 45488
0:0:0:0:0:0:0:1 - - [16/Feb/2017:11:02:09 +0530] "GET /ITAFWebApplication/js/objectCap.js HTTP/1.1" 200 11106
0:0:0:0:0:0:0:1 - - [16/Feb/2017:11:02:09 +0530] "GET /ITAFWebApplication/js/demo3/RowSorter.js HTTP/1.1" 200 8102
0:0:0:0:0:0:0:1 - - [16/Feb/2017:11:02:21 +0530] "POST /ITAFWebApplication/itafexecute.do HTTP/1.1" 200 19682
0:0:0:0:0:0:0:1 - - [16/Feb/2017:11:02:21 +0530] "GET /ITAFWebApplication/css/bootstrap.min.css HTTP/1.1" 200 121260
0:0:0:0:0:0:0:1 - - [16/Feb/2017:11:02:21 +0530] "GET /ITAFWebApplication/js/loader.js HTTP/1.1" 200 70294
0:0:0:0:0:0:0:1 - - [16/Feb/2017:11:02:21 +0530] "GET /ITAFWebApplication/css/demo3/try.css HTTP/1.1" 200 4871
0:0:0:0:0:0:0:1 - - [16/Feb/2017:11:02:21 +0530] "GET /ITAFWebApplication/js/demo3/executetry.js HTTP/1.1" 200 1945
0:0:0:0:0:0:0:1 - - [16/Feb/2017:11:02:21 +0530] "GET /ITAFWebApplication/js/demo3/bootstrap-progressbar.js HTTP/1.1" 200 6284
0:0:0:0:0:0:0:1 - - [16/Feb/2017:11:04:10 +0530] "POST /ITAFWebApplication/itafexecute.do HTTP/1.1" 200 596
0:0:0:0:0:0:0:1 - - [16/Feb/2017:11:12:19 +0530] "GET /ITAFWebApplication/ HTTP/1.1" 200 27677
0:0:0:0:0:0:0:1 - - [16/Feb/2017:11:12:19 +0530] "GET /ITAFWebApplication/css/login.css HTTP/1.1" 200 1077
0:0:0:0:0:0:0:1 - - [16/Feb/2017:11:12:19 +0530] "GET /ITAFWebApplication/css/bootstrap.min.css HTTP/1.1" 200 121260
0:0:0:0:0:0:0:1 - - [16/Feb/2017:11:12:19 +0530] "GET /ITAFWebApplication/js/login.js HTTP/1.1" 200 6947
0:0:0:0:0:0:0:1 - - [16/Feb/2017:11:12:19 +0530] "GET /ITAFWebApplication/Images/iTAF_logo.png HTTP/1.1" 200 33472
0:0:0:0:0:0:0:1 - - [16/Feb/2017:11:12:19 +0530] "GET /ITAFWebApplication/fonts/glyphicons-halflings-regular.woff2 HTTP/1.1" 200 18028
0:0:0:0:0:0:0:1 - - [16/Feb/2017:11:33:10 +0530] "GET /ITAFWebApplication/css/demo3/try.css HTTP/1.1" 200 4871
0:0:0:0:0:0:0:1 - - [16/Feb/2017:11:33:10 +0530] "POST /ITAFWebApplication/itafexecute.do HTTP/1.1" 200 52479
0:0:0:0:0:0:0:1 - - [16/Feb/2017:11:33:10 +0530] "GET /ITAFWebApplication/css/bootstrap.min.css HTTP/1.1" 200 121260
0:0:0:0:0:0:0:1 - - [16/Feb/2017:11:33:10 +0530] "GET /ITAFWebApplication/css/demo3/responsiveTables.css HTTP/1.1" 200 182
0:0:0:0:0:0:0:1 - - [16/Feb/2017:11:33:10 +0530] "GET /ITAFWebApplication/js/demo3/try.js HTTP/1.1" 200 45488
0:0:0:0:0:0:0:1 - - [16/Feb/2017:11:33:10 +0530] "GET /ITAFWebApplication/js/demo3/searchTable.js HTTP/1.1" 200 1022
0:0:0:0:0:0:0:1 - - [16/Feb/2017:11:33:10 +0530] "GET /ITAFWebApplication/js/demo3/RowSorter.js HTTP/1.1" 200 8102
0:0:0:0:0:0:0:1 - - [16/Feb/2017:11:33:10 +0530] "GET /ITAFWebApplication/js/objectCap.js HTTP/1.1" 200 11106
0:0:0:0:0:0:0:1 - - [16/Feb/2017:11:33:10 +0530] "GET /ITAFWebApplication/js/demo3/responsiveTables.js HTTP/1.1" 200 1886
0:0:0:0:0:0:0:1 - - [16/Feb/2017:11:33:10 +0530] "GET /ITAFWebApplication/js/demo3/bootstrap-filestyle.min.js HTTP/1.1" 200 7190
0:0:0:0:0:0:0:1 - - [16/Feb/2017:11:33:34 +0530] "POST /ITAFWebApplication/uploaddownload.do HTTP/1.1" 500 1793
0:0:0:0:0:0:0:1 - - [16/Feb/2017:11:33:45 +0530] "GET /ITAFWebApplication/ HTTP/1.1" 200 27677
0:0:0:0:0:0:0:1 - - [16/Feb/2017:11:33:45 +0530] "GET /ITAFWebApplication/css/login.css HTTP/1.1" 200 1077
0:0:0:0:0:0:0:1 - - [16/Feb/2017:11:33:45 +0530] "GET /ITAFWebApplication/css/bootstrap.min.css HTTP/1.1" 200 121260
0:0:0:0:0:0:0:1 - - [16/Feb/2017:11:33:51 +0530] "GET /ITAFWebApplication/css/bootstrap.min.css HTTP/1.1" 200 121260
0:0:0:0:0:0:0:1 - - [16/Feb/2017:11:33:51 +0530] "POST /ITAFWebApplication/login.do HTTP/1.1" 200 52479
0:0:0:0:0:0:0:1 - - [16/Feb/2017:11:33:51 +0530] "GET /ITAFWebApplication/css/demo3/try.css HTTP/1.1" 200 4871
0:0:0:0:0:0:0:1 - - [16/Feb/2017:11:33:51 +0530] "GET /ITAFWebApplication/css/demo3/responsiveTables.css HTTP/1.1" 200 182
0:0:0:0:0:0:0:1 - - [16/Feb/2017:11:33:51 +0530] "GET /ITAFWebApplication/js/jquery.min.js HTTP/1.1" 200 84380
0:0:0:0:0:0:0:1 - - [16/Feb/2017:11:33:51 +0530] "GET /ITAFWebApplication/js/demo3/responsiveTables.js HTTP/1.1" 200 1886
0:0:0:0:0:0:0:1 - - [16/Feb/2017:11:33:51 +0530] "GET /ITAFWebApplication/js/demo3/bootstrap-filestyle.min.js HTTP/1.1" 200 7190
0:0:0:0:0:0:0:1 - - [16/Feb/2017:11:33:51 +0530] "GET /ITAFWebApplication/js/bootstrap.min.js HTTP/1.1" 200 36868
0:0:0:0:0:0:0:1 - - [16/Feb/2017:11:33:51 +0530] "GET /ITAFWebApplication/js/demo3/searchTable.js HTTP/1.1" 200 1022
0:0:0:0:0:0:0:1 - - [16/Feb/2017:11:33:51 +0530] "GET /ITAFWebApplication/js/objectCap.js HTTP/1.1" 200 11106
0:0:0:0:0:0:0:1 - - [16/Feb/2017:11:33:51 +0530] "GET /ITAFWebApplication/js/demo3/try.js HTTP/1.1" 200 45488
0:0:0:0:0:0:0:1 - - [16/Feb/2017:11:33:52 +0530] "GET /ITAFWebApplication/js/demo3/RowSorter.js HTTP/1.1" 200 8102
0:0:0:0:0:0:0:1 - - [16/Feb/2017:11:34:15 +0530] "POST /ITAFWebApplication/uploaddownload.do HTTP/1.1" 500 1793
0:0:0:0:0:0:0:1 - - [16/Feb/2017:11:34:19 +0530] "GET /ITAFWebApplication/ HTTP/1.1" 200 27677
0:0:0:0:0:0:0:1 - - [16/Feb/2017:11:34:19 +0530] "GET /ITAFWebApplication/css/login.css HTTP/1.1" 200 1077
0:0:0:0:0:0:0:1 - - [16/Feb/2017:11:34:19 +0530] "GET /ITAFWebApplication/css/bootstrap.min.css HTTP/1.1" 200 121260
0:0:0:0:0:0:0:1 - - [16/Feb/2017:11:34:26 +0530] "GET /ITAFWebApplication/css/bootstrap.min.css HTTP/1.1" 200 121260
0:0:0:0:0:0:0:1 - - [16/Feb/2017:11:34:26 +0530] "GET /ITAFWebApplication/css/demo3/try.css HTTP/1.1" 200 4871
0:0:0:0:0:0:0:1 - - [16/Feb/2017:11:34:26 +0530] "POST /ITAFWebApplication/login.do HTTP/1.1" 200 52479
0:0:0:0:0:0:0:1 - - [16/Feb/2017:11:34:26 +0530] "GET /ITAFWebApplication/css/demo3/responsiveTables.css HTTP/1.1" 200 182
0:0:0:0:0:0:0:1 - - [16/Feb/2017:11:34:26 +0530] "GET /ITAFWebApplication/js/jquery.min.js HTTP/1.1" 200 84380
0:0:0:0:0:0:0:1 - - [16/Feb/2017:11:34:26 +0530] "GET /ITAFWebApplication/js/bootstrap.min.js HTTP/1.1" 200 36868
0:0:0:0:0:0:0:1 - - [16/Feb/2017:11:34:26 +0530] "GET /ITAFWebApplication/js/demo3/try.js HTTP/1.1" 200 45488
0:0:0:0:0:0:0:1 - - [16/Feb/2017:11:34:26 +0530] "GET /ITAFWebApplication/js/demo3/searchTable.js HTTP/1.1" 200 1022
0:0:0:0:0:0:0:1 - - [16/Feb/2017:11:34:26 +0530] "GET /ITAFWebApplication/js/demo3/RowSorter.js HTTP/1.1" 200 8102
0:0:0:0:0:0:0:1 - - [16/Feb/2017:11:34:26 +0530] "GET /ITAFWebApplication/js/demo3/bootstrap-filestyle.min.js HTTP/1.1" 200 7190
0:0:0:0:0:0:0:1 - - [16/Feb/2017:11:34:26 +0530] "GET /ITAFWebApplication/js/objectCap.js HTTP/1.1" 200 11106
0:0:0:0:0:0:0:1 - - [16/Feb/2017:11:34:26 +0530] "GET /ITAFWebApplication/js/demo3/responsiveTables.js HTTP/1.1" 200 1886
0:0:0:0:0:0:0:1 - - [16/Feb/2017:11:34:32 +0530] "GET /ITAFWebApplication/css/bootstrap.min.css HTTP/1.1" 200 121260
0:0:0:0:0:0:0:1 - - [16/Feb/2017:11:34:32 +0530] "GET /ITAFWebApplication/css/demo3/try.css HTTP/1.1" 200 4871
0:0:0:0:0:0:0:1 - - [16/Feb/2017:11:34:32 +0530] "POST /ITAFWebApplication/itafpack.do HTTP/1.1" 200 65855
0:0:0:0:0:0:0:1 - - [16/Feb/2017:11:34:32 +0530] "GET /ITAFWebApplication/css/demo3/responsiveTables.css HTTP/1.1" 200 182
0:0:0:0:0:0:0:1 - - [16/Feb/2017:11:34:32 +0530] "GET /ITAFWebApplication/files/advancedReport.html?projectname=Coverall2015&actionType=execute HTTP/1.1" 200 19909
0:0:0:0:0:0:0:1 - - [16/Feb/2017:11:34:34 +0530] "POST /ITAFWebApplication/itafpack.do HTTP/1.1" 200 65858
0:0:0:0:0:0:0:1 - - [16/Feb/2017:11:34:34 +0530] "GET /ITAFWebApplication/css/bootstrap.min.css HTTP/1.1" 200 121260
0:0:0:0:0:0:0:1 - - [16/Feb/2017:11:34:34 +0530] "GET /ITAFWebApplication/css/demo3/responsiveTables.css HTTP/1.1" 200 182
0:0:0:0:0:0:0:1 - - [16/Feb/2017:11:34:34 +0530] "GET /ITAFWebApplication/css/demo3/try.css HTTP/1.1" 200 4871
0:0:0:0:0:0:0:1 - - [16/Feb/2017:11:34:34 +0530] "GET /ITAFWebApplication/files/advancedReport.html?projectname=Coverall2015&actionType=execute HTTP/1.1" 200 19909
0:0:0:0:0:0:0:1 - - [16/Feb/2017:11:34:37 +0530] "POST /ITAFWebApplication/uploaddownload.do HTTP/1.1" 200 24576
0:0:0:0:0:0:0:1 - - [16/Feb/2017:11:35:15 +0530] "POST /ITAFWebApplication/uploaddownload.do HTTP/1.1" 200 68930
0:0:0:0:0:0:0:1 - - [16/Feb/2017:11:35:15 +0530] "GET /ITAFWebApplication/css/bootstrap.min.css HTTP/1.1" 200 121260
0:0:0:0:0:0:0:1 - - [16/Feb/2017:11:35:15 +0530] "GET /ITAFWebApplication/css/demo3/try.css HTTP/1.1" 200 4871
0:0:0:0:0:0:0:1 - - [16/Feb/2017:11:35:15 +0530] "GET /ITAFWebApplication/css/demo3/responsiveTables.css HTTP/1.1" 200 182
0:0:0:0:0:0:0:1 - - [16/Feb/2017:11:35:15 +0530] "GET /ITAFWebApplication/files/advancedReport.html?projectname=Coverall2015&actionType=execute HTTP/1.1" 200 19909
0:0:0:0:0:0:0:1 - - [16/Feb/2017:11:36:08 +0530] "POST /ITAFWebApplication/uploaddownload.do HTTP/1.1" 200 80034
0:0:0:0:0:0:0:1 - - [16/Feb/2017:11:36:08 +0530] "GET /ITAFWebApplication/css/bootstrap.min.css HTTP/1.1" 200 121260
0:0:0:0:0:0:0:1 - - [16/Feb/2017:11:36:08 +0530] "GET /ITAFWebApplication/css/demo3/responsiveTables.css HTTP/1.1" 200 182
0:0:0:0:0:0:0:1 - - [16/Feb/2017:11:36:08 +0530] "GET /ITAFWebApplication/css/demo3/try.css HTTP/1.1" 200 4871
0:0:0:0:0:0:0:1 - - [16/Feb/2017:11:36:08 +0530] "GET /ITAFWebApplication/files/advancedReport.html?projectname=Coverall2015&actionType=execute HTTP/1.1" 200 19909
0:0:0:0:0:0:0:1 - - [16/Feb/2017:11:39:26 +0530] "POST /ITAFWebApplication/logout.do HTTP/1.1" 302 -
0:0:0:0:0:0:0:1 - - [16/Feb/2017:11:39:26 +0530] "GET /ITAFWebApplication/login.jsp HTTP/1.1" 200 27677
0:0:0:0:0:0:0:1 - - [16/Feb/2017:11:39:26 +0530] "GET /ITAFWebApplication/css/login.css HTTP/1.1" 200 1077
0:0:0:0:0:0:0:1 - - [16/Feb/2017:11:39:26 +0530] "GET /ITAFWebApplication/css/bootstrap.min.css HTTP/1.1" 200 121260
0:0:0:0:0:0:0:1 - - [16/Feb/2017:11:39:32 +0530] "GET /ITAFWebApplication/css/bootstrap.min.css HTTP/1.1" 200 121260
0:0:0:0:0:0:0:1 - - [16/Feb/2017:11:39:32 +0530] "GET /ITAFWebApplication/css/demo3/try.css HTTP/1.1" 200 4871
0:0:0:0:0:0:0:1 - - [16/Feb/2017:11:39:32 +0530] "POST /ITAFWebApplication/login.do HTTP/1.1" 200 52479
0:0:0:0:0:0:0:1 - - [16/Feb/2017:11:39:32 +0530] "GET /ITAFWebApplication/css/demo3/responsiveTables.css HTTP/1.1" 200 182
0:0:0:0:0:0:0:1 - - [16/Feb/2017:11:39:32 +0530] "GET /ITAFWebApplication/js/jquery.min.js HTTP/1.1" 200 84380
0:0:0:0:0:0:0:1 - - [16/Feb/2017:11:39:32 +0530] "GET /ITAFWebApplication/js/bootstrap.min.js HTTP/1.1" 200 36868
0:0:0:0:0:0:0:1 - - [16/Feb/2017:11:39:32 +0530] "GET /ITAFWebApplication/js/demo3/try.js HTTP/1.1" 200 45488
0:0:0:0:0:0:0:1 - - [16/Feb/2017:11:39:32 +0530] "GET /ITAFWebApplication/js/demo3/bootstrap-filestyle.min.js HTTP/1.1" 200 7190
0:0:0:0:0:0:0:1 - - [16/Feb/2017:11:39:32 +0530] "GET /ITAFWebApplication/js/objectCap.js HTTP/1.1" 200 11106
0:0:0:0:0:0:0:1 - - [16/Feb/2017:11:39:32 +0530] "GET /ITAFWebApplication/js/demo3/searchTable.js HTTP/1.1" 200 1022
0:0:0:0:0:0:0:1 - - [16/Feb/2017:11:39:32 +0530] "GET /ITAFWebApplication/js/demo3/responsiveTables.js HTTP/1.1" 200 1886
0:0:0:0:0:0:0:1 - - [16/Feb/2017:11:39:32 +0530] "GET /ITAFWebApplication/js/demo3/RowSorter.js HTTP/1.1" 200 8102
0:0:0:0:0:0:0:1 - - [16/Feb/2017:11:41:53 +0530] "GET /ITAFWebApplication/css/bootstrap.min.css HTTP/1.1" 200 121260
0:0:0:0:0:0:0:1 - - [16/Feb/2017:11:41:53 +0530] "GET /ITAFWebApplication/css/demo3/responsiveTables.css HTTP/1.1" 200 182
0:0:0:0:0:0:0:1 - - [16/Feb/2017:11:41:53 +0530] "POST /ITAFWebApplication/itafpack.do HTTP/1.1" 200 63372
0:0:0:0:0:0:0:1 - - [16/Feb/2017:11:41:53 +0530] "GET /ITAFWebApplication/css/demo3/try.css HTTP/1.1" 200 4871
0:0:0:0:0:0:0:1 - - [16/Feb/2017:11:41:53 +0530] "GET /ITAFWebApplication/files/advancedReport.html?projectname=SafeAuto&actionType=execute HTTP/1.1" 200 14269
0:0:0:0:0:0:0:1 - - [16/Feb/2017:11:43:27 +0530] "GET /ITAFWebApplication/css/bootstrap.min.css HTTP/1.1" 200 121260
0:0:0:0:0:0:0:1 - - [16/Feb/2017:11:43:27 +0530] "GET /ITAFWebApplication/css/demo3/try.css HTTP/1.1" 200 4871
0:0:0:0:0:0:0:1 - - [16/Feb/2017:11:43:27 +0530] "POST /ITAFWebApplication/itafpack.do HTTP/1.1" 200 63372
0:0:0:0:0:0:0:1 - - [16/Feb/2017:11:43:27 +0530] "GET /ITAFWebApplication/css/demo3/responsiveTables.css HTTP/1.1" 200 182
0:0:0:0:0:0:0:1 - - [16/Feb/2017:11:43:27 +0530] "GET /ITAFWebApplication/files/advancedReport.html?projectname=SafeAuto&actionType=execute HTTP/1.1" 200 14269
0:0:0:0:0:0:0:1 - - [16/Feb/2017:11:45:55 +0530] "GET /ITAFWebApplication/css/bootstrap.min.css HTTP/1.1" 200 121260
0:0:0:0:0:0:0:1 - - [16/Feb/2017:11:45:55 +0530] "GET /ITAFWebApplication/css/demo3/try.css HTTP/1.1" 200 4871
0:0:0:0:0:0:0:1 - - [16/Feb/2017:11:45:55 +0530] "POST /ITAFWebApplication/itafpack.do HTTP/1.1" 200 63375
0:0:0:0:0:0:0:1 - - [16/Feb/2017:11:45:55 +0530] "GET /ITAFWebApplication/css/demo3/responsiveTables.css HTTP/1.1" 200 182
0:0:0:0:0:0:0:1 - - [16/Feb/2017:11:45:56 +0530] "GET /ITAFWebApplication/files/advancedReport.html?projectname=SafeAuto&actionType=execute HTTP/1.1" 200 14269
0:0:0:0:0:0:0:1 - - [16/Feb/2017:11:46:46 +0530] "GET /ITAFWebApplication/css/demo3/try.css HTTP/1.1" 200 4871
0:0:0:0:0:0:0:1 - - [16/Feb/2017:11:46:46 +0530] "GET /ITAFWebApplication/css/demo3/responsiveTables.css HTTP/1.1" 200 182
0:0:0:0:0:0:0:1 - - [16/Feb/2017:11:46:46 +0530] "POST /ITAFWebApplication/itafpack.do HTTP/1.1" 200 63375
0:0:0:0:0:0:0:1 - - [16/Feb/2017:11:46:46 +0530] "GET /ITAFWebApplication/css/bootstrap.min.css HTTP/1.1" 200 121260
0:0:0:0:0:0:0:1 - - [16/Feb/2017:11:46:46 +0530] "GET /ITAFWebApplication/files/advancedReport.html?projectname=SafeAuto&actionType=execute HTTP/1.1" 200 14269
0:0:0:0:0:0:0:1 - - [16/Feb/2017:11:48:47 +0530] "POST /ITAFWebApplication/itafpack.do HTTP/1.1" 200 93403
0:0:0:0:0:0:0:1 - - [16/Feb/2017:11:48:47 +0530] "GET /ITAFWebApplication/css/bootstrap.min.css HTTP/1.1" 200 121260
0:0:0:0:0:0:0:1 - - [16/Feb/2017:11:48:47 +0530] "GET /ITAFWebApplication/css/demo3/responsiveTables.css HTTP/1.1" 200 182
0:0:0:0:0:0:0:1 - - [16/Feb/2017:11:48:47 +0530] "GET /ITAFWebApplication/css/demo3/try.css HTTP/1.1" 200 4871
0:0:0:0:0:0:0:1 - - [16/Feb/2017:11:48:48 +0530] "GET /ITAFWebApplication/files/advancedReport.html?projectname=SafeAuto&actionType=execute HTTP/1.1" 200 14269
0:0:0:0:0:0:0:1 - - [16/Feb/2017:11:49:16 +0530] "GET /ITAFWebApplication/css/demo3/try.css HTTP/1.1" 200 4871
0:0:0:0:0:0:0:1 - - [16/Feb/2017:11:49:16 +0530] "POST /ITAFWebApplication/itafpack.do HTTP/1.1" 200 54174
0:0:0:0:0:0:0:1 - - [16/Feb/2017:11:49:16 +0530] "GET /ITAFWebApplication/css/demo3/responsiveTables.css HTTP/1.1" 200 182
0:0:0:0:0:0:0:1 - - [16/Feb/2017:11:49:16 +0530] "GET /ITAFWebApplication/css/bootstrap.min.css HTTP/1.1" 200 121260
0:0:0:0:0:0:0:1 - - [16/Feb/2017:11:49:16 +0530] "GET /ITAFWebApplication/files/advancedReport.html?projectname=Allstate&actionType=execute HTTP/1.1" 200 -
0:0:0:0:0:0:0:1 - - [16/Feb/2017:11:49:26 +0530] "GET /ITAFWebApplication/css/bootstrap.min.css HTTP/1.1" 200 121260
0:0:0:0:0:0:0:1 - - [16/Feb/2017:11:49:26 +0530] "GET /ITAFWebApplication/css/demo3/try.css HTTP/1.1" 200 4871
0:0:0:0:0:0:0:1 - - [16/Feb/2017:11:49:26 +0530] "POST /ITAFWebApplication/itafpack.do HTTP/1.1" 200 54031
0:0:0:0:0:0:0:1 - - [16/Feb/2017:11:49:26 +0530] "GET /ITAFWebApplication/css/demo3/responsiveTables.css HTTP/1.1" 200 182
0:0:0:0:0:0:0:1 - - [16/Feb/2017:11:49:26 +0530] "GET /ITAFWebApplication/files/advancedReport.html?projectname=Allstate&actionType=execute HTTP/1.1" 200 -
0:0:0:0:0:0:0:1 - - [16/Feb/2017:11:50:08 +0530] "GET /ITAFWebApplication/css/bootstrap.min.css HTTP/1.1" 200 121260
0:0:0:0:0:0:0:1 - - [16/Feb/2017:11:50:08 +0530] "GET /ITAFWebApplication/css/demo3/try.css HTTP/1.1" 200 4871
0:0:0:0:0:0:0:1 - - [16/Feb/2017:11:50:08 +0530] "POST /ITAFWebApplication/itafpack.do HTTP/1.1" 200 54293
0:0:0:0:0:0:0:1 - - [16/Feb/2017:11:50:08 +0530] "GET /ITAFWebApplication/css/demo3/responsiveTables.css HTTP/1.1" 200 182
0:0:0:0:0:0:0:1 - - [16/Feb/2017:11:50:08 +0530] "GET /ITAFWebApplication/files/advancedReport.html?projectname=Allstate&actionType=execute HTTP/1.1" 200 -
0:0:0:0:0:0:0:1 - - [16/Feb/2017:11:50:12 +0530] "POST /ITAFWebApplication/itafpack.do HTTP/1.1" 200 54139
0:0:0:0:0:0:0:1 - - [16/Feb/2017:11:50:12 +0530] "GET /ITAFWebApplication/files/advancedReport.html?projectname=Allstate&actionType=execute HTTP/1.1" 200 -
0:0:0:0:0:0:0:1 - - [16/Feb/2017:11:54:20 +0530] "GET /ITAFWebApplication/css/bootstrap.min.css HTTP/1.1" 200 121260
0:0:0:0:0:0:0:1 - - [16/Feb/2017:11:54:20 +0530] "GET /ITAFWebApplication/css/demo3/try.css HTTP/1.1" 200 4871
0:0:0:0:0:0:0:1 - - [16/Feb/2017:11:54:20 +0530] "POST /ITAFWebApplication/itafpack.do HTTP/1.1" 200 71302
0:0:0:0:0:0:0:1 - - [16/Feb/2017:11:54:20 +0530] "GET /ITAFWebApplication/files/advancedReport.html?projectname=Allstate&actionType=execute HTTP/1.1" 200 -
0:0:0:0:0:0:0:1 - - [16/Feb/2017:11:54:28 +0530] "POST /ITAFWebApplication/itafpack.do HTTP/1.1" 200 54314
0:0:0:0:0:0:0:1 - - [16/Feb/2017:11:54:28 +0530] "GET /ITAFWebApplication/files/advancedReport.html?projectname=Allstate&actionType=execute HTTP/1.1" 200 -
0:0:0:0:0:0:0:1 - - [16/Feb/2017:11:54:33 +0530] "GET /ITAFWebApplication/css/bootstrap.min.css HTTP/1.1" 200 121260
0:0:0:0:0:0:0:1 - - [16/Feb/2017:11:54:33 +0530] "GET /ITAFWebApplication/css/demo3/try.css HTTP/1.1" 200 4871
0:0:0:0:0:0:0:1 - - [16/Feb/2017:11:54:33 +0530] "POST /ITAFWebApplication/itafpack.do HTTP/1.1" 200 54300
0:0:0:0:0:0:0:1 - - [16/Feb/2017:11:54:33 +0530] "GET /ITAFWebApplication/files/advancedReport.html?projectname=Allstate&actionType=execute HTTP/1.1" 200 -
0:0:0:0:0:0:0:1 - - [16/Feb/2017:11:55:29 +0530] "GET /ITAFWebApplication/css/bootstrap.min.css HTTP/1.1" 200 121260
0:0:0:0:0:0:0:1 - - [16/Feb/2017:11:55:29 +0530] "GET /ITAFWebApplication/css/demo3/try.css HTTP/1.1" 200 4871
0:0:0:0:0:0:0:1 - - [16/Feb/2017:11:55:29 +0530] "POST /ITAFWebApplication/itafpack.do HTTP/1.1" 200 71302
0:0:0:0:0:0:0:1 - - [16/Feb/2017:11:55:29 +0530] "GET /ITAFWebApplication/files/advancedReport.html?projectname=Allstate&actionType=execute HTTP/1.1" 200 -
0:0:0:0:0:0:0:1 - - [16/Feb/2017:11:55:34 +0530] "POST /ITAFWebApplication/itafpack.do HTTP/1.1" 200 71156
0:0:0:0:0:0:0:1 - - [16/Feb/2017:11:55:35 +0530] "GET /ITAFWebApplication/files/advancedReport.html?projectname=Allstate&actionType=execute HTTP/1.1" 200 -
0:0:0:0:0:0:0:1 - - [16/Feb/2017:11:55:47 +0530] "GET /ITAFWebApplication/css/demo3/try.css HTTP/1.1" 200 4871
0:0:0:0:0:0:0:1 - - [16/Feb/2017:11:55:47 +0530] "GET /ITAFWebApplication/css/bootstrap.min.css HTTP/1.1" 200 121260
0:0:0:0:0:0:0:1 - - [16/Feb/2017:11:55:47 +0530] "POST /ITAFWebApplication/itafpack.do HTTP/1.1" 200 54314
0:0:0:0:0:0:0:1 - - [16/Feb/2017:11:55:47 +0530] "GET /ITAFWebApplication/files/advancedReport.html?projectname=Allstate&actionType=execute HTTP/1.1" 200 -
0:0:0:0:0:0:0:1 - - [16/Feb/2017:11:55:57 +0530] "GET /ITAFWebApplication/css/demo3/try.css HTTP/1.1" 200 4871
0:0:0:0:0:0:0:1 - - [16/Feb/2017:11:55:57 +0530] "GET /ITAFWebApplication/css/bootstrap.min.css HTTP/1.1" 200 121260
0:0:0:0:0:0:0:1 - - [16/Feb/2017:11:55:57 +0530] "POST /ITAFWebApplication/itafpack.do HTTP/1.1" 200 54300
0:0:0:0:0:0:0:1 - - [16/Feb/2017:11:55:57 +0530] "GET /ITAFWebApplication/files/advancedReport.html?projectname=Allstate&actionType=execute HTTP/1.1" 200 -
0:0:0:0:0:0:0:1 - - [16/Feb/2017:11:56:05 +0530] "POST /ITAFWebApplication/itafpack.do HTTP/1.1" 200 71302
0:0:0:0:0:0:0:1 - - [16/Feb/2017:11:56:05 +0530] "GET /ITAFWebApplication/files/advancedReport.html?projectname=Allstate&actionType=execute HTTP/1.1" 200 -
0:0:0:0:0:0:0:1 - - [16/Feb/2017:11:56:43 +0530] "POST /ITAFWebApplication/Seleniumservice/resources/startStopObjectCapture HTTP/1.1" 200 34
0:0:0:0:0:0:0:1 - - [16/Feb/2017:11:56:45 +0530] "GET /ITAFWebApplication/js/inject.js HTTP/1.1" 200 14543
0:0:0:0:0:0:0:1 - - [16/Feb/2017:11:57:26 +0530] "POST /ITAFWebApplication/Seleniumservice/resources/startStopObjectCapture HTTP/1.1" 200 511
0:0:0:0:0:0:0:1 - - [16/Feb/2017:11:58:09 +0530] "POST /ITAFWebApplication/Seleniumservice/resources/startStopObjectCapture HTTP/1.1" 200 34
0:0:0:0:0:0:0:1 - - [16/Feb/2017:11:58:10 +0530] "GET /ITAFWebApplication/js/inject.js HTTP/1.1" 200 14543
0:0:0:0:0:0:0:1 - - [16/Feb/2017:11:58:25 +0530] "POST /ITAFWebApplication/Seleniumservice/resources/startStopObjectCapture HTTP/1.1" 200 967
0:0:0:0:0:0:0:1 - - [16/Feb/2017:11:59:19 +0530] "POST /ITAFWebApplication/Seleniumservice/resources/updateCSV HTTP/1.1" 204 -
0:0:0:0:0:0:0:1 - - [16/Feb/2017:11:59:29 +0530] "POST /ITAFWebApplication/itafpack.do HTTP/1.1" 200 71288
0:0:0:0:0:0:0:1 - - [16/Feb/2017:11:59:29 +0530] "GET /ITAFWebApplication/css/bootstrap.min.css HTTP/1.1" 200 121260
0:0:0:0:0:0:0:1 - - [16/Feb/2017:11:59:29 +0530] "GET /ITAFWebApplication/css/demo3/try.css HTTP/1.1" 200 4871
0:0:0:0:0:0:0:1 - - [16/Feb/2017:11:59:29 +0530] "GET /ITAFWebApplication/files/advancedReport.html?projectname=Allstate&actionType=execute HTTP/1.1" 200 -
0:0:0:0:0:0:0:1 - - [16/Feb/2017:11:59:42 +0530] "GET /ITAFWebApplication/css/bootstrap.min.css HTTP/1.1" 200 121260
0:0:0:0:0:0:0:1 - - [16/Feb/2017:11:59:42 +0530] "GET /ITAFWebApplication/css/demo3/try.css HTTP/1.1" 200 4871
0:0:0:0:0:0:0:1 - - [16/Feb/2017:11:59:42 +0530] "POST /ITAFWebApplication/itafpack.do HTTP/1.1" 200 54314
0:0:0:0:0:0:0:1 - - [16/Feb/2017:11:59:42 +0530] "GET /ITAFWebApplication/files/advancedReport.html?projectname=Allstate&actionType=execute HTTP/1.1" 200 -
0:0:0:0:0:0:0:1 - - [16/Feb/2017:11:59:50 +0530] "POST /ITAFWebApplication/itafpack.do HTTP/1.1" 200 71302
0:0:0:0:0:0:0:1 - - [16/Feb/2017:11:59:50 +0530] "GET /ITAFWebApplication/files/advancedReport.html?projectname=Allstate&actionType=execute HTTP/1.1" 200 -
0:0:0:0:0:0:0:1 - - [16/Feb/2017:12:00:22 +0530] "POST /ITAFWebApplication/Seleniumservice/resources/startStopObjectCapture HTTP/1.1" 200 34
0:0:0:0:0:0:0:1 - - [16/Feb/2017:12:00:25 +0530] "GET /ITAFWebApplication/js/inject.js HTTP/1.1" 200 14543
0:0:0:0:0:0:0:1 - - [16/Feb/2017:12:00:33 +0530] "POST /ITAFWebApplication/Seleniumservice/resources/startStopObjectCapture HTTP/1.1" 200 812
0:0:0:0:0:0:0:1 - - [16/Feb/2017:12:01:00 +0530] "POST /ITAFWebApplication/Seleniumservice/resources/updateCSV HTTP/1.1" 204 -
0:0:0:0:0:0:0:1 - - [16/Feb/2017:12:01:06 +0530] "GET /ITAFWebApplication/css/bootstrap.min.css HTTP/1.1" 200 121260
0:0:0:0:0:0:0:1 - - [16/Feb/2017:12:01:06 +0530] "GET /ITAFWebApplication/css/demo3/try.css HTTP/1.1" 200 4871
0:0:0:0:0:0:0:1 - - [16/Feb/2017:12:01:06 +0530] "POST /ITAFWebApplication/itafpack.do HTTP/1.1" 200 80174
0:0:0:0:0:0:0:1 - - [16/Feb/2017:12:01:06 +0530] "GET /ITAFWebApplication/files/advancedReport.html?projectname=Allstate&actionType=execute HTTP/1.1" 200 -
0:0:0:0:0:0:0:1 - - [16/Feb/2017:12:01:24 +0530] "GET /ITAFWebApplication/css/bootstrap.min.css HTTP/1.1" 200 121260
0:0:0:0:0:0:0:1 - - [16/Feb/2017:12:01:24 +0530] "GET /ITAFWebApplication/css/demo3/try.css HTTP/1.1" 200 4871
0:0:0:0:0:0:0:1 - - [16/Feb/2017:12:01:24 +0530] "POST /ITAFWebApplication/itafpack.do HTTP/1.1" 200 80174
0:0:0:0:0:0:0:1 - - [16/Feb/2017:12:01:24 +0530] "GET /ITAFWebApplication/files/advancedReport.html?projectname=Allstate&actionType=execute HTTP/1.1" 200 -
0:0:0:0:0:0:0:1 - - [16/Feb/2017:12:05:07 +0530] "GET /ITAFWebApplication/css/bootstrap.min.css HTTP/1.1" 200 121260
0:0:0:0:0:0:0:1 - - [16/Feb/2017:12:05:07 +0530] "GET /ITAFWebApplication/css/demo3/try.css HTTP/1.1" 200 4871
0:0:0:0:0:0:0:1 - - [16/Feb/2017:12:05:07 +0530] "POST /ITAFWebApplication/itafpack.do HTTP/1.1" 200 59199
0:0:0:0:0:0:0:1 - - [16/Feb/2017:12:05:07 +0530] "GET /ITAFWebApplication/files/advancedReport.html?projectname=Allstate&actionType=execute HTTP/1.1" 200 -
0:0:0:0:0:0:0:1 - - [16/Feb/2017:12:18:27 +0530] "GET /ITAFWebApplication/css/demo3/try.css HTTP/1.1" 200 4871
0:0:0:0:0:0:0:1 - - [16/Feb/2017:12:18:27 +0530] "GET /ITAFWebApplication/css/bootstrap.min.css HTTP/1.1" 200 121260
0:0:0:0:0:0:0:1 - - [16/Feb/2017:12:18:27 +0530] "POST /ITAFWebApplication/itafpack.do HTTP/1.1" 200 63413
0:0:0:0:0:0:0:1 - - [16/Feb/2017:12:18:27 +0530] "GET /ITAFWebApplication/files/advancedReport.html?projectname=Allstate&actionType=execute HTTP/1.1" 200 -
0:0:0:0:0:0:0:1 - - [16/Feb/2017:12:18:30 +0530] "POST /ITAFWebApplication/itafpack.do HTTP/1.1" 200 63413
0:0:0:0:0:0:0:1 - - [16/Feb/2017:12:18:30 +0530] "GET /ITAFWebApplication/files/advancedReport.html?projectname=Allstate&actionType=execute HTTP/1.1" 200 -
0:0:0:0:0:0:0:1 - - [16/Feb/2017:12:18:33 +0530] "GET /ITAFWebApplication/css/bootstrap.min.css HTTP/1.1" 200 121260
0:0:0:0:0:0:0:1 - - [16/Feb/2017:12:18:33 +0530] "GET /ITAFWebApplication/css/demo3/try.css HTTP/1.1" 200 4871
0:0:0:0:0:0:0:1 - - [16/Feb/2017:12:18:33 +0530] "POST /ITAFWebApplication/itafpack.do HTTP/1.1" 200 63413
0:0:0:0:0:0:0:1 - - [16/Feb/2017:12:18:33 +0530] "GET /ITAFWebApplication/files/advancedReport.html?projectname=Allstate&actionType=execute HTTP/1.1" 200 -
0:0:0:0:0:0:0:1 - - [16/Feb/2017:12:18:44 +0530] "POST /ITAFWebApplication/itafpack.do HTTP/1.1" 200 63413
0:0:0:0:0:0:0:1 - - [16/Feb/2017:12:18:44 +0530] "GET /ITAFWebApplication/css/demo3/try.css HTTP/1.1" 200 4871
0:0:0:0:0:0:0:1 - - [16/Feb/2017:12:18:44 +0530] "GET /ITAFWebApplication/css/bootstrap.min.css HTTP/1.1" 200 121260
0:0:0:0:0:0:0:1 - - [16/Feb/2017:12:18:44 +0530] "GET /ITAFWebApplication/files/advancedReport.html?projectname=Allstate&actionType=execute HTTP/1.1" 200 -
0:0:0:0:0:0:0:1 - - [16/Feb/2017:12:19:50 +0530] "GET /ITAFWebApplication/css/bootstrap.min.css HTTP/1.1" 200 121260
0:0:0:0:0:0:0:1 - - [16/Feb/2017:12:19:50 +0530] "GET /ITAFWebApplication/css/demo3/try.css HTTP/1.1" 200 4871
0:0:0:0:0:0:0:1 - - [16/Feb/2017:12:19:50 +0530] "POST /ITAFWebApplication/itafpack.do HTTP/1.1" 200 59199
0:0:0:0:0:0:0:1 - - [16/Feb/2017:12:19:50 +0530] "GET /ITAFWebApplication/files/advancedReport.html?projectname=Allstate&actionType=execute HTTP/1.1" 200 -
0:0:0:0:0:0:0:1 - - [16/Feb/2017:12:20:44 +0530] "POST /ITAFWebApplication/uploaddownload.do HTTP/1.1" 500 3038
0:0:0:0:0:0:0:1 - - [16/Feb/2017:12:20:57 +0530] "GET /ITAFWebApplication/ HTTP/1.1" 200 27677
0:0:0:0:0:0:0:1 - - [16/Feb/2017:12:20:57 +0530] "GET /ITAFWebApplication/css/login.css HTTP/1.1" 200 1077
0:0:0:0:0:0:0:1 - - [16/Feb/2017:12:20:57 +0530] "GET /ITAFWebApplication/css/bootstrap.min.css HTTP/1.1" 200 121260
0:0:0:0:0:0:0:1 - - [16/Feb/2017:12:21:06 +0530] "POST /ITAFWebApplication/login.do HTTP/1.1" 200 53664
0:0:0:0:0:0:0:1 - - [16/Feb/2017:12:21:06 +0530] "GET /ITAFWebApplication/css/bootstrap.min.css HTTP/1.1" 200 121260
0:0:0:0:0:0:0:1 - - [16/Feb/2017:12:21:06 +0530] "GET /ITAFWebApplication/js/demo3/try.js HTTP/1.1" 200 45488
0:0:0:0:0:0:0:1 - - [16/Feb/2017:12:21:06 +0530] "GET /ITAFWebApplication/css/demo3/responsiveTables.css HTTP/1.1" 200 182
0:0:0:0:0:0:0:1 - - [16/Feb/2017:12:21:06 +0530] "GET /ITAFWebApplication/js/demo3/RowSorter.js HTTP/1.1" 200 8102
0:0:0:0:0:0:0:1 - - [16/Feb/2017:12:21:06 +0530] "GET /ITAFWebApplication/js/demo3/searchTable.js HTTP/1.1" 200 1022
0:0:0:0:0:0:0:1 - - [16/Feb/2017:12:21:06 +0530] "GET /ITAFWebApplication/js/demo3/responsiveTables.js HTTP/1.1" 200 1886
0:0:0:0:0:0:0:1 - - [16/Feb/2017:12:21:06 +0530] "GET /ITAFWebApplication/css/demo3/try.css HTTP/1.1" 200 4871
0:0:0:0:0:0:0:1 - - [16/Feb/2017:12:21:06 +0530] "GET /ITAFWebApplication/js/objectCap.js HTTP/1.1" 200 11106
0:0:0:0:0:0:0:1 - - [16/Feb/2017:12:21:06 +0530] "GET /ITAFWebApplication/js/demo3/bootstrap-filestyle.min.js HTTP/1.1" 200 7190
0:0:0:0:0:0:0:1 - - [16/Feb/2017:12:21:06 +0530] "GET /ITAFWebApplication/js/bootstrap.min.js HTTP/1.1" 200 36868
0:0:0:0:0:0:0:1 - - [16/Feb/2017:12:21:06 +0530] "GET /ITAFWebApplication/js/jquery.min.js HTTP/1.1" 200 84380
0:0:0:0:0:0:0:1 - - [16/Feb/2017:12:21:12 +0530] "POST /ITAFWebApplication/itafpack.do HTTP/1.1" 500 2739
0:0:0:0:0:0:0:1 - - [16/Feb/2017:12:21:26 +0530] "GET /ITAFWebApplication/ HTTP/1.1" 200 27677
0:0:0:0:0:0:0:1 - - [16/Feb/2017:12:21:26 +0530] "GET /ITAFWebApplication/css/login.css HTTP/1.1" 200 1077
0:0:0:0:0:0:0:1 - - [16/Feb/2017:12:21:26 +0530] "GET /ITAFWebApplication/css/bootstrap.min.css HTTP/1.1" 200 121260
0:0:0:0:0:0:0:1 - - [16/Feb/2017:12:21:33 +0530] "GET /ITAFWebApplication/css/bootstrap.min.css HTTP/1.1" 200 121260
0:0:0:0:0:0:0:1 - - [16/Feb/2017:12:21:33 +0530] "GET /ITAFWebApplication/css/demo3/try.css HTTP/1.1" 200 4871
0:0:0:0:0:0:0:1 - - [16/Feb/2017:12:21:33 +0530] "POST /ITAFWebApplication/login.do HTTP/1.1" 200 53664
0:0:0:0:0:0:0:1 - - [16/Feb/2017:12:21:33 +0530] "GET /ITAFWebApplication/css/demo3/responsiveTables.css HTTP/1.1" 200 182
0:0:0:0:0:0:0:1 - - [16/Feb/2017:12:21:33 +0530] "GET /ITAFWebApplication/js/jquery.min.js HTTP/1.1" 200 84380
0:0:0:0:0:0:0:1 - - [16/Feb/2017:12:21:33 +0530] "GET /ITAFWebApplication/js/bootstrap.min.js HTTP/1.1" 200 36868
0:0:0:0:0:0:0:1 - - [16/Feb/2017:12:21:33 +0530] "GET /ITAFWebApplication/js/demo3/responsiveTables.js HTTP/1.1" 200 1886
0:0:0:0:0:0:0:1 - - [16/Feb/2017:12:21:33 +0530] "GET /ITAFWebApplication/js/demo3/try.js HTTP/1.1" 200 45488
0:0:0:0:0:0:0:1 - - [16/Feb/2017:12:21:33 +0530] "GET /ITAFWebApplication/js/demo3/searchTable.js HTTP/1.1" 200 1022
0:0:0:0:0:0:0:1 - - [16/Feb/2017:12:21:33 +0530] "GET /ITAFWebApplication/js/objectCap.js HTTP/1.1" 200 11106
0:0:0:0:0:0:0:1 - - [16/Feb/2017:12:21:33 +0530] "GET /ITAFWebApplication/js/demo3/bootstrap-filestyle.min.js HTTP/1.1" 200 7190
0:0:0:0:0:0:0:1 - - [16/Feb/2017:12:21:33 +0530] "GET /ITAFWebApplication/js/demo3/RowSorter.js HTTP/1.1" 200 8102
0:0:0:0:0:0:0:1 - - [16/Feb/2017:12:21:36 +0530] "POST /ITAFWebApplication/itafpack.do HTTP/1.1" 500 2739
0:0:0:0:0:0:0:1 - - [16/Feb/2017:12:21:42 +0530] "GET /ITAFWebApplication/ HTTP/1.1" 200 27677
0:0:0:0:0:0:0:1 - - [16/Feb/2017:12:21:42 +0530] "GET /ITAFWebApplication/css/login.css HTTP/1.1" 200 1077
0:0:0:0:0:0:0:1 - - [16/Feb/2017:12:21:42 +0530] "GET /ITAFWebApplication/css/bootstrap.min.css HTTP/1.1" 200 121260
0:0:0:0:0:0:0:1 - - [16/Feb/2017:12:21:49 +0530] "POST /ITAFWebApplication/login.do HTTP/1.1" 200 53664
0:0:0:0:0:0:0:1 - - [16/Feb/2017:12:21:49 +0530] "GET /ITAFWebApplication/css/demo3/try.css HTTP/1.1" 200 4871
0:0:0:0:0:0:0:1 - - [16/Feb/2017:12:21:49 +0530] "GET /ITAFWebApplication/css/demo3/responsiveTables.css HTTP/1.1" 200 182
0:0:0:0:0:0:0:1 - - [16/Feb/2017:12:21:49 +0530] "GET /ITAFWebApplication/css/bootstrap.min.css HTTP/1.1" 200 121260
0:0:0:0:0:0:0:1 - - [16/Feb/2017:12:21:49 +0530] "GET /ITAFWebApplication/js/jquery.min.js HTTP/1.1" 200 84380
0:0:0:0:0:0:0:1 - - [16/Feb/2017:12:21:49 +0530] "GET /ITAFWebApplication/js/bootstrap.min.js HTTP/1.1" 200 36868
0:0:0:0:0:0:0:1 - - [16/Feb/2017:12:21:49 +0530] "GET /ITAFWebApplication/js/demo3/responsiveTables.js HTTP/1.1" 200 1886
0:0:0:0:0:0:0:1 - - [16/Feb/2017:12:21:49 +0530] "GET /ITAFWebApplication/js/demo3/bootstrap-filestyle.min.js HTTP/1.1" 200 7190
0:0:0:0:0:0:0:1 - - [16/Feb/2017:12:21:49 +0530] "GET /ITAFWebApplication/js/objectCap.js HTTP/1.1" 200 11106
0:0:0:0:0:0:0:1 - - [16/Feb/2017:12:21:49 +0530] "GET /ITAFWebApplication/js/demo3/searchTable.js HTTP/1.1" 200 1022
0:0:0:0:0:0:0:1 - - [16/Feb/2017:12:21:49 +0530] "GET /ITAFWebApplication/js/demo3/RowSorter.js HTTP/1.1" 200 8102
0:0:0:0:0:0:0:1 - - [16/Feb/2017:12:21:49 +0530] "GET /ITAFWebApplication/js/demo3/try.js HTTP/1.1" 200 45488
0:0:0:0:0:0:0:1 - - [16/Feb/2017:12:21:54 +0530] "POST /ITAFWebApplication/itafpack.do HTTP/1.1" 200 64560
0:0:0:0:0:0:0:1 - - [16/Feb/2017:12:21:54 +0530] "GET /ITAFWebApplication/files/advancedReport.html?projectname=SafeAuto&actionType=execute HTTP/1.1" 200 14269
0:0:0:0:0:0:0:1 - - [16/Feb/2017:12:22:04 +0530] "POST /ITAFWebApplication/itafpack.do HTTP/1.1" 500 2739
0:0:0:0:0:0:0:1 - - [16/Feb/2017:12:22:27 +0530] "GET /ITAFWebApplication/ HTTP/1.1" 200 27677
0:0:0:0:0:0:0:1 - - [16/Feb/2017:12:22:27 +0530] "GET /ITAFWebApplication/css/login.css HTTP/1.1" 200 1077
0:0:0:0:0:0:0:1 - - [16/Feb/2017:12:22:27 +0530] "GET /ITAFWebApplication/css/bootstrap.min.css HTTP/1.1" 200 121260
0:0:0:0:0:0:0:1 - - [16/Feb/2017:12:23:25 +0530] "GET /ITAFWebApplication/css/demo3/try.css HTTP/1.1" 200 4871
0:0:0:0:0:0:0:1 - - [16/Feb/2017:12:23:25 +0530] "GET /ITAFWebApplication/css/bootstrap.min.css HTTP/1.1" 200 121260
0:0:0:0:0:0:0:1 - - [16/Feb/2017:12:23:25 +0530] "POST /ITAFWebApplication/login.do HTTP/1.1" 200 53664
0:0:0:0:0:0:0:1 - - [16/Feb/2017:12:23:25 +0530] "GET /ITAFWebApplication/css/demo3/responsiveTables.css HTTP/1.1" 200 182
0:0:0:0:0:0:0:1 - - [16/Feb/2017:12:23:25 +0530] "GET /ITAFWebApplication/js/jquery.min.js HTTP/1.1" 200 84380
0:0:0:0:0:0:0:1 - - [16/Feb/2017:12:23:25 +0530] "GET /ITAFWebApplication/js/bootstrap.min.js HTTP/1.1" 200 36868
0:0:0:0:0:0:0:1 - - [16/Feb/2017:12:23:25 +0530] "GET /ITAFWebApplication/js/demo3/try.js HTTP/1.1" 200 45488
0:0:0:0:0:0:0:1 - - [16/Feb/2017:12:23:25 +0530] "GET /ITAFWebApplication/js/objectCap.js HTTP/1.1" 200 11106
0:0:0:0:0:0:0:1 - - [16/Feb/2017:12:23:25 +0530] "GET /ITAFWebApplication/js/demo3/responsiveTables.js HTTP/1.1" 200 1886
0:0:0:0:0:0:0:1 - - [16/Feb/2017:12:23:25 +0530] "GET /ITAFWebApplication/js/demo3/searchTable.js HTTP/1.1" 200 1022
0:0:0:0:0:0:0:1 - - [16/Feb/2017:12:23:25 +0530] "GET /ITAFWebApplication/js/demo3/bootstrap-filestyle.min.js HTTP/1.1" 200 7190
0:0:0:0:0:0:0:1 - - [16/Feb/2017:12:23:25 +0530] "GET /ITAFWebApplication/js/demo3/RowSorter.js HTTP/1.1" 200 8102
0:0:0:0:0:0:0:1 - - [16/Feb/2017:12:23:30 +0530] "POST /ITAFWebApplication/itafpack.do HTTP/1.1" 200 77405
0:0:0:0:0:0:0:1 - - [16/Feb/2017:12:23:30 +0530] "GET /ITAFWebApplication/files/advancedReport.html?projectname=Allstate&actionType=execute HTTP/1.1" 200 -
0:0:0:0:0:0:0:1 - - [16/Feb/2017:12:23:34 +0530] "POST /ITAFWebApplication/itafpack.do HTTP/1.1" 200 77408
0:0:0:0:0:0:0:1 - - [16/Feb/2017:12:23:34 +0530] "GET /ITAFWebApplication/css/bootstrap.min.css HTTP/1.1" 200 121260
0:0:0:0:0:0:0:1 - - [16/Feb/2017:12:23:34 +0530] "GET /ITAFWebApplication/css/demo3/try.css HTTP/1.1" 200 4871
0:0:0:0:0:0:0:1 - - [16/Feb/2017:12:23:34 +0530] "GET /ITAFWebApplication/files/advancedReport.html?projectname=Allstate&actionType=execute HTTP/1.1" 200 -
0:0:0:0:0:0:0:1 - - [16/Feb/2017:12:23:39 +0530] "GET /ITAFWebApplication/css/bootstrap.min.css HTTP/1.1" 200 121260
0:0:0:0:0:0:0:1 - - [16/Feb/2017:12:23:39 +0530] "POST /ITAFWebApplication/itafpack.do HTTP/1.1" 200 98543
0:0:0:0:0:0:0:1 - - [16/Feb/2017:12:23:39 +0530] "GET /ITAFWebApplication/css/demo3/try.css HTTP/1.1" 200 4871
0:0:0:0:0:0:0:1 - - [16/Feb/2017:12:23:39 +0530] "GET /ITAFWebApplication/files/advancedReport.html?projectname=Allstate&actionType=execute HTTP/1.1" 200 -
0:0:0:0:0:0:0:1 - - [16/Feb/2017:12:23:41 +0530] "POST /ITAFWebApplication/itafpack.do HTTP/1.1" 200 98726
0:0:0:0:0:0:0:1 - - [16/Feb/2017:12:23:41 +0530] "GET /ITAFWebApplication/css/demo3/try.css HTTP/1.1" 200 4871
0:0:0:0:0:0:0:1 - - [16/Feb/2017:12:23:41 +0530] "GET /ITAFWebApplication/css/bootstrap.min.css HTTP/1.1" 200 121260
0:0:0:0:0:0:0:1 - - [16/Feb/2017:12:23:41 +0530] "GET /ITAFWebApplication/files/advancedReport.html?projectname=Allstate&actionType=execute HTTP/1.1" 200 -
0:0:0:0:0:0:0:1 - - [16/Feb/2017:12:23:53 +0530] "GET /ITAFWebApplication/css/bootstrap.min.css HTTP/1.1" 200 121260
0:0:0:0:0:0:0:1 - - [16/Feb/2017:12:23:53 +0530] "GET /ITAFWebApplication/css/demo3/try.css HTTP/1.1" 200 4871
0:0:0:0:0:0:0:1 - - [16/Feb/2017:12:23:53 +0530] "POST /ITAFWebApplication/itafpack.do HTTP/1.1" 200 59203
0:0:0:0:0:0:0:1 - - [16/Feb/2017:12:23:53 +0530] "GET /ITAFWebApplication/files/advancedReport.html?projectname=Allstate&actionType=execute HTTP/1.1" 200 -
0:0:0:0:0:0:0:1 - - [16/Feb/2017:12:24:15 +0530] "POST /ITAFWebApplication/itafpack.do HTTP/1.1" 200 63417
0:0:0:0:0:0:0:1 - - [16/Feb/2017:12:24:15 +0530] "GET /ITAFWebApplication/css/bootstrap.min.css HTTP/1.1" 200 121260
0:0:0:0:0:0:0:1 - - [16/Feb/2017:12:24:15 +0530] "GET /ITAFWebApplication/css/demo3/try.css HTTP/1.1" 200 4871
0:0:0:0:0:0:0:1 - - [16/Feb/2017:12:24:15 +0530] "GET /ITAFWebApplication/files/advancedReport.html?projectname=Allstate&actionType=execute HTTP/1.1" 200 -
0:0:0:0:0:0:0:1 - - [16/Feb/2017:12:25:40 +0530] "POST /ITAFWebApplication/itafpack.do HTTP/1.1" 200 63447
0:0:0:0:0:0:0:1 - - [16/Feb/2017:12:25:40 +0530] "GET /ITAFWebApplication/css/bootstrap.min.css HTTP/1.1" 200 121260
0:0:0:0:0:0:0:1 - - [16/Feb/2017:12:25:40 +0530] "GET /ITAFWebApplication/css/demo3/try.css HTTP/1.1" 200 4871
0:0:0:0:0:0:0:1 - - [16/Feb/2017:12:25:40 +0530] "GET /ITAFWebApplication/files/advancedReport.html?projectname=Allstate&actionType=execute HTTP/1.1" 200 -
0:0:0:0:0:0:0:1 - - [16/Feb/2017:12:29:37 +0530] "GET /ITAFWebApplication/css/demo3/try.css HTTP/1.1" 200 4871
0:0:0:0:0:0:0:1 - - [16/Feb/2017:12:29:37 +0530] "GET /ITAFWebApplication/css/bootstrap.min.css HTTP/1.1" 200 121260
0:0:0:0:0:0:0:1 - - [16/Feb/2017:12:29:37 +0530] "POST /ITAFWebApplication/itafpack.do HTTP/1.1" 200 65092
0:0:0:0:0:0:0:1 - - [16/Feb/2017:12:29:37 +0530] "GET /ITAFWebApplication/files/advancedReport.html?projectname=Allstate&actionType=execute HTTP/1.1" 200 -
0:0:0:0:0:0:0:1 - - [16/Feb/2017:12:29:44 +0530] "POST /ITAFWebApplication/uploaddownload.do HTTP/1.1" 500 3038
0:0:0:0:0:0:0:1 - - [16/Feb/2017:12:29:53 +0530] "GET /ITAFWebApplication/ HTTP/1.1" 200 27677
0:0:0:0:0:0:0:1 - - [16/Feb/2017:12:29:53 +0530] "GET /ITAFWebApplication/css/login.css HTTP/1.1" 200 1077
0:0:0:0:0:0:0:1 - - [16/Feb/2017:12:29:53 +0530] "GET /ITAFWebApplication/css/bootstrap.min.css HTTP/1.1" 200 121260
0:0:0:0:0:0:0:1 - - [16/Feb/2017:12:30:00 +0530] "GET /ITAFWebApplication/css/bootstrap.min.css HTTP/1.1" 200 121260
0:0:0:0:0:0:0:1 - - [16/Feb/2017:12:30:00 +0530] "GET /ITAFWebApplication/css/demo3/try.css HTTP/1.1" 200 4871
0:0:0:0:0:0:0:1 - - [16/Feb/2017:12:30:00 +0530] "POST /ITAFWebApplication/login.do HTTP/1.1" 200 53664
0:0:0:0:0:0:0:1 - - [16/Feb/2017:12:30:00 +0530] "GET /ITAFWebApplication/css/demo3/responsiveTables.css HTTP/1.1" 200 182
0:0:0:0:0:0:0:1 - - [16/Feb/2017:12:30:00 +0530] "GET /ITAFWebApplication/js/bootstrap.min.js HTTP/1.1" 200 36868
0:0:0:0:0:0:0:1 - - [16/Feb/2017:12:30:00 +0530] "GET /ITAFWebApplication/js/jquery.min.js HTTP/1.1" 200 84380
0:0:0:0:0:0:0:1 - - [16/Feb/2017:12:30:00 +0530] "GET /ITAFWebApplication/js/demo3/bootstrap-filestyle.min.js HTTP/1.1" 200 7190
0:0:0:0:0:0:0:1 - - [16/Feb/2017:12:30:00 +0530] "GET /ITAFWebApplication/js/demo3/try.js HTTP/1.1" 200 45488
0:0:0:0:0:0:0:1 - - [16/Feb/2017:12:30:00 +0530] "GET /ITAFWebApplication/js/demo3/RowSorter.js HTTP/1.1" 200 8102
0:0:0:0:0:0:0:1 - - [16/Feb/2017:12:30:00 +0530] "GET /ITAFWebApplication/js/demo3/responsiveTables.js HTTP/1.1" 200 1886
0:0:0:0:0:0:0:1 - - [16/Feb/2017:12:30:00 +0530] "GET /ITAFWebApplication/js/objectCap.js HTTP/1.1" 200 11106
0:0:0:0:0:0:0:1 - - [16/Feb/2017:12:30:00 +0530] "GET /ITAFWebApplication/js/demo3/searchTable.js HTTP/1.1" 200 1022
0:0:0:0:0:0:0:1 - - [16/Feb/2017:12:31:19 +0530] "POST /ITAFWebApplication/itafpack.do HTTP/1.1" 500 2739
0:0:0:0:0:0:0:1 - - [16/Feb/2017:12:31:46 +0530] "GET /ITAFWebApplication/ HTTP/1.1" 200 27677
0:0:0:0:0:0:0:1 - - [16/Feb/2017:12:31:46 +0530] "GET /ITAFWebApplication/css/login.css HTTP/1.1" 200 1077
0:0:0:0:0:0:0:1 - - [16/Feb/2017:12:31:46 +0530] "GET /ITAFWebApplication/css/bootstrap.min.css HTTP/1.1" 200 121260
0:0:0:0:0:0:0:1 - - [16/Feb/2017:12:31:51 +0530] "GET /ITAFWebApplication/css/demo3/try.css HTTP/1.1" 200 4871
0:0:0:0:0:0:0:1 - - [16/Feb/2017:12:31:51 +0530] "GET /ITAFWebApplication/css/bootstrap.min.css HTTP/1.1" 200 121260
0:0:0:0:0:0:0:1 - - [16/Feb/2017:12:31:51 +0530] "POST /ITAFWebApplication/login.do HTTP/1.1" 200 53664
0:0:0:0:0:0:0:1 - - [16/Feb/2017:12:31:51 +0530] "GET /ITAFWebApplication/css/demo3/responsiveTables.css HTTP/1.1" 200 182
0:0:0:0:0:0:0:1 - - [16/Feb/2017:12:31:51 +0530] "GET /ITAFWebApplication/js/jquery.min.js HTTP/1.1" 200 84380
0:0:0:0:0:0:0:1 - - [16/Feb/2017:12:31:51 +0530] "GET /ITAFWebApplication/js/bootstrap.min.js HTTP/1.1" 200 36868
0:0:0:0:0:0:0:1 - - [16/Feb/2017:12:31:51 +0530] "GET /ITAFWebApplication/js/demo3/try.js HTTP/1.1" 200 45488
0:0:0:0:0:0:0:1 - - [16/Feb/2017:12:31:51 +0530] "GET /ITAFWebApplication/js/demo3/bootstrap-filestyle.min.js HTTP/1.1" 200 7190
0:0:0:0:0:0:0:1 - - [16/Feb/2017:12:31:51 +0530] "GET /ITAFWebApplication/js/objectCap.js HTTP/1.1" 200 11106
0:0:0:0:0:0:0:1 - - [16/Feb/2017:12:31:51 +0530] "GET /ITAFWebApplication/js/demo3/searchTable.js HTTP/1.1" 200 1022
0:0:0:0:0:0:0:1 - - [16/Feb/2017:12:31:51 +0530] "GET /ITAFWebApplication/js/demo3/RowSorter.js HTTP/1.1" 200 8102
0:0:0:0:0:0:0:1 - - [16/Feb/2017:12:31:51 +0530] "GET /ITAFWebApplication/js/demo3/responsiveTables.js HTTP/1.1" 200 1886
0:0:0:0:0:0:0:1 - - [16/Feb/2017:12:31:55 +0530] "POST /ITAFWebApplication/itafpack.do HTTP/1.1" 200 77409
0:0:0:0:0:0:0:1 - - [16/Feb/2017:12:31:55 +0530] "GET /ITAFWebApplication/css/bootstrap.min.css HTTP/1.1" 200 121260
0:0:0:0:0:0:0:1 - - [16/Feb/2017:12:31:55 +0530] "GET /ITAFWebApplication/css/demo3/try.css HTTP/1.1" 200 4871
0:0:0:0:0:0:0:1 - - [16/Feb/2017:12:31:55 +0530] "GET /ITAFWebApplication/css/demo3/responsiveTables.css HTTP/1.1" 200 182
0:0:0:0:0:0:0:1 - - [16/Feb/2017:12:31:55 +0530] "GET /ITAFWebApplication/files/advancedReport.html?projectname=Allstate&actionType=execute HTTP/1.1" 200 -
0:0:0:0:0:0:0:1 - - [16/Feb/2017:12:32:04 +0530] "POST /ITAFWebApplication/itafpack.do HTTP/1.1" 200 59203
0:0:0:0:0:0:0:1 - - [16/Feb/2017:12:32:04 +0530] "GET /ITAFWebApplication/css/bootstrap.min.css HTTP/1.1" 200 121260
0:0:0:0:0:0:0:1 - - [16/Feb/2017:12:32:04 +0530] "GET /ITAFWebApplication/css/demo3/responsiveTables.css HTTP/1.1" 200 182
0:0:0:0:0:0:0:1 - - [16/Feb/2017:12:32:04 +0530] "GET /ITAFWebApplication/css/demo3/try.css HTTP/1.1" 200 4871
0:0:0:0:0:0:0:1 - - [16/Feb/2017:12:32:05 +0530] "GET /ITAFWebApplication/files/advancedReport.html?projectname=Allstate&actionType=execute HTTP/1.1" 200 -
0:0:0:0:0:0:0:1 - - [16/Feb/2017:12:32:12 +0530] "GET /ITAFWebApplication/css/bootstrap.min.css HTTP/1.1" 200 121260
0:0:0:0:0:0:0:1 - - [16/Feb/2017:12:32:12 +0530] "GET /ITAFWebApplication/css/demo3/try.css HTTP/1.1" 200 4871
0:0:0:0:0:0:0:1 - - [16/Feb/2017:12:32:12 +0530] "GET /ITAFWebApplication/css/demo3/responsiveTables.css HTTP/1.1" 200 182
0:0:0:0:0:0:0:1 - - [16/Feb/2017:12:32:12 +0530] "POST /ITAFWebApplication/itafpack.do HTTP/1.1" 200 63417
0:0:0:0:0:0:0:1 - - [16/Feb/2017:12:32:12 +0530] "GET /ITAFWebApplication/files/advancedReport.html?projectname=Allstate&actionType=execute HTTP/1.1" 200 -
0:0:0:0:0:0:0:1 - - [16/Feb/2017:12:32:16 +0530] "POST /ITAFWebApplication/itafpack.do HTTP/1.1" 200 63447
0:0:0:0:0:0:0:1 - - [16/Feb/2017:12:32:16 +0530] "GET /ITAFWebApplication/css/bootstrap.min.css HTTP/1.1" 200 121260
0:0:0:0:0:0:0:1 - - [16/Feb/2017:12:32:16 +0530] "GET /ITAFWebApplication/css/demo3/responsiveTables.css HTTP/1.1" 200 182
0:0:0:0:0:0:0:1 - - [16/Feb/2017:12:32:16 +0530] "GET /ITAFWebApplication/css/demo3/try.css HTTP/1.1" 200 4871
0:0:0:0:0:0:0:1 - - [16/Feb/2017:12:32:16 +0530] "GET /ITAFWebApplication/files/advancedReport.html?projectname=Allstate&actionType=execute HTTP/1.1" 200 -
0:0:0:0:0:0:0:1 - - [16/Feb/2017:12:32:54 +0530] "GET /ITAFWebApplication/css/bootstrap.min.css HTTP/1.1" 200 121260
0:0:0:0:0:0:0:1 - - [16/Feb/2017:12:32:54 +0530] "GET /ITAFWebApplication/css/demo3/try.css HTTP/1.1" 200 4871
0:0:0:0:0:0:0:1 - - [16/Feb/2017:12:32:54 +0530] "GET /ITAFWebApplication/css/demo3/responsiveTables.css HTTP/1.1" 200 182
0:0:0:0:0:0:0:1 - - [16/Feb/2017:12:32:54 +0530] "POST /ITAFWebApplication/itafpack.do HTTP/1.1" 200 63477
0:0:0:0:0:0:0:1 - - [16/Feb/2017:12:32:54 +0530] "GET /ITAFWebApplication/files/advancedReport.html?projectname=Allstate&actionType=execute HTTP/1.1" 200 -
0:0:0:0:0:0:0:1 - - [16/Feb/2017:12:32:57 +0530] "POST /ITAFWebApplication/itafpack.do HTTP/1.1" 200 63507
0:0:0:0:0:0:0:1 - - [16/Feb/2017:12:32:57 +0530] "GET /ITAFWebApplication/files/advancedReport.html?projectname=Allstate&actionType=execute HTTP/1.1" 200 -
0:0:0:0:0:0:0:1 - - [16/Feb/2017:12:32:59 +0530] "GET /ITAFWebApplication/css/bootstrap.min.css HTTP/1.1" 200 121260
0:0:0:0:0:0:0:1 - - [16/Feb/2017:12:32:59 +0530] "GET /ITAFWebApplication/css/demo3/try.css HTTP/1.1" 200 4871
0:0:0:0:0:0:0:1 - - [16/Feb/2017:12:32:59 +0530] "POST /ITAFWebApplication/itafpack.do HTTP/1.1" 200 63537
0:0:0:0:0:0:0:1 - - [16/Feb/2017:12:32:59 +0530] "GET /ITAFWebApplication/files/advancedReport.html?projectname=Allstate&actionType=execute HTTP/1.1" 200 -
0:0:0:0:0:0:0:1 - - [16/Feb/2017:12:33:02 +0530] "POST /ITAFWebApplication/itafpack.do HTTP/1.1" 200 63567
0:0:0:0:0:0:0:1 - - [16/Feb/2017:12:33:02 +0530] "GET /ITAFWebApplication/css/bootstrap.min.css HTTP/1.1" 200 121260
0:0:0:0:0:0:0:1 - - [16/Feb/2017:12:33:02 +0530] "GET /ITAFWebApplication/css/demo3/try.css HTTP/1.1" 200 4871
0:0:0:0:0:0:0:1 - - [16/Feb/2017:12:33:02 +0530] "GET /ITAFWebApplication/files/advancedReport.html?projectname=Allstate&actionType=execute HTTP/1.1" 200 -
0:0:0:0:0:0:0:1 - - [16/Feb/2017:12:33:21 +0530] "GET /ITAFWebApplication/css/bootstrap.min.css HTTP/1.1" 200 121260
0:0:0:0:0:0:0:1 - - [16/Feb/2017:12:33:21 +0530] "GET /ITAFWebApplication/css/demo3/try.css HTTP/1.1" 200 4871
0:0:0:0:0:0:0:1 - - [16/Feb/2017:12:33:21 +0530] "POST /ITAFWebApplication/itafpack.do HTTP/1.1" 200 63567
0:0:0:0:0:0:0:1 - - [16/Feb/2017:12:33:21 +0530] "GET /ITAFWebApplication/files/advancedReport.html?projectname=Allstate&actionType=execute HTTP/1.1" 200 -
0:0:0:0:0:0:0:1 - - [16/Feb/2017:12:35:04 +0530] "POST /ITAFWebApplication/itafpack.do HTTP/1.1" 200 65159
0:0:0:0:0:0:0:1 - - [16/Feb/2017:12:35:04 +0530] "GET /ITAFWebApplication/css/bootstrap.min.css HTTP/1.1" 200 121260
0:0:0:0:0:0:0:1 - - [16/Feb/2017:12:35:04 +0530] "GET /ITAFWebApplication/css/demo3/try.css HTTP/1.1" 200 4871
0:0:0:0:0:0:0:1 - - [16/Feb/2017:12:35:04 +0530] "GET /ITAFWebApplication/files/advancedReport.html?projectname=Allstate&actionType=execute HTTP/1.1" 200 -
0:0:0:0:0:0:0:1 - - [16/Feb/2017:12:35:13 +0530] "GET /ITAFWebApplication/css/bootstrap.min.css HTTP/1.1" 200 121260
0:0:0:0:0:0:0:1 - - [16/Feb/2017:12:35:13 +0530] "GET /ITAFWebApplication/css/demo3/try.css HTTP/1.1" 200 4871
0:0:0:0:0:0:0:1 - - [16/Feb/2017:12:35:13 +0530] "POST /ITAFWebApplication/itafpack.do HTTP/1.1" 200 65985
0:0:0:0:0:0:0:1 - - [16/Feb/2017:12:35:13 +0530] "GET /ITAFWebApplication/files/advancedReport.html?projectname=Allstate&actionType=execute HTTP/1.1" 200 -
0:0:0:0:0:0:0:1 - - [16/Feb/2017:12:35:21 +0530] "GET /ITAFWebApplication/css/demo3/try.css HTTP/1.1" 200 4871
0:0:0:0:0:0:0:1 - - [16/Feb/2017:12:35:21 +0530] "GET /ITAFWebApplication/css/bootstrap.min.css HTTP/1.1" 200 121260
0:0:0:0:0:0:0:1 - - [16/Feb/2017:12:35:21 +0530] "POST /ITAFWebApplication/itafpack.do HTTP/1.1" 200 63414
0:0:0:0:0:0:0:1 - - [16/Feb/2017:12:35:21 +0530] "GET /ITAFWebApplication/files/advancedReport.html?projectname=Allstate&actionType=execute HTTP/1.1" 200 -
0:0:0:0:0:0:0:1 - - [16/Feb/2017:12:35:28 +0530] "POST /ITAFWebApplication/itafpack.do HTTP/1.1" 200 65159
0:0:0:0:0:0:0:1 - - [16/Feb/2017:12:35:28 +0530] "GET /ITAFWebApplication/files/advancedReport.html?projectname=Allstate&actionType=execute HTTP/1.1" 200 -
0:0:0:0:0:0:0:1 - - [16/Feb/2017:12:35:29 +0530] "POST /ITAFWebApplication/itafpack.do HTTP/1.1" 200 65985
0:0:0:0:0:0:0:1 - - [16/Feb/2017:12:35:29 +0530] "GET /ITAFWebApplication/css/bootstrap.min.css HTTP/1.1" 200 121260
0:0:0:0:0:0:0:1 - - [16/Feb/2017:12:35:29 +0530] "GET /ITAFWebApplication/css/demo3/try.css HTTP/1.1" 200 4871
0:0:0:0:0:0:0:1 - - [16/Feb/2017:12:35:29 +0530] "GET /ITAFWebApplication/files/advancedReport.html?projectname=Allstate&actionType=execute HTTP/1.1" 200 -
0:0:0:0:0:0:0:1 - - [16/Feb/2017:12:37:19 +0530] "POST /ITAFWebApplication/itafpack.do HTTP/1.1" 200 66147
0:0:0:0:0:0:0:1 - - [16/Feb/2017:12:37:19 +0530] "GET /ITAFWebApplication/css/bootstrap.min.css HTTP/1.1" 200 121260
0:0:0:0:0:0:0:1 - - [16/Feb/2017:12:37:19 +0530] "GET /ITAFWebApplication/css/demo3/try.css HTTP/1.1" 200 4871
0:0:0:0:0:0:0:1 - - [16/Feb/2017:12:37:19 +0530] "GET /ITAFWebApplication/files/advancedReport.html?projectname=Allstate&actionType=execute HTTP/1.1" 200 -
0:0:0:0:0:0:0:1 - - [16/Feb/2017:12:37:57 +0530] "GET /ITAFWebApplication/css/bootstrap.min.css HTTP/1.1" 200 121260
0:0:0:0:0:0:0:1 - - [16/Feb/2017:12:37:57 +0530] "GET /ITAFWebApplication/css/demo3/try.css HTTP/1.1" 200 4871
0:0:0:0:0:0:0:1 - - [16/Feb/2017:12:37:57 +0530] "POST /ITAFWebApplication/itafpack.do HTTP/1.1" 200 66147
0:0:0:0:0:0:0:1 - - [16/Feb/2017:12:37:57 +0530] "GET /ITAFWebApplication/files/advancedReport.html?projectname=Allstate&actionType=execute HTTP/1.1" 200 -
0:0:0:0:0:0:0:1 - - [16/Feb/2017:12:50:10 +0530] "GET /ITAFWebApplication/css/demo3/try.css HTTP/1.1" 200 4871
0:0:0:0:0:0:0:1 - - [16/Feb/2017:12:50:10 +0530] "GET /ITAFWebApplication/css/bootstrap.min.css HTTP/1.1" 200 121260
0:0:0:0:0:0:0:1 - - [16/Feb/2017:12:50:10 +0530] "POST /ITAFWebApplication/itafpack.do HTTP/1.1" 200 66152
0:0:0:0:0:0:0:1 - - [16/Feb/2017:12:50:10 +0530] "GET /ITAFWebApplication/files/advancedReport.html?projectname=Allstate&actionType=execute HTTP/1.1" 200 -
0:0:0:0:0:0:0:1 - - [16/Feb/2017:14:44:56 +0530] "POST /ITAFWebApplication/itafpack.do HTTP/1.1" 302 -
0:0:0:0:0:0:0:1 - - [16/Feb/2017:14:44:56 +0530] "GET /ITAFWebApplication/login.jsp HTTP/1.1" 200 27677
0:0:0:0:0:0:0:1 - - [16/Feb/2017:14:44:56 +0530] "GET /ITAFWebApplication/css/login.css HTTP/1.1" 200 1077
0:0:0:0:0:0:0:1 - - [16/Feb/2017:14:44:56 +0530] "GET /ITAFWebApplication/css/bootstrap.min.css HTTP/1.1" 200 121260
0:0:0:0:0:0:0:1 - - [16/Feb/2017:14:45:12 +0530] "GET /ITAFWebApplication/css/bootstrap.min.css HTTP/1.1" 200 121260
0:0:0:0:0:0:0:1 - - [16/Feb/2017:14:45:12 +0530] "GET /ITAFWebApplication/css/demo3/try.css HTTP/1.1" 200 4871
0:0:0:0:0:0:0:1 - - [16/Feb/2017:14:45:12 +0530] "POST /ITAFWebApplication/login.do HTTP/1.1" 200 53664
0:0:0:0:0:0:0:1 - - [16/Feb/2017:14:45:12 +0530] "GET /ITAFWebApplication/css/demo3/responsiveTables.css HTTP/1.1" 200 182
0:0:0:0:0:0:0:1 - - [16/Feb/2017:14:45:12 +0530] "GET /ITAFWebApplication/js/jquery.min.js HTTP/1.1" 200 84380
0:0:0:0:0:0:0:1 - - [16/Feb/2017:14:45:12 +0530] "GET /ITAFWebApplication/js/bootstrap.min.js HTTP/1.1" 200 36868
0:0:0:0:0:0:0:1 - - [16/Feb/2017:14:45:12 +0530] "GET /ITAFWebApplication/js/demo3/try.js HTTP/1.1" 200 45488
0:0:0:0:0:0:0:1 - - [16/Feb/2017:14:45:12 +0530] "GET /ITAFWebApplication/js/objectCap.js HTTP/1.1" 200 11106
0:0:0:0:0:0:0:1 - - [16/Feb/2017:14:45:12 +0530] "GET /ITAFWebApplication/js/demo3/bootstrap-filestyle.min.js HTTP/1.1" 200 7190
0:0:0:0:0:0:0:1 - - [16/Feb/2017:14:45:12 +0530] "GET /ITAFWebApplication/js/demo3/responsiveTables.js HTTP/1.1" 200 1886
0:0:0:0:0:0:0:1 - - [16/Feb/2017:14:45:12 +0530] "GET /ITAFWebApplication/js/demo3/RowSorter.js HTTP/1.1" 200 8102
0:0:0:0:0:0:0:1 - - [16/Feb/2017:14:45:12 +0530] "GET /ITAFWebApplication/js/demo3/searchTable.js HTTP/1.1" 200 1022
0:0:0:0:0:0:0:1 - - [16/Feb/2017:14:45:15 +0530] "POST /ITAFWebApplication/itafpack.do HTTP/1.1" 200 63414
0:0:0:0:0:0:0:1 - - [16/Feb/2017:14:45:15 +0530] "GET /ITAFWebApplication/css/bootstrap.min.css HTTP/1.1" 200 121260
0:0:0:0:0:0:0:1 - - [16/Feb/2017:14:45:15 +0530] "GET /ITAFWebApplication/css/demo3/try.css HTTP/1.1" 200 4871
0:0:0:0:0:0:0:1 - - [16/Feb/2017:14:45:15 +0530] "GET /ITAFWebApplication/css/demo3/responsiveTables.css HTTP/1.1" 200 182
0:0:0:0:0:0:0:1 - - [16/Feb/2017:14:45:15 +0530] "GET /ITAFWebApplication/files/advancedReport.html?projectname=Allstate&actionType=execute HTTP/1.1" 200 -
0:0:0:0:0:0:0:1 - - [16/Feb/2017:14:45:19 +0530] "GET /ITAFWebApplication/css/bootstrap.min.css HTTP/1.1" 200 121260
0:0:0:0:0:0:0:1 - - [16/Feb/2017:14:45:19 +0530] "GET /ITAFWebApplication/css/demo3/try.css HTTP/1.1" 200 4871
0:0:0:0:0:0:0:1 - - [16/Feb/2017:14:45:19 +0530] "GET /ITAFWebApplication/css/demo3/responsiveTables.css HTTP/1.1" 200 182
0:0:0:0:0:0:0:1 - - [16/Feb/2017:14:45:19 +0530] "POST /ITAFWebApplication/itafpack.do HTTP/1.1" 200 63417
0:0:0:0:0:0:0:1 - - [16/Feb/2017:14:45:19 +0530] "GET /ITAFWebApplication/files/advancedReport.html?projectname=Allstate&actionType=execute HTTP/1.1" 200 -
0:0:0:0:0:0:0:1 - - [16/Feb/2017:14:45:52 +0530] "POST /ITAFWebApplication/Seleniumservice/resources/startStopObjectCapture HTTP/1.1" 200 34
0:0:0:0:0:0:0:1 - - [16/Feb/2017:14:45:55 +0530] "GET /ITAFWebApplication/js/inject.js HTTP/1.1" 200 14543
0:0:0:0:0:0:0:1 - - [16/Feb/2017:14:47:07 +0530] "GET /ITAFWebApplication/css/demo3/responsiveTables.css HTTP/1.1" 200 182
0:0:0:0:0:0:0:1 - - [16/Feb/2017:14:47:07 +0530] "GET /ITAFWebApplication/css/bootstrap.min.css HTTP/1.1" 200 121260
0:0:0:0:0:0:0:1 - - [16/Feb/2017:14:47:07 +0530] "GET /ITAFWebApplication/css/demo3/try.css HTTP/1.1" 200 4871
0:0:0:0:0:0:0:1 - - [16/Feb/2017:14:47:07 +0530] "POST /ITAFWebApplication/itafpack.do HTTP/1.1" 200 65163
0:0:0:0:0:0:0:1 - - [16/Feb/2017:14:47:07 +0530] "GET /ITAFWebApplication/files/advancedReport.html?projectname=Allstate&actionType=execute HTTP/1.1" 200 -
0:0:0:0:0:0:0:1 - - [16/Feb/2017:14:47:09 +0530] "GET /ITAFWebApplication/css/bootstrap.min.css HTTP/1.1" 200 121260
0:0:0:0:0:0:0:1 - - [16/Feb/2017:14:47:09 +0530] "POST /ITAFWebApplication/itafpack.do HTTP/1.1" 200 65999
0:0:0:0:0:0:0:1 - - [16/Feb/2017:14:47:09 +0530] "GET /ITAFWebApplication/css/demo3/try.css HTTP/1.1" 200 4871
0:0:0:0:0:0:0:1 - - [16/Feb/2017:14:47:09 +0530] "GET /ITAFWebApplication/css/demo3/responsiveTables.css HTTP/1.1" 200 182
0:0:0:0:0:0:0:1 - - [16/Feb/2017:14:47:09 +0530] "GET /ITAFWebApplication/files/advancedReport.html?projectname=Allstate&actionType=execute HTTP/1.1" 200 -
0:0:0:0:0:0:0:1 - - [16/Feb/2017:14:47:16 +0530] "POST /ITAFWebApplication/itafpack.do HTTP/1.1" 200 63418
0:0:0:0:0:0:0:1 - - [16/Feb/2017:14:47:16 +0530] "GET /ITAFWebApplication/files/advancedReport.html?projectname=Allstate&actionType=execute HTTP/1.1" 200 -
0:0:0:0:0:0:0:1 - - [16/Feb/2017:14:47:17 +0530] "POST /ITAFWebApplication/itafpack.do HTTP/1.1" 200 65163
0:0:0:0:0:0:0:1 - - [16/Feb/2017:14:47:17 +0530] "GET /ITAFWebApplication/css/bootstrap.min.css HTTP/1.1" 200 121260
0:0:0:0:0:0:0:1 - - [16/Feb/2017:14:47:17 +0530] "GET /ITAFWebApplication/css/demo3/try.css HTTP/1.1" 200 4871
0:0:0:0:0:0:0:1 - - [16/Feb/2017:14:47:17 +0530] "GET /ITAFWebApplication/files/advancedReport.html?projectname=Allstate&actionType=execute HTTP/1.1" 200 -
0:0:0:0:0:0:0:1 - - [16/Feb/2017:14:47:24 +0530] "GET /ITAFWebApplication/css/bootstrap.min.css HTTP/1.1" 200 121260
0:0:0:0:0:0:0:1 - - [16/Feb/2017:14:47:24 +0530] "GET /ITAFWebApplication/css/demo3/try.css HTTP/1.1" 200 4871
0:0:0:0:0:0:0:1 - - [16/Feb/2017:14:47:24 +0530] "POST /ITAFWebApplication/itafpack.do HTTP/1.1" 200 65999
0:0:0:0:0:0:0:1 - - [16/Feb/2017:14:47:24 +0530] "GET /ITAFWebApplication/files/advancedReport.html?projectname=Allstate&actionType=execute HTTP/1.1" 200 -
0:0:0:0:0:0:0:1 - - [16/Feb/2017:14:47:52 +0530] "GET /ITAFWebApplication/css/demo3/try.css HTTP/1.1" 200 4871
0:0:0:0:0:0:0:1 - - [16/Feb/2017:14:47:52 +0530] "GET /ITAFWebApplication/css/bootstrap.min.css HTTP/1.1" 200 121260
0:0:0:0:0:0:0:1 - - [16/Feb/2017:14:47:52 +0530] "POST /ITAFWebApplication/itafpack.do HTTP/1.1" 200 76897
0:0:0:0:0:0:0:1 - - [16/Feb/2017:14:47:52 +0530] "GET /ITAFWebApplication/files/advancedReport.html?projectname=Allstate&actionType=execute HTTP/1.1" 200 -
0:0:0:0:0:0:0:1 - - [16/Feb/2017:14:48:01 +0530] "GET /ITAFWebApplication/css/bootstrap.min.css HTTP/1.1" 200 121260
0:0:0:0:0:0:0:1 - - [16/Feb/2017:14:48:01 +0530] "GET /ITAFWebApplication/css/demo3/try.css HTTP/1.1" 200 4871
0:0:0:0:0:0:0:1 - - [16/Feb/2017:14:48:01 +0530] "POST /ITAFWebApplication/itafpack.do HTTP/1.1" 200 64619
0:0:0:0:0:0:0:1 - - [16/Feb/2017:14:48:01 +0530] "GET /ITAFWebApplication/files/advancedReport.html?projectname=Allstate&actionType=execute HTTP/1.1" 200 -
0:0:0:0:0:0:0:1 - - [16/Feb/2017:14:48:03 +0530] "POST /ITAFWebApplication/itafpack.do HTTP/1.1" 200 64622
0:0:0:0:0:0:0:1 - - [16/Feb/2017:14:48:03 +0530] "GET /ITAFWebApplication/files/advancedReport.html?projectname=Allstate&actionType=execute HTTP/1.1" 200 -
0:0:0:0:0:0:0:1 - - [16/Feb/2017:14:48:28 +0530] "POST /ITAFWebApplication/Seleniumservice/resources/startStopObjectCapture HTTP/1.1" 200 109
0:0:0:0:0:0:0:1 - - [16/Feb/2017:14:50:00 +0530] "POST /ITAFWebApplication/Seleniumservice/resources/startStopObjectCapture HTTP/1.1" 200 1293
0:0:0:0:0:0:0:1 - - [16/Feb/2017:14:50:04 +0530] "POST /ITAFWebApplication/Seleniumservice/resources/startStopObjectCapture HTTP/1.1" 200 1293
0:0:0:0:0:0:0:1 - - [16/Feb/2017:14:50:18 +0530] "POST /ITAFWebApplication/logout.do HTTP/1.1" 302 -
0:0:0:0:0:0:0:1 - - [16/Feb/2017:14:50:18 +0530] "GET /ITAFWebApplication/login.jsp HTTP/1.1" 200 27677
0:0:0:0:0:0:0:1 - - [16/Feb/2017:14:50:18 +0530] "GET /ITAFWebApplication/css/login.css HTTP/1.1" 200 1077
0:0:0:0:0:0:0:1 - - [16/Feb/2017:14:50:18 +0530] "GET /ITAFWebApplication/css/bootstrap.min.css HTTP/1.1" 200 121260
0:0:0:0:0:0:0:1 - - [16/Feb/2017:14:50:24 +0530] "POST /ITAFWebApplication/login.do HTTP/1.1" 200 53664
0:0:0:0:0:0:0:1 - - [16/Feb/2017:14:50:24 +0530] "GET /ITAFWebApplication/css/bootstrap.min.css HTTP/1.1" 200 121260
0:0:0:0:0:0:0:1 - - [16/Feb/2017:14:50:24 +0530] "GET /ITAFWebApplication/css/demo3/try.css HTTP/1.1" 200 4871
0:0:0:0:0:0:0:1 - - [16/Feb/2017:14:50:27 +0530] "GET /ITAFWebApplication/css/bootstrap.min.css HTTP/1.1" 200 121260
0:0:0:0:0:0:0:1 - - [16/Feb/2017:14:50:27 +0530] "GET /ITAFWebApplication/css/demo3/try.css HTTP/1.1" 200 4871
0:0:0:0:0:0:0:1 - - [16/Feb/2017:14:50:27 +0530] "POST /ITAFWebApplication/itafpack.do HTTP/1.1" 200 64623
0:0:0:0:0:0:0:1 - - [16/Feb/2017:14:50:27 +0530] "GET /ITAFWebApplication/files/advancedReport.html?projectname=Allstate&actionType=execute HTTP/1.1" 200 -
0:0:0:0:0:0:0:1 - - [16/Feb/2017:14:50:39 +0530] "POST /ITAFWebApplication/itafpack.do HTTP/1.1" 200 64626
0:0:0:0:0:0:0:1 - - [16/Feb/2017:14:50:39 +0530] "GET /ITAFWebApplication/files/advancedReport.html?projectname=Allstate&actionType=execute HTTP/1.1" 200 -
0:0:0:0:0:0:0:1 - - [16/Feb/2017:14:51:07 +0530] "POST /ITAFWebApplication/Seleniumservice/resources/startStopObjectCapture HTTP/1.1" 200 34
0:0:0:0:0:0:0:1 - - [16/Feb/2017:14:51:10 +0530] "GET /ITAFWebApplication/js/inject.js HTTP/1.1" 200 14543
0:0:0:0:0:0:0:1 - - [16/Feb/2017:14:51:40 +0530] "GET /ITAFWebApplication/js/inject.js HTTP/1.1" 200 14543
0:0:0:0:0:0:0:1 - - [16/Feb/2017:14:52:15 +0530] "POST /ITAFWebApplication/Seleniumservice/resources/startStopObjectCapture HTTP/1.1" 200 8352
0:0:0:0:0:0:0:1 - - [16/Feb/2017:14:53:29 +0530] "POST /ITAFWebApplication/Seleniumservice/resources/updateCSV HTTP/1.1" 204 -
0:0:0:0:0:0:0:1 - - [16/Feb/2017:14:53:37 +0530] "GET /ITAFWebApplication/css/bootstrap.min.css HTTP/1.1" 200 121260
0:0:0:0:0:0:0:1 - - [16/Feb/2017:14:53:37 +0530] "GET /ITAFWebApplication/css/demo3/try.css HTTP/1.1" 200 4871
0:0:0:0:0:0:0:1 - - [16/Feb/2017:14:53:37 +0530] "POST /ITAFWebApplication/itafpack.do HTTP/1.1" 200 165159
0:0:0:0:0:0:0:1 - - [16/Feb/2017:14:53:37 +0530] "GET /ITAFWebApplication/files/advancedReport.html?projectname=Allstate&actionType=execute HTTP/1.1" 200 -
0:0:0:0:0:0:0:1 - - [16/Feb/2017:14:56:52 +0530] "POST /ITAFWebApplication/itafpack.do HTTP/1.1" 200 165507
0:0:0:0:0:0:0:1 - - [16/Feb/2017:14:56:52 +0530] "GET /ITAFWebApplication/css/bootstrap.min.css HTTP/1.1" 200 121260
0:0:0:0:0:0:0:1 - - [16/Feb/2017:14:56:52 +0530] "GET /ITAFWebApplication/css/demo3/try.css HTTP/1.1" 200 4871
0:0:0:0:0:0:0:1 - - [16/Feb/2017:14:56:52 +0530] "GET /ITAFWebApplication/files/advancedReport.html?projectname=Allstate&actionType=execute HTTP/1.1" 200 -
0:0:0:0:0:0:0:1 - - [16/Feb/2017:14:57:07 +0530] "GET /ITAFWebApplication/css/demo3/try.css HTTP/1.1" 200 4871
0:0:0:0:0:0:0:1 - - [16/Feb/2017:14:57:07 +0530] "GET /ITAFWebApplication/css/bootstrap.min.css HTTP/1.1" 200 121260
0:0:0:0:0:0:0:1 - - [16/Feb/2017:14:57:07 +0530] "POST /ITAFWebApplication/itafpack.do HTTP/1.1" 200 64750
0:0:0:0:0:0:0:1 - - [16/Feb/2017:14:57:07 +0530] "GET /ITAFWebApplication/files/advancedReport.html?projectname=Allstate&actionType=execute HTTP/1.1" 200 -
0:0:0:0:0:0:0:1 - - [16/Feb/2017:14:57:11 +0530] "POST /ITAFWebApplication/itafpack.do HTTP/1.1" 200 64720
0:0:0:0:0:0:0:1 - - [16/Feb/2017:14:57:11 +0530] "GET /ITAFWebApplication/files/advancedReport.html?projectname=Allstate&actionType=execute HTTP/1.1" 200 -
0:0:0:0:0:0:0:1 - - [16/Feb/2017:14:57:23 +0530] "GET /ITAFWebApplication/css/demo3/try.css HTTP/1.1" 200 4871
0:0:0:0:0:0:0:1 - - [16/Feb/2017:14:57:23 +0530] "GET /ITAFWebApplication/css/bootstrap.min.css HTTP/1.1" 200 121260
0:0:0:0:0:0:0:1 - - [16/Feb/2017:14:57:23 +0530] "POST /ITAFWebApplication/itafpack.do HTTP/1.1" 200 64690
0:0:0:0:0:0:0:1 - - [16/Feb/2017:14:57:23 +0530] "GET /ITAFWebApplication/files/advancedReport.html?projectname=Allstate&actionType=execute HTTP/1.1" 200 -
0:0:0:0:0:0:0:1 - - [16/Feb/2017:14:57:32 +0530] "POST /ITAFWebApplication/itafpack.do HTTP/1.1" 200 64660
0:0:0:0:0:0:0:1 - - [16/Feb/2017:14:57:32 +0530] "GET /ITAFWebApplication/css/bootstrap.min.css HTTP/1.1" 200 121260
0:0:0:0:0:0:0:1 - - [16/Feb/2017:14:57:32 +0530] "GET /ITAFWebApplication/css/demo3/try.css HTTP/1.1" 200 4871
0:0:0:0:0:0:0:1 - - [16/Feb/2017:14:57:32 +0530] "GET /ITAFWebApplication/files/advancedReport.html?projectname=Allstate&actionType=execute HTTP/1.1" 200 -
0:0:0:0:0:0:0:1 - - [16/Feb/2017:14:57:35 +0530] "POST /ITAFWebApplication/itafpack.do HTTP/1.1" 200 60416
0:0:0:0:0:0:0:1 - - [16/Feb/2017:14:57:35 +0530] "GET /ITAFWebApplication/files/advancedReport.html?projectname=Allstate&actionType=execute HTTP/1.1" 200 -
0:0:0:0:0:0:0:1 - - [16/Feb/2017:14:57:44 +0530] "GET /ITAFWebApplication/css/bootstrap.min.css HTTP/1.1" 200 121260
0:0:0:0:0:0:0:1 - - [16/Feb/2017:14:57:44 +0530] "GET /ITAFWebApplication/css/demo3/try.css HTTP/1.1" 200 4871
0:0:0:0:0:0:0:1 - - [16/Feb/2017:14:57:44 +0530] "POST /ITAFWebApplication/itafpack.do HTTP/1.1" 200 64630
0:0:0:0:0:0:0:1 - - [16/Feb/2017:14:57:44 +0530] "GET /ITAFWebApplication/files/advancedReport.html?projectname=Allstate&actionType=execute HTTP/1.1" 200 -
0:0:0:0:0:0:0:1 - - [16/Feb/2017:14:57:56 +0530] "GET /ITAFWebApplication/css/demo3/try.css HTTP/1.1" 200 4871
0:0:0:0:0:0:0:1 - - [16/Feb/2017:14:57:56 +0530] "GET /ITAFWebApplication/css/bootstrap.min.css HTTP/1.1" 200 121260
0:0:0:0:0:0:0:1 - - [16/Feb/2017:14:57:56 +0530] "POST /ITAFWebApplication/itafpack.do HTTP/1.1" 200 64660
0:0:0:0:0:0:0:1 - - [16/Feb/2017:14:57:56 +0530] "GET /ITAFWebApplication/files/advancedReport.html?projectname=Allstate&actionType=execute HTTP/1.1" 200 -
0:0:0:0:0:0:0:1 - - [16/Feb/2017:14:59:50 +0530] "GET /ITAFWebApplication/css/bootstrap.min.css HTTP/1.1" 200 121260
0:0:0:0:0:0:0:1 - - [16/Feb/2017:14:59:50 +0530] "GET /ITAFWebApplication/css/demo3/try.css HTTP/1.1" 200 4871
0:0:0:0:0:0:0:1 - - [16/Feb/2017:14:59:51 +0530] "POST /ITAFWebApplication/itafpack.do HTTP/1.1" 200 64660
0:0:0:0:0:0:0:1 - - [16/Feb/2017:14:59:51 +0530] "GET /ITAFWebApplication/files/advancedReport.html?projectname=Allstate&actionType=execute HTTP/1.1" 200 -
0:0:0:0:0:0:0:1 - - [16/Feb/2017:14:59:56 +0530] "POST /ITAFWebApplication/itafpack.do HTTP/1.1" 200 64660
0:0:0:0:0:0:0:1 - - [16/Feb/2017:14:59:56 +0530] "GET /ITAFWebApplication/files/advancedReport.html?projectname=Allstate&actionType=execute HTTP/1.1" 200 -
0:0:0:0:0:0:0:1 - - [16/Feb/2017:15:00:02 +0530] "GET /ITAFWebApplication/css/bootstrap.min.css HTTP/1.1" 200 121260
0:0:0:0:0:0:0:1 - - [16/Feb/2017:15:00:02 +0530] "GET /ITAFWebApplication/css/demo3/try.css HTTP/1.1" 200 4871
0:0:0:0:0:0:0:1 - - [16/Feb/2017:15:00:02 +0530] "POST /ITAFWebApplication/itafpack.do HTTP/1.1" 200 64694
0:0:0:0:0:0:0:1 - - [16/Feb/2017:15:00:02 +0530] "GET /ITAFWebApplication/files/advancedReport.html?projectname=Allstate&actionType=execute HTTP/1.1" 200 -
0:0:0:0:0:0:0:1 - - [16/Feb/2017:15:00:07 +0530] "POST /ITAFWebApplication/itafpack.do HTTP/1.1" 200 66423
0:0:0:0:0:0:0:1 - - [16/Feb/2017:15:00:07 +0530] "GET /ITAFWebApplication/files/advancedReport.html?projectname=Allstate&actionType=execute HTTP/1.1" 200 -
0:0:0:0:0:0:0:1 - - [16/Feb/2017:15:00:09 +0530] "GET /ITAFWebApplication/css/bootstrap.min.css HTTP/1.1" 200 121260
0:0:0:0:0:0:0:1 - - [16/Feb/2017:15:00:09 +0530] "GET /ITAFWebApplication/css/demo3/try.css HTTP/1.1" 200 4871
0:0:0:0:0:0:0:1 - - [16/Feb/2017:15:00:09 +0530] "POST /ITAFWebApplication/itafpack.do HTTP/1.1" 200 67252
0:0:0:0:0:0:0:1 - - [16/Feb/2017:15:00:09 +0530] "GET /ITAFWebApplication/files/advancedReport.html?projectname=Allstate&actionType=execute HTTP/1.1" 200 -
0:0:0:0:0:0:0:1 - - [16/Feb/2017:15:00:23 +0530] "GET /ITAFWebApplication/css/bootstrap.min.css HTTP/1.1" 200 121260
0:0:0:0:0:0:0:1 - - [16/Feb/2017:15:00:23 +0530] "GET /ITAFWebApplication/css/demo3/try.css HTTP/1.1" 200 4871
0:0:0:0:0:0:0:1 - - [16/Feb/2017:15:00:23 +0530] "POST /ITAFWebApplication/itafpack.do HTTP/1.1" 200 67404
0:0:0:0:0:0:0:1 - - [16/Feb/2017:15:00:23 +0530] "GET /ITAFWebApplication/files/advancedReport.html?projectname=Allstate&actionType=execute HTTP/1.1" 200 -
0:0:0:0:0:0:0:1 - - [16/Feb/2017:15:00:26 +0530] "POST /ITAFWebApplication/itafpack.do HTTP/1.1" 200 85711
0:0:0:0:0:0:0:1 - - [16/Feb/2017:15:00:26 +0530] "GET /ITAFWebApplication/files/advancedReport.html?projectname=Allstate&actionType=execute HTTP/1.1" 200 -
0:0:0:0:0:0:0:1 - - [16/Feb/2017:15:00:37 +0530] "GET /ITAFWebApplication/css/bootstrap.min.css HTTP/1.1" 200 121260
0:0:0:0:0:0:0:1 - - [16/Feb/2017:15:00:37 +0530] "GET /ITAFWebApplication/css/demo3/try.css HTTP/1.1" 200 4871
0:0:0:0:0:0:0:1 - - [16/Feb/2017:15:00:37 +0530] "POST /ITAFWebApplication/itafpack.do HTTP/1.1" 200 85857
0:0:0:0:0:0:0:1 - - [16/Feb/2017:15:00:37 +0530] "GET /ITAFWebApplication/files/advancedReport.html?projectname=Allstate&actionType=execute HTTP/1.1" 200 -
0:0:0:0:0:0:0:1 - - [16/Feb/2017:15:00:39 +0530] "POST /ITAFWebApplication/itafpack.do HTTP/1.1" 200 165271
0:0:0:0:0:0:0:1 - - [16/Feb/2017:15:00:39 +0530] "GET /ITAFWebApplication/files/advancedReport.html?projectname=Allstate&actionType=execute HTTP/1.1" 200 -
0:0:0:0:0:0:0:1 - - [16/Feb/2017:15:00:43 +0530] "GET /ITAFWebApplication/css/bootstrap.min.css HTTP/1.1" 200 121260
0:0:0:0:0:0:0:1 - - [16/Feb/2017:15:00:43 +0530] "GET /ITAFWebApplication/css/demo3/try.css HTTP/1.1" 200 4871
0:0:0:0:0:0:0:1 - - [16/Feb/2017:15:00:43 +0530] "POST /ITAFWebApplication/itafpack.do HTTP/1.1" 200 165421
0:0:0:0:0:0:0:1 - - [16/Feb/2017:15:00:43 +0530] "GET /ITAFWebApplication/files/advancedReport.html?projectname=Allstate&actionType=execute HTTP/1.1" 200 -
0:0:0:0:0:0:0:1 - - [16/Feb/2017:15:00:51 +0530] "GET /ITAFWebApplication/css/bootstrap.min.css HTTP/1.1" 200 121260
0:0:0:0:0:0:0:1 - - [16/Feb/2017:15:00:51 +0530] "GET /ITAFWebApplication/css/demo3/try.css HTTP/1.1" 200 4871
0:0:0:0:0:0:0:1 - - [16/Feb/2017:15:00:51 +0530] "POST /ITAFWebApplication/itafpack.do HTTP/1.1" 200 66423
0:0:0:0:0:0:0:1 - - [16/Feb/2017:15:00:51 +0530] "GET /ITAFWebApplication/files/advancedReport.html?projectname=Allstate&actionType=execute HTTP/1.1" 200 -
0:0:0:0:0:0:0:1 - - [16/Feb/2017:15:00:53 +0530] "POST /ITAFWebApplication/itafpack.do HTTP/1.1" 200 67247
0:0:0:0:0:0:0:1 - - [16/Feb/2017:15:00:53 +0530] "GET /ITAFWebApplication/files/advancedReport.html?projectname=Allstate&actionType=execute HTTP/1.1" 200 -
0:0:0:0:0:0:0:1 - - [16/Feb/2017:15:01:02 +0530] "GET /ITAFWebApplication/css/bootstrap.min.css HTTP/1.1" 200 121260
0:0:0:0:0:0:0:1 - - [16/Feb/2017:15:01:02 +0530] "GET /ITAFWebApplication/css/demo3/try.css HTTP/1.1" 200 4871
0:0:0:0:0:0:0:1 - - [16/Feb/2017:15:01:02 +0530] "POST /ITAFWebApplication/itafpack.do HTTP/1.1" 200 85711
0:0:0:0:0:0:0:1 - - [16/Feb/2017:15:01:02 +0530] "GET /ITAFWebApplication/files/advancedReport.html?projectname=Allstate&actionType=execute HTTP/1.1" 200 -
0:0:0:0:0:0:0:1 - - [16/Feb/2017:15:01:05 +0530] "POST /ITAFWebApplication/itafpack.do HTTP/1.1" 200 85857
0:0:0:0:0:0:0:1 - - [16/Feb/2017:15:01:05 +0530] "GET /ITAFWebApplication/files/advancedReport.html?projectname=Allstate&actionType=execute HTTP/1.1" 200 -
0:0:0:0:0:0:0:1 - - [16/Feb/2017:15:01:11 +0530] "GET /ITAFWebApplication/css/bootstrap.min.css HTTP/1.1" 200 121260
0:0:0:0:0:0:0:1 - - [16/Feb/2017:15:01:11 +0530] "GET /ITAFWebApplication/css/demo3/try.css HTTP/1.1" 200 4871
0:0:0:0:0:0:0:1 - - [16/Feb/2017:15:01:11 +0530] "POST /ITAFWebApplication/itafpack.do HTTP/1.1" 200 66423
0:0:0:0:0:0:0:1 - - [16/Feb/2017:15:01:11 +0530] "GET /ITAFWebApplication/files/advancedReport.html?projectname=Allstate&actionType=execute HTTP/1.1" 200 -
0:0:0:0:0:0:0:1 - - [16/Feb/2017:15:01:12 +0530] "POST /ITAFWebApplication/itafpack.do HTTP/1.1" 200 67247
0:0:0:0:0:0:0:1 - - [16/Feb/2017:15:01:12 +0530] "GET /ITAFWebApplication/css/demo3/try.css HTTP/1.1" 200 4871
0:0:0:0:0:0:0:1 - - [16/Feb/2017:15:01:12 +0530] "GET /ITAFWebApplication/css/bootstrap.min.css HTTP/1.1" 200 121260
0:0:0:0:0:0:0:1 - - [16/Feb/2017:15:01:12 +0530] "GET /ITAFWebApplication/files/advancedReport.html?projectname=Allstate&actionType=execute HTTP/1.1" 200 -
0:0:0:0:0:0:0:1 - - [16/Feb/2017:15:03:04 +0530] "GET /ITAFWebApplication/css/demo3/try.css HTTP/1.1" 200 4871
0:0:0:0:0:0:0:1 - - [16/Feb/2017:15:03:04 +0530] "GET /ITAFWebApplication/css/bootstrap.min.css HTTP/1.1" 200 121260
0:0:0:0:0:0:0:1 - - [16/Feb/2017:15:03:04 +0530] "POST /ITAFWebApplication/itafpack.do HTTP/1.1" 200 64541
0:0:0:0:0:0:0:1 - - [16/Feb/2017:15:03:04 +0530] "GET /ITAFWebApplication/files/advancedReport.html?projectname=Allstate&actionType=execute HTTP/1.1" 200 -
0:0:0:0:0:0:0:1 - - [16/Feb/2017:15:03:05 +0530] "POST /ITAFWebApplication/itafpack.do HTTP/1.1" 200 64544
0:0:0:0:0:0:0:1 - - [16/Feb/2017:15:03:05 +0530] "GET /ITAFWebApplication/files/advancedReport.html?projectname=Allstate&actionType=execute HTTP/1.1" 200 -
0:0:0:0:0:0:0:1 - - [16/Feb/2017:15:03:08 +0530] "POST /ITAFWebApplication/itafpack.do HTTP/1.1" 200 165275
0:0:0:0:0:0:0:1 - - [16/Feb/2017:15:03:08 +0530] "GET /ITAFWebApplication/files/advancedReport.html?projectname=Allstate&actionType=execute HTTP/1.1" 200 -
0:0:0:0:0:0:0:1 - - [16/Feb/2017:15:03:10 +0530] "GET /ITAFWebApplication/css/bootstrap.min.css HTTP/1.1" 200 121260
0:0:0:0:0:0:0:1 - - [16/Feb/2017:15:03:10 +0530] "GET /ITAFWebApplication/css/demo3/try.css HTTP/1.1" 200 4871
0:0:0:0:0:0:0:1 - - [16/Feb/2017:15:03:10 +0530] "POST /ITAFWebApplication/itafpack.do HTTP/1.1" 200 85715
0:0:0:0:0:0:0:1 - - [16/Feb/2017:15:03:10 +0530] "GET /ITAFWebApplication/files/advancedReport.html?projectname=Allstate&actionType=execute HTTP/1.1" 200 -
0:0:0:0:0:0:0:1 - - [16/Feb/2017:15:03:16 +0530] "GET /ITAFWebApplication/css/bootstrap.min.css HTTP/1.1" 200 121260
0:0:0:0:0:0:0:1 - - [16/Feb/2017:15:03:16 +0530] "GET /ITAFWebApplication/css/demo3/try.css HTTP/1.1" 200 4871
0:0:0:0:0:0:0:1 - - [16/Feb/2017:15:03:16 +0530] "POST /ITAFWebApplication/itafpack.do HTTP/1.1" 200 66427
0:0:0:0:0:0:0:1 - - [16/Feb/2017:15:03:16 +0530] "GET /ITAFWebApplication/files/advancedReport.html?projectname=Allstate&actionType=execute HTTP/1.1" 200 -
0:0:0:0:0:0:0:1 - - [16/Feb/2017:15:03:17 +0530] "POST /ITAFWebApplication/itafpack.do HTTP/1.1" 200 66873
0:0:0:0:0:0:0:1 - - [16/Feb/2017:15:03:17 +0530] "GET /ITAFWebApplication/css/bootstrap.min.css HTTP/1.1" 200 121260
0:0:0:0:0:0:0:1 - - [16/Feb/2017:15:03:17 +0530] "GET /ITAFWebApplication/css/demo3/try.css HTTP/1.1" 200 4871
0:0:0:0:0:0:0:1 - - [16/Feb/2017:15:03:17 +0530] "GET /ITAFWebApplication/files/advancedReport.html?projectname=Allstate&actionType=execute HTTP/1.1" 200 -
0:0:0:0:0:0:0:1 - - [16/Feb/2017:15:03:21 +0530] "POST /ITAFWebApplication/itafpack.do HTTP/1.1" 200 70219
0:0:0:0:0:0:0:1 - - [16/Feb/2017:15:03:21 +0530] "GET /ITAFWebApplication/files/advancedReport.html?projectname=Allstate&actionType=execute HTTP/1.1" 200 -
0:0:0:0:0:0:0:1 - - [16/Feb/2017:15:04:56 +0530] "GET /ITAFWebApplication/css/bootstrap.min.css HTTP/1.1" 200 121260
0:0:0:0:0:0:0:1 - - [16/Feb/2017:15:04:56 +0530] "GET /ITAFWebApplication/css/demo3/try.css HTTP/1.1" 200 4871
0:0:0:0:0:0:0:1 - - [16/Feb/2017:15:04:56 +0530] "POST /ITAFWebApplication/itafpack.do HTTP/1.1" 200 70435
0:0:0:0:0:0:0:1 - - [16/Feb/2017:15:04:56 +0530] "GET /ITAFWebApplication/files/advancedReport.html?projectname=Allstate&actionType=execute HTTP/1.1" 200 -
0:0:0:0:0:0:0:1 - - [16/Feb/2017:15:05:02 +0530] "GET /ITAFWebApplication/css/bootstrap.min.css HTTP/1.1" 200 121260
0:0:0:0:0:0:0:1 - - [16/Feb/2017:15:05:02 +0530] "GET /ITAFWebApplication/css/demo3/try.css HTTP/1.1" 200 4871
0:0:0:0:0:0:0:1 - - [16/Feb/2017:15:05:02 +0530] "POST /ITAFWebApplication/itafpack.do HTTP/1.1" 200 165275
0:0:0:0:0:0:0:1 - - [16/Feb/2017:15:05:02 +0530] "GET /ITAFWebApplication/files/advancedReport.html?projectname=Allstate&actionType=execute HTTP/1.1" 200 -
0:0:0:0:0:0:0:1 - - [16/Feb/2017:15:05:16 +0530] "POST /ITAFWebApplication/itafpack.do HTTP/1.1" 200 156573
0:0:0:0:0:0:0:1 - - [16/Feb/2017:15:05:16 +0530] "GET /ITAFWebApplication/css/bootstrap.min.css HTTP/1.1" 200 121260
0:0:0:0:0:0:0:1 - - [16/Feb/2017:15:05:16 +0530] "GET /ITAFWebApplication/css/demo3/try.css HTTP/1.1" 200 4871
0:0:0:0:0:0:0:1 - - [16/Feb/2017:15:05:16 +0530] "GET /ITAFWebApplication/files/advancedReport.html?projectname=Allstate&actionType=execute HTTP/1.1" 200 -
0:0:0:0:0:0:0:1 - - [16/Feb/2017:15:05:21 +0530] "GET /ITAFWebApplication/css/demo3/try.css HTTP/1.1" 200 4871
0:0:0:0:0:0:0:1 - - [16/Feb/2017:15:05:21 +0530] "GET /ITAFWebApplication/css/bootstrap.min.css HTTP/1.1" 200 121260
0:0:0:0:0:0:0:1 - - [16/Feb/2017:15:05:21 +0530] "POST /ITAFWebApplication/itafpack.do HTTP/1.1" 200 66427
0:0:0:0:0:0:0:1 - - [16/Feb/2017:15:05:21 +0530] "GET /ITAFWebApplication/files/advancedReport.html?projectname=Allstate&actionType=execute HTTP/1.1" 200 -
0:0:0:0:0:0:0:1 - - [16/Feb/2017:15:05:23 +0530] "POST /ITAFWebApplication/itafpack.do HTTP/1.1" 200 70278
0:0:0:0:0:0:0:1 - - [16/Feb/2017:15:05:23 +0530] "GET /ITAFWebApplication/css/bootstrap.min.css HTTP/1.1" 200 121260
0:0:0:0:0:0:0:1 - - [16/Feb/2017:15:05:23 +0530] "GET /ITAFWebApplication/css/demo3/try.css HTTP/1.1" 200 4871
0:0:0:0:0:0:0:1 - - [16/Feb/2017:15:05:23 +0530] "GET /ITAFWebApplication/files/advancedReport.html?projectname=Allstate&actionType=execute HTTP/1.1" 200 -
0:0:0:0:0:0:0:1 - - [16/Feb/2017:15:06:38 +0530] "GET /ITAFWebApplication/css/bootstrap.min.css HTTP/1.1" 200 121260
0:0:0:0:0:0:0:1 - - [16/Feb/2017:15:06:38 +0530] "GET /ITAFWebApplication/css/demo3/try.css HTTP/1.1" 200 4871
0:0:0:0:0:0:0:1 - - [16/Feb/2017:15:06:38 +0530] "POST /ITAFWebApplication/itafpack.do HTTP/1.1" 200 64545
0:0:0:0:0:0:0:1 - - [16/Feb/2017:15:06:38 +0530] "GET /ITAFWebApplication/files/advancedReport.html?projectname=Allstate&actionType=execute HTTP/1.1" 200 -
0:0:0:0:0:0:0:1 - - [16/Feb/2017:15:06:40 +0530] "POST /ITAFWebApplication/itafpack.do HTTP/1.1" 200 66427
0:0:0:0:0:0:0:1 - - [16/Feb/2017:15:06:40 +0530] "GET /ITAFWebApplication/css/demo3/try.css HTTP/1.1" 200 4871
0:0:0:0:0:0:0:1 - - [16/Feb/2017:15:06:40 +0530] "GET /ITAFWebApplication/css/bootstrap.min.css HTTP/1.1" 200 121260
0:0:0:0:0:0:0:1 - - [16/Feb/2017:15:06:40 +0530] "GET /ITAFWebApplication/files/advancedReport.html?projectname=Allstate&actionType=execute HTTP/1.1" 200 -
0:0:0:0:0:0:0:1 - - [16/Feb/2017:15:06:42 +0530] "POST /ITAFWebApplication/itafpack.do HTTP/1.1" 200 66873
0:0:0:0:0:0:0:1 - - [16/Feb/2017:15:06:42 +0530] "GET /ITAFWebApplication/files/advancedReport.html?projectname=Allstate&actionType=execute HTTP/1.1" 200 -
0:0:0:0:0:0:0:1 - - [16/Feb/2017:15:06:43 +0530] "GET /ITAFWebApplication/css/demo3/try.css HTTP/1.1" 200 4871
0:0:0:0:0:0:0:1 - - [16/Feb/2017:15:06:43 +0530] "GET /ITAFWebApplication/css/bootstrap.min.css HTTP/1.1" 200 121260
0:0:0:0:0:0:0:1 - - [16/Feb/2017:15:06:43 +0530] "POST /ITAFWebApplication/itafpack.do HTTP/1.1" 200 69908
0:0:0:0:0:0:0:1 - - [16/Feb/2017:15:06:43 +0530] "GET /ITAFWebApplication/files/advancedReport.html?projectname=Allstate&actionType=execute HTTP/1.1" 200 -
0:0:0:0:0:0:0:1 - - [16/Feb/2017:15:06:45 +0530] "POST /ITAFWebApplication/itafpack.do HTTP/1.1" 200 70065
0:0:0:0:0:0:0:1 - - [16/Feb/2017:15:06:45 +0530] "GET /ITAFWebApplication/files/advancedReport.html?projectname=Allstate&actionType=execute HTTP/1.1" 200 -
0:0:0:0:0:0:0:1 - - [16/Feb/2017:15:06:47 +0530] "POST /ITAFWebApplication/itafexecute.do HTTP/1.1" 200 19779
0:0:0:0:0:0:0:1 - - [16/Feb/2017:15:06:47 +0530] "GET /ITAFWebApplication/css/bootstrap.min.css HTTP/1.1" 200 121260
0:0:0:0:0:0:0:1 - - [16/Feb/2017:15:06:47 +0530] "GET /ITAFWebApplication/js/loader.js HTTP/1.1" 200 70294
0:0:0:0:0:0:0:1 - - [16/Feb/2017:15:06:47 +0530] "GET /ITAFWebApplication/css/demo3/try.css HTTP/1.1" 200 4871
0:0:0:0:0:0:0:1 - - [16/Feb/2017:15:06:47 +0530] "GET /ITAFWebApplication/js/demo3/executetry.js HTTP/1.1" 200 1945
0:0:0:0:0:0:0:1 - - [16/Feb/2017:15:06:47 +0530] "GET /ITAFWebApplication/js/demo3/bootstrap-progressbar.js HTTP/1.1" 200 6284
0:0:0:0:0:0:0:1 - - [16/Feb/2017:15:08:34 +0530] "POST /ITAFWebApplication/itafexecute.do HTTP/1.1" 200 609
0:0:0:0:0:0:0:1 - - [16/Feb/2017:15:09:01 +0530] "GET /ITAFWebApplication/css/bootstrap.min.css HTTP/1.1" 200 121260
0:0:0:0:0:0:0:1 - - [16/Feb/2017:15:09:01 +0530] "GET /ITAFWebApplication/css/demo3/try.css HTTP/1.1" 200 4871
0:0:0:0:0:0:0:1 - - [16/Feb/2017:15:09:01 +0530] "POST /ITAFWebApplication/itafexecute.do HTTP/1.1" 200 53664
0:0:0:0:0:0:0:1 - - [16/Feb/2017:15:09:46 +0530] "POST /ITAFWebApplication/itafexecute.do HTTP/1.1" 200 19779
0:0:0:0:0:0:0:1 - - [16/Feb/2017:15:09:46 +0530] "GET /ITAFWebApplication/css/demo3/try.css HTTP/1.1" 200 4871
0:0:0:0:0:0:0:1 - - [16/Feb/2017:15:09:46 +0530] "GET /ITAFWebApplication/css/bootstrap.min.css HTTP/1.1" 200 121260
0:0:0:0:0:0:0:1 - - [16/Feb/2017:15:19:28 +0530] "GET /ITAFWebApplication/css/bootstrap.min.css HTTP/1.1" 200 121260
0:0:0:0:0:0:0:1 - - [16/Feb/2017:15:19:28 +0530] "GET /ITAFWebApplication/css/demo3/try.css HTTP/1.1" 200 4871
0:0:0:0:0:0:0:1 - - [16/Feb/2017:15:19:28 +0530] "POST /ITAFWebApplication/itafexecute.do HTTP/1.1" 200 53670
0:0:0:0:0:0:0:1 - - [16/Feb/2017:15:21:46 +0530] "GET /ITAFWebApplication/css/demo3/try.css HTTP/1.1" 200 4871
0:0:0:0:0:0:0:1 - - [16/Feb/2017:15:21:46 +0530] "GET /ITAFWebApplication/css/bootstrap.min.css HTTP/1.1" 200 121260
0:0:0:0:0:0:0:1 - - [16/Feb/2017:15:21:46 +0530] "POST /ITAFWebApplication/itafpack.do HTTP/1.1" 200 64545
0:0:0:0:0:0:0:1 - - [16/Feb/2017:15:21:46 +0530] "GET /ITAFWebApplication/files/advancedReport.html?projectname=Allstate&actionType=execute HTTP/1.1" 200 14282
0:0:0:0:0:0:0:1 - - [16/Feb/2017:15:23:31 +0530] "POST /ITAFWebApplication/itafexecute.do HTTP/1.1" 200 19779
0:0:0:0:0:0:0:1 - - [16/Feb/2017:15:23:31 +0530] "GET /ITAFWebApplication/css/bootstrap.min.css HTTP/1.1" 200 121260
0:0:0:0:0:0:0:1 - - [16/Feb/2017:15:23:31 +0530] "GET /ITAFWebApplication/js/loader.js HTTP/1.1" 200 70294
0:0:0:0:0:0:0:1 - - [16/Feb/2017:15:23:31 +0530] "GET /ITAFWebApplication/css/demo3/try.css HTTP/1.1" 200 4871
0:0:0:0:0:0:0:1 - - [16/Feb/2017:15:23:31 +0530] "GET /ITAFWebApplication/js/demo3/executetry.js HTTP/1.1" 200 1945
0:0:0:0:0:0:0:1 - - [16/Feb/2017:15:23:31 +0530] "GET /ITAFWebApplication/js/demo3/bootstrap-progressbar.js HTTP/1.1" 200 6284
0:0:0:0:0:0:0:1 - - [16/Feb/2017:15:23:37 +0530] "GET /ITAFWebApplication/css/bootstrap.min.css HTTP/1.1" 200 121260
0:0:0:0:0:0:0:1 - - [16/Feb/2017:15:23:37 +0530] "GET /ITAFWebApplication/css/demo3/try.css HTTP/1.1" 200 4871
0:0:0:0:0:0:0:1 - - [16/Feb/2017:15:23:37 +0530] "POST /ITAFWebApplication/itafexecute.do HTTP/1.1" 200 53670
0:0:0:0:0:0:0:1 - - [16/Feb/2017:15:24:18 +0530] "GET /ITAFWebApplication/css/bootstrap.min.css HTTP/1.1" 200 121260
0:0:0:0:0:0:0:1 - - [16/Feb/2017:15:24:18 +0530] "GET /ITAFWebApplication/css/demo3/try.css HTTP/1.1" 200 4871
0:0:0:0:0:0:0:1 - - [16/Feb/2017:15:24:18 +0530] "POST /ITAFWebApplication/itafpack.do HTTP/1.1" 200 64545
0:0:0:0:0:0:0:1 - - [16/Feb/2017:15:24:18 +0530] "GET /ITAFWebApplication/files/advancedReport.html?projectname=Allstate&actionType=execute HTTP/1.1" 200 14282
0:0:0:0:0:0:0:1 - - [16/Feb/2017:15:24:21 +0530] "POST /ITAFWebApplication/itafpack.do HTTP/1.1" 200 66427
0:0:0:0:0:0:0:1 - - [16/Feb/2017:15:24:21 +0530] "GET /ITAFWebApplication/files/advancedReport.html?projectname=Allstate&actionType=execute HTTP/1.1" 200 14282
0:0:0:0:0:0:0:1 - - [16/Feb/2017:15:24:23 +0530] "GET /ITAFWebApplication/css/demo3/try.css HTTP/1.1" 200 4871
0:0:0:0:0:0:0:1 - - [16/Feb/2017:15:24:23 +0530] "GET /ITAFWebApplication/css/bootstrap.min.css HTTP/1.1" 200 121260
0:0:0:0:0:0:0:1 - - [16/Feb/2017:15:24:23 +0530] "POST /ITAFWebApplication/itafpack.do HTTP/1.1" 200 69908
0:0:0:0:0:0:0:1 - - [16/Feb/2017:15:24:23 +0530] "GET /ITAFWebApplication/files/advancedReport.html?projectname=Allstate&actionType=execute HTTP/1.1" 200 14282
0:0:0:0:0:0:0:1 - - [16/Feb/2017:15:24:35 +0530] "POST /ITAFWebApplication/itafexecute.do HTTP/1.1" 200 19779
0:0:0:0:0:0:0:1 - - [16/Feb/2017:15:24:35 +0530] "GET /ITAFWebApplication/css/bootstrap.min.css HTTP/1.1" 200 121260
0:0:0:0:0:0:0:1 - - [16/Feb/2017:15:24:35 +0530] "GET /ITAFWebApplication/js/loader.js HTTP/1.1" 200 70294
0:0:0:0:0:0:0:1 - - [16/Feb/2017:15:24:35 +0530] "GET /ITAFWebApplication/js/demo3/bootstrap-progressbar.js HTTP/1.1" 200 6284
0:0:0:0:0:0:0:1 - - [16/Feb/2017:15:24:35 +0530] "GET /ITAFWebApplication/js/demo3/executetry.js HTTP/1.1" 200 1945
0:0:0:0:0:0:0:1 - - [16/Feb/2017:15:24:35 +0530] "GET /ITAFWebApplication/css/demo3/try.css HTTP/1.1" 200 4871
0:0:0:0:0:0:0:1 - - [16/Feb/2017:15:24:39 +0530] "GET /ITAFWebApplication/css/bootstrap.min.css HTTP/1.1" 200 121260
0:0:0:0:0:0:0:1 - - [16/Feb/2017:15:24:39 +0530] "GET /ITAFWebApplication/css/demo3/try.css HTTP/1.1" 200 4871
0:0:0:0:0:0:0:1 - - [16/Feb/2017:15:24:39 +0530] "POST /ITAFWebApplication/itafexecute.do HTTP/1.1" 200 53670
0:0:0:0:0:0:0:1 - - [16/Feb/2017:15:24:53 +0530] "POST /ITAFWebApplication/itafpack.do HTTP/1.1" 200 64545
0:0:0:0:0:0:0:1 - - [16/Feb/2017:15:24:53 +0530] "GET /ITAFWebApplication/css/bootstrap.min.css HTTP/1.1" 200 121260
0:0:0:0:0:0:0:1 - - [16/Feb/2017:15:24:53 +0530] "GET /ITAFWebApplication/css/demo3/try.css HTTP/1.1" 200 4871
0:0:0:0:0:0:0:1 - - [16/Feb/2017:15:24:53 +0530] "GET /ITAFWebApplication/files/advancedReport.html?projectname=Allstate&actionType=execute HTTP/1.1" 200 14282
0:0:0:0:0:0:0:1 - - [16/Feb/2017:17:21:05 +0530] "POST /ITAFWebApplication/itafexecute.do HTTP/1.1" 302 -
0:0:0:0:0:0:0:1 - - [16/Feb/2017:17:21:05 +0530] "GET /ITAFWebApplication/login.jsp HTTP/1.1" 200 27677
0:0:0:0:0:0:0:1 - - [16/Feb/2017:17:21:06 +0530] "GET /ITAFWebApplication/css/login.css HTTP/1.1" 200 1077
0:0:0:0:0:0:0:1 - - [16/Feb/2017:17:21:06 +0530] "GET /ITAFWebApplication/css/bootstrap.min.css HTTP/1.1" 200 121260
0:0:0:0:0:0:0:1 - - [16/Feb/2017:17:21:16 +0530] "GET /ITAFWebApplication/css/bootstrap.min.css HTTP/1.1" 200 121260
0:0:0:0:0:0:0:1 - - [16/Feb/2017:17:21:16 +0530] "GET /ITAFWebApplication/css/demo3/try.css HTTP/1.1" 200 4871
0:0:0:0:0:0:0:1 - - [16/Feb/2017:17:21:16 +0530] "POST /ITAFWebApplication/login.do HTTP/1.1" 200 53664
0:0:0:0:0:0:0:1 - - [16/Feb/2017:17:21:16 +0530] "GET /ITAFWebApplication/css/demo3/responsiveTables.css HTTP/1.1" 200 182
0:0:0:0:0:0:0:1 - - [16/Feb/2017:17:21:16 +0530] "GET /ITAFWebApplication/js/jquery.min.js HTTP/1.1" 200 84380
0:0:0:0:0:0:0:1 - - [16/Feb/2017:17:21:17 +0530] "GET /ITAFWebApplication/js/bootstrap.min.js HTTP/1.1" 200 36868
0:0:0:0:0:0:0:1 - - [16/Feb/2017:17:21:17 +0530] "GET /ITAFWebApplication/js/demo3/searchTable.js HTTP/1.1" 200 1022
0:0:0:0:0:0:0:1 - - [16/Feb/2017:17:21:17 +0530] "GET /ITAFWebApplication/js/demo3/RowSorter.js HTTP/1.1" 200 8102
0:0:0:0:0:0:0:1 - - [16/Feb/2017:17:21:17 +0530] "GET /ITAFWebApplication/js/demo3/try.js HTTP/1.1" 200 45488
0:0:0:0:0:0:0:1 - - [16/Feb/2017:17:21:17 +0530] "GET /ITAFWebApplication/js/objectCap.js HTTP/1.1" 200 11106
0:0:0:0:0:0:0:1 - - [16/Feb/2017:17:21:17 +0530] "GET /ITAFWebApplication/js/demo3/bootstrap-filestyle.min.js HTTP/1.1" 200 7190
0:0:0:0:0:0:0:1 - - [16/Feb/2017:17:21:17 +0530] "GET /ITAFWebApplication/js/demo3/responsiveTables.js HTTP/1.1" 200 1886
0:0:0:0:0:0:0:1 - - [16/Feb/2017:17:21:18 +0530] "POST /ITAFWebApplication/itafexecute.do HTTP/1.1" 200 19779
0:0:0:0:0:0:0:1 - - [16/Feb/2017:17:21:18 +0530] "GET /ITAFWebApplication/css/demo3/try.css HTTP/1.1" 200 4871
0:0:0:0:0:0:0:1 - - [16/Feb/2017:17:21:18 +0530] "GET /ITAFWebApplication/js/loader.js HTTP/1.1" 200 70294
0:0:0:0:0:0:0:1 - - [16/Feb/2017:17:21:18 +0530] "GET /ITAFWebApplication/js/demo3/bootstrap-progressbar.js HTTP/1.1" 200 6284
0:0:0:0:0:0:0:1 - - [16/Feb/2017:17:21:18 +0530] "GET /ITAFWebApplication/js/demo3/executetry.js HTTP/1.1" 200 1945
0:0:0:0:0:0:0:1 - - [16/Feb/2017:17:21:18 +0530] "GET /ITAFWebApplication/css/bootstrap.min.css HTTP/1.1" 200 121260
0:0:0:0:0:0:0:1 - - [16/Feb/2017:17:23:23 +0530] "POST /ITAFWebApplication/itafexecute.do HTTP/1.1" 200 1139
0:0:0:0:0:0:0:1 - - [16/Feb/2017:17:23:35 +0530] "POST /ITAFWebApplication/itafexecute.do HTTP/1.1" 200 240
0:0:0:0:0:0:0:1 - - [16/Feb/2017:17:23:35 +0530] "GET /ITAFWebApplication/files/advancedReport.html?projectname=SafeAuto&actionType=execute HTTP/1.1" 200 14269
0:0:0:0:0:0:0:1 - - [16/Feb/2017:17:23:44 +0530] "POST /ITAFWebApplication/itafexecute.do HTTP/1.1" 200 53664
0:0:0:0:0:0:0:1 - - [16/Feb/2017:17:23:44 +0530] "GET /ITAFWebApplication/css/bootstrap.min.css HTTP/1.1" 200 121260
0:0:0:0:0:0:0:1 - - [16/Feb/2017:17:23:44 +0530] "GET /ITAFWebApplication/css/demo3/try.css HTTP/1.1" 200 4871
0:0:0:0:0:0:0:1 - - [16/Feb/2017:17:23:44 +0530] "GET /ITAFWebApplication/js/demo3/bootstrap-filestyle.min.js HTTP/1.1" 200 7190
0:0:0:0:0:0:0:1 - - [16/Feb/2017:17:23:44 +0530] "GET /ITAFWebApplication/js/demo3/RowSorter.js HTTP/1.1" 200 8102
0:0:0:0:0:0:0:1 - - [16/Feb/2017:17:23:44 +0530] "GET /ITAFWebApplication/js/demo3/responsiveTables.js HTTP/1.1" 200 1886
0:0:0:0:0:0:0:1 - - [16/Feb/2017:17:23:44 +0530] "GET /ITAFWebApplication/css/demo3/responsiveTables.css HTTP/1.1" 200 182
0:0:0:0:0:0:0:1 - - [16/Feb/2017:17:23:44 +0530] "GET /ITAFWebApplication/js/demo3/searchTable.js HTTP/1.1" 200 1022
0:0:0:0:0:0:0:1 - - [16/Feb/2017:17:23:44 +0530] "GET /ITAFWebApplication/js/demo3/try.js HTTP/1.1" 200 45488
0:0:0:0:0:0:0:1 - - [16/Feb/2017:17:23:44 +0530] "GET /ITAFWebApplication/js/objectCap.js HTTP/1.1" 200 11106
