0:0:0:0:0:0:0:1 - - [07/Dec/2016:18:12:00 +0530] "GET /favicon.ico HTTP/1.1" 200 21630
0:0:0:0:0:0:0:1 - - [07/Dec/2016:18:12:00 +0530] "GET /ITAFWebApplication/login.jsp HTTP/1.1" 200 27677
0:0:0:0:0:0:0:1 - - [07/Dec/2016:18:12:00 +0530] "GET /ITAFWebApplication/css/login.css HTTP/1.1" 200 1077
0:0:0:0:0:0:0:1 - - [07/Dec/2016:18:12:00 +0530] "GET /ITAFWebApplication/css/bootstrap.min.css HTTP/1.1" 200 121260
0:0:0:0:0:0:0:1 - - [07/Dec/2016:18:12:00 +0530] "GET /ITAFWebApplication/js/login.js HTTP/1.1" 200 6947
0:0:0:0:0:0:0:1 - - [07/Dec/2016:18:12:00 +0530] "GET /ITAFWebApplication/fonts/glyphicons-halflings-regular.woff2 HTTP/1.1" 200 18028
0:0:0:0:0:0:0:1 - - [07/Dec/2016:18:12:00 +0530] "GET /ITAFWebApplication/Images/iTAF_logo.png HTTP/1.1" 200 33472
0:0:0:0:0:0:0:1 - - [07/Dec/2016:18:12:06 +0530] "POST /ITAFWebApplication/login.do HTTP/1.1" 200 27738
0:0:0:0:0:0:0:1 - - [07/Dec/2016:18:12:11 +0530] "GET /ITAFWebApplication/css/demo3/try.css HTTP/1.1" 200 4871
0:0:0:0:0:0:0:1 - - [07/Dec/2016:18:12:12 +0530] "POST /ITAFWebApplication/login.do HTTP/1.1" 200 48917
0:0:0:0:0:0:0:1 - - [07/Dec/2016:18:12:12 +0530] "GET /ITAFWebApplication/css/demo3/responsiveTables.css HTTP/1.1" 200 182
0:0:0:0:0:0:0:1 - - [07/Dec/2016:18:12:12 +0530] "GET /ITAFWebApplication/js/jquery.min.js HTTP/1.1" 200 84380
0:0:0:0:0:0:0:1 - - [07/Dec/2016:18:12:12 +0530] "GET /ITAFWebApplication/js/bootstrap.min.js HTTP/1.1" 200 36868
0:0:0:0:0:0:0:1 - - [07/Dec/2016:18:12:12 +0530] "GET /ITAFWebApplication/js/demo3/bootstrap-filestyle.min.js HTTP/1.1" 200 7190
0:0:0:0:0:0:0:1 - - [07/Dec/2016:18:12:12 +0530] "GET /ITAFWebApplication/js/demo3/searchTable.js HTTP/1.1" 200 1022
0:0:0:0:0:0:0:1 - - [07/Dec/2016:18:12:12 +0530] "GET /ITAFWebApplication/js/demo3/responsiveTables.js HTTP/1.1" 200 1886
0:0:0:0:0:0:0:1 - - [07/Dec/2016:18:12:12 +0530] "GET /ITAFWebApplication/js/demo3/try.js HTTP/1.1" 200 45488
0:0:0:0:0:0:0:1 - - [07/Dec/2016:18:12:12 +0530] "GET /ITAFWebApplication/js/objectCap.js HTTP/1.1" 200 11106
0:0:0:0:0:0:0:1 - - [07/Dec/2016:18:12:12 +0530] "GET /ITAFWebApplication/js/demo3/RowSorter.js HTTP/1.1" 200 8102
0:0:0:0:0:0:0:1 - - [07/Dec/2016:18:12:14 +0530] "POST /ITAFWebApplication/itafexecute.do HTTP/1.1" 200 19385
0:0:0:0:0:0:0:1 - - [07/Dec/2016:18:12:14 +0530] "GET /ITAFWebApplication/js/loader.js HTTP/1.1" 200 70294
0:0:0:0:0:0:0:1 - - [07/Dec/2016:18:12:14 +0530] "GET /ITAFWebApplication/js/demo3/bootstrap-progressbar.js HTTP/1.1" 200 6284
0:0:0:0:0:0:0:1 - - [07/Dec/2016:18:12:14 +0530] "GET /ITAFWebApplication/js/demo3/executetry.js HTTP/1.1" 200 1945
0:0:0:0:0:0:0:1 - - [07/Dec/2016:18:16:00 +0530] "POST /ITAFWebApplication/itafexecute.do HTTP/1.1" 200 860
0:0:0:0:0:0:0:1 - - [07/Dec/2016:18:27:20 +0530] "POST /ITAFWebApplication/itafexecute.do HTTP/1.1" 200 48917
0:0:0:0:0:0:0:1 - - [07/Dec/2016:18:27:21 +0530] "POST /ITAFWebApplication/itafexecute.do HTTP/1.1" 200 19385
0:0:0:0:0:0:0:1 - - [07/Dec/2016:18:32:57 +0530] "POST /ITAFWebApplication/itafexecute.do HTTP/1.1" 200 2
0:0:0:0:0:0:0:1 - - [07/Dec/2016:18:45:49 +0530] "POST /ITAFWebApplication/itafexecute.do HTTP/1.1" 200 19385
0:0:0:0:0:0:0:1 - - [07/Dec/2016:18:45:51 +0530] "GET /favicon.ico HTTP/1.1" 200 21630
0:0:0:0:0:0:0:1 - - [07/Dec/2016:18:45:55 +0530] "POST /ITAFWebApplication/itafexecute.do HTTP/1.1" 200 19385
0:0:0:0:0:0:0:1 - - [07/Dec/2016:18:46:25 +0530] "POST /ITAFWebApplication/itafexecute.do HTTP/1.1" 200 2
0:0:0:0:0:0:0:1 - - [07/Dec/2016:18:46:28 +0530] "POST /ITAFWebApplication/itafexecute.do HTTP/1.1" 500 9398
0:0:0:0:0:0:0:1 - - [07/Dec/2016:18:47:43 +0530] "POST /ITAFWebApplication/itafexecute.do HTTP/1.1" 200 2
0:0:0:0:0:0:0:1 - - [07/Dec/2016:18:53:19 +0530] "POST /ITAFWebApplication/itafexecute.do HTTP/1.1" 200 2
0:0:0:0:0:0:0:1 - - [07/Dec/2016:19:00:05 +0530] "POST /ITAFWebApplication/itafexecute.do HTTP/1.1" 200 48917
0:0:0:0:0:0:0:1 - - [07/Dec/2016:19:00:11 +0530] "POST /ITAFWebApplication/itafexecute.do HTTP/1.1" 200 19385
0:0:0:0:0:0:0:1 - - [07/Dec/2016:19:02:03 +0530] "POST /ITAFWebApplication/itafexecute.do HTTP/1.1" 200 2
0:0:0:0:0:0:0:1 - - [07/Dec/2016:19:02:37 +0530] "POST /ITAFWebApplication/itafexecute.do HTTP/1.1" 200 19385
0:0:0:0:0:0:0:1 - - [07/Dec/2016:19:08:01 +0530] "POST /ITAFWebApplication/itafexecute.do HTTP/1.1" 200 2
0:0:0:0:0:0:0:1 - - [07/Dec/2016:19:15:02 +0530] "POST /ITAFWebApplication/itafexecute.do HTTP/1.1" 200 48917
0:0:0:0:0:0:0:1 - - [07/Dec/2016:19:15:05 +0530] "POST /ITAFWebApplication/itafpack.do HTTP/1.1" 200 68489
0:0:0:0:0:0:0:1 - - [07/Dec/2016:19:15:05 +0530] "GET /ITAFWebApplication/files/advancedReport.html?projectname=QBE&actionType=execute HTTP/1.1" 200 17416
0:0:0:0:0:0:0:1 - - [07/Dec/2016:19:15:17 +0530] "POST /ITAFWebApplication/itafexecute.do HTTP/1.1" 200 19385
0:0:0:0:0:0:0:1 - - [07/Dec/2016:19:21:03 +0530] "POST /ITAFWebApplication/itafexecute.do HTTP/1.1" 200 2
0:0:0:0:0:0:0:1 - - [07/Dec/2016:20:12:38 +0530] "POST /ITAFWebApplication/itafexecute.do HTTP/1.1" 302 -
0:0:0:0:0:0:0:1 - - [07/Dec/2016:20:12:38 +0530] "GET /ITAFWebApplication/login.jsp HTTP/1.1" 200 27677
0:0:0:0:0:0:0:1 - - [07/Dec/2016:20:14:10 +0530] "POST /ITAFWebApplication/itafexecute.do HTTP/1.1" 200 19385
0:0:0:0:0:0:0:1 - - [07/Dec/2016:20:14:11 +0530] "GET /favicon.ico HTTP/1.1" 200 21630
0:0:0:0:0:0:0:1 - - [07/Dec/2016:20:14:16 +0530] "GET /favicon.ico HTTP/1.1" 200 21630
0:0:0:0:0:0:0:1 - - [07/Dec/2016:20:14:17 +0530] "GET /favicon.ico HTTP/1.1" 200 21630
0:0:0:0:0:0:0:1 - - [07/Dec/2016:20:14:14 +0530] "POST /ITAFWebApplication/logout.do HTTP/1.1" 302 -
0:0:0:0:0:0:0:1 - - [07/Dec/2016:20:14:14 +0530] "GET /ITAFWebApplication/login.jsp HTTP/1.1" 200 27677
0:0:0:0:0:0:0:1 - - [07/Dec/2016:20:14:16 +0530] "GET /ITAFWebApplication/login.jsp HTTP/1.1" 200 27677
0:0:0:0:0:0:0:1 - - [07/Dec/2016:20:14:16 +0530] "GET /ITAFWebApplication/login.jsp HTTP/1.1" 200 27677
0:0:0:0:0:0:0:1 - - [07/Dec/2016:20:14:29 +0530] "POST /ITAFWebApplication/login.do HTTP/1.1" 200 48917
0:0:0:0:0:0:0:1 - - [07/Dec/2016:20:14:31 +0530] "POST /ITAFWebApplication/itafexecute.do HTTP/1.1" 200 19385
0:0:0:0:0:0:0:1 - - [07/Dec/2016:20:21:46 +0530] "POST /ITAFWebApplication/itafexecute.do HTTP/1.1" 200 2
0:0:0:0:0:0:0:1 - - [07/Dec/2016:20:27:14 +0530] "GET /ITAFWebApplication/login.jsp HTTP/1.1" 200 27677
0:0:0:0:0:0:0:1 - - [07/Dec/2016:20:27:14 +0530] "GET /ITAFWebApplication/css/login.css HTTP/1.1" 200 1077
0:0:0:0:0:0:0:1 - - [07/Dec/2016:20:27:14 +0530] "GET /ITAFWebApplication/css/bootstrap.min.css HTTP/1.1" 200 121260
0:0:0:0:0:0:0:1 - - [07/Dec/2016:20:27:14 +0530] "GET /ITAFWebApplication/Images/iTAF_logo.png HTTP/1.1" 200 33472
0:0:0:0:0:0:0:1 - - [07/Dec/2016:20:27:14 +0530] "GET /ITAFWebApplication/js/login.js HTTP/1.1" 200 6947
0:0:0:0:0:0:0:1 - - [07/Dec/2016:20:27:14 +0530] "GET /ITAFWebApplication/fonts/glyphicons-halflings-regular.woff2 HTTP/1.1" 200 18028
0:0:0:0:0:0:0:1 - - [07/Dec/2016:20:27:19 +0530] "POST /ITAFWebApplication/login.do HTTP/1.1" 200 48917
0:0:0:0:0:0:0:1 - - [07/Dec/2016:20:27:19 +0530] "GET /ITAFWebApplication/css/demo3/try.css HTTP/1.1" 200 4871
0:0:0:0:0:0:0:1 - - [07/Dec/2016:20:27:19 +0530] "GET /ITAFWebApplication/js/jquery.min.js HTTP/1.1" 200 84380
0:0:0:0:0:0:0:1 - - [07/Dec/2016:20:27:19 +0530] "GET /ITAFWebApplication/css/demo3/responsiveTables.css HTTP/1.1" 200 182
0:0:0:0:0:0:0:1 - - [07/Dec/2016:20:27:19 +0530] "GET /ITAFWebApplication/js/objectCap.js HTTP/1.1" 200 11106
0:0:0:0:0:0:0:1 - - [07/Dec/2016:20:27:19 +0530] "GET /ITAFWebApplication/js/demo3/bootstrap-filestyle.min.js HTTP/1.1" 200 7190
0:0:0:0:0:0:0:1 - - [07/Dec/2016:20:27:19 +0530] "GET /ITAFWebApplication/js/demo3/searchTable.js HTTP/1.1" 200 1022
0:0:0:0:0:0:0:1 - - [07/Dec/2016:20:27:19 +0530] "GET /ITAFWebApplication/js/bootstrap.min.js HTTP/1.1" 200 36868
0:0:0:0:0:0:0:1 - - [07/Dec/2016:20:27:19 +0530] "GET /ITAFWebApplication/js/demo3/try.js HTTP/1.1" 200 45488
0:0:0:0:0:0:0:1 - - [07/Dec/2016:20:27:19 +0530] "GET /ITAFWebApplication/js/demo3/responsiveTables.js HTTP/1.1" 200 1886
0:0:0:0:0:0:0:1 - - [07/Dec/2016:20:27:19 +0530] "GET /ITAFWebApplication/js/demo3/RowSorter.js HTTP/1.1" 200 8102
0:0:0:0:0:0:0:1 - - [07/Dec/2016:20:27:22 +0530] "POST /ITAFWebApplication/itafexecute.do HTTP/1.1" 200 19385
0:0:0:0:0:0:0:1 - - [07/Dec/2016:20:27:22 +0530] "GET /ITAFWebApplication/js/loader.js HTTP/1.1" 200 70294
0:0:0:0:0:0:0:1 - - [07/Dec/2016:20:27:22 +0530] "GET /ITAFWebApplication/js/demo3/bootstrap-progressbar.js HTTP/1.1" 200 6284
0:0:0:0:0:0:0:1 - - [07/Dec/2016:20:27:22 +0530] "GET /ITAFWebApplication/js/demo3/executetry.js HTTP/1.1" 200 1945
0:0:0:0:0:0:0:1 - - [07/Dec/2016:20:37:16 +0530] "GET /favicon.ico HTTP/1.1" 200 21630
0:0:0:0:0:0:0:1 - - [07/Dec/2016:20:37:15 +0530] "POST /ITAFWebApplication/itafexecute.do HTTP/1.1" 200 19385
0:0:0:0:0:0:0:1 - - [07/Dec/2016:20:42:19 +0530] "GET /ITAFWebApplication/login.jsp HTTP/1.1" 200 27677
0:0:0:0:0:0:0:1 - - [07/Dec/2016:20:42:19 +0530] "GET /ITAFWebApplication/css/bootstrap.min.css HTTP/1.1" 200 121260
0:0:0:0:0:0:0:1 - - [07/Dec/2016:20:42:19 +0530] "GET /ITAFWebApplication/css/login.css HTTP/1.1" 200 1077
0:0:0:0:0:0:0:1 - - [07/Dec/2016:20:42:19 +0530] "GET /ITAFWebApplication/js/login.js HTTP/1.1" 200 6947
0:0:0:0:0:0:0:1 - - [07/Dec/2016:20:42:19 +0530] "GET /ITAFWebApplication/Images/iTAF_logo.png HTTP/1.1" 200 33472
0:0:0:0:0:0:0:1 - - [07/Dec/2016:20:42:19 +0530] "GET /ITAFWebApplication/fonts/glyphicons-halflings-regular.woff2 HTTP/1.1" 200 18028
0:0:0:0:0:0:0:1 - - [07/Dec/2016:20:42:31 +0530] "GET /ITAFWebApplication/css/demo3/try.css HTTP/1.1" 200 4871
0:0:0:0:0:0:0:1 - - [07/Dec/2016:20:42:31 +0530] "POST /ITAFWebApplication/login.do HTTP/1.1" 200 48917
0:0:0:0:0:0:0:1 - - [07/Dec/2016:20:42:31 +0530] "GET /ITAFWebApplication/css/demo3/responsiveTables.css HTTP/1.1" 200 182
0:0:0:0:0:0:0:1 - - [07/Dec/2016:20:42:31 +0530] "GET /ITAFWebApplication/js/jquery.min.js HTTP/1.1" 200 84380
0:0:0:0:0:0:0:1 - - [07/Dec/2016:20:42:31 +0530] "GET /ITAFWebApplication/js/demo3/bootstrap-filestyle.min.js HTTP/1.1" 200 7190
0:0:0:0:0:0:0:1 - - [07/Dec/2016:20:42:31 +0530] "GET /ITAFWebApplication/js/demo3/responsiveTables.js HTTP/1.1" 200 1886
0:0:0:0:0:0:0:1 - - [07/Dec/2016:20:42:31 +0530] "GET /ITAFWebApplication/js/demo3/RowSorter.js HTTP/1.1" 200 8102
0:0:0:0:0:0:0:1 - - [07/Dec/2016:20:42:31 +0530] "GET /ITAFWebApplication/js/bootstrap.min.js HTTP/1.1" 200 36868
0:0:0:0:0:0:0:1 - - [07/Dec/2016:20:42:31 +0530] "GET /ITAFWebApplication/js/demo3/try.js HTTP/1.1" 200 45488
0:0:0:0:0:0:0:1 - - [07/Dec/2016:20:42:31 +0530] "GET /ITAFWebApplication/js/objectCap.js HTTP/1.1" 200 11106
0:0:0:0:0:0:0:1 - - [07/Dec/2016:20:42:31 +0530] "GET /ITAFWebApplication/js/demo3/searchTable.js HTTP/1.1" 200 1022
0:0:0:0:0:0:0:1 - - [07/Dec/2016:20:42:33 +0530] "POST /ITAFWebApplication/itafexecute.do HTTP/1.1" 200 19385
0:0:0:0:0:0:0:1 - - [07/Dec/2016:20:42:33 +0530] "GET /ITAFWebApplication/js/loader.js HTTP/1.1" 200 70294
0:0:0:0:0:0:0:1 - - [07/Dec/2016:20:42:33 +0530] "GET /ITAFWebApplication/js/demo3/executetry.js HTTP/1.1" 200 1945
0:0:0:0:0:0:0:1 - - [07/Dec/2016:20:42:33 +0530] "GET /ITAFWebApplication/js/demo3/bootstrap-progressbar.js HTTP/1.1" 200 6284
0:0:0:0:0:0:0:1 - - [07/Dec/2016:20:51:15 +0530] "POST /ITAFWebApplication/itafexecute.do HTTP/1.1" 200 2
0:0:0:0:0:0:0:1 - - [07/Dec/2016:20:57:54 +0530] "POST /ITAFWebApplication/itafexecute.do HTTP/1.1" 200 19385
0:0:0:0:0:0:0:1 - - [07/Dec/2016:21:00:38 +0530] "POST /ITAFWebApplication/itafexecute.do HTTP/1.1" 200 19385
0:0:0:0:0:0:0:1 - - [07/Dec/2016:21:00:39 +0530] "GET /favicon.ico HTTP/1.1" 200 21630
0:0:0:0:0:0:0:1 - - [07/Dec/2016:21:00:53 +0530] "POST /ITAFWebApplication/itafexecute.do HTTP/1.1" 200 2
0:0:0:0:0:0:0:1 - - [07/Dec/2016:21:03:32 +0530] "GET /favicon.ico HTTP/1.1" 200 21630
0:0:0:0:0:0:0:1 - - [07/Dec/2016:21:03:32 +0530] "POST /ITAFWebApplication/itafexecute.do HTTP/1.1" 200 19385
0:0:0:0:0:0:0:1 - - [07/Dec/2016:21:03:48 +0530] "POST /ITAFWebApplication/itafexecute.do HTTP/1.1" 200 2
0:0:0:0:0:0:0:1 - - [07/Dec/2016:21:13:15 +0530] "POST /ITAFWebApplication/itafexecute.do HTTP/1.1" 200 2
0:0:0:0:0:0:0:1 - - [07/Dec/2016:21:17:42 +0530] "POST /ITAFWebApplication/itafexecute.do HTTP/1.1" 200 19385
0:0:0:0:0:0:0:1 - - [07/Dec/2016:21:19:03 +0530] "GET /favicon.ico HTTP/1.1" 200 21630
0:0:0:0:0:0:0:1 - - [07/Dec/2016:21:19:03 +0530] "POST /ITAFWebApplication/itafexecute.do HTTP/1.1" 200 19385
0:0:0:0:0:0:0:1 - - [07/Dec/2016:21:27:45 +0530] "POST /ITAFWebApplication/itafexecute.do HTTP/1.1" 200 2
0:0:0:0:0:0:0:1 - - [07/Dec/2016:21:40:22 +0530] "POST /ITAFWebApplication/itafexecute.do HTTP/1.1" 200 19385
0:0:0:0:0:0:0:1 - - [07/Dec/2016:21:43:23 +0530] "POST /ITAFWebApplication/itafexecute.do HTTP/1.1" 200 2
0:0:0:0:0:0:0:1 - - [07/Dec/2016:21:43:26 +0530] "POST /ITAFWebApplication/itafexecute.do HTTP/1.1" 200 19385
0:0:0:0:0:0:0:1 - - [07/Dec/2016:21:54:23 +0530] "POST /ITAFWebApplication/itafexecute.do HTTP/1.1" 200 2
0:0:0:0:0:0:0:1 - - [07/Dec/2016:21:55:39 +0530] "POST /ITAFWebApplication/itafexecute.do HTTP/1.1" 200 19385
0:0:0:0:0:0:0:1 - - [07/Dec/2016:21:57:57 +0530] "GET /favicon.ico HTTP/1.1" 200 21630
0:0:0:0:0:0:0:1 - - [07/Dec/2016:21:57:57 +0530] "POST /ITAFWebApplication/itafexecute.do HTTP/1.1" 200 19385
0:0:0:0:0:0:0:1 - - [07/Dec/2016:21:58:50 +0530] "POST /ITAFWebApplication/itafexecute.do HTTP/1.1" 200 2
0:0:0:0:0:0:0:1 - - [07/Dec/2016:22:10:14 +0530] "POST /ITAFWebApplication/itafexecute.do HTTP/1.1" 200 2
0:0:0:0:0:0:0:1 - - [07/Dec/2016:22:13:36 +0530] "POST /ITAFWebApplication/itafexecute.do HTTP/1.1" 200 19385
0:0:0:0:0:0:0:1 - - [07/Dec/2016:22:23:25 +0530] "POST /ITAFWebApplication/itafexecute.do HTTP/1.1" 200 2
0:0:0:0:0:0:0:1 - - [07/Dec/2016:22:26:34 +0530] "POST /ITAFWebApplication/itafexecute.do HTTP/1.1" 200 48917
0:0:0:0:0:0:0:1 - - [07/Dec/2016:22:26:36 +0530] "POST /ITAFWebApplication/logout.do HTTP/1.1" 302 -
0:0:0:0:0:0:0:1 - - [07/Dec/2016:22:26:36 +0530] "GET /ITAFWebApplication/login.jsp HTTP/1.1" 200 27677
