0:0:0:0:0:0:0:1 - - [16/Nov/2016:01:00:49 -0600] "GET /ITAFWebApplication/login.jsp HTTP/1.1" 200 27677
0:0:0:0:0:0:0:1 - - [16/Nov/2016:01:00:49 -0600] "GET /favicon.ico HTTP/1.1" 200 21630
0:0:0:0:0:0:0:1 - - [16/Nov/2016:01:00:49 -0600] "GET /ITAFWebApplication/login.jsp HTTP/1.1" 200 27677
0:0:0:0:0:0:0:1 - - [16/Nov/2016:01:00:49 -0600] "GET /favicon.ico HTTP/1.1" 200 21630
0:0:0:0:0:0:0:1 - - [16/Nov/2016:01:00:50 -0600] "GET /ITAFWebApplication/login.jsp HTTP/1.1" 200 27677
0:0:0:0:0:0:0:1 - - [16/Nov/2016:01:00:50 -0600] "GET /favicon.ico HTTP/1.1" 200 21630
0:0:0:0:0:0:0:1 - - [16/Nov/2016:01:00:51 -0600] "GET /ITAFWebApplication/login.jsp HTTP/1.1" 200 27677
0:0:0:0:0:0:0:1 - - [16/Nov/2016:01:00:51 -0600] "GET /favicon.ico HTTP/1.1" 200 21630
0:0:0:0:0:0:0:1 - - [16/Nov/2016:01:00:51 -0600] "GET /ITAFWebApplication/login.jsp HTTP/1.1" 200 27677
0:0:0:0:0:0:0:1 - - [16/Nov/2016:01:00:52 -0600] "GET /favicon.ico HTTP/1.1" 200 21630
0:0:0:0:0:0:0:1 - - [16/Nov/2016:01:00:52 -0600] "GET /ITAFWebApplication/login.jsp HTTP/1.1" 200 27677
0:0:0:0:0:0:0:1 - - [16/Nov/2016:01:00:52 -0600] "GET /favicon.ico HTTP/1.1" 200 21630
0:0:0:0:0:0:0:1 - - [16/Nov/2016:01:00:52 -0600] "GET /ITAFWebApplication/login.jsp HTTP/1.1" 200 27677
0:0:0:0:0:0:0:1 - - [16/Nov/2016:01:00:53 -0600] "GET /favicon.ico HTTP/1.1" 200 21630
0:0:0:0:0:0:0:1 - - [16/Nov/2016:01:00:53 -0600] "GET /ITAFWebApplication/login.jsp HTTP/1.1" 200 27677
0:0:0:0:0:0:0:1 - - [16/Nov/2016:01:00:53 -0600] "GET /favicon.ico HTTP/1.1" 200 21630
0:0:0:0:0:0:0:1 - - [16/Nov/2016:01:00:53 -0600] "GET /ITAFWebApplication/login.jsp HTTP/1.1" 200 27677
0:0:0:0:0:0:0:1 - - [16/Nov/2016:01:00:53 -0600] "GET /favicon.ico HTTP/1.1" 200 21630
0:0:0:0:0:0:0:1 - - [16/Nov/2016:01:00:54 -0600] "GET /ITAFWebApplication/login.jsp HTTP/1.1" 200 27677
0:0:0:0:0:0:0:1 - - [16/Nov/2016:01:00:54 -0600] "GET /favicon.ico HTTP/1.1" 200 21630
0:0:0:0:0:0:0:1 - - [16/Nov/2016:01:00:54 -0600] "GET /ITAFWebApplication/login.jsp HTTP/1.1" 200 27677
0:0:0:0:0:0:0:1 - - [16/Nov/2016:01:00:54 -0600] "GET /favicon.ico HTTP/1.1" 200 21630
0:0:0:0:0:0:0:1 - - [16/Nov/2016:01:00:54 -0600] "GET /ITAFWebApplication/login.jsp HTTP/1.1" 200 27677
0:0:0:0:0:0:0:1 - - [16/Nov/2016:01:00:54 -0600] "GET /favicon.ico HTTP/1.1" 200 21630
0:0:0:0:0:0:0:1 - - [16/Nov/2016:01:00:55 -0600] "GET /ITAFWebApplication/login.jsp HTTP/1.1" 200 27677
0:0:0:0:0:0:0:1 - - [16/Nov/2016:01:00:55 -0600] "GET /favicon.ico HTTP/1.1" 200 21630
0:0:0:0:0:0:0:1 - - [16/Nov/2016:01:00:55 -0600] "GET /ITAFWebApplication/login.jsp HTTP/1.1" 200 27677
0:0:0:0:0:0:0:1 - - [16/Nov/2016:01:00:55 -0600] "GET /favicon.ico HTTP/1.1" 200 21630
0:0:0:0:0:0:0:1 - - [16/Nov/2016:01:00:56 -0600] "GET /ITAFWebApplication/login.jsp HTTP/1.1" 200 27677
0:0:0:0:0:0:0:1 - - [16/Nov/2016:01:00:56 -0600] "GET /favicon.ico HTTP/1.1" 200 21630
0:0:0:0:0:0:0:1 - - [16/Nov/2016:01:00:59 -0600] "GET /ITAFWebApplication/login.jsp HTTP/1.1" 200 27677
0:0:0:0:0:0:0:1 - - [16/Nov/2016:01:00:59 -0600] "GET /favicon.ico HTTP/1.1" 200 21630
0:0:0:0:0:0:0:1 - - [16/Nov/2016:01:01:00 -0600] "GET /ITAFWebApplication/login.jsp HTTP/1.1" 200 27677
0:0:0:0:0:0:0:1 - - [16/Nov/2016:01:01:00 -0600] "GET /favicon.ico HTTP/1.1" 200 21630
0:0:0:0:0:0:0:1 - - [16/Nov/2016:01:01:01 -0600] "GET /ITAFWebApplication/login.jsp HTTP/1.1" 200 27677
0:0:0:0:0:0:0:1 - - [16/Nov/2016:01:01:01 -0600] "GET /favicon.ico HTTP/1.1" 200 21630
0:0:0:0:0:0:0:1 - - [16/Nov/2016:01:01:02 -0600] "GET /ITAFWebApplication/login.jsp HTTP/1.1" 200 27677
0:0:0:0:0:0:0:1 - - [16/Nov/2016:01:01:02 -0600] "GET /favicon.ico HTTP/1.1" 200 21630
0:0:0:0:0:0:0:1 - - [16/Nov/2016:01:01:03 -0600] "GET /ITAFWebApplication/login.jsp HTTP/1.1" 200 27677
0:0:0:0:0:0:0:1 - - [16/Nov/2016:01:01:03 -0600] "GET /favicon.ico HTTP/1.1" 200 21630
0:0:0:0:0:0:0:1 - - [16/Nov/2016:01:01:07 -0600] "GET /ITAFWebApplication/login.jsp HTTP/1.1" 200 27677
0:0:0:0:0:0:0:1 - - [16/Nov/2016:01:01:07 -0600] "GET /favicon.ico HTTP/1.1" 200 21630
0:0:0:0:0:0:0:1 - - [16/Nov/2016:01:01:07 -0600] "GET /ITAFWebApplication/login.jsp HTTP/1.1" 200 27677
0:0:0:0:0:0:0:1 - - [16/Nov/2016:01:01:08 -0600] "GET /favicon.ico HTTP/1.1" 200 21630
0:0:0:0:0:0:0:1 - - [16/Nov/2016:01:01:08 -0600] "GET /ITAFWebApplication/login.jsp HTTP/1.1" 200 27677
0:0:0:0:0:0:0:1 - - [16/Nov/2016:01:01:08 -0600] "GET /favicon.ico HTTP/1.1" 200 21630
0:0:0:0:0:0:0:1 - - [16/Nov/2016:01:01:09 -0600] "GET /ITAFWebApplication/login.jsp HTTP/1.1" 200 27677
0:0:0:0:0:0:0:1 - - [16/Nov/2016:01:01:10 -0600] "GET /favicon.ico HTTP/1.1" 200 21630
0:0:0:0:0:0:0:1 - - [16/Nov/2016:01:01:11 -0600] "GET /ITAFWebApplication/login.jsp HTTP/1.1" 200 27677
0:0:0:0:0:0:0:1 - - [16/Nov/2016:01:01:11 -0600] "GET /favicon.ico HTTP/1.1" 200 21630
0:0:0:0:0:0:0:1 - - [16/Nov/2016:01:01:11 -0600] "GET /ITAFWebApplication/login.jsp HTTP/1.1" 200 27677
0:0:0:0:0:0:0:1 - - [16/Nov/2016:01:01:11 -0600] "GET /favicon.ico HTTP/1.1" 200 21630
0:0:0:0:0:0:0:1 - - [16/Nov/2016:01:01:28 -0600] "GET /ITAFWebApplication/login.jsp HTTP/1.1" 200 27677
0:0:0:0:0:0:0:1 - - [16/Nov/2016:01:01:28 -0600] "GET /favicon.ico HTTP/1.1" 200 21630
0:0:0:0:0:0:0:1 - - [16/Nov/2016:01:01:30 -0600] "GET /ITAFWebApplication/login.jsp HTTP/1.1" 200 27677
0:0:0:0:0:0:0:1 - - [16/Nov/2016:01:01:30 -0600] "GET /favicon.ico HTTP/1.1" 200 21630
0:0:0:0:0:0:0:1 - - [16/Nov/2016:01:01:32 -0600] "GET /ITAFWebApplication/login.jsp HTTP/1.1" 200 27677
0:0:0:0:0:0:0:1 - - [16/Nov/2016:01:01:33 -0600] "GET /favicon.ico HTTP/1.1" 200 21630
0:0:0:0:0:0:0:1 - - [16/Nov/2016:01:01:33 -0600] "GET /ITAFWebApplication/login.jsp HTTP/1.1" 200 27677
0:0:0:0:0:0:0:1 - - [16/Nov/2016:01:01:33 -0600] "GET /favicon.ico HTTP/1.1" 200 21630
0:0:0:0:0:0:0:1 - - [16/Nov/2016:01:01:34 -0600] "GET /ITAFWebApplication/login.jsp HTTP/1.1" 200 27677
0:0:0:0:0:0:0:1 - - [16/Nov/2016:01:01:34 -0600] "GET /favicon.ico HTTP/1.1" 200 21630
0:0:0:0:0:0:0:1 - - [16/Nov/2016:01:01:35 -0600] "GET /ITAFWebApplication/login.jsp HTTP/1.1" 200 27677
0:0:0:0:0:0:0:1 - - [16/Nov/2016:01:01:35 -0600] "GET /favicon.ico HTTP/1.1" 200 21630
0:0:0:0:0:0:0:1 - - [16/Nov/2016:09:02:45 -0600] "GET /ITAFWebApplication/login.jsp HTTP/1.1" 200 27677
0:0:0:0:0:0:0:1 - - [16/Nov/2016:09:02:45 -0600] "GET /favicon.ico HTTP/1.1" 200 21630
0:0:0:0:0:0:0:1 - - [16/Nov/2016:09:02:53 -0600] "GET /ITAFWebApplication/css/demo3/try.css HTTP/1.1" 200 4871
0:0:0:0:0:0:0:1 - - [16/Nov/2016:09:02:54 -0600] "POST /ITAFWebApplication/login.do HTTP/1.1" 200 51586
0:0:0:0:0:0:0:1 - - [16/Nov/2016:09:02:54 -0600] "GET /ITAFWebApplication/js/jquery.min.js HTTP/1.1" 200 84380
0:0:0:0:0:0:0:1 - - [16/Nov/2016:09:02:54 -0600] "GET /ITAFWebApplication/css/demo3/responsiveTables.css HTTP/1.1" 200 182
0:0:0:0:0:0:0:1 - - [16/Nov/2016:09:02:54 -0600] "GET /ITAFWebApplication/js/demo3/try.js HTTP/1.1" 200 45488
0:0:0:0:0:0:0:1 - - [16/Nov/2016:09:02:54 -0600] "GET /ITAFWebApplication/js/demo3/responsiveTables.js HTTP/1.1" 200 1886
0:0:0:0:0:0:0:1 - - [16/Nov/2016:09:02:54 -0600] "GET /ITAFWebApplication/js/objectCap.js HTTP/1.1" 200 11106
0:0:0:0:0:0:0:1 - - [16/Nov/2016:09:02:54 -0600] "GET /ITAFWebApplication/js/demo3/searchTable.js HTTP/1.1" 200 1022
0:0:0:0:0:0:0:1 - - [16/Nov/2016:09:02:54 -0600] "GET /ITAFWebApplication/js/demo3/bootstrap-filestyle.min.js HTTP/1.1" 200 7190
0:0:0:0:0:0:0:1 - - [16/Nov/2016:09:02:54 -0600] "GET /ITAFWebApplication/js/bootstrap.min.js HTTP/1.1" 200 36868
0:0:0:0:0:0:0:1 - - [16/Nov/2016:09:02:54 -0600] "GET /ITAFWebApplication/js/demo3/RowSorter.js HTTP/1.1" 200 8102
0:0:0:0:0:0:0:1 - - [16/Nov/2016:09:03:15 -0600] "POST /ITAFWebApplication/itafpack.do HTTP/1.1" 200 50424
0:0:0:0:0:0:0:1 - - [16/Nov/2016:09:03:28 -0600] "POST /ITAFWebApplication/itafpack.do HTTP/1.1" 200 70064
0:0:0:0:0:0:0:1 - - [16/Nov/2016:09:03:28 -0600] "GET /ITAFWebApplication/files/advancedReport.html?projectname=ACCC_OPAS&actionType=execute HTTP/1.1" 200 23710
0:0:0:0:0:0:0:1 - - [16/Nov/2016:09:04:15 -0600] "POST /ITAFWebApplication/itafpack.do HTTP/1.1" 200 70067
0:0:0:0:0:0:0:1 - - [16/Nov/2016:09:04:15 -0600] "GET /ITAFWebApplication/files/advancedReport.html?projectname=ACCC_OPAS&actionType=execute HTTP/1.1" 200 23710
0:0:0:0:0:0:0:1 - - [16/Nov/2016:09:08:09 -0600] "POST /ITAFWebApplication/itafpack.do HTTP/1.1" 200 72070
0:0:0:0:0:0:0:1 - - [16/Nov/2016:09:08:09 -0600] "GET /ITAFWebApplication/files/advancedReport.html?projectname=ACCC_OPAS&actionType=execute HTTP/1.1" 200 23710
0:0:0:0:0:0:0:1 - - [16/Nov/2016:09:08:11 -0600] "POST /ITAFWebApplication/itafpack.do HTTP/1.1" 200 72878
0:0:0:0:0:0:0:1 - - [16/Nov/2016:09:08:11 -0600] "GET /ITAFWebApplication/files/advancedReport.html?projectname=ACCC_OPAS&actionType=execute HTTP/1.1" 200 23710
0:0:0:0:0:0:0:1 - - [16/Nov/2016:09:10:47 -0600] "POST /ITAFWebApplication/itafpack.do HTTP/1.1" 200 206230
0:0:0:0:0:0:0:1 - - [16/Nov/2016:09:10:47 -0600] "GET /ITAFWebApplication/files/advancedReport.html?projectname=ACCC_OPAS&actionType=execute HTTP/1.1" 200 23710
0:0:0:0:0:0:0:1 - - [16/Nov/2016:09:15:13 -0600] "POST /ITAFWebApplication/itafpack.do HTTP/1.1" 200 72070
0:0:0:0:0:0:0:1 - - [16/Nov/2016:09:15:13 -0600] "GET /ITAFWebApplication/files/advancedReport.html?projectname=ACCC_OPAS&actionType=execute HTTP/1.1" 200 23710
0:0:0:0:0:0:0:1 - - [16/Nov/2016:09:15:40 -0600] "POST /ITAFWebApplication/itafpack.do HTTP/1.1" 200 70068
0:0:0:0:0:0:0:1 - - [16/Nov/2016:09:15:41 -0600] "GET /ITAFWebApplication/files/advancedReport.html?projectname=ACCC_OPAS&actionType=execute HTTP/1.1" 200 23710
0:0:0:0:0:0:0:1 - - [16/Nov/2016:09:15:46 -0600] "POST /ITAFWebApplication/itafpack.do HTTP/1.1" 200 72070
0:0:0:0:0:0:0:1 - - [16/Nov/2016:09:15:46 -0600] "GET /ITAFWebApplication/files/advancedReport.html?projectname=ACCC_OPAS&actionType=execute HTTP/1.1" 200 23710
0:0:0:0:0:0:0:1 - - [16/Nov/2016:09:16:13 -0600] "POST /ITAFWebApplication/itafpack.do HTTP/1.1" 200 72878
0:0:0:0:0:0:0:1 - - [16/Nov/2016:09:16:13 -0600] "GET /ITAFWebApplication/files/advancedReport.html?projectname=ACCC_OPAS&actionType=execute HTTP/1.1" 200 23710
0:0:0:0:0:0:0:1 - - [16/Nov/2016:09:19:58 -0600] "POST /ITAFWebApplication/itafpack.do HTTP/1.1" 200 72890
0:0:0:0:0:0:0:1 - - [16/Nov/2016:09:19:58 -0600] "GET /ITAFWebApplication/files/advancedReport.html?projectname=ACCC_OPAS&actionType=execute HTTP/1.1" 200 23710
0:0:0:0:0:0:0:1 - - [16/Nov/2016:09:20:26 -0600] "POST /ITAFWebApplication/itafpack.do HTTP/1.1" 200 72878
0:0:0:0:0:0:0:1 - - [16/Nov/2016:09:20:26 -0600] "GET /ITAFWebApplication/files/advancedReport.html?projectname=ACCC_OPAS&actionType=execute HTTP/1.1" 200 23710
0:0:0:0:0:0:0:1 - - [16/Nov/2016:09:20:28 -0600] "POST /ITAFWebApplication/itafpack.do HTTP/1.1" 200 72890
0:0:0:0:0:0:0:1 - - [16/Nov/2016:09:20:28 -0600] "GET /ITAFWebApplication/files/advancedReport.html?projectname=ACCC_OPAS&actionType=execute HTTP/1.1" 200 23710
0:0:0:0:0:0:0:1 - - [16/Nov/2016:09:26:42 -0600] "POST /ITAFWebApplication/itafexecute.do HTTP/1.1" 200 19504
0:0:0:0:0:0:0:1 - - [16/Nov/2016:09:26:42 -0600] "GET /ITAFWebApplication/js/loader.js HTTP/1.1" 200 70294
0:0:0:0:0:0:0:1 - - [16/Nov/2016:09:26:42 -0600] "GET /ITAFWebApplication/js/demo3/bootstrap-progressbar.js HTTP/1.1" 200 6284
0:0:0:0:0:0:0:1 - - [16/Nov/2016:09:26:42 -0600] "GET /ITAFWebApplication/js/demo3/executetry.js HTTP/1.1" 200 1945
0:0:0:0:0:0:0:1 - - [16/Nov/2016:09:30:39 -0600] "POST /ITAFWebApplication/itafexecute.do HTTP/1.1" 200 2
0:0:0:0:0:0:0:1 - - [16/Nov/2016:09:37:55 -0600] "POST /ITAFWebApplication/itafexecute.do HTTP/1.1" 200 50407
