0:0:0:0:0:0:0:1 - - [15/Feb/2017:11:12:16 +0530] "GET /ITAFWebApplication/ HTTP/1.1" 302 -
0:0:0:0:0:0:0:1 - - [15/Feb/2017:11:12:16 +0530] "GET /ITAFWebApplication/login.jsp HTTP/1.1" 200 27677
0:0:0:0:0:0:0:1 - - [15/Feb/2017:11:12:16 +0530] "GET /ITAFWebApplication/css/bootstrap.min.css HTTP/1.1" 200 121260
0:0:0:0:0:0:0:1 - - [15/Feb/2017:11:12:16 +0530] "GET /ITAFWebApplication/css/login.css HTTP/1.1" 200 1077
0:0:0:0:0:0:0:1 - - [15/Feb/2017:11:12:16 +0530] "GET /ITAFWebApplication/js/login.js HTTP/1.1" 200 6947
0:0:0:0:0:0:0:1 - - [15/Feb/2017:11:12:16 +0530] "GET /ITAFWebApplication/Images/iTAF_logo.png HTTP/1.1" 200 33472
0:0:0:0:0:0:0:1 - - [15/Feb/2017:11:12:16 +0530] "GET /ITAFWebApplication/fonts/glyphicons-halflings-regular.woff2 HTTP/1.1" 200 18028
0:0:0:0:0:0:0:1 - - [15/Feb/2017:11:12:51 +0530] "GET /ITAFWebApplication/css/bootstrap.min.css HTTP/1.1" 200 121260
0:0:0:0:0:0:0:1 - - [15/Feb/2017:11:12:51 +0530] "GET /ITAFWebApplication/css/demo3/try.css HTTP/1.1" 200 4871
0:0:0:0:0:0:0:1 - - [15/Feb/2017:11:12:51 +0530] "POST /ITAFWebApplication/login.do HTTP/1.1" 200 52479
0:0:0:0:0:0:0:1 - - [15/Feb/2017:11:12:51 +0530] "GET /ITAFWebApplication/css/demo3/responsiveTables.css HTTP/1.1" 200 182
0:0:0:0:0:0:0:1 - - [15/Feb/2017:11:12:51 +0530] "GET /ITAFWebApplication/js/jquery.min.js HTTP/1.1" 200 84380
0:0:0:0:0:0:0:1 - - [15/Feb/2017:11:12:51 +0530] "GET /ITAFWebApplication/js/bootstrap.min.js HTTP/1.1" 200 36868
0:0:0:0:0:0:0:1 - - [15/Feb/2017:11:12:51 +0530] "GET /ITAFWebApplication/js/demo3/responsiveTables.js HTTP/1.1" 200 1886
0:0:0:0:0:0:0:1 - - [15/Feb/2017:11:12:51 +0530] "GET /ITAFWebApplication/js/demo3/searchTable.js HTTP/1.1" 200 1022
0:0:0:0:0:0:0:1 - - [15/Feb/2017:11:12:51 +0530] "GET /ITAFWebApplication/js/demo3/bootstrap-filestyle.min.js HTTP/1.1" 200 7190
0:0:0:0:0:0:0:1 - - [15/Feb/2017:11:12:51 +0530] "GET /ITAFWebApplication/js/demo3/RowSorter.js HTTP/1.1" 200 8102
0:0:0:0:0:0:0:1 - - [15/Feb/2017:11:12:51 +0530] "GET /ITAFWebApplication/js/objectCap.js HTTP/1.1" 200 11106
0:0:0:0:0:0:0:1 - - [15/Feb/2017:11:12:51 +0530] "GET /ITAFWebApplication/js/demo3/try.js HTTP/1.1" 200 45488
0:0:0:0:0:0:0:1 - - [15/Feb/2017:16:37:49 +0530] "GET /ITAFWebApplication/ HTTP/1.1" 302 -
0:0:0:0:0:0:0:1 - - [15/Feb/2017:16:37:49 +0530] "GET /ITAFWebApplication/login.jsp HTTP/1.1" 200 27677
0:0:0:0:0:0:0:1 - - [15/Feb/2017:16:37:49 +0530] "GET /ITAFWebApplication/css/login.css HTTP/1.1" 200 1077
0:0:0:0:0:0:0:1 - - [15/Feb/2017:16:37:49 +0530] "GET /ITAFWebApplication/css/bootstrap.min.css HTTP/1.1" 200 121260
0:0:0:0:0:0:0:1 - - [15/Feb/2017:16:37:49 +0530] "GET /ITAFWebApplication/js/login.js HTTP/1.1" 200 6947
0:0:0:0:0:0:0:1 - - [15/Feb/2017:16:37:49 +0530] "GET /ITAFWebApplication/Images/iTAF_logo.png HTTP/1.1" 200 33472
0:0:0:0:0:0:0:1 - - [15/Feb/2017:16:37:50 +0530] "GET /ITAFWebApplication/fonts/glyphicons-halflings-regular.woff2 HTTP/1.1" 200 18028
0:0:0:0:0:0:0:1 - - [15/Feb/2017:16:37:58 +0530] "GET /ITAFWebApplication/css/bootstrap.min.css HTTP/1.1" 200 121260
0:0:0:0:0:0:0:1 - - [15/Feb/2017:16:37:58 +0530] "GET /ITAFWebApplication/css/demo3/try.css HTTP/1.1" 200 4871
0:0:0:0:0:0:0:1 - - [15/Feb/2017:16:37:59 +0530] "POST /ITAFWebApplication/login.do HTTP/1.1" 200 52479
0:0:0:0:0:0:0:1 - - [15/Feb/2017:16:37:59 +0530] "GET /ITAFWebApplication/css/demo3/responsiveTables.css HTTP/1.1" 200 182
0:0:0:0:0:0:0:1 - - [15/Feb/2017:16:37:59 +0530] "GET /ITAFWebApplication/js/jquery.min.js HTTP/1.1" 200 84380
0:0:0:0:0:0:0:1 - - [15/Feb/2017:16:37:59 +0530] "GET /ITAFWebApplication/js/demo3/try.js HTTP/1.1" 200 45488
0:0:0:0:0:0:0:1 - - [15/Feb/2017:16:37:59 +0530] "GET /ITAFWebApplication/js/bootstrap.min.js HTTP/1.1" 200 36868
0:0:0:0:0:0:0:1 - - [15/Feb/2017:16:37:59 +0530] "GET /ITAFWebApplication/js/demo3/responsiveTables.js HTTP/1.1" 200 1886
0:0:0:0:0:0:0:1 - - [15/Feb/2017:16:37:59 +0530] "GET /ITAFWebApplication/js/demo3/bootstrap-filestyle.min.js HTTP/1.1" 200 7190
0:0:0:0:0:0:0:1 - - [15/Feb/2017:16:37:59 +0530] "GET /ITAFWebApplication/js/demo3/RowSorter.js HTTP/1.1" 200 8102
0:0:0:0:0:0:0:1 - - [15/Feb/2017:16:37:59 +0530] "GET /ITAFWebApplication/js/demo3/searchTable.js HTTP/1.1" 200 1022
0:0:0:0:0:0:0:1 - - [15/Feb/2017:16:37:59 +0530] "GET /ITAFWebApplication/js/objectCap.js HTTP/1.1" 200 11106
0:0:0:0:0:0:0:1 - - [15/Feb/2017:16:38:00 +0530] "POST /ITAFWebApplication/itafexecute.do HTTP/1.1" 200 19682
0:0:0:0:0:0:0:1 - - [15/Feb/2017:16:38:00 +0530] "GET /ITAFWebApplication/css/bootstrap.min.css HTTP/1.1" 200 121260
0:0:0:0:0:0:0:1 - - [15/Feb/2017:16:38:00 +0530] "GET /ITAFWebApplication/js/loader.js HTTP/1.1" 200 70294
0:0:0:0:0:0:0:1 - - [15/Feb/2017:16:38:00 +0530] "GET /ITAFWebApplication/css/demo3/try.css HTTP/1.1" 200 4871
0:0:0:0:0:0:0:1 - - [15/Feb/2017:16:38:00 +0530] "GET /ITAFWebApplication/js/demo3/bootstrap-progressbar.js HTTP/1.1" 200 6284
0:0:0:0:0:0:0:1 - - [15/Feb/2017:16:38:00 +0530] "GET /ITAFWebApplication/js/demo3/executetry.js HTTP/1.1" 200 1945
0:0:0:0:0:0:0:1 - - [15/Feb/2017:16:38:01 +0530] "POST /ITAFWebApplication/itafexecute.do HTTP/1.1" 200 52485
0:0:0:0:0:0:0:1 - - [15/Feb/2017:16:38:01 +0530] "GET /ITAFWebApplication/css/bootstrap.min.css HTTP/1.1" 200 121260
0:0:0:0:0:0:0:1 - - [15/Feb/2017:16:38:01 +0530] "GET /ITAFWebApplication/css/demo3/try.css HTTP/1.1" 200 4871
0:0:0:0:0:0:0:1 - - [15/Feb/2017:16:38:01 +0530] "GET /ITAFWebApplication/css/demo3/responsiveTables.css HTTP/1.1" 200 182
0:0:0:0:0:0:0:1 - - [15/Feb/2017:16:38:06 +0530] "GET /ITAFWebApplication/css/demo3/try.css HTTP/1.1" 200 4871
0:0:0:0:0:0:0:1 - - [15/Feb/2017:16:38:06 +0530] "GET /ITAFWebApplication/css/bootstrap.min.css HTTP/1.1" 200 121260
0:0:0:0:0:0:0:1 - - [15/Feb/2017:16:38:06 +0530] "GET /ITAFWebApplication/css/demo3/responsiveTables.css HTTP/1.1" 200 182
0:0:0:0:0:0:0:1 - - [15/Feb/2017:16:38:06 +0530] "POST /ITAFWebApplication/itafpack.do HTTP/1.1" 200 62098
0:0:0:0:0:0:0:1 - - [15/Feb/2017:16:38:06 +0530] "GET /ITAFWebApplication/files/advancedReport.html?projectname=SafeAuto&actionType=execute HTTP/1.1" 200 12694
0:0:0:0:0:0:0:1 - - [15/Feb/2017:16:38:14 +0530] "GET /ITAFWebApplication/css/demo3/responsiveTables.css HTTP/1.1" 200 182
0:0:0:0:0:0:0:1 - - [15/Feb/2017:16:38:14 +0530] "GET /ITAFWebApplication/css/bootstrap.min.css HTTP/1.1" 200 121260
0:0:0:0:0:0:0:1 - - [15/Feb/2017:16:38:14 +0530] "POST /ITAFWebApplication/itafpack.do HTTP/1.1" 200 62101
0:0:0:0:0:0:0:1 - - [15/Feb/2017:16:38:14 +0530] "GET /ITAFWebApplication/css/demo3/try.css HTTP/1.1" 200 4871
0:0:0:0:0:0:0:1 - - [15/Feb/2017:16:38:14 +0530] "GET /ITAFWebApplication/files/advancedReport.html?projectname=SafeAuto&actionType=execute HTTP/1.1" 200 12694
0:0:0:0:0:0:0:1 - - [15/Feb/2017:16:43:05 +0530] "GET /ITAFWebApplication/css/bootstrap.min.css HTTP/1.1" 200 121260
0:0:0:0:0:0:0:1 - - [15/Feb/2017:16:43:05 +0530] "GET /ITAFWebApplication/css/demo3/try.css HTTP/1.1" 200 4871
0:0:0:0:0:0:0:1 - - [15/Feb/2017:16:43:05 +0530] "GET /ITAFWebApplication/css/demo3/responsiveTables.css HTTP/1.1" 200 182
0:0:0:0:0:0:0:1 - - [15/Feb/2017:16:43:05 +0530] "POST /ITAFWebApplication/itafpack.do HTTP/1.1" 200 83132
0:0:0:0:0:0:0:1 - - [15/Feb/2017:16:43:05 +0530] "GET /ITAFWebApplication/files/advancedReport.html?projectname=SafeAuto&actionType=execute HTTP/1.1" 200 12694
0:0:0:0:0:0:0:1 - - [15/Feb/2017:16:44:40 +0530] "GET /ITAFWebApplication/css/bootstrap.min.css HTTP/1.1" 200 121260
0:0:0:0:0:0:0:1 - - [15/Feb/2017:16:44:40 +0530] "GET /ITAFWebApplication/css/demo3/try.css HTTP/1.1" 200 4871
0:0:0:0:0:0:0:1 - - [15/Feb/2017:16:44:40 +0530] "POST /ITAFWebApplication/itafpack.do HTTP/1.1" 200 92148
0:0:0:0:0:0:0:1 - - [15/Feb/2017:16:44:40 +0530] "GET /ITAFWebApplication/css/demo3/responsiveTables.css HTTP/1.1" 200 182
0:0:0:0:0:0:0:1 - - [15/Feb/2017:16:44:40 +0530] "GET /ITAFWebApplication/files/advancedReport.html?projectname=SafeAuto&actionType=execute HTTP/1.1" 200 12694
0:0:0:0:0:0:0:1 - - [15/Feb/2017:16:44:41 +0530] "POST /ITAFWebApplication/itafpack.do HTTP/1.1" 200 92002
0:0:0:0:0:0:0:1 - - [15/Feb/2017:16:44:41 +0530] "GET /ITAFWebApplication/css/demo3/try.css HTTP/1.1" 200 4871
0:0:0:0:0:0:0:1 - - [15/Feb/2017:16:44:41 +0530] "GET /ITAFWebApplication/css/bootstrap.min.css HTTP/1.1" 200 121260
0:0:0:0:0:0:0:1 - - [15/Feb/2017:16:44:41 +0530] "GET /ITAFWebApplication/css/demo3/responsiveTables.css HTTP/1.1" 200 182
0:0:0:0:0:0:0:1 - - [15/Feb/2017:16:44:41 +0530] "GET /ITAFWebApplication/files/advancedReport.html?projectname=SafeAuto&actionType=execute HTTP/1.1" 200 12694
0:0:0:0:0:0:0:1 - - [15/Feb/2017:16:44:44 +0530] "POST /ITAFWebApplication/itafpack.do HTTP/1.1" 200 92148
0:0:0:0:0:0:0:1 - - [15/Feb/2017:16:44:44 +0530] "GET /ITAFWebApplication/css/bootstrap.min.css HTTP/1.1" 200 121260
0:0:0:0:0:0:0:1 - - [15/Feb/2017:16:44:44 +0530] "GET /ITAFWebApplication/css/demo3/try.css HTTP/1.1" 200 4871
0:0:0:0:0:0:0:1 - - [15/Feb/2017:16:44:44 +0530] "GET /ITAFWebApplication/css/demo3/responsiveTables.css HTTP/1.1" 200 182
0:0:0:0:0:0:0:1 - - [15/Feb/2017:16:44:44 +0530] "GET /ITAFWebApplication/files/advancedReport.html?projectname=SafeAuto&actionType=execute HTTP/1.1" 200 12694
0:0:0:0:0:0:0:1 - - [15/Feb/2017:16:44:54 +0530] "GET /ITAFWebApplication/css/bootstrap.min.css HTTP/1.1" 200 121260
0:0:0:0:0:0:0:1 - - [15/Feb/2017:16:44:54 +0530] "GET /ITAFWebApplication/css/demo3/try.css HTTP/1.1" 200 4871
0:0:0:0:0:0:0:1 - - [15/Feb/2017:16:44:54 +0530] "GET /ITAFWebApplication/css/demo3/responsiveTables.css HTTP/1.1" 200 182
0:0:0:0:0:0:0:1 - - [15/Feb/2017:16:44:54 +0530] "POST /ITAFWebApplication/itafpack.do HTTP/1.1" 200 62102
0:0:0:0:0:0:0:1 - - [15/Feb/2017:16:44:54 +0530] "GET /ITAFWebApplication/files/advancedReport.html?projectname=SafeAuto&actionType=execute HTTP/1.1" 200 12694
0:0:0:0:0:0:0:1 - - [15/Feb/2017:16:44:58 +0530] "POST /ITAFWebApplication/itafpack.do HTTP/1.1" 200 62105
0:0:0:0:0:0:0:1 - - [15/Feb/2017:16:44:58 +0530] "GET /ITAFWebApplication/files/advancedReport.html?projectname=SafeAuto&actionType=execute HTTP/1.1" 200 12694
0:0:0:0:0:0:0:1 - - [15/Feb/2017:16:44:59 +0530] "POST /ITAFWebApplication/itafexecute.do HTTP/1.1" 200 19682
0:0:0:0:0:0:0:1 - - [15/Feb/2017:16:44:59 +0530] "GET /ITAFWebApplication/css/bootstrap.min.css HTTP/1.1" 200 121260
0:0:0:0:0:0:0:1 - - [15/Feb/2017:16:44:59 +0530] "GET /ITAFWebApplication/css/demo3/try.css HTTP/1.1" 200 4871
0:0:0:0:0:0:0:1 - - [15/Feb/2017:16:44:59 +0530] "GET /ITAFWebApplication/js/demo3/bootstrap-progressbar.js HTTP/1.1" 200 6284
0:0:0:0:0:0:0:1 - - [15/Feb/2017:16:44:59 +0530] "GET /ITAFWebApplication/js/demo3/executetry.js HTTP/1.1" 200 1945
0:0:0:0:0:0:0:1 - - [15/Feb/2017:16:44:59 +0530] "GET /ITAFWebApplication/js/loader.js HTTP/1.1" 200 70294
0:0:0:0:0:0:0:1 - - [15/Feb/2017:16:46:26 +0530] "POST /ITAFWebApplication/itafexecute.do HTTP/1.1" 200 2
0:0:0:0:0:0:0:1 - - [15/Feb/2017:16:46:54 +0530] "GET /ITAFWebApplication/css/demo3/try.css HTTP/1.1" 200 4871
0:0:0:0:0:0:0:1 - - [15/Feb/2017:16:46:54 +0530] "GET /ITAFWebApplication/css/bootstrap.min.css HTTP/1.1" 200 121260
0:0:0:0:0:0:0:1 - - [15/Feb/2017:16:46:54 +0530] "POST /ITAFWebApplication/itafexecute.do HTTP/1.1" 200 52485
0:0:0:0:0:0:0:1 - - [15/Feb/2017:16:46:54 +0530] "GET /ITAFWebApplication/css/demo3/responsiveTables.css HTTP/1.1" 200 182
0:0:0:0:0:0:0:1 - - [15/Feb/2017:16:46:58 +0530] "POST /ITAFWebApplication/itafpack.do HTTP/1.1" 200 62106
0:0:0:0:0:0:0:1 - - [15/Feb/2017:16:46:58 +0530] "GET /ITAFWebApplication/files/advancedReport.html?projectname=SafeAuto&actionType=execute HTTP/1.1" 200 15198
0:0:0:0:0:0:0:1 - - [15/Feb/2017:16:47:00 +0530] "GET /ITAFWebApplication/css/bootstrap.min.css HTTP/1.1" 200 121260
0:0:0:0:0:0:0:1 - - [15/Feb/2017:16:47:00 +0530] "GET /ITAFWebApplication/css/demo3/try.css HTTP/1.1" 200 4871
0:0:0:0:0:0:0:1 - - [15/Feb/2017:16:47:00 +0530] "POST /ITAFWebApplication/itafpack.do HTTP/1.1" 200 92006
0:0:0:0:0:0:0:1 - - [15/Feb/2017:16:47:00 +0530] "GET /ITAFWebApplication/files/advancedReport.html?projectname=SafeAuto&actionType=execute HTTP/1.1" 200 15198
0:0:0:0:0:0:0:1 - - [15/Feb/2017:16:47:10 +0530] "GET /ITAFWebApplication/css/demo3/try.css HTTP/1.1" 200 4871
0:0:0:0:0:0:0:1 - - [15/Feb/2017:16:47:10 +0530] "GET /ITAFWebApplication/css/bootstrap.min.css HTTP/1.1" 200 121260
0:0:0:0:0:0:0:1 - - [15/Feb/2017:16:47:10 +0530] "POST /ITAFWebApplication/itafpack.do HTTP/1.1" 200 92270
0:0:0:0:0:0:0:1 - - [15/Feb/2017:16:47:10 +0530] "GET /ITAFWebApplication/files/advancedReport.html?projectname=SafeAuto&actionType=execute HTTP/1.1" 200 15198
0:0:0:0:0:0:0:1 - - [15/Feb/2017:16:47:13 +0530] "POST /ITAFWebApplication/itafexecute.do HTTP/1.1" 200 19682
0:0:0:0:0:0:0:1 - - [15/Feb/2017:16:47:13 +0530] "GET /ITAFWebApplication/css/bootstrap.min.css HTTP/1.1" 200 121260
0:0:0:0:0:0:0:1 - - [15/Feb/2017:16:47:13 +0530] "GET /ITAFWebApplication/css/demo3/try.css HTTP/1.1" 200 4871
0:0:0:0:0:0:0:1 - - [15/Feb/2017:16:47:13 +0530] "GET /ITAFWebApplication/js/demo3/executetry.js HTTP/1.1" 200 1945
0:0:0:0:0:0:0:1 - - [15/Feb/2017:16:47:13 +0530] "GET /ITAFWebApplication/js/demo3/bootstrap-progressbar.js HTTP/1.1" 200 6284
0:0:0:0:0:0:0:1 - - [15/Feb/2017:16:47:13 +0530] "GET /ITAFWebApplication/js/loader.js HTTP/1.1" 200 70294
0:0:0:0:0:0:0:1 - - [15/Feb/2017:16:48:13 +0530] "POST /ITAFWebApplication/itafexecute.do HTTP/1.1" 200 2
0:0:0:0:0:0:0:1 - - [15/Feb/2017:16:49:08 +0530] "GET /ITAFWebApplication/css/bootstrap.min.css HTTP/1.1" 200 121260
0:0:0:0:0:0:0:1 - - [15/Feb/2017:16:49:08 +0530] "POST /ITAFWebApplication/itafexecute.do HTTP/1.1" 200 52485
0:0:0:0:0:0:0:1 - - [15/Feb/2017:16:49:08 +0530] "GET /ITAFWebApplication/css/demo3/try.css HTTP/1.1" 200 4871
0:0:0:0:0:0:0:1 - - [15/Feb/2017:16:49:11 +0530] "POST /ITAFWebApplication/itafpack.do HTTP/1.1" 200 62106
0:0:0:0:0:0:0:1 - - [15/Feb/2017:16:49:11 +0530] "GET /ITAFWebApplication/files/advancedReport.html?projectname=SafeAuto&actionType=execute HTTP/1.1" 200 12694
0:0:0:0:0:0:0:1 - - [15/Feb/2017:16:49:12 +0530] "GET /ITAFWebApplication/css/demo3/try.css HTTP/1.1" 200 4871
0:0:0:0:0:0:0:1 - - [15/Feb/2017:16:49:12 +0530] "GET /ITAFWebApplication/css/bootstrap.min.css HTTP/1.1" 200 121260
0:0:0:0:0:0:0:1 - - [15/Feb/2017:16:49:12 +0530] "POST /ITAFWebApplication/itafpack.do HTTP/1.1" 200 62109
0:0:0:0:0:0:0:1 - - [15/Feb/2017:16:49:12 +0530] "GET /ITAFWebApplication/files/advancedReport.html?projectname=SafeAuto&actionType=execute HTTP/1.1" 200 12694
0:0:0:0:0:0:0:1 - - [15/Feb/2017:16:49:24 +0530] "GET /ITAFWebApplication/css/demo3/try.css HTTP/1.1" 200 4871
0:0:0:0:0:0:0:1 - - [15/Feb/2017:16:49:24 +0530] "GET /ITAFWebApplication/css/bootstrap.min.css HTTP/1.1" 200 121260
0:0:0:0:0:0:0:1 - - [15/Feb/2017:16:49:24 +0530] "POST /ITAFWebApplication/itafpack.do HTTP/1.1" 200 92303
0:0:0:0:0:0:0:1 - - [15/Feb/2017:16:49:24 +0530] "GET /ITAFWebApplication/files/advancedReport.html?projectname=SafeAuto&actionType=execute HTTP/1.1" 200 12694
0:0:0:0:0:0:0:1 - - [15/Feb/2017:16:50:13 +0530] "POST /ITAFWebApplication/itafpack.do HTTP/1.1" 200 75601
0:0:0:0:0:0:0:1 - - [15/Feb/2017:16:50:13 +0530] "GET /ITAFWebApplication/css/bootstrap.min.css HTTP/1.1" 200 121260
0:0:0:0:0:0:0:1 - - [15/Feb/2017:16:50:13 +0530] "GET /ITAFWebApplication/css/demo3/try.css HTTP/1.1" 200 4871
0:0:0:0:0:0:0:1 - - [15/Feb/2017:16:50:13 +0530] "GET /ITAFWebApplication/files/advancedReport.html?projectname=SafeAuto&actionType=execute HTTP/1.1" 200 12694
0:0:0:0:0:0:0:1 - - [15/Feb/2017:16:50:25 +0530] "GET /ITAFWebApplication/css/demo3/try.css HTTP/1.1" 200 4871
0:0:0:0:0:0:0:1 - - [15/Feb/2017:16:50:25 +0530] "GET /ITAFWebApplication/css/bootstrap.min.css HTTP/1.1" 200 121260
0:0:0:0:0:0:0:1 - - [15/Feb/2017:16:50:25 +0530] "POST /ITAFWebApplication/itafpack.do HTTP/1.1" 200 75451
0:0:0:0:0:0:0:1 - - [15/Feb/2017:16:50:25 +0530] "GET /ITAFWebApplication/files/advancedReport.html?projectname=SafeAuto&actionType=execute HTTP/1.1" 200 12694
0:0:0:0:0:0:0:1 - - [15/Feb/2017:16:54:14 +0530] "POST /ITAFWebApplication/itafpack.do HTTP/1.1" 200 119764
0:0:0:0:0:0:0:1 - - [15/Feb/2017:16:54:14 +0530] "GET /ITAFWebApplication/css/bootstrap.min.css HTTP/1.1" 200 121260
0:0:0:0:0:0:0:1 - - [15/Feb/2017:16:54:14 +0530] "GET /ITAFWebApplication/css/demo3/try.css HTTP/1.1" 200 4871
0:0:0:0:0:0:0:1 - - [15/Feb/2017:16:54:14 +0530] "GET /ITAFWebApplication/files/advancedReport.html?projectname=SafeAuto&actionType=execute HTTP/1.1" 200 12694
0:0:0:0:0:0:0:1 - - [15/Feb/2017:16:54:17 +0530] "POST /ITAFWebApplication/itafpack.do HTTP/1.1" 200 93350
0:0:0:0:0:0:0:1 - - [15/Feb/2017:16:54:17 +0530] "GET /ITAFWebApplication/files/advancedReport.html?projectname=SafeAuto&actionType=execute HTTP/1.1" 200 12694
0:0:0:0:0:0:0:1 - - [15/Feb/2017:16:54:23 +0530] "GET /ITAFWebApplication/css/bootstrap.min.css HTTP/1.1" 200 121260
0:0:0:0:0:0:0:1 - - [15/Feb/2017:16:54:23 +0530] "GET /ITAFWebApplication/css/demo3/try.css HTTP/1.1" 200 4871
0:0:0:0:0:0:0:1 - - [15/Feb/2017:16:54:23 +0530] "POST /ITAFWebApplication/itafpack.do HTTP/1.1" 200 93499
0:0:0:0:0:0:0:1 - - [15/Feb/2017:16:54:23 +0530] "GET /ITAFWebApplication/files/advancedReport.html?projectname=SafeAuto&actionType=execute HTTP/1.1" 200 12694
0:0:0:0:0:0:0:1 - - [15/Feb/2017:16:54:34 +0530] "GET /ITAFWebApplication/css/bootstrap.min.css HTTP/1.1" 200 121260
0:0:0:0:0:0:0:1 - - [15/Feb/2017:16:54:34 +0530] "GET /ITAFWebApplication/css/demo3/try.css HTTP/1.1" 200 4871
0:0:0:0:0:0:0:1 - - [15/Feb/2017:16:54:34 +0530] "POST /ITAFWebApplication/itafpack.do HTTP/1.1" 200 63510
0:0:0:0:0:0:0:1 - - [15/Feb/2017:16:54:34 +0530] "GET /ITAFWebApplication/files/advancedReport.html?projectname=SafeAuto&actionType=execute HTTP/1.1" 200 12694
0:0:0:0:0:0:0:1 - - [15/Feb/2017:16:54:37 +0530] "POST /ITAFWebApplication/itafpack.do HTTP/1.1" 200 63513
0:0:0:0:0:0:0:1 - - [15/Feb/2017:16:54:37 +0530] "GET /ITAFWebApplication/files/advancedReport.html?projectname=SafeAuto&actionType=execute HTTP/1.1" 200 12694
0:0:0:0:0:0:0:1 - - [15/Feb/2017:16:54:50 +0530] "GET /ITAFWebApplication/css/bootstrap.min.css HTTP/1.1" 200 121260
0:0:0:0:0:0:0:1 - - [15/Feb/2017:16:54:50 +0530] "GET /ITAFWebApplication/css/demo3/try.css HTTP/1.1" 200 4871
0:0:0:0:0:0:0:1 - - [15/Feb/2017:16:54:50 +0530] "POST /ITAFWebApplication/itafpack.do HTTP/1.1" 200 65241
0:0:0:0:0:0:0:1 - - [15/Feb/2017:16:54:50 +0530] "GET /ITAFWebApplication/files/advancedReport.html?projectname=SafeAuto&actionType=execute HTTP/1.1" 200 12694
0:0:0:0:0:0:0:1 - - [15/Feb/2017:16:54:53 +0530] "POST /ITAFWebApplication/itafpack.do HTTP/1.1" 200 65677
0:0:0:0:0:0:0:1 - - [15/Feb/2017:16:54:53 +0530] "GET /ITAFWebApplication/css/bootstrap.min.css HTTP/1.1" 200 121260
0:0:0:0:0:0:0:1 - - [15/Feb/2017:16:54:53 +0530] "GET /ITAFWebApplication/css/demo3/try.css HTTP/1.1" 200 4871
0:0:0:0:0:0:0:1 - - [15/Feb/2017:16:54:53 +0530] "GET /ITAFWebApplication/files/advancedReport.html?projectname=SafeAuto&actionType=execute HTTP/1.1" 200 12694
0:0:0:0:0:0:0:1 - - [15/Feb/2017:16:54:57 +0530] "GET /ITAFWebApplication/css/bootstrap.min.css HTTP/1.1" 200 121260
0:0:0:0:0:0:0:1 - - [15/Feb/2017:16:54:57 +0530] "GET /ITAFWebApplication/css/demo3/try.css HTTP/1.1" 200 4871
0:0:0:0:0:0:0:1 - - [15/Feb/2017:16:54:57 +0530] "POST /ITAFWebApplication/itafpack.do HTTP/1.1" 200 66408
0:0:0:0:0:0:0:1 - - [15/Feb/2017:16:54:57 +0530] "GET /ITAFWebApplication/files/advancedReport.html?projectname=SafeAuto&actionType=execute HTTP/1.1" 200 12694
0:0:0:0:0:0:0:1 - - [15/Feb/2017:16:55:16 +0530] "GET /ITAFWebApplication/css/demo3/try.css HTTP/1.1" 200 4871
0:0:0:0:0:0:0:1 - - [15/Feb/2017:16:55:16 +0530] "GET /ITAFWebApplication/css/bootstrap.min.css HTTP/1.1" 200 121260
0:0:0:0:0:0:0:1 - - [15/Feb/2017:16:55:16 +0530] "POST /ITAFWebApplication/itafpack.do HTTP/1.1" 200 66575
0:0:0:0:0:0:0:1 - - [15/Feb/2017:16:55:16 +0530] "GET /ITAFWebApplication/files/advancedReport.html?projectname=SafeAuto&actionType=execute HTTP/1.1" 200 12694
0:0:0:0:0:0:0:1 - - [15/Feb/2017:16:55:19 +0530] "POST /ITAFWebApplication/itafexecute.do HTTP/1.1" 200 19682
0:0:0:0:0:0:0:1 - - [15/Feb/2017:16:55:19 +0530] "GET /ITAFWebApplication/css/bootstrap.min.css HTTP/1.1" 200 121260
0:0:0:0:0:0:0:1 - - [15/Feb/2017:16:55:19 +0530] "GET /ITAFWebApplication/css/demo3/try.css HTTP/1.1" 200 4871
0:0:0:0:0:0:0:1 - - [15/Feb/2017:16:55:19 +0530] "GET /ITAFWebApplication/js/demo3/executetry.js HTTP/1.1" 200 1945
0:0:0:0:0:0:0:1 - - [15/Feb/2017:16:55:19 +0530] "GET /ITAFWebApplication/js/demo3/bootstrap-progressbar.js HTTP/1.1" 200 6284
0:0:0:0:0:0:0:1 - - [15/Feb/2017:16:55:19 +0530] "GET /ITAFWebApplication/js/loader.js HTTP/1.1" 200 70294
0:0:0:0:0:0:0:1 - - [15/Feb/2017:16:55:50 +0530] "POST /ITAFWebApplication/itafexecute.do HTTP/1.1" 200 2
0:0:0:0:0:0:0:1 - - [15/Feb/2017:16:57:09 +0530] "GET /ITAFWebApplication/css/demo3/try.css HTTP/1.1" 200 4871
0:0:0:0:0:0:0:1 - - [15/Feb/2017:16:57:09 +0530] "GET /ITAFWebApplication/css/bootstrap.min.css HTTP/1.1" 200 121260
0:0:0:0:0:0:0:1 - - [15/Feb/2017:16:57:09 +0530] "POST /ITAFWebApplication/itafexecute.do HTTP/1.1" 200 52479
0:0:0:0:0:0:0:1 - - [15/Feb/2017:16:57:10 +0530] "POST /ITAFWebApplication/itafexecute.do HTTP/1.1" 200 19682
0:0:0:0:0:0:0:1 - - [15/Feb/2017:16:57:12 +0530] "POST /ITAFWebApplication/itafexecute.do HTTP/1.1" 200 52485
0:0:0:0:0:0:0:1 - - [15/Feb/2017:16:57:12 +0530] "GET /ITAFWebApplication/css/bootstrap.min.css HTTP/1.1" 200 121260
0:0:0:0:0:0:0:1 - - [15/Feb/2017:16:57:12 +0530] "GET /ITAFWebApplication/css/demo3/try.css HTTP/1.1" 200 4871
0:0:0:0:0:0:0:1 - - [15/Feb/2017:16:57:18 +0530] "GET /ITAFWebApplication/css/demo3/try.css HTTP/1.1" 200 4871
0:0:0:0:0:0:0:1 - - [15/Feb/2017:16:57:18 +0530] "GET /ITAFWebApplication/css/bootstrap.min.css HTTP/1.1" 200 121260
0:0:0:0:0:0:0:1 - - [15/Feb/2017:16:57:18 +0530] "POST /ITAFWebApplication/itafpack.do HTTP/1.1" 200 63360
0:0:0:0:0:0:0:1 - - [15/Feb/2017:16:57:18 +0530] "GET /ITAFWebApplication/files/advancedReport.html?projectname=SafeAuto&actionType=execute HTTP/1.1" 200 15220
0:0:0:0:0:0:0:1 - - [15/Feb/2017:16:57:20 +0530] "POST /ITAFWebApplication/itafpack.do HTTP/1.1" 200 63363
0:0:0:0:0:0:0:1 - - [15/Feb/2017:16:57:20 +0530] "GET /ITAFWebApplication/files/advancedReport.html?projectname=SafeAuto&actionType=execute HTTP/1.1" 200 15220
0:0:0:0:0:0:0:1 - - [15/Feb/2017:16:57:22 +0530] "GET /ITAFWebApplication/css/bootstrap.min.css HTTP/1.1" 200 121260
0:0:0:0:0:0:0:1 - - [15/Feb/2017:16:57:22 +0530] "GET /ITAFWebApplication/css/demo3/try.css HTTP/1.1" 200 4871
0:0:0:0:0:0:0:1 - - [15/Feb/2017:16:57:22 +0530] "POST /ITAFWebApplication/itafpack.do HTTP/1.1" 200 119655
0:0:0:0:0:0:0:1 - - [15/Feb/2017:16:57:22 +0530] "GET /ITAFWebApplication/files/advancedReport.html?projectname=SafeAuto&actionType=execute HTTP/1.1" 200 15220
0:0:0:0:0:0:0:1 - - [15/Feb/2017:16:57:30 +0530] "POST /ITAFWebApplication/itafpack.do HTTP/1.1" 200 65245
0:0:0:0:0:0:0:1 - - [15/Feb/2017:16:57:30 +0530] "GET /ITAFWebApplication/css/bootstrap.min.css HTTP/1.1" 200 121260
0:0:0:0:0:0:0:1 - - [15/Feb/2017:16:57:30 +0530] "GET /ITAFWebApplication/css/demo3/try.css HTTP/1.1" 200 4871
0:0:0:0:0:0:0:1 - - [15/Feb/2017:16:57:30 +0530] "GET /ITAFWebApplication/files/advancedReport.html?projectname=SafeAuto&actionType=execute HTTP/1.1" 200 15220
0:0:0:0:0:0:0:1 - - [15/Feb/2017:16:57:33 +0530] "POST /ITAFWebApplication/itafpack.do HTTP/1.1" 200 65681
0:0:0:0:0:0:0:1 - - [15/Feb/2017:16:57:33 +0530] "GET /ITAFWebApplication/css/bootstrap.min.css HTTP/1.1" 200 121260
0:0:0:0:0:0:0:1 - - [15/Feb/2017:16:57:33 +0530] "GET /ITAFWebApplication/css/demo3/try.css HTTP/1.1" 200 4871
0:0:0:0:0:0:0:1 - - [15/Feb/2017:16:57:33 +0530] "GET /ITAFWebApplication/files/advancedReport.html?projectname=SafeAuto&actionType=execute HTTP/1.1" 200 15220
0:0:0:0:0:0:0:1 - - [15/Feb/2017:16:57:35 +0530] "POST /ITAFWebApplication/itafpack.do HTTP/1.1" 200 66422
0:0:0:0:0:0:0:1 - - [15/Feb/2017:16:57:35 +0530] "GET /ITAFWebApplication/css/demo3/try.css HTTP/1.1" 200 4871
0:0:0:0:0:0:0:1 - - [15/Feb/2017:16:57:35 +0530] "GET /ITAFWebApplication/css/bootstrap.min.css HTTP/1.1" 200 121260
0:0:0:0:0:0:0:1 - - [15/Feb/2017:16:57:35 +0530] "GET /ITAFWebApplication/files/advancedReport.html?projectname=SafeAuto&actionType=execute HTTP/1.1" 200 15220
0:0:0:0:0:0:0:1 - - [15/Feb/2017:16:57:38 +0530] "POST /ITAFWebApplication/itafexecute.do HTTP/1.1" 200 19682
0:0:0:0:0:0:0:1 - - [15/Feb/2017:16:57:38 +0530] "GET /ITAFWebApplication/js/demo3/executetry.js HTTP/1.1" 200 1945
0:0:0:0:0:0:0:1 - - [15/Feb/2017:16:57:38 +0530] "GET /ITAFWebApplication/js/demo3/bootstrap-progressbar.js HTTP/1.1" 200 6284
0:0:0:0:0:0:0:1 - - [15/Feb/2017:16:57:38 +0530] "GET /ITAFWebApplication/js/loader.js HTTP/1.1" 200 70294
0:0:0:0:0:0:0:1 - - [15/Feb/2017:16:58:39 +0530] "POST /ITAFWebApplication/itafexecute.do HTTP/1.1" 200 2
0:0:0:0:0:0:0:1 - - [15/Feb/2017:16:59:29 +0530] "GET /ITAFWebApplication/css/demo3/try.css HTTP/1.1" 200 4871
0:0:0:0:0:0:0:1 - - [15/Feb/2017:16:59:29 +0530] "GET /ITAFWebApplication/css/bootstrap.min.css HTTP/1.1" 200 121260
0:0:0:0:0:0:0:1 - - [15/Feb/2017:16:59:29 +0530] "POST /ITAFWebApplication/itafexecute.do HTTP/1.1" 200 52479
0:0:0:0:0:0:0:1 - - [15/Feb/2017:16:59:31 +0530] "POST /ITAFWebApplication/logout.do HTTP/1.1" 302 -
0:0:0:0:0:0:0:1 - - [15/Feb/2017:16:59:31 +0530] "GET /ITAFWebApplication/login.jsp HTTP/1.1" 200 27677
0:0:0:0:0:0:0:1 - - [15/Feb/2017:16:59:31 +0530] "GET /ITAFWebApplication/css/login.css HTTP/1.1" 200 1077
0:0:0:0:0:0:0:1 - - [15/Feb/2017:17:00:55 +0530] "GET /ITAFWebApplication/ HTTP/1.1" 302 -
0:0:0:0:0:0:0:1 - - [15/Feb/2017:17:00:55 +0530] "GET /ITAFWebApplication/login.jsp HTTP/1.1" 200 27677
0:0:0:0:0:0:0:1 - - [15/Feb/2017:17:00:55 +0530] "GET /ITAFWebApplication/css/bootstrap.min.css HTTP/1.1" 200 121260
0:0:0:0:0:0:0:1 - - [15/Feb/2017:17:00:55 +0530] "GET /ITAFWebApplication/css/login.css HTTP/1.1" 200 1077
0:0:0:0:0:0:0:1 - - [15/Feb/2017:17:00:55 +0530] "GET /ITAFWebApplication/js/login.js HTTP/1.1" 200 6947
0:0:0:0:0:0:0:1 - - [15/Feb/2017:17:00:55 +0530] "GET /ITAFWebApplication/Images/iTAF_logo.png HTTP/1.1" 200 33472
0:0:0:0:0:0:0:1 - - [15/Feb/2017:17:00:55 +0530] "GET /ITAFWebApplication/fonts/glyphicons-halflings-regular.woff2 HTTP/1.1" 200 18028
0:0:0:0:0:0:0:1 - - [15/Feb/2017:17:01:09 +0530] "GET /ITAFWebApplication/css/bootstrap.min.css HTTP/1.1" 200 121260
0:0:0:0:0:0:0:1 - - [15/Feb/2017:17:01:09 +0530] "GET /ITAFWebApplication/css/demo3/try.css HTTP/1.1" 200 4871
0:0:0:0:0:0:0:1 - - [15/Feb/2017:17:01:09 +0530] "POST /ITAFWebApplication/login.do HTTP/1.1" 200 52479
0:0:0:0:0:0:0:1 - - [15/Feb/2017:17:01:09 +0530] "GET /ITAFWebApplication/css/demo3/responsiveTables.css HTTP/1.1" 200 182
0:0:0:0:0:0:0:1 - - [15/Feb/2017:17:01:09 +0530] "GET /ITAFWebApplication/js/jquery.min.js HTTP/1.1" 200 84380
0:0:0:0:0:0:0:1 - - [15/Feb/2017:17:01:09 +0530] "GET /ITAFWebApplication/js/bootstrap.min.js HTTP/1.1" 200 36868
0:0:0:0:0:0:0:1 - - [15/Feb/2017:17:01:09 +0530] "GET /ITAFWebApplication/js/demo3/try.js HTTP/1.1" 200 45488
0:0:0:0:0:0:0:1 - - [15/Feb/2017:17:01:09 +0530] "GET /ITAFWebApplication/js/demo3/responsiveTables.js HTTP/1.1" 200 1886
0:0:0:0:0:0:0:1 - - [15/Feb/2017:17:01:09 +0530] "GET /ITAFWebApplication/js/demo3/bootstrap-filestyle.min.js HTTP/1.1" 200 7190
0:0:0:0:0:0:0:1 - - [15/Feb/2017:17:01:09 +0530] "GET /ITAFWebApplication/js/demo3/searchTable.js HTTP/1.1" 200 1022
0:0:0:0:0:0:0:1 - - [15/Feb/2017:17:01:09 +0530] "GET /ITAFWebApplication/js/objectCap.js HTTP/1.1" 200 11106
0:0:0:0:0:0:0:1 - - [15/Feb/2017:17:01:09 +0530] "GET /ITAFWebApplication/js/demo3/RowSorter.js HTTP/1.1" 200 8102
0:0:0:0:0:0:0:1 - - [15/Feb/2017:17:01:11 +0530] "POST /ITAFWebApplication/itafexecute.do HTTP/1.1" 200 19682
0:0:0:0:0:0:0:1 - - [15/Feb/2017:17:01:11 +0530] "GET /ITAFWebApplication/css/bootstrap.min.css HTTP/1.1" 200 121260
0:0:0:0:0:0:0:1 - - [15/Feb/2017:17:01:11 +0530] "GET /ITAFWebApplication/js/loader.js HTTP/1.1" 200 70294
0:0:0:0:0:0:0:1 - - [15/Feb/2017:17:01:11 +0530] "GET /ITAFWebApplication/css/demo3/try.css HTTP/1.1" 200 4871
0:0:0:0:0:0:0:1 - - [15/Feb/2017:17:01:11 +0530] "GET /ITAFWebApplication/js/demo3/executetry.js HTTP/1.1" 200 1945
0:0:0:0:0:0:0:1 - - [15/Feb/2017:17:01:11 +0530] "GET /ITAFWebApplication/js/demo3/bootstrap-progressbar.js HTTP/1.1" 200 6284
0:0:0:0:0:0:0:1 - - [15/Feb/2017:17:02:13 +0530] "POST /ITAFWebApplication/itafexecute.do HTTP/1.1" 200 596
0:0:0:0:0:0:0:1 - - [15/Feb/2017:17:02:52 +0530] "POST /ITAFWebApplication/itafexecute.do HTTP/1.1" 200 240
0:0:0:0:0:0:0:1 - - [15/Feb/2017:17:02:52 +0530] "GET /ITAFWebApplication/files/advancedReport.html?projectname=SafeAuto&actionType=execute HTTP/1.1" 200 14269
0:0:0:0:0:0:0:1 - - [15/Feb/2017:17:02:58 +0530] "POST /ITAFWebApplication/itafexecute.do HTTP/1.1" 200 2
0:0:0:0:0:0:0:1 - - [15/Feb/2017:17:03:07 +0530] "POST /ITAFWebApplication/itafexecute.do HTTP/1.1" 200 240
0:0:0:0:0:0:0:1 - - [15/Feb/2017:17:03:07 +0530] "GET /ITAFWebApplication/files/advancedReport.html?projectname=SafeAuto&actionType=execute HTTP/1.1" 200 14269
0:0:0:0:0:0:0:1 - - [15/Feb/2017:17:04:42 +0530] "POST /ITAFWebApplication/itafexecute.do HTTP/1.1" 200 19682
0:0:0:0:0:0:0:1 - - [15/Feb/2017:17:04:42 +0530] "GET /ITAFWebApplication/css/bootstrap.min.css HTTP/1.1" 200 121260
0:0:0:0:0:0:0:1 - - [15/Feb/2017:17:04:42 +0530] "GET /ITAFWebApplication/css/demo3/try.css HTTP/1.1" 200 4871
0:0:0:0:0:0:0:1 - - [15/Feb/2017:17:04:42 +0530] "GET /ITAFWebApplication/js/demo3/bootstrap-progressbar.js HTTP/1.1" 304 -
0:0:0:0:0:0:0:1 - - [15/Feb/2017:17:04:42 +0530] "GET /ITAFWebApplication/js/demo3/executetry.js HTTP/1.1" 304 -
0:0:0:0:0:0:0:1 - - [15/Feb/2017:17:04:42 +0530] "GET /ITAFWebApplication/js/jquery.min.js HTTP/1.1" 304 -
0:0:0:0:0:0:0:1 - - [15/Feb/2017:17:04:42 +0530] "GET /ITAFWebApplication/js/loader.js HTTP/1.1" 304 -
0:0:0:0:0:0:0:1 - - [15/Feb/2017:17:04:42 +0530] "GET /ITAFWebApplication/js/bootstrap.min.js HTTP/1.1" 304 -
0:0:0:0:0:0:0:1 - - [15/Feb/2017:17:04:42 +0530] "GET /ITAFWebApplication/fonts/glyphicons-halflings-regular.woff2 HTTP/1.1" 304 -
0:0:0:0:0:0:0:1 - - [15/Feb/2017:17:06:44 +0530] "GET /ITAFWebApplication/css/demo3/try.css HTTP/1.1" 200 4871
0:0:0:0:0:0:0:1 - - [15/Feb/2017:17:06:44 +0530] "GET /ITAFWebApplication/css/bootstrap.min.css HTTP/1.1" 200 121260
0:0:0:0:0:0:0:1 - - [15/Feb/2017:17:06:44 +0530] "POST /ITAFWebApplication/itafexecute.do HTTP/1.1" 200 52479
0:0:0:0:0:0:0:1 - - [15/Feb/2017:17:06:44 +0530] "GET /ITAFWebApplication/css/demo3/responsiveTables.css HTTP/1.1" 200 182
0:0:0:0:0:0:0:1 - - [15/Feb/2017:17:06:44 +0530] "GET /ITAFWebApplication/js/demo3/searchTable.js HTTP/1.1" 200 1022
0:0:0:0:0:0:0:1 - - [15/Feb/2017:17:06:44 +0530] "GET /ITAFWebApplication/js/demo3/try.js HTTP/1.1" 200 45488
0:0:0:0:0:0:0:1 - - [15/Feb/2017:17:06:44 +0530] "GET /ITAFWebApplication/js/demo3/RowSorter.js HTTP/1.1" 200 8102
0:0:0:0:0:0:0:1 - - [15/Feb/2017:17:06:44 +0530] "GET /ITAFWebApplication/js/demo3/responsiveTables.js HTTP/1.1" 200 1886
0:0:0:0:0:0:0:1 - - [15/Feb/2017:17:06:44 +0530] "GET /ITAFWebApplication/js/demo3/bootstrap-filestyle.min.js HTTP/1.1" 200 7190
0:0:0:0:0:0:0:1 - - [15/Feb/2017:17:06:44 +0530] "GET /ITAFWebApplication/js/objectCap.js HTTP/1.1" 200 11106
0:0:0:0:0:0:0:1 - - [15/Feb/2017:17:07:16 +0530] "POST /ITAFWebApplication/itafexecute.do HTTP/1.1" 200 19682
0:0:0:0:0:0:0:1 - - [15/Feb/2017:17:07:16 +0530] "GET /ITAFWebApplication/css/bootstrap.min.css HTTP/1.1" 200 121260
0:0:0:0:0:0:0:1 - - [15/Feb/2017:17:07:16 +0530] "GET /ITAFWebApplication/js/loader.js HTTP/1.1" 200 70294
0:0:0:0:0:0:0:1 - - [15/Feb/2017:17:07:16 +0530] "GET /ITAFWebApplication/css/demo3/try.css HTTP/1.1" 200 4871
0:0:0:0:0:0:0:1 - - [15/Feb/2017:17:07:16 +0530] "GET /ITAFWebApplication/js/demo3/executetry.js HTTP/1.1" 200 1945
0:0:0:0:0:0:0:1 - - [15/Feb/2017:17:07:16 +0530] "GET /ITAFWebApplication/js/demo3/bootstrap-progressbar.js HTTP/1.1" 200 6284
0:0:0:0:0:0:0:1 - - [15/Feb/2017:17:07:43 +0530] "GET /ITAFWebApplication/css/bootstrap.min.css HTTP/1.1" 200 121260
0:0:0:0:0:0:0:1 - - [15/Feb/2017:17:07:43 +0530] "GET /ITAFWebApplication/css/demo3/try.css HTTP/1.1" 200 4871
0:0:0:0:0:0:0:1 - - [15/Feb/2017:17:07:43 +0530] "POST /ITAFWebApplication/itafexecute.do HTTP/1.1" 200 52485
0:0:0:0:0:0:0:1 - - [15/Feb/2017:17:07:43 +0530] "GET /ITAFWebApplication/css/demo3/responsiveTables.css HTTP/1.1" 200 182
0:0:0:0:0:0:0:1 - - [15/Feb/2017:17:07:46 +0530] "GET /ITAFWebApplication/css/bootstrap.min.css HTTP/1.1" 200 121260
0:0:0:0:0:0:0:1 - - [15/Feb/2017:17:07:46 +0530] "GET /ITAFWebApplication/css/demo3/try.css HTTP/1.1" 200 4871
0:0:0:0:0:0:0:1 - - [15/Feb/2017:17:07:46 +0530] "POST /ITAFWebApplication/itafpack.do HTTP/1.1" 200 63364
0:0:0:0:0:0:0:1 - - [15/Feb/2017:17:07:46 +0530] "GET /ITAFWebApplication/css/demo3/responsiveTables.css HTTP/1.1" 200 182
0:0:0:0:0:0:0:1 - - [15/Feb/2017:17:07:46 +0530] "GET /ITAFWebApplication/files/advancedReport.html?projectname=SafeAuto&actionType=execute HTTP/1.1" 200 14269
0:0:0:0:0:0:0:1 - - [15/Feb/2017:17:07:48 +0530] "POST /ITAFWebApplication/itafpack.do HTTP/1.1" 200 63367
0:0:0:0:0:0:0:1 - - [15/Feb/2017:17:07:48 +0530] "GET /ITAFWebApplication/css/bootstrap.min.css HTTP/1.1" 200 121260
0:0:0:0:0:0:0:1 - - [15/Feb/2017:17:07:48 +0530] "GET /ITAFWebApplication/css/demo3/try.css HTTP/1.1" 200 4871
0:0:0:0:0:0:0:1 - - [15/Feb/2017:17:07:48 +0530] "GET /ITAFWebApplication/css/demo3/responsiveTables.css HTTP/1.1" 200 182
0:0:0:0:0:0:0:1 - - [15/Feb/2017:17:07:48 +0530] "GET /ITAFWebApplication/files/advancedReport.html?projectname=SafeAuto&actionType=execute HTTP/1.1" 200 14269
0:0:0:0:0:0:0:1 - - [15/Feb/2017:17:07:50 +0530] "POST /ITAFWebApplication/itafpack.do HTTP/1.1" 200 119659
0:0:0:0:0:0:0:1 - - [15/Feb/2017:17:07:50 +0530] "GET /ITAFWebApplication/css/demo3/try.css HTTP/1.1" 200 4871
0:0:0:0:0:0:0:1 - - [15/Feb/2017:17:07:50 +0530] "GET /ITAFWebApplication/css/bootstrap.min.css HTTP/1.1" 200 121260
0:0:0:0:0:0:0:1 - - [15/Feb/2017:17:07:50 +0530] "GET /ITAFWebApplication/css/demo3/responsiveTables.css HTTP/1.1" 200 182
0:0:0:0:0:0:0:1 - - [15/Feb/2017:17:07:50 +0530] "GET /ITAFWebApplication/files/advancedReport.html?projectname=SafeAuto&actionType=execute HTTP/1.1" 200 14269
0:0:0:0:0:0:0:1 - - [15/Feb/2017:17:07:56 +0530] "GET /ITAFWebApplication/css/bootstrap.min.css HTTP/1.1" 200 121260
0:0:0:0:0:0:0:1 - - [15/Feb/2017:17:07:56 +0530] "POST /ITAFWebApplication/itafpack.do HTTP/1.1" 200 119809
0:0:0:0:0:0:0:1 - - [15/Feb/2017:17:07:56 +0530] "GET /ITAFWebApplication/css/demo3/try.css HTTP/1.1" 200 4871
0:0:0:0:0:0:0:1 - - [15/Feb/2017:17:07:56 +0530] "GET /ITAFWebApplication/css/demo3/responsiveTables.css HTTP/1.1" 200 182
0:0:0:0:0:0:0:1 - - [15/Feb/2017:17:07:56 +0530] "GET /ITAFWebApplication/files/advancedReport.html?projectname=SafeAuto&actionType=execute HTTP/1.1" 200 14269
0:0:0:0:0:0:0:1 - - [15/Feb/2017:17:07:58 +0530] "POST /ITAFWebApplication/itafpack.do HTTP/1.1" 200 119659
0:0:0:0:0:0:0:1 - - [15/Feb/2017:17:07:58 +0530] "GET /ITAFWebApplication/css/bootstrap.min.css HTTP/1.1" 200 121260
0:0:0:0:0:0:0:1 - - [15/Feb/2017:17:07:58 +0530] "GET /ITAFWebApplication/css/demo3/responsiveTables.css HTTP/1.1" 200 182
0:0:0:0:0:0:0:1 - - [15/Feb/2017:17:07:58 +0530] "GET /ITAFWebApplication/css/demo3/try.css HTTP/1.1" 200 4871
0:0:0:0:0:0:0:1 - - [15/Feb/2017:17:07:58 +0530] "GET /ITAFWebApplication/files/advancedReport.html?projectname=SafeAuto&actionType=execute HTTP/1.1" 200 14269
0:0:0:0:0:0:0:1 - - [15/Feb/2017:17:08:41 +0530] "GET /ITAFWebApplication/css/bootstrap.min.css HTTP/1.1" 200 121260
0:0:0:0:0:0:0:1 - - [15/Feb/2017:17:08:41 +0530] "GET /ITAFWebApplication/css/demo3/try.css HTTP/1.1" 200 4871
0:0:0:0:0:0:0:1 - - [15/Feb/2017:17:08:41 +0530] "POST /ITAFWebApplication/itafpack.do HTTP/1.1" 200 137537
0:0:0:0:0:0:0:1 - - [15/Feb/2017:17:08:41 +0530] "GET /ITAFWebApplication/css/demo3/responsiveTables.css HTTP/1.1" 200 182
0:0:0:0:0:0:0:1 - - [15/Feb/2017:17:08:41 +0530] "GET /ITAFWebApplication/files/advancedReport.html?projectname=SafeAuto&actionType=execute HTTP/1.1" 200 14269
0:0:0:0:0:0:0:1 - - [15/Feb/2017:17:08:59 +0530] "GET /ITAFWebApplication/css/bootstrap.min.css HTTP/1.1" 200 121260
0:0:0:0:0:0:0:1 - - [15/Feb/2017:17:08:59 +0530] "GET /ITAFWebApplication/css/demo3/try.css HTTP/1.1" 200 4871
0:0:0:0:0:0:0:1 - - [15/Feb/2017:17:08:59 +0530] "POST /ITAFWebApplication/itafpack.do HTTP/1.1" 200 137387
0:0:0:0:0:0:0:1 - - [15/Feb/2017:17:08:59 +0530] "GET /ITAFWebApplication/css/demo3/responsiveTables.css HTTP/1.1" 200 182
0:0:0:0:0:0:0:1 - - [15/Feb/2017:17:08:59 +0530] "GET /ITAFWebApplication/files/advancedReport.html?projectname=SafeAuto&actionType=execute HTTP/1.1" 200 14269
0:0:0:0:0:0:0:1 - - [15/Feb/2017:17:14:45 +0530] "GET /ITAFWebApplication/css/bootstrap.min.css HTTP/1.1" 200 121260
0:0:0:0:0:0:0:1 - - [15/Feb/2017:17:14:45 +0530] "POST /ITAFWebApplication/itafpack.do HTTP/1.1" 200 200052
0:0:0:0:0:0:0:1 - - [15/Feb/2017:17:14:45 +0530] "GET /ITAFWebApplication/css/demo3/try.css HTTP/1.1" 200 4871
0:0:0:0:0:0:0:1 - - [15/Feb/2017:17:14:45 +0530] "GET /ITAFWebApplication/css/demo3/responsiveTables.css HTTP/1.1" 200 182
0:0:0:0:0:0:0:1 - - [15/Feb/2017:17:14:45 +0530] "GET /ITAFWebApplication/files/advancedReport.html?projectname=SafeAuto&actionType=execute HTTP/1.1" 200 14269
0:0:0:0:0:0:0:1 - - [15/Feb/2017:17:15:34 +0530] "GET /ITAFWebApplication/css/bootstrap.min.css HTTP/1.1" 200 121260
0:0:0:0:0:0:0:1 - - [15/Feb/2017:17:15:34 +0530] "POST /ITAFWebApplication/itafpack.do HTTP/1.1" 200 199902
0:0:0:0:0:0:0:1 - - [15/Feb/2017:17:15:34 +0530] "GET /ITAFWebApplication/css/demo3/try.css HTTP/1.1" 200 4871
0:0:0:0:0:0:0:1 - - [15/Feb/2017:17:15:34 +0530] "GET /ITAFWebApplication/css/demo3/responsiveTables.css HTTP/1.1" 200 182
0:0:0:0:0:0:0:1 - - [15/Feb/2017:17:15:34 +0530] "GET /ITAFWebApplication/files/advancedReport.html?projectname=SafeAuto&actionType=execute HTTP/1.1" 200 14269
0:0:0:0:0:0:0:1 - - [15/Feb/2017:17:16:02 +0530] "GET /ITAFWebApplication/css/bootstrap.min.css HTTP/1.1" 200 121260
0:0:0:0:0:0:0:1 - - [15/Feb/2017:17:16:02 +0530] "GET /ITAFWebApplication/css/demo3/try.css HTTP/1.1" 200 4871
0:0:0:0:0:0:0:1 - - [15/Feb/2017:17:16:02 +0530] "POST /ITAFWebApplication/itafpack.do HTTP/1.1" 200 209038
0:0:0:0:0:0:0:1 - - [15/Feb/2017:17:16:02 +0530] "GET /ITAFWebApplication/css/demo3/responsiveTables.css HTTP/1.1" 200 182
0:0:0:0:0:0:0:1 - - [15/Feb/2017:17:16:02 +0530] "GET /ITAFWebApplication/files/advancedReport.html?projectname=SafeAuto&actionType=execute HTTP/1.1" 200 14269
0:0:0:0:0:0:0:1 - - [15/Feb/2017:17:18:23 +0530] "GET /ITAFWebApplication/css/bootstrap.min.css HTTP/1.1" 200 121260
0:0:0:0:0:0:0:1 - - [15/Feb/2017:17:18:23 +0530] "GET /ITAFWebApplication/css/demo3/try.css HTTP/1.1" 200 4871
0:0:0:0:0:0:0:1 - - [15/Feb/2017:17:18:23 +0530] "POST /ITAFWebApplication/itafpack.do HTTP/1.1" 200 208888
0:0:0:0:0:0:0:1 - - [15/Feb/2017:17:18:23 +0530] "GET /ITAFWebApplication/css/demo3/responsiveTables.css HTTP/1.1" 200 182
0:0:0:0:0:0:0:1 - - [15/Feb/2017:17:18:23 +0530] "GET /ITAFWebApplication/files/advancedReport.html?projectname=SafeAuto&actionType=execute HTTP/1.1" 200 14269
0:0:0:0:0:0:0:1 - - [15/Feb/2017:17:18:40 +0530] "POST /ITAFWebApplication/itafpack.do HTTP/1.1" 200 218005
0:0:0:0:0:0:0:1 - - [15/Feb/2017:17:18:40 +0530] "GET /ITAFWebApplication/css/bootstrap.min.css HTTP/1.1" 200 121260
0:0:0:0:0:0:0:1 - - [15/Feb/2017:17:18:40 +0530] "GET /ITAFWebApplication/css/demo3/try.css HTTP/1.1" 200 4871
0:0:0:0:0:0:0:1 - - [15/Feb/2017:17:18:40 +0530] "GET /ITAFWebApplication/css/demo3/responsiveTables.css HTTP/1.1" 200 182
0:0:0:0:0:0:0:1 - - [15/Feb/2017:17:18:40 +0530] "GET /ITAFWebApplication/files/advancedReport.html?projectname=SafeAuto&actionType=execute HTTP/1.1" 200 14269
0:0:0:0:0:0:0:1 - - [15/Feb/2017:17:18:45 +0530] "GET /ITAFWebApplication/css/bootstrap.min.css HTTP/1.1" 200 121260
0:0:0:0:0:0:0:1 - - [15/Feb/2017:17:18:45 +0530] "GET /ITAFWebApplication/css/demo3/try.css HTTP/1.1" 200 4871
0:0:0:0:0:0:0:1 - - [15/Feb/2017:17:18:45 +0530] "POST /ITAFWebApplication/itafpack.do HTTP/1.1" 200 65249
0:0:0:0:0:0:0:1 - - [15/Feb/2017:17:18:45 +0530] "GET /ITAFWebApplication/css/demo3/responsiveTables.css HTTP/1.1" 200 182
0:0:0:0:0:0:0:1 - - [15/Feb/2017:17:18:45 +0530] "GET /ITAFWebApplication/files/advancedReport.html?projectname=SafeAuto&actionType=execute HTTP/1.1" 200 14269
0:0:0:0:0:0:0:1 - - [15/Feb/2017:17:18:47 +0530] "POST /ITAFWebApplication/itafpack.do HTTP/1.1" 200 69051
0:0:0:0:0:0:0:1 - - [15/Feb/2017:17:18:47 +0530] "GET /ITAFWebApplication/css/demo3/try.css HTTP/1.1" 200 4871
0:0:0:0:0:0:0:1 - - [15/Feb/2017:17:18:47 +0530] "GET /ITAFWebApplication/css/bootstrap.min.css HTTP/1.1" 200 121260
0:0:0:0:0:0:0:1 - - [15/Feb/2017:17:18:47 +0530] "GET /ITAFWebApplication/css/demo3/responsiveTables.css HTTP/1.1" 200 182
0:0:0:0:0:0:0:1 - - [15/Feb/2017:17:18:47 +0530] "GET /ITAFWebApplication/files/advancedReport.html?projectname=SafeAuto&actionType=execute HTTP/1.1" 200 14269
0:0:0:0:0:0:0:1 - - [15/Feb/2017:17:20:38 +0530] "GET /ITAFWebApplication/css/demo3/try.css HTTP/1.1" 200 4871
0:0:0:0:0:0:0:1 - - [15/Feb/2017:17:20:38 +0530] "GET /ITAFWebApplication/css/bootstrap.min.css HTTP/1.1" 200 121260
0:0:0:0:0:0:0:1 - - [15/Feb/2017:17:20:38 +0530] "GET /ITAFWebApplication/css/demo3/responsiveTables.css HTTP/1.1" 200 182
0:0:0:0:0:0:0:1 - - [15/Feb/2017:17:20:38 +0530] "POST /ITAFWebApplication/itafpack.do HTTP/1.1" 200 69292
0:0:0:0:0:0:0:1 - - [15/Feb/2017:17:20:38 +0530] "GET /ITAFWebApplication/files/advancedReport.html?projectname=SafeAuto&actionType=execute HTTP/1.1" 200 14269
0:0:0:0:0:0:0:1 - - [15/Feb/2017:17:20:51 +0530] "GET /ITAFWebApplication/css/bootstrap.min.css HTTP/1.1" 200 121260
0:0:0:0:0:0:0:1 - - [15/Feb/2017:17:20:51 +0530] "GET /ITAFWebApplication/css/demo3/try.css HTTP/1.1" 200 4871
0:0:0:0:0:0:0:1 - - [15/Feb/2017:17:20:51 +0530] "POST /ITAFWebApplication/itafpack.do HTTP/1.1" 200 217855
0:0:0:0:0:0:0:1 - - [15/Feb/2017:17:20:51 +0530] "GET /ITAFWebApplication/css/demo3/responsiveTables.css HTTP/1.1" 200 182
0:0:0:0:0:0:0:1 - - [15/Feb/2017:17:20:51 +0530] "GET /ITAFWebApplication/files/advancedReport.html?projectname=SafeAuto&actionType=execute HTTP/1.1" 200 14269
0:0:0:0:0:0:0:1 - - [15/Feb/2017:17:21:13 +0530] "POST /ITAFWebApplication/itafpack.do HTTP/1.1" 200 226913
0:0:0:0:0:0:0:1 - - [15/Feb/2017:17:21:13 +0530] "GET /ITAFWebApplication/css/bootstrap.min.css HTTP/1.1" 200 121260
0:0:0:0:0:0:0:1 - - [15/Feb/2017:17:21:13 +0530] "GET /ITAFWebApplication/css/demo3/try.css HTTP/1.1" 200 4871
0:0:0:0:0:0:0:1 - - [15/Feb/2017:17:21:14 +0530] "GET /ITAFWebApplication/css/demo3/responsiveTables.css HTTP/1.1" 200 182
0:0:0:0:0:0:0:1 - - [15/Feb/2017:17:21:14 +0530] "GET /ITAFWebApplication/files/advancedReport.html?projectname=SafeAuto&actionType=execute HTTP/1.1" 200 14269
0:0:0:0:0:0:0:1 - - [15/Feb/2017:17:21:15 +0530] "POST /ITAFWebApplication/itafpack.do HTTP/1.1" 200 226763
0:0:0:0:0:0:0:1 - - [15/Feb/2017:17:21:15 +0530] "GET /ITAFWebApplication/css/bootstrap.min.css HTTP/1.1" 200 121260
0:0:0:0:0:0:0:1 - - [15/Feb/2017:17:21:15 +0530] "GET /ITAFWebApplication/css/demo3/try.css HTTP/1.1" 200 4871
0:0:0:0:0:0:0:1 - - [15/Feb/2017:17:21:15 +0530] "GET /ITAFWebApplication/css/demo3/responsiveTables.css HTTP/1.1" 200 182
0:0:0:0:0:0:0:1 - - [15/Feb/2017:17:21:15 +0530] "GET /ITAFWebApplication/files/advancedReport.html?projectname=SafeAuto&actionType=execute HTTP/1.1" 200 14269
0:0:0:0:0:0:0:1 - - [15/Feb/2017:17:21:42 +0530] "POST /ITAFWebApplication/itafpack.do HTTP/1.1" 200 226913
0:0:0:0:0:0:0:1 - - [15/Feb/2017:17:21:42 +0530] "GET /ITAFWebApplication/css/bootstrap.min.css HTTP/1.1" 200 121260
0:0:0:0:0:0:0:1 - - [15/Feb/2017:17:21:42 +0530] "GET /ITAFWebApplication/css/demo3/try.css HTTP/1.1" 200 4871
0:0:0:0:0:0:0:1 - - [15/Feb/2017:17:21:42 +0530] "GET /ITAFWebApplication/css/demo3/responsiveTables.css HTTP/1.1" 200 182
0:0:0:0:0:0:0:1 - - [15/Feb/2017:17:21:42 +0530] "GET /ITAFWebApplication/files/advancedReport.html?projectname=SafeAuto&actionType=execute HTTP/1.1" 200 14269
0:0:0:0:0:0:0:1 - - [15/Feb/2017:17:21:45 +0530] "POST /ITAFWebApplication/itafpack.do HTTP/1.1" 200 65249
0:0:0:0:0:0:0:1 - - [15/Feb/2017:17:21:45 +0530] "GET /ITAFWebApplication/css/bootstrap.min.css HTTP/1.1" 200 121260
0:0:0:0:0:0:0:1 - - [15/Feb/2017:17:21:45 +0530] "GET /ITAFWebApplication/css/demo3/try.css HTTP/1.1" 200 4871
0:0:0:0:0:0:0:1 - - [15/Feb/2017:17:21:45 +0530] "GET /ITAFWebApplication/css/demo3/responsiveTables.css HTTP/1.1" 200 182
0:0:0:0:0:0:0:1 - - [15/Feb/2017:17:21:45 +0530] "GET /ITAFWebApplication/files/advancedReport.html?projectname=SafeAuto&actionType=execute HTTP/1.1" 200 14269
0:0:0:0:0:0:0:1 - - [15/Feb/2017:17:21:47 +0530] "GET /ITAFWebApplication/css/bootstrap.min.css HTTP/1.1" 200 121260
0:0:0:0:0:0:0:1 - - [15/Feb/2017:17:21:47 +0530] "GET /ITAFWebApplication/css/demo3/responsiveTables.css HTTP/1.1" 200 182
0:0:0:0:0:0:0:1 - - [15/Feb/2017:17:21:47 +0530] "GET /ITAFWebApplication/css/demo3/try.css HTTP/1.1" 200 4871
0:0:0:0:0:0:0:1 - - [15/Feb/2017:17:21:47 +0530] "POST /ITAFWebApplication/itafpack.do HTTP/1.1" 200 69513
0:0:0:0:0:0:0:1 - - [15/Feb/2017:17:21:47 +0530] "GET /ITAFWebApplication/files/advancedReport.html?projectname=SafeAuto&actionType=execute HTTP/1.1" 200 14269
0:0:0:0:0:0:0:1 - - [15/Feb/2017:17:23:06 +0530] "GET /ITAFWebApplication/css/demo3/try.css HTTP/1.1" 200 4871
0:0:0:0:0:0:0:1 - - [15/Feb/2017:17:23:06 +0530] "GET /ITAFWebApplication/css/bootstrap.min.css HTTP/1.1" 200 121260
0:0:0:0:0:0:0:1 - - [15/Feb/2017:17:23:06 +0530] "GET /ITAFWebApplication/css/demo3/responsiveTables.css HTTP/1.1" 200 182
0:0:0:0:0:0:0:1 - - [15/Feb/2017:17:23:06 +0530] "POST /ITAFWebApplication/itafpack.do HTTP/1.1" 200 69677
0:0:0:0:0:0:0:1 - - [15/Feb/2017:17:23:06 +0530] "GET /ITAFWebApplication/files/advancedReport.html?projectname=SafeAuto&actionType=execute HTTP/1.1" 200 14269
0:0:0:0:0:0:0:1 - - [15/Feb/2017:17:23:09 +0530] "POST /ITAFWebApplication/itafexecute.do HTTP/1.1" 200 19682
0:0:0:0:0:0:0:1 - - [15/Feb/2017:17:23:09 +0530] "GET /ITAFWebApplication/js/demo3/executetry.js HTTP/1.1" 200 1945
0:0:0:0:0:0:0:1 - - [15/Feb/2017:17:23:09 +0530] "GET /ITAFWebApplication/js/loader.js HTTP/1.1" 200 70294
0:0:0:0:0:0:0:1 - - [15/Feb/2017:17:23:09 +0530] "GET /ITAFWebApplication/js/demo3/bootstrap-progressbar.js HTTP/1.1" 200 6284
0:0:0:0:0:0:0:1 - - [15/Feb/2017:17:23:15 +0530] "GET /ITAFWebApplication/css/demo3/try.css HTTP/1.1" 200 4871
0:0:0:0:0:0:0:1 - - [15/Feb/2017:17:23:15 +0530] "GET /ITAFWebApplication/css/bootstrap.min.css HTTP/1.1" 200 121260
0:0:0:0:0:0:0:1 - - [15/Feb/2017:17:23:15 +0530] "POST /ITAFWebApplication/itafexecute.do HTTP/1.1" 200 52479
0:0:0:0:0:0:0:1 - - [15/Feb/2017:17:23:15 +0530] "GET /ITAFWebApplication/css/demo3/responsiveTables.css HTTP/1.1" 200 182
0:0:0:0:0:0:0:1 - - [15/Feb/2017:17:23:23 +0530] "GET /ITAFWebApplication/css/bootstrap.min.css HTTP/1.1" 200 121260
0:0:0:0:0:0:0:1 - - [15/Feb/2017:17:23:23 +0530] "POST /ITAFWebApplication/itafpack.do HTTP/1.1" 200 63368
0:0:0:0:0:0:0:1 - - [15/Feb/2017:17:23:23 +0530] "GET /ITAFWebApplication/css/demo3/try.css HTTP/1.1" 200 4871
0:0:0:0:0:0:0:1 - - [15/Feb/2017:17:23:23 +0530] "GET /ITAFWebApplication/css/demo3/responsiveTables.css HTTP/1.1" 200 182
0:0:0:0:0:0:0:1 - - [15/Feb/2017:17:23:23 +0530] "GET /ITAFWebApplication/files/advancedReport.html?projectname=SafeAuto&actionType=execute HTTP/1.1" 200 14269
0:0:0:0:0:0:0:1 - - [15/Feb/2017:17:23:26 +0530] "POST /ITAFWebApplication/itafpack.do HTTP/1.1" 200 226763
0:0:0:0:0:0:0:1 - - [15/Feb/2017:17:23:26 +0530] "GET /ITAFWebApplication/files/advancedReport.html?projectname=SafeAuto&actionType=execute HTTP/1.1" 200 14269
0:0:0:0:0:0:0:1 - - [15/Feb/2017:17:23:39 +0530] "POST /ITAFWebApplication/itafpack.do HTTP/1.1" 200 235763
0:0:0:0:0:0:0:1 - - [15/Feb/2017:17:23:39 +0530] "GET /ITAFWebApplication/css/bootstrap.min.css HTTP/1.1" 200 121260
0:0:0:0:0:0:0:1 - - [15/Feb/2017:17:23:39 +0530] "GET /ITAFWebApplication/css/demo3/try.css HTTP/1.1" 200 4871
0:0:0:0:0:0:0:1 - - [15/Feb/2017:17:23:39 +0530] "GET /ITAFWebApplication/files/advancedReport.html?projectname=SafeAuto&actionType=execute HTTP/1.1" 200 14269
0:0:0:0:0:0:0:1 - - [15/Feb/2017:17:23:42 +0530] "POST /ITAFWebApplication/itafexecute.do HTTP/1.1" 200 19682
0:0:0:0:0:0:0:1 - - [15/Feb/2017:17:23:42 +0530] "GET /ITAFWebApplication/css/demo3/try.css HTTP/1.1" 200 4871
0:0:0:0:0:0:0:1 - - [15/Feb/2017:17:23:42 +0530] "GET /ITAFWebApplication/css/bootstrap.min.css HTTP/1.1" 200 121260
0:0:0:0:0:0:0:1 - - [15/Feb/2017:17:23:42 +0530] "GET /ITAFWebApplication/js/demo3/executetry.js HTTP/1.1" 200 1945
0:0:0:0:0:0:0:1 - - [15/Feb/2017:17:23:42 +0530] "GET /ITAFWebApplication/js/demo3/bootstrap-progressbar.js HTTP/1.1" 200 6284
0:0:0:0:0:0:0:1 - - [15/Feb/2017:17:23:42 +0530] "GET /ITAFWebApplication/js/loader.js HTTP/1.1" 200 70294
0:0:0:0:0:0:0:1 - - [15/Feb/2017:17:25:06 +0530] "POST /ITAFWebApplication/itafexecute.do HTTP/1.1" 200 1139
0:0:0:0:0:0:0:1 - - [15/Feb/2017:17:25:27 +0530] "POST /ITAFWebApplication/itafexecute.do HTTP/1.1" 200 240
0:0:0:0:0:0:0:1 - - [15/Feb/2017:17:25:27 +0530] "GET /ITAFWebApplication/files/advancedReport.html?projectname=SafeAuto&actionType=execute HTTP/1.1" 200 14269
0:0:0:0:0:0:0:1 - - [15/Feb/2017:17:26:09 +0530] "POST /ITAFWebApplication/itafexecute.do HTTP/1.1" 200 19682
0:0:0:0:0:0:0:1 - - [15/Feb/2017:17:26:09 +0530] "GET /ITAFWebApplication/css/bootstrap.min.css HTTP/1.1" 200 121260
0:0:0:0:0:0:0:1 - - [15/Feb/2017:17:26:09 +0530] "GET /ITAFWebApplication/css/demo3/try.css HTTP/1.1" 200 4871
0:0:0:0:0:0:0:1 - - [15/Feb/2017:17:26:22 +0530] "GET /ITAFWebApplication/css/demo3/try.css HTTP/1.1" 200 4871
0:0:0:0:0:0:0:1 - - [15/Feb/2017:17:26:22 +0530] "GET /ITAFWebApplication/css/bootstrap.min.css HTTP/1.1" 200 121260
0:0:0:0:0:0:0:1 - - [15/Feb/2017:17:26:22 +0530] "POST /ITAFWebApplication/itafexecute.do HTTP/1.1" 200 52485
0:0:0:0:0:0:0:1 - - [15/Feb/2017:17:26:26 +0530] "POST /ITAFWebApplication/itafpack.do HTTP/1.1" 200 63368
0:0:0:0:0:0:0:1 - - [15/Feb/2017:17:26:26 +0530] "GET /ITAFWebApplication/files/advancedReport.html?projectname=SafeAuto&actionType=execute HTTP/1.1" 200 14269
0:0:0:0:0:0:0:1 - - [15/Feb/2017:17:26:28 +0530] "POST /ITAFWebApplication/itafpack.do HTTP/1.1" 200 235613
0:0:0:0:0:0:0:1 - - [15/Feb/2017:17:26:28 +0530] "GET /ITAFWebApplication/css/bootstrap.min.css HTTP/1.1" 200 121260
0:0:0:0:0:0:0:1 - - [15/Feb/2017:17:26:28 +0530] "GET /ITAFWebApplication/css/demo3/try.css HTTP/1.1" 200 4871
0:0:0:0:0:0:0:1 - - [15/Feb/2017:17:26:28 +0530] "GET /ITAFWebApplication/files/advancedReport.html?projectname=SafeAuto&actionType=execute HTTP/1.1" 200 14269
0:0:0:0:0:0:0:1 - - [15/Feb/2017:17:29:16 +0530] "POST /ITAFWebApplication/itafpack.do HTTP/1.1" 200 244615
0:0:0:0:0:0:0:1 - - [15/Feb/2017:17:29:16 +0530] "GET /ITAFWebApplication/css/bootstrap.min.css HTTP/1.1" 200 121260
0:0:0:0:0:0:0:1 - - [15/Feb/2017:17:29:16 +0530] "GET /ITAFWebApplication/css/demo3/try.css HTTP/1.1" 200 4871
0:0:0:0:0:0:0:1 - - [15/Feb/2017:17:29:16 +0530] "GET /ITAFWebApplication/files/advancedReport.html?projectname=SafeAuto&actionType=execute HTTP/1.1" 200 14269
0:0:0:0:0:0:0:1 - - [15/Feb/2017:17:29:18 +0530] "POST /ITAFWebApplication/itafpack.do HTTP/1.1" 200 244465
0:0:0:0:0:0:0:1 - - [15/Feb/2017:17:29:18 +0530] "GET /ITAFWebApplication/css/bootstrap.min.css HTTP/1.1" 200 121260
0:0:0:0:0:0:0:1 - - [15/Feb/2017:17:29:18 +0530] "GET /ITAFWebApplication/css/demo3/try.css HTTP/1.1" 200 4871
0:0:0:0:0:0:0:1 - - [15/Feb/2017:17:29:18 +0530] "GET /ITAFWebApplication/files/advancedReport.html?projectname=SafeAuto&actionType=execute HTTP/1.1" 200 14269
0:0:0:0:0:0:0:1 - - [15/Feb/2017:17:29:28 +0530] "POST /ITAFWebApplication/itafpack.do HTTP/1.1" 200 244615
0:0:0:0:0:0:0:1 - - [15/Feb/2017:17:29:28 +0530] "GET /ITAFWebApplication/css/demo3/try.css HTTP/1.1" 200 4871
0:0:0:0:0:0:0:1 - - [15/Feb/2017:17:29:28 +0530] "GET /ITAFWebApplication/css/bootstrap.min.css HTTP/1.1" 200 121260
0:0:0:0:0:0:0:1 - - [15/Feb/2017:17:29:28 +0530] "GET /ITAFWebApplication/files/advancedReport.html?projectname=SafeAuto&actionType=execute HTTP/1.1" 200 14269
0:0:0:0:0:0:0:1 - - [15/Feb/2017:17:29:32 +0530] "POST /ITAFWebApplication/itafpack.do HTTP/1.1" 200 65249
0:0:0:0:0:0:0:1 - - [15/Feb/2017:17:29:32 +0530] "GET /ITAFWebApplication/css/bootstrap.min.css HTTP/1.1" 200 121260
0:0:0:0:0:0:0:1 - - [15/Feb/2017:17:29:32 +0530] "GET /ITAFWebApplication/css/demo3/try.css HTTP/1.1" 200 4871
0:0:0:0:0:0:0:1 - - [15/Feb/2017:17:29:32 +0530] "GET /ITAFWebApplication/files/advancedReport.html?projectname=SafeAuto&actionType=execute HTTP/1.1" 200 14269
0:0:0:0:0:0:0:1 - - [15/Feb/2017:17:29:34 +0530] "GET /ITAFWebApplication/css/bootstrap.min.css HTTP/1.1" 200 121260
0:0:0:0:0:0:0:1 - - [15/Feb/2017:17:29:34 +0530] "POST /ITAFWebApplication/itafpack.do HTTP/1.1" 200 69520
0:0:0:0:0:0:0:1 - - [15/Feb/2017:17:29:34 +0530] "GET /ITAFWebApplication/css/demo3/try.css HTTP/1.1" 200 4871
0:0:0:0:0:0:0:1 - - [15/Feb/2017:17:29:34 +0530] "GET /ITAFWebApplication/files/advancedReport.html?projectname=SafeAuto&actionType=execute HTTP/1.1" 200 14269
0:0:0:0:0:0:0:1 - - [15/Feb/2017:17:29:41 +0530] "POST /ITAFWebApplication/itafpack.do HTTP/1.1" 200 69677
0:0:0:0:0:0:0:1 - - [15/Feb/2017:17:29:41 +0530] "GET /ITAFWebApplication/css/bootstrap.min.css HTTP/1.1" 200 121260
0:0:0:0:0:0:0:1 - - [15/Feb/2017:17:29:41 +0530] "GET /ITAFWebApplication/css/demo3/try.css HTTP/1.1" 200 4871
0:0:0:0:0:0:0:1 - - [15/Feb/2017:17:29:41 +0530] "GET /ITAFWebApplication/files/advancedReport.html?projectname=SafeAuto&actionType=execute HTTP/1.1" 200 14269
0:0:0:0:0:0:0:1 - - [15/Feb/2017:17:29:43 +0530] "POST /ITAFWebApplication/itafexecute.do HTTP/1.1" 200 19682
0:0:0:0:0:0:0:1 - - [15/Feb/2017:17:29:43 +0530] "GET /ITAFWebApplication/css/demo3/try.css HTTP/1.1" 200 4871
0:0:0:0:0:0:0:1 - - [15/Feb/2017:17:29:43 +0530] "GET /ITAFWebApplication/css/bootstrap.min.css HTTP/1.1" 200 121260
0:0:0:0:0:0:0:1 - - [15/Feb/2017:17:29:43 +0530] "GET /ITAFWebApplication/js/demo3/bootstrap-progressbar.js HTTP/1.1" 200 6284
0:0:0:0:0:0:0:1 - - [15/Feb/2017:17:29:43 +0530] "GET /ITAFWebApplication/js/demo3/executetry.js HTTP/1.1" 200 1945
0:0:0:0:0:0:0:1 - - [15/Feb/2017:17:29:43 +0530] "GET /ITAFWebApplication/js/loader.js HTTP/1.1" 200 70294
0:0:0:0:0:0:0:1 - - [15/Feb/2017:17:31:16 +0530] "POST /ITAFWebApplication/itafexecute.do HTTP/1.1" 200 1682
0:0:0:0:0:0:0:1 - - [15/Feb/2017:17:31:23 +0530] "POST /ITAFWebApplication/itafexecute.do HTTP/1.1" 200 52485
0:0:0:0:0:0:0:1 - - [15/Feb/2017:17:31:23 +0530] "GET /ITAFWebApplication/css/bootstrap.min.css HTTP/1.1" 200 121260
0:0:0:0:0:0:0:1 - - [15/Feb/2017:17:31:23 +0530] "GET /ITAFWebApplication/css/demo3/try.css HTTP/1.1" 200 4871
0:0:0:0:0:0:0:1 - - [15/Feb/2017:17:31:33 +0530] "GET /ITAFWebApplication/css/demo3/try.css HTTP/1.1" 200 4871
0:0:0:0:0:0:0:1 - - [15/Feb/2017:17:31:33 +0530] "GET /ITAFWebApplication/css/bootstrap.min.css HTTP/1.1" 200 121260
0:0:0:0:0:0:0:1 - - [15/Feb/2017:17:31:33 +0530] "POST /ITAFWebApplication/itafpack.do HTTP/1.1" 200 63368
0:0:0:0:0:0:0:1 - - [15/Feb/2017:17:31:33 +0530] "GET /ITAFWebApplication/files/advancedReport.html?projectname=SafeAuto&actionType=execute HTTP/1.1" 200 14269
0:0:0:0:0:0:0:1 - - [15/Feb/2017:17:31:35 +0530] "POST /ITAFWebApplication/itafpack.do HTTP/1.1" 200 63371
0:0:0:0:0:0:0:1 - - [15/Feb/2017:17:31:36 +0530] "GET /ITAFWebApplication/files/advancedReport.html?projectname=SafeAuto&actionType=execute HTTP/1.1" 200 14269
0:0:0:0:0:0:0:1 - - [15/Feb/2017:17:31:37 +0530] "GET /ITAFWebApplication/css/bootstrap.min.css HTTP/1.1" 200 121260
0:0:0:0:0:0:0:1 - - [15/Feb/2017:17:31:37 +0530] "POST /ITAFWebApplication/itafpack.do HTTP/1.1" 200 244469
0:0:0:0:0:0:0:1 - - [15/Feb/2017:17:31:37 +0530] "GET /ITAFWebApplication/css/demo3/try.css HTTP/1.1" 200 4871
0:0:0:0:0:0:0:1 - - [15/Feb/2017:17:31:38 +0530] "GET /ITAFWebApplication/files/advancedReport.html?projectname=SafeAuto&actionType=execute HTTP/1.1" 200 14269
0:0:0:0:0:0:0:1 - - [15/Feb/2017:17:32:03 +0530] "POST /ITAFWebApplication/itafpack.do HTTP/1.1" 200 244619
0:0:0:0:0:0:0:1 - - [15/Feb/2017:17:32:03 +0530] "GET /ITAFWebApplication/css/bootstrap.min.css HTTP/1.1" 200 121260
0:0:0:0:0:0:0:1 - - [15/Feb/2017:17:32:03 +0530] "GET /ITAFWebApplication/css/demo3/try.css HTTP/1.1" 200 4871
0:0:0:0:0:0:0:1 - - [15/Feb/2017:17:32:04 +0530] "GET /ITAFWebApplication/files/advancedReport.html?projectname=SafeAuto&actionType=execute HTTP/1.1" 200 14269
0:0:0:0:0:0:0:1 - - [15/Feb/2017:17:32:07 +0530] "POST /ITAFWebApplication/itafexecute.do HTTP/1.1" 200 19682
0:0:0:0:0:0:0:1 - - [15/Feb/2017:17:32:07 +0530] "GET /ITAFWebApplication/css/bootstrap.min.css HTTP/1.1" 200 121260
0:0:0:0:0:0:0:1 - - [15/Feb/2017:17:32:07 +0530] "GET /ITAFWebApplication/css/demo3/try.css HTTP/1.1" 200 4871
0:0:0:0:0:0:0:1 - - [15/Feb/2017:17:32:07 +0530] "GET /ITAFWebApplication/js/demo3/bootstrap-progressbar.js HTTP/1.1" 200 6284
0:0:0:0:0:0:0:1 - - [15/Feb/2017:17:32:07 +0530] "GET /ITAFWebApplication/js/demo3/executetry.js HTTP/1.1" 200 1945
0:0:0:0:0:0:0:1 - - [15/Feb/2017:17:32:07 +0530] "GET /ITAFWebApplication/js/loader.js HTTP/1.1" 200 70294
0:0:0:0:0:0:0:1 - - [15/Feb/2017:17:33:47 +0530] "POST /ITAFWebApplication/itafexecute.do HTTP/1.1" 200 2225
0:0:0:0:0:0:0:1 - - [15/Feb/2017:17:34:08 +0530] "POST /ITAFWebApplication/itafexecute.do HTTP/1.1" 200 2
0:0:0:0:0:0:0:1 - - [15/Feb/2017:17:34:15 +0530] "POST /ITAFWebApplication/itafexecute.do HTTP/1.1" 200 240
0:0:0:0:0:0:0:1 - - [15/Feb/2017:17:34:15 +0530] "GET /ITAFWebApplication/files/advancedReport.html?projectname=SafeAuto&actionType=execute HTTP/1.1" 200 14267
0:0:0:0:0:0:0:1 - - [15/Feb/2017:17:34:36 +0530] "POST /ITAFWebApplication/itafexecute.do HTTP/1.1" 200 19245
0:0:0:0:0:0:0:1 - - [15/Feb/2017:17:34:36 +0530] "GET /ITAFWebApplication/css/bootstrap.min.css HTTP/1.1" 200 121260
0:0:0:0:0:0:0:1 - - [15/Feb/2017:17:34:36 +0530] "GET /ITAFWebApplication/css/demo3/try.css HTTP/1.1" 200 4871
0:0:0:0:0:0:0:1 - - [15/Feb/2017:17:34:38 +0530] "POST /ITAFWebApplication/itafexecute.do HTTP/1.1" 200 19245
0:0:0:0:0:0:0:1 - - [15/Feb/2017:17:34:38 +0530] "GET /ITAFWebApplication/css/bootstrap.min.css HTTP/1.1" 200 121260
0:0:0:0:0:0:0:1 - - [15/Feb/2017:17:34:38 +0530] "GET /ITAFWebApplication/css/demo3/try.css HTTP/1.1" 200 4871
0:0:0:0:0:0:0:1 - - [15/Feb/2017:17:34:40 +0530] "POST /ITAFWebApplication/itafexecute.do HTTP/1.1" 200 241
0:0:0:0:0:0:0:1 - - [15/Feb/2017:17:34:40 +0530] "GET /ITAFWebApplication/files/ConsoleOutputLog.txt?projectname=SafeAuto&actionType=logfile HTTP/1.1" 200 7599
0:0:0:0:0:0:0:1 - - [15/Feb/2017:17:34:48 +0530] "GET /ITAFWebApplication/css/bootstrap.min.css HTTP/1.1" 200 121260
0:0:0:0:0:0:0:1 - - [15/Feb/2017:17:34:48 +0530] "GET /ITAFWebApplication/css/demo3/try.css HTTP/1.1" 200 4871
0:0:0:0:0:0:0:1 - - [15/Feb/2017:17:34:48 +0530] "POST /ITAFWebApplication/itafexecute.do HTTP/1.1" 200 52479
0:0:0:0:0:0:0:1 - - [15/Feb/2017:17:34:57 +0530] "GET /ITAFWebApplication/css/demo3/try.css HTTP/1.1" 200 4871
0:0:0:0:0:0:0:1 - - [15/Feb/2017:17:34:57 +0530] "GET /ITAFWebApplication/css/bootstrap.min.css HTTP/1.1" 200 121260
0:0:0:0:0:0:0:1 - - [15/Feb/2017:17:34:57 +0530] "POST /ITAFWebApplication/itafpack.do HTTP/1.1" 200 63372
0:0:0:0:0:0:0:1 - - [15/Feb/2017:17:34:57 +0530] "GET /ITAFWebApplication/files/advancedReport.html?projectname=SafeAuto&actionType=execute HTTP/1.1" 200 14267
0:0:0:0:0:0:0:1 - - [15/Feb/2017:17:35:00 +0530] "POST /ITAFWebApplication/itafpack.do HTTP/1.1" 200 244469
0:0:0:0:0:0:0:1 - - [15/Feb/2017:17:35:00 +0530] "GET /ITAFWebApplication/css/bootstrap.min.css HTTP/1.1" 200 121260
0:0:0:0:0:0:0:1 - - [15/Feb/2017:17:35:00 +0530] "GET /ITAFWebApplication/css/demo3/try.css HTTP/1.1" 200 4871
0:0:0:0:0:0:0:1 - - [15/Feb/2017:17:35:00 +0530] "GET /ITAFWebApplication/files/advancedReport.html?projectname=SafeAuto&actionType=execute HTTP/1.1" 200 14267
0:0:0:0:0:0:0:1 - - [15/Feb/2017:17:35:26 +0530] "GET /ITAFWebApplication/css/demo3/try.css HTTP/1.1" 200 4871
0:0:0:0:0:0:0:1 - - [15/Feb/2017:17:35:26 +0530] "GET /ITAFWebApplication/css/bootstrap.min.css HTTP/1.1" 200 121260
0:0:0:0:0:0:0:1 - - [15/Feb/2017:17:35:26 +0530] "POST /ITAFWebApplication/itafpack.do HTTP/1.1" 200 209219
0:0:0:0:0:0:0:1 - - [15/Feb/2017:17:35:26 +0530] "GET /ITAFWebApplication/files/advancedReport.html?projectname=SafeAuto&actionType=execute HTTP/1.1" 200 14267
0:0:0:0:0:0:0:1 - - [15/Feb/2017:17:35:29 +0530] "POST /ITAFWebApplication/itafpack.do HTTP/1.1" 200 93399
0:0:0:0:0:0:0:1 - - [15/Feb/2017:17:35:29 +0530] "GET /ITAFWebApplication/css/bootstrap.min.css HTTP/1.1" 200 121260
0:0:0:0:0:0:0:1 - - [15/Feb/2017:17:35:29 +0530] "GET /ITAFWebApplication/css/demo3/try.css HTTP/1.1" 200 4871
0:0:0:0:0:0:0:1 - - [15/Feb/2017:17:35:29 +0530] "GET /ITAFWebApplication/files/advancedReport.html?projectname=SafeAuto&actionType=execute HTTP/1.1" 200 14267
0:0:0:0:0:0:0:1 - - [15/Feb/2017:17:35:32 +0530] "POST /ITAFWebApplication/itafpack.do HTTP/1.1" 200 93548
0:0:0:0:0:0:0:1 - - [15/Feb/2017:17:35:32 +0530] "GET /ITAFWebApplication/files/advancedReport.html?projectname=SafeAuto&actionType=execute HTTP/1.1" 200 14267
0:0:0:0:0:0:0:1 - - [15/Feb/2017:17:35:36 +0530] "POST /ITAFWebApplication/itafpack.do HTTP/1.1" 200 65253
0:0:0:0:0:0:0:1 - - [15/Feb/2017:17:35:36 +0530] "GET /ITAFWebApplication/css/bootstrap.min.css HTTP/1.1" 200 121260
0:0:0:0:0:0:0:1 - - [15/Feb/2017:17:35:36 +0530] "GET /ITAFWebApplication/css/demo3/try.css HTTP/1.1" 200 4871
0:0:0:0:0:0:0:1 - - [15/Feb/2017:17:35:36 +0530] "GET /ITAFWebApplication/files/advancedReport.html?projectname=SafeAuto&actionType=execute HTTP/1.1" 200 14267
0:0:0:0:0:0:0:1 - - [15/Feb/2017:17:35:37 +0530] "GET /ITAFWebApplication/css/bootstrap.min.css HTTP/1.1" 200 121260
0:0:0:0:0:0:0:1 - - [15/Feb/2017:17:35:37 +0530] "GET /ITAFWebApplication/css/demo3/try.css HTTP/1.1" 200 4871
0:0:0:0:0:0:0:1 - - [15/Feb/2017:17:35:37 +0530] "POST /ITAFWebApplication/itafpack.do HTTP/1.1" 200 69524
0:0:0:0:0:0:0:1 - - [15/Feb/2017:17:35:37 +0530] "GET /ITAFWebApplication/files/advancedReport.html?projectname=SafeAuto&actionType=execute HTTP/1.1" 200 14267
0:0:0:0:0:0:0:1 - - [15/Feb/2017:17:35:45 +0530] "GET /ITAFWebApplication/css/bootstrap.min.css HTTP/1.1" 200 121260
0:0:0:0:0:0:0:1 - - [15/Feb/2017:17:35:45 +0530] "GET /ITAFWebApplication/css/demo3/try.css HTTP/1.1" 200 4871
0:0:0:0:0:0:0:1 - - [15/Feb/2017:17:35:45 +0530] "POST /ITAFWebApplication/itafpack.do HTTP/1.1" 200 209068
0:0:0:0:0:0:0:1 - - [15/Feb/2017:17:35:45 +0530] "GET /ITAFWebApplication/files/advancedReport.html?projectname=SafeAuto&actionType=execute HTTP/1.1" 200 14267
0:0:0:0:0:0:0:1 - - [15/Feb/2017:17:35:51 +0530] "POST /ITAFWebApplication/itafpack.do HTTP/1.1" 200 209219
0:0:0:0:0:0:0:1 - - [15/Feb/2017:17:35:51 +0530] "GET /ITAFWebApplication/files/advancedReport.html?projectname=SafeAuto&actionType=execute HTTP/1.1" 200 14267
0:0:0:0:0:0:0:1 - - [15/Feb/2017:17:36:14 +0530] "POST /ITAFWebApplication/itafexecute.do HTTP/1.1" 200 19682
0:0:0:0:0:0:0:1 - - [15/Feb/2017:17:36:14 +0530] "GET /ITAFWebApplication/css/demo3/try.css HTTP/1.1" 200 4871
0:0:0:0:0:0:0:1 - - [15/Feb/2017:17:36:14 +0530] "GET /ITAFWebApplication/css/bootstrap.min.css HTTP/1.1" 200 121260
0:0:0:0:0:0:0:1 - - [15/Feb/2017:17:36:14 +0530] "GET /ITAFWebApplication/js/demo3/executetry.js HTTP/1.1" 200 1945
0:0:0:0:0:0:0:1 - - [15/Feb/2017:17:36:14 +0530] "GET /ITAFWebApplication/js/demo3/bootstrap-progressbar.js HTTP/1.1" 200 6284
0:0:0:0:0:0:0:1 - - [15/Feb/2017:17:36:14 +0530] "GET /ITAFWebApplication/js/loader.js HTTP/1.1" 200 70294
0:0:0:0:0:0:0:1 - - [15/Feb/2017:17:37:51 +0530] "POST /ITAFWebApplication/itafexecute.do HTTP/1.1" 200 2769
0:0:0:0:0:0:0:1 - - [15/Feb/2017:17:38:02 +0530] "POST /ITAFWebApplication/itafexecute.do HTTP/1.1" 200 240
0:0:0:0:0:0:0:1 - - [15/Feb/2017:17:38:02 +0530] "GET /ITAFWebApplication/files/advancedReport.html?projectname=SafeAuto&actionType=execute HTTP/1.1" 200 14269
0:0:0:0:0:0:0:1 - - [15/Feb/2017:17:38:33 +0530] "GET /ITAFWebApplication/css/demo3/try.css HTTP/1.1" 200 4871
0:0:0:0:0:0:0:1 - - [15/Feb/2017:17:38:33 +0530] "POST /ITAFWebApplication/itafexecute.do HTTP/1.1" 200 52479
0:0:0:0:0:0:0:1 - - [15/Feb/2017:17:38:33 +0530] "GET /ITAFWebApplication/css/bootstrap.min.css HTTP/1.1" 200 121260
0:0:0:0:0:0:0:1 - - [15/Feb/2017:17:43:10 +0530] "POST /ITAFWebApplication/itafexecute.do HTTP/1.1" 200 19682
0:0:0:0:0:0:0:1 - - [15/Feb/2017:17:43:10 +0530] "GET /ITAFWebApplication/css/bootstrap.min.css HTTP/1.1" 200 121260
0:0:0:0:0:0:0:1 - - [15/Feb/2017:17:43:10 +0530] "GET /ITAFWebApplication/css/demo3/try.css HTTP/1.1" 200 4871
0:0:0:0:0:0:0:1 - - [15/Feb/2017:17:43:10 +0530] "GET /ITAFWebApplication/js/loader.js HTTP/1.1" 200 70294
0:0:0:0:0:0:0:1 - - [15/Feb/2017:17:43:10 +0530] "GET /ITAFWebApplication/js/demo3/executetry.js HTTP/1.1" 200 1945
0:0:0:0:0:0:0:1 - - [15/Feb/2017:17:43:10 +0530] "GET /ITAFWebApplication/js/demo3/bootstrap-progressbar.js HTTP/1.1" 200 6284
0:0:0:0:0:0:0:1 - - [15/Feb/2017:20:02:17 +0530] "POST /ITAFWebApplication/itafexecute.do HTTP/1.1" 302 -
0:0:0:0:0:0:0:1 - - [15/Feb/2017:20:02:17 +0530] "GET /ITAFWebApplication/login.jsp HTTP/1.1" 200 27677
0:0:0:0:0:0:0:1 - - [15/Feb/2017:20:02:17 +0530] "GET /ITAFWebApplication/css/login.css HTTP/1.1" 200 1077
0:0:0:0:0:0:0:1 - - [15/Feb/2017:20:02:17 +0530] "GET /ITAFWebApplication/css/bootstrap.min.css HTTP/1.1" 200 121260
0:0:0:0:0:0:0:1 - - [15/Feb/2017:20:02:24 +0530] "GET /ITAFWebApplication/css/bootstrap.min.css HTTP/1.1" 200 121260
0:0:0:0:0:0:0:1 - - [15/Feb/2017:20:02:24 +0530] "GET /ITAFWebApplication/css/demo3/try.css HTTP/1.1" 200 4871
0:0:0:0:0:0:0:1 - - [15/Feb/2017:20:02:24 +0530] "POST /ITAFWebApplication/login.do HTTP/1.1" 200 52479
0:0:0:0:0:0:0:1 - - [15/Feb/2017:20:02:24 +0530] "GET /ITAFWebApplication/css/demo3/responsiveTables.css HTTP/1.1" 200 182
0:0:0:0:0:0:0:1 - - [15/Feb/2017:20:02:24 +0530] "GET /ITAFWebApplication/js/jquery.min.js HTTP/1.1" 200 84380
0:0:0:0:0:0:0:1 - - [15/Feb/2017:20:02:24 +0530] "GET /ITAFWebApplication/js/demo3/try.js HTTP/1.1" 200 45488
0:0:0:0:0:0:0:1 - - [15/Feb/2017:20:02:24 +0530] "GET /ITAFWebApplication/js/bootstrap.min.js HTTP/1.1" 200 36868
0:0:0:0:0:0:0:1 - - [15/Feb/2017:20:02:24 +0530] "GET /ITAFWebApplication/js/demo3/bootstrap-filestyle.min.js HTTP/1.1" 200 7190
0:0:0:0:0:0:0:1 - - [15/Feb/2017:20:02:24 +0530] "GET /ITAFWebApplication/js/demo3/searchTable.js HTTP/1.1" 200 1022
0:0:0:0:0:0:0:1 - - [15/Feb/2017:20:02:24 +0530] "GET /ITAFWebApplication/js/objectCap.js HTTP/1.1" 200 11106
0:0:0:0:0:0:0:1 - - [15/Feb/2017:20:02:24 +0530] "GET /ITAFWebApplication/js/demo3/RowSorter.js HTTP/1.1" 200 8102
0:0:0:0:0:0:0:1 - - [15/Feb/2017:20:02:24 +0530] "GET /ITAFWebApplication/js/demo3/responsiveTables.js HTTP/1.1" 200 1886
