0:0:0:0:0:0:0:1 - - [20/Dec/2016:12:39:36 +0530] "GET /ITAFWebApplication/ HTTP/1.1" 302 -
0:0:0:0:0:0:0:1 - - [20/Dec/2016:12:39:37 +0530] "GET /ITAFWebApplication/login.jsp HTTP/1.1" 200 27677
0:0:0:0:0:0:0:1 - - [20/Dec/2016:12:39:37 +0530] "GET /ITAFWebApplication/css/bootstrap.min.css HTTP/1.1" 200 121260
0:0:0:0:0:0:0:1 - - [20/Dec/2016:12:39:37 +0530] "GET /ITAFWebApplication/css/login.css HTTP/1.1" 200 1077
0:0:0:0:0:0:0:1 - - [20/Dec/2016:12:39:37 +0530] "GET /ITAFWebApplication/js/login.js HTTP/1.1" 200 6947
0:0:0:0:0:0:0:1 - - [20/Dec/2016:12:39:37 +0530] "GET /ITAFWebApplication/Images/iTAF_logo.png HTTP/1.1" 200 33472
0:0:0:0:0:0:0:1 - - [20/Dec/2016:12:39:37 +0530] "GET /ITAFWebApplication/fonts/glyphicons-halflings-regular.woff2 HTTP/1.1" 200 18028
0:0:0:0:0:0:0:1 - - [20/Dec/2016:12:39:50 +0530] "GET /ITAFWebApplication/css/bootstrap.min.css HTTP/1.1" 200 121260
0:0:0:0:0:0:0:1 - - [20/Dec/2016:12:39:50 +0530] "GET /ITAFWebApplication/css/demo3/try.css HTTP/1.1" 200 4871
0:0:0:0:0:0:0:1 - - [20/Dec/2016:12:39:50 +0530] "POST /ITAFWebApplication/login.do HTTP/1.1" 200 48914
0:0:0:0:0:0:0:1 - - [20/Dec/2016:12:39:51 +0530] "GET /ITAFWebApplication/css/demo3/responsiveTables.css HTTP/1.1" 200 182
0:0:0:0:0:0:0:1 - - [20/Dec/2016:12:39:51 +0530] "GET /ITAFWebApplication/js/jquery.min.js HTTP/1.1" 200 84380
0:0:0:0:0:0:0:1 - - [20/Dec/2016:12:39:51 +0530] "GET /ITAFWebApplication/js/bootstrap.min.js HTTP/1.1" 200 36868
0:0:0:0:0:0:0:1 - - [20/Dec/2016:12:39:51 +0530] "GET /ITAFWebApplication/js/objectCap.js HTTP/1.1" 200 11106
0:0:0:0:0:0:0:1 - - [20/Dec/2016:12:39:51 +0530] "GET /ITAFWebApplication/js/demo3/searchTable.js HTTP/1.1" 200 1022
0:0:0:0:0:0:0:1 - - [20/Dec/2016:12:39:51 +0530] "GET /ITAFWebApplication/js/demo3/bootstrap-filestyle.min.js HTTP/1.1" 200 7190
0:0:0:0:0:0:0:1 - - [20/Dec/2016:12:39:51 +0530] "GET /ITAFWebApplication/js/demo3/RowSorter.js HTTP/1.1" 200 8102
0:0:0:0:0:0:0:1 - - [20/Dec/2016:12:39:51 +0530] "GET /ITAFWebApplication/js/demo3/try.js HTTP/1.1" 200 45488
0:0:0:0:0:0:0:1 - - [20/Dec/2016:12:39:51 +0530] "GET /ITAFWebApplication/js/demo3/responsiveTables.js HTTP/1.1" 200 1886
0:0:0:0:0:0:0:1 - - [20/Dec/2016:12:40:04 +0530] "GET /ITAFWebApplication/css/demo3/try.css HTTP/1.1" 200 4871
0:0:0:0:0:0:0:1 - - [20/Dec/2016:12:40:04 +0530] "GET /ITAFWebApplication/css/bootstrap.min.css HTTP/1.1" 200 121260
0:0:0:0:0:0:0:1 - - [20/Dec/2016:12:40:04 +0530] "POST /ITAFWebApplication/itafpack.do HTTP/1.1" 200 47752
0:0:0:0:0:0:0:1 - - [20/Dec/2016:12:40:04 +0530] "GET /ITAFWebApplication/css/demo3/responsiveTables.css HTTP/1.1" 200 182
0:0:0:0:0:0:0:1 - - [20/Dec/2016:12:40:12 +0530] "GET /ITAFWebApplication/css/demo3/try.css HTTP/1.1" 200 4871
0:0:0:0:0:0:0:1 - - [20/Dec/2016:12:40:12 +0530] "GET /ITAFWebApplication/css/bootstrap.min.css HTTP/1.1" 200 121260
0:0:0:0:0:0:0:1 - - [20/Dec/2016:12:40:12 +0530] "POST /ITAFWebApplication/itafpack.do HTTP/1.1" 200 49433
0:0:0:0:0:0:0:1 - - [20/Dec/2016:12:40:12 +0530] "GET /ITAFWebApplication/css/demo3/responsiveTables.css HTTP/1.1" 200 182
0:0:0:0:0:0:0:1 - - [20/Dec/2016:12:40:12 +0530] "GET /ITAFWebApplication/files/advancedReport.html?projectname=ErieDemo&actionType=execute HTTP/1.1" 200 -
0:0:0:0:0:0:0:1 - - [20/Dec/2016:12:40:13 +0530] "POST /ITAFWebApplication/itafpack.do HTTP/1.1" 200 49290
0:0:0:0:0:0:0:1 - - [20/Dec/2016:12:40:13 +0530] "GET /ITAFWebApplication/files/advancedReport.html?projectname=ErieDemo&actionType=execute HTTP/1.1" 200 -
0:0:0:0:0:0:0:1 - - [20/Dec/2016:12:40:23 +0530] "GET /ITAFWebApplication/css/bootstrap.min.css HTTP/1.1" 200 121260
0:0:0:0:0:0:0:1 - - [20/Dec/2016:12:40:23 +0530] "GET /ITAFWebApplication/css/demo3/try.css HTTP/1.1" 200 4871
0:0:0:0:0:0:0:1 - - [20/Dec/2016:12:40:23 +0530] "POST /ITAFWebApplication/itafpack.do HTTP/1.1" 200 49453
0:0:0:0:0:0:0:1 - - [20/Dec/2016:12:40:23 +0530] "GET /ITAFWebApplication/files/advancedReport.html?projectname=ErieDemo&actionType=execute HTTP/1.1" 200 -
0:0:0:0:0:0:0:1 - - [20/Dec/2016:12:40:26 +0530] "POST /ITAFWebApplication/itafpack.do HTTP/1.1" 200 66649
0:0:0:0:0:0:0:1 - - [20/Dec/2016:12:40:26 +0530] "GET /ITAFWebApplication/css/bootstrap.min.css HTTP/1.1" 200 121260
0:0:0:0:0:0:0:1 - - [20/Dec/2016:12:40:26 +0530] "GET /ITAFWebApplication/css/demo3/try.css HTTP/1.1" 200 4871
0:0:0:0:0:0:0:1 - - [20/Dec/2016:12:40:26 +0530] "GET /ITAFWebApplication/files/advancedReport.html?projectname=ErieDemo&actionType=execute HTTP/1.1" 200 -
0:0:0:0:0:0:0:1 - - [20/Dec/2016:12:40:41 +0530] "POST /ITAFWebApplication/Seleniumservice/resources/startStopObjectCapture HTTP/1.1" 200 34
0:0:0:0:0:0:0:1 - - [20/Dec/2016:12:40:45 +0530] "GET /ITAFWebApplication/js/inject.js HTTP/1.1" 200 14543
0:0:0:0:0:0:0:1 - - [20/Dec/2016:12:41:10 +0530] "POST /ITAFWebApplication/Seleniumservice/resources/startStopObjectCapture HTTP/1.1" 200 6820
0:0:0:0:0:0:0:1 - - [20/Dec/2016:12:41:12 +0530] "POST /ITAFWebApplication/Seleniumservice/resources/updateCSV HTTP/1.1" 204 -
0:0:0:0:0:0:0:1 - - [20/Dec/2016:12:41:15 +0530] "GET /ITAFWebApplication/css/bootstrap.min.css HTTP/1.1" 200 121260
0:0:0:0:0:0:0:1 - - [20/Dec/2016:12:41:15 +0530] "GET /ITAFWebApplication/css/demo3/try.css HTTP/1.1" 200 4871
0:0:0:0:0:0:0:1 - - [20/Dec/2016:12:41:15 +0530] "POST /ITAFWebApplication/itafpack.do HTTP/1.1" 200 137252
0:0:0:0:0:0:0:1 - - [20/Dec/2016:12:41:15 +0530] "GET /ITAFWebApplication/files/advancedReport.html?projectname=ErieDemo&actionType=execute HTTP/1.1" 200 -
0:0:0:0:0:0:0:1 - - [20/Dec/2016:12:42:50 +0530] "GET /ITAFWebApplication/css/bootstrap.min.css HTTP/1.1" 200 121260
0:0:0:0:0:0:0:1 - - [20/Dec/2016:12:42:50 +0530] "GET /ITAFWebApplication/css/demo3/try.css HTTP/1.1" 200 4871
0:0:0:0:0:0:0:1 - - [20/Dec/2016:12:42:50 +0530] "POST /ITAFWebApplication/itafpack.do HTTP/1.1" 200 67432
0:0:0:0:0:0:0:1 - - [20/Dec/2016:12:42:50 +0530] "GET /ITAFWebApplication/files/advancedReport.html?projectname=Erie&actionType=execute HTTP/1.1" 200 18983
0:0:0:0:0:0:0:1 - - [20/Dec/2016:12:42:58 +0530] "POST /ITAFWebApplication/itafexecute.do HTTP/1.1" 200 18948
0:0:0:0:0:0:0:1 - - [20/Dec/2016:12:42:58 +0530] "GET /ITAFWebApplication/css/demo3/try.css HTTP/1.1" 200 4871
0:0:0:0:0:0:0:1 - - [20/Dec/2016:12:42:58 +0530] "GET /ITAFWebApplication/css/bootstrap.min.css HTTP/1.1" 200 121260
0:0:0:0:0:0:0:1 - - [20/Dec/2016:12:42:58 +0530] "GET /ITAFWebApplication/js/loader.js HTTP/1.1" 200 70294
0:0:0:0:0:0:0:1 - - [20/Dec/2016:12:42:58 +0530] "GET /ITAFWebApplication/js/demo3/executetry.js HTTP/1.1" 200 1945
0:0:0:0:0:0:0:1 - - [20/Dec/2016:12:42:58 +0530] "GET /ITAFWebApplication/js/demo3/bootstrap-progressbar.js HTTP/1.1" 200 6284
0:0:0:0:0:0:0:1 - - [20/Dec/2016:12:43:00 +0530] "POST /ITAFWebApplication/itafexecute.do HTTP/1.1" 200 237
0:0:0:0:0:0:0:1 - - [20/Dec/2016:12:43:00 +0530] "GET /ITAFWebApplication/files/ConsoleOutputLog.txt?projectname=Erie&actionType=logfile HTTP/1.1" 200 12032
0:0:0:0:0:0:0:1 - - [20/Dec/2016:12:43:05 +0530] "GET /ITAFWebApplication/css/demo3/try.css HTTP/1.1" 200 4871
0:0:0:0:0:0:0:1 - - [20/Dec/2016:12:43:05 +0530] "GET /ITAFWebApplication/css/bootstrap.min.css HTTP/1.1" 200 121260
0:0:0:0:0:0:0:1 - - [20/Dec/2016:12:43:05 +0530] "POST /ITAFWebApplication/itafexecute.do HTTP/1.1" 200 48923
0:0:0:0:0:0:0:1 - - [20/Dec/2016:12:43:50 +0530] "POST /ITAFWebApplication/logout.do HTTP/1.1" 302 -
0:0:0:0:0:0:0:1 - - [20/Dec/2016:12:43:50 +0530] "GET /ITAFWebApplication/login.jsp HTTP/1.1" 200 27677
0:0:0:0:0:0:0:1 - - [20/Dec/2016:12:43:50 +0530] "GET /ITAFWebApplication/css/login.css HTTP/1.1" 200 1077
0:0:0:0:0:0:0:1 - - [20/Dec/2016:12:43:50 +0530] "GET /ITAFWebApplication/css/bootstrap.min.css HTTP/1.1" 200 121260
