0:0:0:0:0:0:0:1 - - [01/Feb/2017:17:59:14 +0530] "GET /ITAFWebApplication/ HTTP/1.1" 302 -
0:0:0:0:0:0:0:1 - - [01/Feb/2017:17:59:14 +0530] "GET /ITAFWebApplication/login.jsp HTTP/1.1" 200 27677
0:0:0:0:0:0:0:1 - - [01/Feb/2017:17:59:14 +0530] "GET /ITAFWebApplication/css/bootstrap.min.css HTTP/1.1" 200 121260
0:0:0:0:0:0:0:1 - - [01/Feb/2017:17:59:14 +0530] "GET /ITAFWebApplication/css/login.css HTTP/1.1" 200 1077
0:0:0:0:0:0:0:1 - - [01/Feb/2017:17:59:15 +0530] "GET /ITAFWebApplication/js/login.js HTTP/1.1" 200 6947
0:0:0:0:0:0:0:1 - - [01/Feb/2017:17:59:15 +0530] "GET /ITAFWebApplication/Images/iTAF_logo.png HTTP/1.1" 200 33472
0:0:0:0:0:0:0:1 - - [01/Feb/2017:17:59:15 +0530] "GET /ITAFWebApplication/fonts/glyphicons-halflings-regular.woff2 HTTP/1.1" 200 18028
0:0:0:0:0:0:0:1 - - [01/Feb/2017:17:59:15 +0530] "GET /favicon.ico HTTP/1.1" 200 21630
0:0:0:0:0:0:0:1 - - [01/Feb/2017:17:59:22 +0530] "GET /ITAFWebApplication/css/bootstrap.min.css HTTP/1.1" 200 121260
0:0:0:0:0:0:0:1 - - [01/Feb/2017:17:59:22 +0530] "GET /ITAFWebApplication/css/demo3/try.css HTTP/1.1" 200 4871
0:0:0:0:0:0:0:1 - - [01/Feb/2017:17:59:23 +0530] "POST /ITAFWebApplication/login.do HTTP/1.1" 200 48917
0:0:0:0:0:0:0:1 - - [01/Feb/2017:17:59:23 +0530] "GET /ITAFWebApplication/css/demo3/responsiveTables.css HTTP/1.1" 200 182
0:0:0:0:0:0:0:1 - - [01/Feb/2017:17:59:23 +0530] "GET /ITAFWebApplication/js/jquery.min.js HTTP/1.1" 200 84380
0:0:0:0:0:0:0:1 - - [01/Feb/2017:17:59:23 +0530] "GET /ITAFWebApplication/js/bootstrap.min.js HTTP/1.1" 200 36868
0:0:0:0:0:0:0:1 - - [01/Feb/2017:17:59:23 +0530] "GET /ITAFWebApplication/js/objectCap.js HTTP/1.1" 200 11106
0:0:0:0:0:0:0:1 - - [01/Feb/2017:17:59:23 +0530] "GET /ITAFWebApplication/js/demo3/bootstrap-filestyle.min.js HTTP/1.1" 200 7190
0:0:0:0:0:0:0:1 - - [01/Feb/2017:17:59:23 +0530] "GET /ITAFWebApplication/js/demo3/RowSorter.js HTTP/1.1" 200 8102
0:0:0:0:0:0:0:1 - - [01/Feb/2017:17:59:23 +0530] "GET /ITAFWebApplication/js/demo3/try.js HTTP/1.1" 200 45488
0:0:0:0:0:0:0:1 - - [01/Feb/2017:17:59:23 +0530] "GET /ITAFWebApplication/js/demo3/responsiveTables.js HTTP/1.1" 200 1886
0:0:0:0:0:0:0:1 - - [01/Feb/2017:17:59:23 +0530] "GET /ITAFWebApplication/js/demo3/searchTable.js HTTP/1.1" 200 1022
0:0:0:0:0:0:0:1 - - [01/Feb/2017:17:59:28 +0530] "POST /ITAFWebApplication/itafpack.do HTTP/1.1" 200 54371
0:0:0:0:0:0:0:1 - - [01/Feb/2017:17:59:28 +0530] "GET /ITAFWebApplication/files/advancedReport.html?projectname=ErieDemo&actionType=execute HTTP/1.1" 200 -
0:0:0:0:0:0:0:1 - - [01/Feb/2017:17:59:31 +0530] "GET /ITAFWebApplication/css/bootstrap.min.css HTTP/1.1" 200 121260
0:0:0:0:0:0:0:1 - - [01/Feb/2017:17:59:31 +0530] "GET /ITAFWebApplication/css/demo3/try.css HTTP/1.1" 200 4871
0:0:0:0:0:0:0:1 - - [01/Feb/2017:17:59:31 +0530] "POST /ITAFWebApplication/itafpack.do HTTP/1.1" 200 54374
0:0:0:0:0:0:0:1 - - [01/Feb/2017:17:59:31 +0530] "GET /ITAFWebApplication/files/advancedReport.html?projectname=ErieDemo&actionType=execute HTTP/1.1" 200 -
0:0:0:0:0:0:0:1 - - [01/Feb/2017:18:00:02 +0530] "POST /ITAFWebApplication/Seleniumservice/resources/startStopObjectCapture HTTP/1.1" 200 34
0:0:0:0:0:0:0:1 - - [01/Feb/2017:18:00:05 +0530] "GET /ITAFWebApplication/js/inject.js HTTP/1.1" 200 14543
0:0:0:0:0:0:0:1 - - [01/Feb/2017:18:00:15 +0530] "GET /ITAFWebApplication/js/inject.js HTTP/1.1" 200 14543
0:0:0:0:0:0:0:1 - - [01/Feb/2017:18:00:30 +0530] "POST /ITAFWebApplication/Seleniumservice/resources/startStopObjectCapture HTTP/1.1" 200 2186
0:0:0:0:0:0:0:1 - - [01/Feb/2017:18:00:39 +0530] "POST /ITAFWebApplication/Seleniumservice/resources/updateCSV HTTP/1.1" 204 -
0:0:0:0:0:0:0:1 - - [01/Feb/2017:18:00:43 +0530] "GET /ITAFWebApplication/css/demo3/try.css HTTP/1.1" 200 4871
0:0:0:0:0:0:0:1 - - [01/Feb/2017:18:00:43 +0530] "GET /ITAFWebApplication/css/bootstrap.min.css HTTP/1.1" 200 121260
0:0:0:0:0:0:0:1 - - [01/Feb/2017:18:00:43 +0530] "POST /ITAFWebApplication/itafpack.do HTTP/1.1" 200 84267
0:0:0:0:0:0:0:1 - - [01/Feb/2017:18:00:43 +0530] "GET /ITAFWebApplication/files/advancedReport.html?projectname=ErieDemo&actionType=execute HTTP/1.1" 200 -
0:0:0:0:0:0:0:1 - - [01/Feb/2017:18:00:50 +0530] "POST /ITAFWebApplication/logout.do HTTP/1.1" 302 -
0:0:0:0:0:0:0:1 - - [01/Feb/2017:18:00:50 +0530] "GET /ITAFWebApplication/login.jsp HTTP/1.1" 200 27677
0:0:0:0:0:0:0:1 - - [01/Feb/2017:18:00:50 +0530] "GET /ITAFWebApplication/css/login.css HTTP/1.1" 200 1077
0:0:0:0:0:0:0:1 - - [01/Feb/2017:18:00:50 +0530] "GET /ITAFWebApplication/css/bootstrap.min.css HTTP/1.1" 200 121260
0:0:0:0:0:0:0:1 - - [01/Feb/2017:21:33:14 +0530] "GET /ITAFWebApplication/ HTTP/1.1" 302 -
0:0:0:0:0:0:0:1 - - [01/Feb/2017:21:33:14 +0530] "GET /ITAFWebApplication/login.jsp HTTP/1.1" 200 27677
0:0:0:0:0:0:0:1 - - [01/Feb/2017:21:33:14 +0530] "GET /ITAFWebApplication/css/login.css HTTP/1.1" 200 1077
0:0:0:0:0:0:0:1 - - [01/Feb/2017:21:33:15 +0530] "GET /ITAFWebApplication/css/bootstrap.min.css HTTP/1.1" 200 121260
0:0:0:0:0:0:0:1 - - [01/Feb/2017:21:33:15 +0530] "GET /ITAFWebApplication/js/login.js HTTP/1.1" 200 6947
0:0:0:0:0:0:0:1 - - [01/Feb/2017:21:33:15 +0530] "GET /ITAFWebApplication/Images/iTAF_logo.png HTTP/1.1" 200 33472
0:0:0:0:0:0:0:1 - - [01/Feb/2017:21:33:15 +0530] "GET /ITAFWebApplication/fonts/glyphicons-halflings-regular.woff2 HTTP/1.1" 200 18028
0:0:0:0:0:0:0:1 - - [01/Feb/2017:21:33:25 +0530] "GET /ITAFWebApplication/css/bootstrap.min.css HTTP/1.1" 200 121260
0:0:0:0:0:0:0:1 - - [01/Feb/2017:21:33:25 +0530] "GET /ITAFWebApplication/css/demo3/try.css HTTP/1.1" 200 4871
0:0:0:0:0:0:0:1 - - [01/Feb/2017:21:33:25 +0530] "POST /ITAFWebApplication/login.do HTTP/1.1" 200 48917
0:0:0:0:0:0:0:1 - - [01/Feb/2017:21:33:25 +0530] "GET /ITAFWebApplication/css/demo3/responsiveTables.css HTTP/1.1" 200 182
0:0:0:0:0:0:0:1 - - [01/Feb/2017:21:33:25 +0530] "GET /ITAFWebApplication/js/jquery.min.js HTTP/1.1" 200 84380
0:0:0:0:0:0:0:1 - - [01/Feb/2017:21:33:25 +0530] "GET /ITAFWebApplication/js/bootstrap.min.js HTTP/1.1" 200 36868
0:0:0:0:0:0:0:1 - - [01/Feb/2017:21:33:25 +0530] "GET /ITAFWebApplication/js/objectCap.js HTTP/1.1" 200 11106
0:0:0:0:0:0:0:1 - - [01/Feb/2017:21:33:25 +0530] "GET /ITAFWebApplication/js/demo3/bootstrap-filestyle.min.js HTTP/1.1" 200 7190
0:0:0:0:0:0:0:1 - - [01/Feb/2017:21:33:25 +0530] "GET /ITAFWebApplication/js/demo3/responsiveTables.js HTTP/1.1" 200 1886
0:0:0:0:0:0:0:1 - - [01/Feb/2017:21:33:25 +0530] "GET /ITAFWebApplication/js/demo3/try.js HTTP/1.1" 200 45488
0:0:0:0:0:0:0:1 - - [01/Feb/2017:21:33:25 +0530] "GET /ITAFWebApplication/js/demo3/RowSorter.js HTTP/1.1" 200 8102
0:0:0:0:0:0:0:1 - - [01/Feb/2017:21:33:25 +0530] "GET /ITAFWebApplication/js/demo3/searchTable.js HTTP/1.1" 200 1022
0:0:0:0:0:0:0:1 - - [01/Feb/2017:21:33:29 +0530] "GET /ITAFWebApplication/css/bootstrap.min.css HTTP/1.1" 200 121260
0:0:0:0:0:0:0:1 - - [01/Feb/2017:21:33:29 +0530] "GET /ITAFWebApplication/css/demo3/try.css HTTP/1.1" 200 4871
0:0:0:0:0:0:0:1 - - [01/Feb/2017:21:33:29 +0530] "GET /ITAFWebApplication/css/demo3/responsiveTables.css HTTP/1.1" 200 182
0:0:0:0:0:0:0:1 - - [01/Feb/2017:21:33:29 +0530] "POST /ITAFWebApplication/itafpack.do HTTP/1.1" 200 54375
0:0:0:0:0:0:0:1 - - [01/Feb/2017:21:33:29 +0530] "GET /ITAFWebApplication/files/advancedReport.html?projectname=ErieDemo&actionType=execute HTTP/1.1" 200 -
0:0:0:0:0:0:0:1 - - [01/Feb/2017:21:34:06 +0530] "GET /ITAFWebApplication/css/bootstrap.min.css HTTP/1.1" 200 121260
0:0:0:0:0:0:0:1 - - [01/Feb/2017:21:34:06 +0530] "GET /ITAFWebApplication/css/demo3/try.css HTTP/1.1" 200 4871
0:0:0:0:0:0:0:1 - - [01/Feb/2017:21:34:06 +0530] "POST /ITAFWebApplication/itafpack.do HTTP/1.1" 200 54336
0:0:0:0:0:0:0:1 - - [01/Feb/2017:21:34:06 +0530] "GET /ITAFWebApplication/css/demo3/responsiveTables.css HTTP/1.1" 200 182
0:0:0:0:0:0:0:1 - - [01/Feb/2017:21:34:06 +0530] "GET /ITAFWebApplication/files/advancedReport.html?projectname=ErieDemo&actionType=execute HTTP/1.1" 200 -
0:0:0:0:0:0:0:1 - - [01/Feb/2017:21:34:09 +0530] "POST /ITAFWebApplication/itafexecute.do HTTP/1.1" 200 19385
0:0:0:0:0:0:0:1 - - [01/Feb/2017:21:34:09 +0530] "GET /ITAFWebApplication/css/demo3/try.css HTTP/1.1" 200 4871
0:0:0:0:0:0:0:1 - - [01/Feb/2017:21:34:09 +0530] "GET /ITAFWebApplication/css/bootstrap.min.css HTTP/1.1" 200 121260
0:0:0:0:0:0:0:1 - - [01/Feb/2017:21:34:09 +0530] "GET /ITAFWebApplication/js/demo3/executetry.js HTTP/1.1" 200 1945
0:0:0:0:0:0:0:1 - - [01/Feb/2017:21:34:09 +0530] "GET /ITAFWebApplication/js/loader.js HTTP/1.1" 200 70294
0:0:0:0:0:0:0:1 - - [01/Feb/2017:21:34:09 +0530] "GET /ITAFWebApplication/js/demo3/bootstrap-progressbar.js HTTP/1.1" 200 6284
0:0:0:0:0:0:0:1 - - [01/Feb/2017:21:34:57 +0530] "GET /ITAFWebApplication/ HTTP/1.1" 200 27677
0:0:0:0:0:0:0:1 - - [01/Feb/2017:21:34:57 +0530] "GET /ITAFWebApplication/css/login.css HTTP/1.1" 200 1077
0:0:0:0:0:0:0:1 - - [01/Feb/2017:21:34:57 +0530] "GET /ITAFWebApplication/css/bootstrap.min.css HTTP/1.1" 200 121260
0:0:0:0:0:0:0:1 - - [01/Feb/2017:21:35:14 +0530] "GET /ITAFWebApplication/css/bootstrap.min.css HTTP/1.1" 200 121260
0:0:0:0:0:0:0:1 - - [01/Feb/2017:21:35:14 +0530] "GET /ITAFWebApplication/css/demo3/try.css HTTP/1.1" 200 4871
0:0:0:0:0:0:0:1 - - [01/Feb/2017:21:35:14 +0530] "POST /ITAFWebApplication/login.do HTTP/1.1" 200 48917
0:0:0:0:0:0:0:1 - - [01/Feb/2017:21:35:14 +0530] "GET /ITAFWebApplication/css/demo3/responsiveTables.css HTTP/1.1" 200 182
0:0:0:0:0:0:0:1 - - [01/Feb/2017:21:35:14 +0530] "GET /ITAFWebApplication/js/demo3/try.js HTTP/1.1" 200 45488
0:0:0:0:0:0:0:1 - - [01/Feb/2017:21:35:14 +0530] "GET /ITAFWebApplication/js/jquery.min.js HTTP/1.1" 200 84380
0:0:0:0:0:0:0:1 - - [01/Feb/2017:21:35:14 +0530] "GET /ITAFWebApplication/js/demo3/bootstrap-filestyle.min.js HTTP/1.1" 200 7190
0:0:0:0:0:0:0:1 - - [01/Feb/2017:21:35:14 +0530] "GET /ITAFWebApplication/js/bootstrap.min.js HTTP/1.1" 200 36868
0:0:0:0:0:0:0:1 - - [01/Feb/2017:21:35:14 +0530] "GET /ITAFWebApplication/js/demo3/searchTable.js HTTP/1.1" 200 1022
0:0:0:0:0:0:0:1 - - [01/Feb/2017:21:35:14 +0530] "GET /ITAFWebApplication/js/demo3/responsiveTables.js HTTP/1.1" 200 1886
0:0:0:0:0:0:0:1 - - [01/Feb/2017:21:35:14 +0530] "GET /ITAFWebApplication/js/demo3/RowSorter.js HTTP/1.1" 200 8102
0:0:0:0:0:0:0:1 - - [01/Feb/2017:21:35:14 +0530] "GET /ITAFWebApplication/js/objectCap.js HTTP/1.1" 200 11106
0:0:0:0:0:0:0:1 - - [01/Feb/2017:21:35:18 +0530] "POST /ITAFWebApplication/itafpack.do HTTP/1.1" 200 54337
0:0:0:0:0:0:0:1 - - [01/Feb/2017:21:35:18 +0530] "GET /ITAFWebApplication/files/advancedReport.html?projectname=ErieDemo&actionType=execute HTTP/1.1" 200 -
0:0:0:0:0:0:0:1 - - [01/Feb/2017:21:36:03 +0530] "GET /ITAFWebApplication/css/demo3/try.css HTTP/1.1" 200 4871
0:0:0:0:0:0:0:1 - - [01/Feb/2017:21:36:03 +0530] "GET /ITAFWebApplication/css/bootstrap.min.css HTTP/1.1" 200 121260
0:0:0:0:0:0:0:1 - - [01/Feb/2017:21:36:04 +0530] "POST /ITAFWebApplication/itafpack.do HTTP/1.1" 200 54326
0:0:0:0:0:0:0:1 - - [01/Feb/2017:21:36:04 +0530] "GET /ITAFWebApplication/files/advancedReport.html?projectname=ErieDemo&actionType=execute HTTP/1.1" 200 -
0:0:0:0:0:0:0:1 - - [01/Feb/2017:21:36:06 +0530] "POST /ITAFWebApplication/itafexecute.do HTTP/1.1" 200 19385
0:0:0:0:0:0:0:1 - - [01/Feb/2017:21:36:06 +0530] "GET /ITAFWebApplication/css/bootstrap.min.css HTTP/1.1" 200 121260
0:0:0:0:0:0:0:1 - - [01/Feb/2017:21:36:06 +0530] "GET /ITAFWebApplication/css/demo3/try.css HTTP/1.1" 200 4871
0:0:0:0:0:0:0:1 - - [01/Feb/2017:21:36:06 +0530] "GET /ITAFWebApplication/js/demo3/executetry.js HTTP/1.1" 200 1945
0:0:0:0:0:0:0:1 - - [01/Feb/2017:21:36:06 +0530] "GET /ITAFWebApplication/js/loader.js HTTP/1.1" 200 70294
0:0:0:0:0:0:0:1 - - [01/Feb/2017:21:36:06 +0530] "GET /ITAFWebApplication/js/demo3/bootstrap-progressbar.js HTTP/1.1" 200 6284
0:0:0:0:0:0:0:1 - - [01/Feb/2017:21:40:22 +0530] "GET /ITAFWebApplication/ HTTP/1.1" 200 27677
0:0:0:0:0:0:0:1 - - [01/Feb/2017:21:40:22 +0530] "GET /ITAFWebApplication/css/login.css HTTP/1.1" 200 1077
0:0:0:0:0:0:0:1 - - [01/Feb/2017:21:40:22 +0530] "GET /ITAFWebApplication/css/bootstrap.min.css HTTP/1.1" 200 121260
0:0:0:0:0:0:0:1 - - [01/Feb/2017:21:42:38 +0530] "GET /ITAFWebApplication/ HTTP/1.1" 200 27677
0:0:0:0:0:0:0:1 - - [01/Feb/2017:21:42:38 +0530] "GET /ITAFWebApplication/css/bootstrap.min.css HTTP/1.1" 200 121260
0:0:0:0:0:0:0:1 - - [01/Feb/2017:21:42:38 +0530] "GET /ITAFWebApplication/css/login.css HTTP/1.1" 200 1077
0:0:0:0:0:0:0:1 - - [01/Feb/2017:21:42:44 +0530] "GET /ITAFWebApplication/css/bootstrap.min.css HTTP/1.1" 200 121260
0:0:0:0:0:0:0:1 - - [01/Feb/2017:21:42:45 +0530] "GET /ITAFWebApplication/css/demo3/try.css HTTP/1.1" 200 4871
0:0:0:0:0:0:0:1 - - [01/Feb/2017:21:42:45 +0530] "POST /ITAFWebApplication/login.do HTTP/1.1" 200 50115
0:0:0:0:0:0:0:1 - - [01/Feb/2017:21:42:45 +0530] "GET /ITAFWebApplication/css/demo3/responsiveTables.css HTTP/1.1" 200 182
0:0:0:0:0:0:0:1 - - [01/Feb/2017:21:42:45 +0530] "GET /ITAFWebApplication/js/jquery.min.js HTTP/1.1" 200 84380
0:0:0:0:0:0:0:1 - - [01/Feb/2017:21:42:45 +0530] "GET /ITAFWebApplication/js/bootstrap.min.js HTTP/1.1" 200 36868
0:0:0:0:0:0:0:1 - - [01/Feb/2017:21:42:45 +0530] "GET /ITAFWebApplication/js/demo3/responsiveTables.js HTTP/1.1" 200 1886
0:0:0:0:0:0:0:1 - - [01/Feb/2017:21:42:45 +0530] "GET /ITAFWebApplication/js/demo3/searchTable.js HTTP/1.1" 200 1022
0:0:0:0:0:0:0:1 - - [01/Feb/2017:21:42:45 +0530] "GET /ITAFWebApplication/js/demo3/RowSorter.js HTTP/1.1" 200 8102
0:0:0:0:0:0:0:1 - - [01/Feb/2017:21:42:45 +0530] "GET /ITAFWebApplication/js/demo3/try.js HTTP/1.1" 200 45488
0:0:0:0:0:0:0:1 - - [01/Feb/2017:21:42:45 +0530] "GET /ITAFWebApplication/js/objectCap.js HTTP/1.1" 200 11106
0:0:0:0:0:0:0:1 - - [01/Feb/2017:21:42:45 +0530] "GET /ITAFWebApplication/js/demo3/bootstrap-filestyle.min.js HTTP/1.1" 200 7190
0:0:0:0:0:0:0:1 - - [01/Feb/2017:21:42:49 +0530] "GET /ITAFWebApplication/css/bootstrap.min.css HTTP/1.1" 200 121260
0:0:0:0:0:0:0:1 - - [01/Feb/2017:21:42:49 +0530] "GET /ITAFWebApplication/css/demo3/try.css HTTP/1.1" 200 4871
0:0:0:0:0:0:0:1 - - [01/Feb/2017:21:42:49 +0530] "GET /ITAFWebApplication/css/demo3/responsiveTables.css HTTP/1.1" 200 182
0:0:0:0:0:0:0:1 - - [01/Feb/2017:21:42:49 +0530] "POST /ITAFWebApplication/itafpack.do HTTP/1.1" 200 64061
0:0:0:0:0:0:0:1 - - [01/Feb/2017:21:42:50 +0530] "GET /ITAFWebApplication/files/advancedReport.html?projectname=Coverall%202015-1&actionType=execute HTTP/1.1" 200 14721
0:0:0:0:0:0:0:1 - - [01/Feb/2017:21:42:53 +0530] "POST /ITAFWebApplication/itafpack.do HTTP/1.1" 500 2521
0:0:0:0:0:0:0:1 - - [01/Feb/2017:21:43:05 +0530] "GET /ITAFWebApplication/itafpack.do HTTP/1.1" 200 -
0:0:0:0:0:0:0:1 - - [01/Feb/2017:21:43:10 +0530] "GET /ITAFWebApplication/ HTTP/1.1" 200 27677
0:0:0:0:0:0:0:1 - - [01/Feb/2017:21:43:10 +0530] "GET /ITAFWebApplication/css/login.css HTTP/1.1" 200 1077
0:0:0:0:0:0:0:1 - - [01/Feb/2017:21:43:10 +0530] "GET /ITAFWebApplication/css/bootstrap.min.css HTTP/1.1" 200 121260
0:0:0:0:0:0:0:1 - - [01/Feb/2017:21:44:47 +0530] "GET /ITAFWebApplication/ HTTP/1.1" 302 -
0:0:0:0:0:0:0:1 - - [01/Feb/2017:21:44:47 +0530] "GET /ITAFWebApplication/login.jsp HTTP/1.1" 200 27677
0:0:0:0:0:0:0:1 - - [01/Feb/2017:21:44:47 +0530] "GET /ITAFWebApplication/css/bootstrap.min.css HTTP/1.1" 200 121260
0:0:0:0:0:0:0:1 - - [01/Feb/2017:21:44:47 +0530] "GET /ITAFWebApplication/css/login.css HTTP/1.1" 200 1077
0:0:0:0:0:0:0:1 - - [01/Feb/2017:21:44:47 +0530] "GET /ITAFWebApplication/js/login.js HTTP/1.1" 200 6947
0:0:0:0:0:0:0:1 - - [01/Feb/2017:21:44:47 +0530] "GET /ITAFWebApplication/Images/iTAF_logo.png HTTP/1.1" 200 33472
0:0:0:0:0:0:0:1 - - [01/Feb/2017:21:44:48 +0530] "GET /ITAFWebApplication/fonts/glyphicons-halflings-regular.woff2 HTTP/1.1" 200 18028
0:0:0:0:0:0:0:1 - - [01/Feb/2017:21:44:54 +0530] "GET /ITAFWebApplication/css/bootstrap.min.css HTTP/1.1" 200 121260
0:0:0:0:0:0:0:1 - - [01/Feb/2017:21:44:54 +0530] "GET /ITAFWebApplication/css/demo3/try.css HTTP/1.1" 200 4871
0:0:0:0:0:0:0:1 - - [01/Feb/2017:21:44:54 +0530] "POST /ITAFWebApplication/login.do HTTP/1.1" 200 50112
0:0:0:0:0:0:0:1 - - [01/Feb/2017:21:44:54 +0530] "GET /ITAFWebApplication/css/demo3/responsiveTables.css HTTP/1.1" 200 182
0:0:0:0:0:0:0:1 - - [01/Feb/2017:21:44:54 +0530] "GET /ITAFWebApplication/js/jquery.min.js HTTP/1.1" 200 84380
0:0:0:0:0:0:0:1 - - [01/Feb/2017:21:44:54 +0530] "GET /ITAFWebApplication/js/bootstrap.min.js HTTP/1.1" 200 36868
0:0:0:0:0:0:0:1 - - [01/Feb/2017:21:44:54 +0530] "GET /ITAFWebApplication/js/demo3/try.js HTTP/1.1" 200 45488
0:0:0:0:0:0:0:1 - - [01/Feb/2017:21:44:54 +0530] "GET /ITAFWebApplication/js/demo3/responsiveTables.js HTTP/1.1" 200 1886
0:0:0:0:0:0:0:1 - - [01/Feb/2017:21:44:54 +0530] "GET /ITAFWebApplication/js/demo3/searchTable.js HTTP/1.1" 200 1022
0:0:0:0:0:0:0:1 - - [01/Feb/2017:21:44:54 +0530] "GET /ITAFWebApplication/js/demo3/RowSorter.js HTTP/1.1" 200 8102
0:0:0:0:0:0:0:1 - - [01/Feb/2017:21:44:54 +0530] "GET /ITAFWebApplication/js/objectCap.js HTTP/1.1" 200 11106
0:0:0:0:0:0:0:1 - - [01/Feb/2017:21:44:54 +0530] "GET /ITAFWebApplication/js/demo3/bootstrap-filestyle.min.js HTTP/1.1" 200 7190
0:0:0:0:0:0:0:1 - - [01/Feb/2017:21:44:58 +0530] "GET /ITAFWebApplication/css/bootstrap.min.css HTTP/1.1" 200 121260
0:0:0:0:0:0:0:1 - - [01/Feb/2017:21:44:58 +0530] "GET /ITAFWebApplication/css/demo3/try.css HTTP/1.1" 200 4871
0:0:0:0:0:0:0:1 - - [01/Feb/2017:21:44:58 +0530] "POST /ITAFWebApplication/itafpack.do HTTP/1.1" 200 63962
0:0:0:0:0:0:0:1 - - [01/Feb/2017:21:44:58 +0530] "GET /ITAFWebApplication/css/demo3/responsiveTables.css HTTP/1.1" 200 182
0:0:0:0:0:0:0:1 - - [01/Feb/2017:21:44:58 +0530] "GET /ITAFWebApplication/files/advancedReport.html?projectname=Coverall2015&actionType=execute HTTP/1.1" 200 14721
0:0:0:0:0:0:0:1 - - [01/Feb/2017:21:45:04 +0530] "POST /ITAFWebApplication/itafexecute.do HTTP/1.1" 200 19490
0:0:0:0:0:0:0:1 - - [01/Feb/2017:21:45:04 +0530] "GET /ITAFWebApplication/css/demo3/try.css HTTP/1.1" 200 4871
0:0:0:0:0:0:0:1 - - [01/Feb/2017:21:45:04 +0530] "GET /ITAFWebApplication/css/bootstrap.min.css HTTP/1.1" 200 121260
0:0:0:0:0:0:0:1 - - [01/Feb/2017:21:45:04 +0530] "GET /ITAFWebApplication/js/demo3/executetry.js HTTP/1.1" 200 1945
0:0:0:0:0:0:0:1 - - [01/Feb/2017:21:45:04 +0530] "GET /ITAFWebApplication/js/loader.js HTTP/1.1" 200 70294
0:0:0:0:0:0:0:1 - - [01/Feb/2017:21:45:04 +0530] "GET /ITAFWebApplication/js/demo3/bootstrap-progressbar.js HTTP/1.1" 200 6284
0:0:0:0:0:0:0:1 - - [01/Feb/2017:21:45:15 +0530] "POST /ITAFWebApplication/itafexecute.do HTTP/1.1" 500 1751
0:0:0:0:0:0:0:1 - - [01/Feb/2017:21:45:54 +0530] "GET /ITAFWebApplication/itafexecute.do HTTP/1.1" 405 1106
0:0:0:0:0:0:0:1 - - [01/Feb/2017:21:45:57 +0530] "GET /ITAFWebApplication/ HTTP/1.1" 200 27677
0:0:0:0:0:0:0:1 - - [01/Feb/2017:21:45:57 +0530] "GET /ITAFWebApplication/css/login.css HTTP/1.1" 200 1077
0:0:0:0:0:0:0:1 - - [01/Feb/2017:21:45:57 +0530] "GET /ITAFWebApplication/css/bootstrap.min.css HTTP/1.1" 200 121260
0:0:0:0:0:0:0:1 - - [01/Feb/2017:21:46:03 +0530] "GET /ITAFWebApplication/css/demo3/try.css HTTP/1.1" 200 4871
0:0:0:0:0:0:0:1 - - [01/Feb/2017:21:46:03 +0530] "GET /ITAFWebApplication/css/bootstrap.min.css HTTP/1.1" 200 121260
0:0:0:0:0:0:0:1 - - [01/Feb/2017:21:46:03 +0530] "POST /ITAFWebApplication/login.do HTTP/1.1" 200 50112
0:0:0:0:0:0:0:1 - - [01/Feb/2017:21:46:03 +0530] "GET /ITAFWebApplication/css/demo3/responsiveTables.css HTTP/1.1" 200 182
0:0:0:0:0:0:0:1 - - [01/Feb/2017:21:46:03 +0530] "GET /ITAFWebApplication/js/bootstrap.min.js HTTP/1.1" 200 36868
0:0:0:0:0:0:0:1 - - [01/Feb/2017:21:46:03 +0530] "GET /ITAFWebApplication/js/jquery.min.js HTTP/1.1" 200 84380
0:0:0:0:0:0:0:1 - - [01/Feb/2017:21:46:03 +0530] "GET /ITAFWebApplication/js/demo3/try.js HTTP/1.1" 200 45488
0:0:0:0:0:0:0:1 - - [01/Feb/2017:21:46:03 +0530] "GET /ITAFWebApplication/js/demo3/searchTable.js HTTP/1.1" 200 1022
0:0:0:0:0:0:0:1 - - [01/Feb/2017:21:46:03 +0530] "GET /ITAFWebApplication/js/objectCap.js HTTP/1.1" 200 11106
0:0:0:0:0:0:0:1 - - [01/Feb/2017:21:46:03 +0530] "GET /ITAFWebApplication/js/demo3/bootstrap-filestyle.min.js HTTP/1.1" 200 7190
0:0:0:0:0:0:0:1 - - [01/Feb/2017:21:46:03 +0530] "GET /ITAFWebApplication/js/demo3/responsiveTables.js HTTP/1.1" 200 1886
0:0:0:0:0:0:0:1 - - [01/Feb/2017:21:46:03 +0530] "GET /ITAFWebApplication/js/demo3/RowSorter.js HTTP/1.1" 200 8102
0:0:0:0:0:0:0:1 - - [01/Feb/2017:21:46:07 +0530] "POST /ITAFWebApplication/itafpack.do HTTP/1.1" 200 63962
0:0:0:0:0:0:0:1 - - [01/Feb/2017:21:46:07 +0530] "GET /ITAFWebApplication/css/bootstrap.min.css HTTP/1.1" 200 121260
0:0:0:0:0:0:0:1 - - [01/Feb/2017:21:46:07 +0530] "GET /ITAFWebApplication/css/demo3/try.css HTTP/1.1" 200 4871
0:0:0:0:0:0:0:1 - - [01/Feb/2017:21:46:07 +0530] "GET /ITAFWebApplication/css/demo3/responsiveTables.css HTTP/1.1" 200 182
0:0:0:0:0:0:0:1 - - [01/Feb/2017:21:46:07 +0530] "GET /ITAFWebApplication/files/advancedReport.html?projectname=Coverall2015&actionType=execute HTTP/1.1" 200 14721
0:0:0:0:0:0:0:1 - - [01/Feb/2017:21:46:09 +0530] "POST /ITAFWebApplication/itafpack.do HTTP/1.1" 500 2512
0:0:0:0:0:0:0:1 - - [01/Feb/2017:21:46:26 +0530] "GET /ITAFWebApplication/ HTTP/1.1" 200 27677
0:0:0:0:0:0:0:1 - - [01/Feb/2017:21:46:26 +0530] "GET /ITAFWebApplication/css/login.css HTTP/1.1" 200 1077
0:0:0:0:0:0:0:1 - - [01/Feb/2017:21:46:26 +0530] "GET /ITAFWebApplication/css/bootstrap.min.css HTTP/1.1" 200 121260
0:0:0:0:0:0:0:1 - - [01/Feb/2017:21:47:00 +0530] "GET /ITAFWebApplication/css/bootstrap.min.css HTTP/1.1" 200 121260
0:0:0:0:0:0:0:1 - - [01/Feb/2017:21:47:00 +0530] "GET /ITAFWebApplication/css/demo3/try.css HTTP/1.1" 200 4871
0:0:0:0:0:0:0:1 - - [01/Feb/2017:21:47:00 +0530] "POST /ITAFWebApplication/login.do HTTP/1.1" 200 50112
0:0:0:0:0:0:0:1 - - [01/Feb/2017:21:47:00 +0530] "GET /ITAFWebApplication/js/jquery.min.js HTTP/1.1" 200 84380
0:0:0:0:0:0:0:1 - - [01/Feb/2017:21:47:00 +0530] "GET /ITAFWebApplication/css/demo3/responsiveTables.css HTTP/1.1" 200 182
0:0:0:0:0:0:0:1 - - [01/Feb/2017:21:47:00 +0530] "GET /ITAFWebApplication/js/bootstrap.min.js HTTP/1.1" 200 36868
0:0:0:0:0:0:0:1 - - [01/Feb/2017:21:47:00 +0530] "GET /ITAFWebApplication/js/demo3/bootstrap-filestyle.min.js HTTP/1.1" 200 7190
0:0:0:0:0:0:0:1 - - [01/Feb/2017:21:47:00 +0530] "GET /ITAFWebApplication/js/demo3/RowSorter.js HTTP/1.1" 200 8102
0:0:0:0:0:0:0:1 - - [01/Feb/2017:21:47:00 +0530] "GET /ITAFWebApplication/js/objectCap.js HTTP/1.1" 200 11106
0:0:0:0:0:0:0:1 - - [01/Feb/2017:21:47:00 +0530] "GET /ITAFWebApplication/js/demo3/responsiveTables.js HTTP/1.1" 200 1886
0:0:0:0:0:0:0:1 - - [01/Feb/2017:21:47:00 +0530] "GET /ITAFWebApplication/js/demo3/try.js HTTP/1.1" 200 45488
0:0:0:0:0:0:0:1 - - [01/Feb/2017:21:47:00 +0530] "GET /ITAFWebApplication/js/demo3/searchTable.js HTTP/1.1" 200 1022
0:0:0:0:0:0:0:1 - - [01/Feb/2017:21:47:02 +0530] "POST /ITAFWebApplication/itafexecute.do HTTP/1.1" 200 19490
0:0:0:0:0:0:0:1 - - [01/Feb/2017:21:47:02 +0530] "GET /ITAFWebApplication/css/bootstrap.min.css HTTP/1.1" 200 121260
0:0:0:0:0:0:0:1 - - [01/Feb/2017:21:47:02 +0530] "GET /ITAFWebApplication/js/demo3/executetry.js HTTP/1.1" 200 1945
0:0:0:0:0:0:0:1 - - [01/Feb/2017:21:47:02 +0530] "GET /ITAFWebApplication/css/demo3/try.css HTTP/1.1" 200 4871
0:0:0:0:0:0:0:1 - - [01/Feb/2017:21:47:02 +0530] "GET /ITAFWebApplication/js/demo3/bootstrap-progressbar.js HTTP/1.1" 200 6284
0:0:0:0:0:0:0:1 - - [01/Feb/2017:21:47:02 +0530] "GET /ITAFWebApplication/js/loader.js HTTP/1.1" 200 70294
0:0:0:0:0:0:0:1 - - [01/Feb/2017:21:47:03 +0530] "POST /ITAFWebApplication/itafexecute.do HTTP/1.1" 200 50118
0:0:0:0:0:0:0:1 - - [01/Feb/2017:21:47:03 +0530] "GET /ITAFWebApplication/css/demo3/responsiveTables.css HTTP/1.1" 200 182
0:0:0:0:0:0:0:1 - - [01/Feb/2017:21:47:05 +0530] "GET /ITAFWebApplication/css/bootstrap.min.css HTTP/1.1" 200 121260
0:0:0:0:0:0:0:1 - - [01/Feb/2017:21:47:05 +0530] "GET /ITAFWebApplication/css/demo3/try.css HTTP/1.1" 200 4871
0:0:0:0:0:0:0:1 - - [01/Feb/2017:21:47:05 +0530] "POST /ITAFWebApplication/itafpack.do HTTP/1.1" 200 63962
0:0:0:0:0:0:0:1 - - [01/Feb/2017:21:47:05 +0530] "GET /ITAFWebApplication/css/demo3/responsiveTables.css HTTP/1.1" 200 182
0:0:0:0:0:0:0:1 - - [01/Feb/2017:21:47:05 +0530] "GET /ITAFWebApplication/files/advancedReport.html?projectname=Coverall2015&actionType=execute HTTP/1.1" 200 14721
0:0:0:0:0:0:0:1 - - [01/Feb/2017:21:47:07 +0530] "POST /ITAFWebApplication/itafexecute.do HTTP/1.1" 200 19490
0:0:0:0:0:0:0:1 - - [01/Feb/2017:21:47:07 +0530] "GET /ITAFWebApplication/css/demo3/try.css HTTP/1.1" 200 4871
0:0:0:0:0:0:0:1 - - [01/Feb/2017:21:47:07 +0530] "GET /ITAFWebApplication/css/bootstrap.min.css HTTP/1.1" 200 121260
0:0:0:0:0:0:0:1 - - [01/Feb/2017:21:47:19 +0530] "POST /ITAFWebApplication/itafexecute.do HTTP/1.1" 500 1751
0:0:0:0:0:0:0:1 - - [01/Feb/2017:21:50:11 +0530] "GET /ITAFWebApplication/ HTTP/1.1" 200 27677
0:0:0:0:0:0:0:1 - - [01/Feb/2017:21:50:11 +0530] "GET /ITAFWebApplication/css/login.css HTTP/1.1" 200 1077
0:0:0:0:0:0:0:1 - - [01/Feb/2017:21:50:11 +0530] "GET /ITAFWebApplication/css/bootstrap.min.css HTTP/1.1" 200 121260
0:0:0:0:0:0:0:1 - - [01/Feb/2017:21:50:19 +0530] "GET /ITAFWebApplication/css/bootstrap.min.css HTTP/1.1" 200 121260
0:0:0:0:0:0:0:1 - - [01/Feb/2017:21:50:19 +0530] "GET /ITAFWebApplication/css/demo3/try.css HTTP/1.1" 200 4871
0:0:0:0:0:0:0:1 - - [01/Feb/2017:21:50:19 +0530] "POST /ITAFWebApplication/login.do HTTP/1.1" 200 50112
0:0:0:0:0:0:0:1 - - [01/Feb/2017:21:50:19 +0530] "GET /ITAFWebApplication/css/demo3/responsiveTables.css HTTP/1.1" 200 182
0:0:0:0:0:0:0:1 - - [01/Feb/2017:21:50:19 +0530] "GET /ITAFWebApplication/js/jquery.min.js HTTP/1.1" 200 84380
0:0:0:0:0:0:0:1 - - [01/Feb/2017:21:50:19 +0530] "GET /ITAFWebApplication/js/demo3/try.js HTTP/1.1" 200 45488
0:0:0:0:0:0:0:1 - - [01/Feb/2017:21:50:19 +0530] "GET /ITAFWebApplication/js/bootstrap.min.js HTTP/1.1" 200 36868
0:0:0:0:0:0:0:1 - - [01/Feb/2017:21:50:19 +0530] "GET /ITAFWebApplication/js/demo3/RowSorter.js HTTP/1.1" 200 8102
0:0:0:0:0:0:0:1 - - [01/Feb/2017:21:50:19 +0530] "GET /ITAFWebApplication/js/demo3/bootstrap-filestyle.min.js HTTP/1.1" 200 7190
0:0:0:0:0:0:0:1 - - [01/Feb/2017:21:50:19 +0530] "GET /ITAFWebApplication/js/demo3/searchTable.js HTTP/1.1" 200 1022
0:0:0:0:0:0:0:1 - - [01/Feb/2017:21:50:19 +0530] "GET /ITAFWebApplication/js/demo3/responsiveTables.js HTTP/1.1" 200 1886
0:0:0:0:0:0:0:1 - - [01/Feb/2017:21:50:19 +0530] "GET /ITAFWebApplication/js/objectCap.js HTTP/1.1" 200 11106
0:0:0:0:0:0:0:1 - - [01/Feb/2017:21:50:20 +0530] "POST /ITAFWebApplication/itafexecute.do HTTP/1.1" 200 19490
0:0:0:0:0:0:0:1 - - [01/Feb/2017:21:50:20 +0530] "GET /ITAFWebApplication/js/demo3/executetry.js HTTP/1.1" 200 1945
0:0:0:0:0:0:0:1 - - [01/Feb/2017:21:50:20 +0530] "GET /ITAFWebApplication/js/demo3/bootstrap-progressbar.js HTTP/1.1" 200 6284
0:0:0:0:0:0:0:1 - - [01/Feb/2017:21:50:20 +0530] "GET /ITAFWebApplication/js/loader.js HTTP/1.1" 200 70294
0:0:0:0:0:0:0:1 - - [01/Feb/2017:21:50:23 +0530] "GET /ITAFWebApplication/css/bootstrap.min.css HTTP/1.1" 200 121260
0:0:0:0:0:0:0:1 - - [01/Feb/2017:21:50:23 +0530] "GET /ITAFWebApplication/css/demo3/try.css HTTP/1.1" 200 4871
0:0:0:0:0:0:0:1 - - [01/Feb/2017:21:50:23 +0530] "POST /ITAFWebApplication/itafexecute.do HTTP/1.1" 200 50118
0:0:0:0:0:0:0:1 - - [01/Feb/2017:21:50:23 +0530] "GET /ITAFWebApplication/css/demo3/responsiveTables.css HTTP/1.1" 200 182
0:0:0:0:0:0:0:1 - - [01/Feb/2017:21:50:23 +0530] "GET /ITAFWebApplication/js/objectCap.js HTTP/1.1" 200 11106
0:0:0:0:0:0:0:1 - - [01/Feb/2017:21:50:23 +0530] "GET /ITAFWebApplication/js/demo3/searchTable.js HTTP/1.1" 200 1022
0:0:0:0:0:0:0:1 - - [01/Feb/2017:21:50:23 +0530] "GET /ITAFWebApplication/js/demo3/bootstrap-filestyle.min.js HTTP/1.1" 200 7190
0:0:0:0:0:0:0:1 - - [01/Feb/2017:21:50:23 +0530] "GET /ITAFWebApplication/js/demo3/responsiveTables.js HTTP/1.1" 200 1886
0:0:0:0:0:0:0:1 - - [01/Feb/2017:21:50:23 +0530] "GET /ITAFWebApplication/js/demo3/RowSorter.js HTTP/1.1" 200 8102
0:0:0:0:0:0:0:1 - - [01/Feb/2017:21:50:23 +0530] "GET /ITAFWebApplication/js/demo3/try.js HTTP/1.1" 200 45488
0:0:0:0:0:0:0:1 - - [01/Feb/2017:21:50:25 +0530] "POST /ITAFWebApplication/itafpack.do HTTP/1.1" 200 55515
0:0:0:0:0:0:0:1 - - [01/Feb/2017:21:50:25 +0530] "GET /ITAFWebApplication/css/bootstrap.min.css HTTP/1.1" 200 121260
0:0:0:0:0:0:0:1 - - [01/Feb/2017:21:50:25 +0530] "GET /ITAFWebApplication/css/demo3/try.css HTTP/1.1" 200 4871
0:0:0:0:0:0:0:1 - - [01/Feb/2017:21:50:25 +0530] "GET /ITAFWebApplication/css/demo3/responsiveTables.css HTTP/1.1" 200 182
0:0:0:0:0:0:0:1 - - [01/Feb/2017:21:50:25 +0530] "GET /ITAFWebApplication/files/advancedReport.html?projectname=ErieDemo&actionType=execute HTTP/1.1" 200 -
0:0:0:0:0:0:0:1 - - [01/Feb/2017:21:50:33 +0530] "GET /ITAFWebApplication/css/bootstrap.min.css HTTP/1.1" 200 121260
0:0:0:0:0:0:0:1 - - [01/Feb/2017:21:50:33 +0530] "GET /ITAFWebApplication/css/demo3/try.css HTTP/1.1" 200 4871
0:0:0:0:0:0:0:1 - - [01/Feb/2017:21:50:33 +0530] "GET /ITAFWebApplication/css/demo3/responsiveTables.css HTTP/1.1" 200 182
0:0:0:0:0:0:0:1 - - [01/Feb/2017:21:50:33 +0530] "POST /ITAFWebApplication/itafpack.do HTTP/1.1" 200 68620
0:0:0:0:0:0:0:1 - - [01/Feb/2017:21:50:33 +0530] "GET /ITAFWebApplication/files/advancedReport.html?projectname=Erie&actionType=execute HTTP/1.1" 200 18983
0:0:0:0:0:0:0:1 - - [01/Feb/2017:21:50:40 +0530] "GET /ITAFWebApplication/css/demo3/try.css HTTP/1.1" 200 4871
0:0:0:0:0:0:0:1 - - [01/Feb/2017:21:50:40 +0530] "GET /ITAFWebApplication/css/bootstrap.min.css HTTP/1.1" 200 121260
0:0:0:0:0:0:0:1 - - [01/Feb/2017:21:50:40 +0530] "POST /ITAFWebApplication/itafpack.do HTTP/1.1" 200 55515
0:0:0:0:0:0:0:1 - - [01/Feb/2017:21:50:40 +0530] "GET /ITAFWebApplication/css/demo3/responsiveTables.css HTTP/1.1" 200 182
0:0:0:0:0:0:0:1 - - [01/Feb/2017:21:50:40 +0530] "GET /ITAFWebApplication/files/advancedReport.html?projectname=ErieDemo&actionType=execute HTTP/1.1" 200 -
0:0:0:0:0:0:0:1 - - [01/Feb/2017:21:50:44 +0530] "GET /ITAFWebApplication/css/demo3/try.css HTTP/1.1" 200 4871
0:0:0:0:0:0:0:1 - - [01/Feb/2017:21:50:44 +0530] "GET /ITAFWebApplication/css/bootstrap.min.css HTTP/1.1" 200 121260
0:0:0:0:0:0:0:1 - - [01/Feb/2017:21:50:44 +0530] "POST /ITAFWebApplication/itafpack.do HTTP/1.1" 200 55576
0:0:0:0:0:0:0:1 - - [01/Feb/2017:21:50:44 +0530] "GET /ITAFWebApplication/css/demo3/responsiveTables.css HTTP/1.1" 200 182
0:0:0:0:0:0:0:1 - - [01/Feb/2017:21:50:44 +0530] "GET /ITAFWebApplication/files/advancedReport.html?projectname=ErieDemo&actionType=execute HTTP/1.1" 200 -
0:0:0:0:0:0:0:1 - - [01/Feb/2017:21:50:46 +0530] "POST /ITAFWebApplication/itafexecute.do HTTP/1.1" 200 19490
0:0:0:0:0:0:0:1 - - [01/Feb/2017:21:50:46 +0530] "GET /ITAFWebApplication/js/loader.js HTTP/1.1" 200 70294
0:0:0:0:0:0:0:1 - - [01/Feb/2017:21:50:46 +0530] "GET /ITAFWebApplication/js/demo3/executetry.js HTTP/1.1" 200 1945
0:0:0:0:0:0:0:1 - - [01/Feb/2017:21:50:46 +0530] "GET /ITAFWebApplication/js/demo3/bootstrap-progressbar.js HTTP/1.1" 200 6284
0:0:0:0:0:0:0:1 - - [01/Feb/2017:21:51:11 +0530] "POST /ITAFWebApplication/itafexecute.do HTTP/1.1" 200 2
0:0:0:0:0:0:0:1 - - [01/Feb/2017:21:52:14 +0530] "POST /ITAFWebApplication/itafexecute.do HTTP/1.1" 200 1069
0:0:0:0:0:0:0:1 - - [01/Feb/2017:21:52:25 +0530] "GET /ITAFWebApplication/css/demo3/try.css HTTP/1.1" 200 4871
0:0:0:0:0:0:0:1 - - [01/Feb/2017:21:52:25 +0530] "GET /ITAFWebApplication/css/bootstrap.min.css HTTP/1.1" 200 121260
0:0:0:0:0:0:0:1 - - [01/Feb/2017:21:52:25 +0530] "POST /ITAFWebApplication/itafexecute.do HTTP/1.1" 200 50118
0:0:0:0:0:0:0:1 - - [01/Feb/2017:21:52:25 +0530] "GET /ITAFWebApplication/css/demo3/responsiveTables.css HTTP/1.1" 200 182
0:0:0:0:0:0:0:1 - - [01/Feb/2017:21:52:27 +0530] "POST /ITAFWebApplication/itafpack.do HTTP/1.1" 200 55577
0:0:0:0:0:0:0:1 - - [01/Feb/2017:21:52:27 +0530] "GET /ITAFWebApplication/css/bootstrap.min.css HTTP/1.1" 200 121260
0:0:0:0:0:0:0:1 - - [01/Feb/2017:21:52:27 +0530] "GET /ITAFWebApplication/css/demo3/try.css HTTP/1.1" 200 4871
0:0:0:0:0:0:0:1 - - [01/Feb/2017:21:52:27 +0530] "GET /ITAFWebApplication/css/demo3/responsiveTables.css HTTP/1.1" 200 182
0:0:0:0:0:0:0:1 - - [01/Feb/2017:21:52:27 +0530] "GET /ITAFWebApplication/files/advancedReport.html?projectname=ErieDemo&actionType=execute HTTP/1.1" 200 -
0:0:0:0:0:0:0:1 - - [01/Feb/2017:21:52:29 +0530] "POST /ITAFWebApplication/itafpack.do HTTP/1.1" 200 55580
0:0:0:0:0:0:0:1 - - [01/Feb/2017:21:52:29 +0530] "GET /ITAFWebApplication/files/advancedReport.html?projectname=ErieDemo&actionType=execute HTTP/1.1" 200 -
0:0:0:0:0:0:0:1 - - [01/Feb/2017:21:52:30 +0530] "POST /ITAFWebApplication/itafpack.do HTTP/1.1" 200 85473
0:0:0:0:0:0:0:1 - - [01/Feb/2017:21:52:30 +0530] "GET /ITAFWebApplication/css/bootstrap.min.css HTTP/1.1" 200 121260
0:0:0:0:0:0:0:1 - - [01/Feb/2017:21:52:30 +0530] "GET /ITAFWebApplication/css/demo3/try.css HTTP/1.1" 200 4871
0:0:0:0:0:0:0:1 - - [01/Feb/2017:21:52:30 +0530] "GET /ITAFWebApplication/files/advancedReport.html?projectname=ErieDemo&actionType=execute HTTP/1.1" 200 -
0:0:0:0:0:0:0:1 - - [01/Feb/2017:21:52:46 +0530] "GET /ITAFWebApplication/css/demo3/try.css HTTP/1.1" 200 4871
0:0:0:0:0:0:0:1 - - [01/Feb/2017:21:52:46 +0530] "GET /ITAFWebApplication/css/bootstrap.min.css HTTP/1.1" 200 121260
0:0:0:0:0:0:0:1 - - [01/Feb/2017:21:52:46 +0530] "POST /ITAFWebApplication/itafpack.do HTTP/1.1" 200 63962
0:0:0:0:0:0:0:1 - - [01/Feb/2017:21:52:46 +0530] "GET /ITAFWebApplication/files/advancedReport.html?projectname=Coverall2015&actionType=execute HTTP/1.1" 200 14721
0:0:0:0:0:0:0:1 - - [01/Feb/2017:21:52:49 +0530] "POST /ITAFWebApplication/itafpack.do HTTP/1.1" 500 2512
0:0:0:0:0:0:0:1 - - [01/Feb/2017:21:52:56 +0530] "GET /ITAFWebApplication/ HTTP/1.1" 200 27677
0:0:0:0:0:0:0:1 - - [01/Feb/2017:21:52:56 +0530] "GET /ITAFWebApplication/css/bootstrap.min.css HTTP/1.1" 200 121260
0:0:0:0:0:0:0:1 - - [01/Feb/2017:21:52:56 +0530] "GET /ITAFWebApplication/css/login.css HTTP/1.1" 200 1077
0:0:0:0:0:0:0:1 - - [01/Feb/2017:21:53:02 +0530] "GET /ITAFWebApplication/css/bootstrap.min.css HTTP/1.1" 200 121260
0:0:0:0:0:0:0:1 - - [01/Feb/2017:21:53:02 +0530] "GET /ITAFWebApplication/css/demo3/try.css HTTP/1.1" 200 4871
0:0:0:0:0:0:0:1 - - [01/Feb/2017:21:53:02 +0530] "POST /ITAFWebApplication/login.do HTTP/1.1" 200 50112
0:0:0:0:0:0:0:1 - - [01/Feb/2017:21:53:02 +0530] "GET /ITAFWebApplication/css/demo3/responsiveTables.css HTTP/1.1" 200 182
0:0:0:0:0:0:0:1 - - [01/Feb/2017:21:53:02 +0530] "GET /ITAFWebApplication/js/jquery.min.js HTTP/1.1" 200 84380
0:0:0:0:0:0:0:1 - - [01/Feb/2017:21:53:02 +0530] "GET /ITAFWebApplication/js/bootstrap.min.js HTTP/1.1" 200 36868
0:0:0:0:0:0:0:1 - - [01/Feb/2017:21:53:02 +0530] "GET /ITAFWebApplication/js/demo3/try.js HTTP/1.1" 200 45488
0:0:0:0:0:0:0:1 - - [01/Feb/2017:21:53:02 +0530] "GET /ITAFWebApplication/js/objectCap.js HTTP/1.1" 200 11106
0:0:0:0:0:0:0:1 - - [01/Feb/2017:21:53:02 +0530] "GET /ITAFWebApplication/js/demo3/bootstrap-filestyle.min.js HTTP/1.1" 200 7190
0:0:0:0:0:0:0:1 - - [01/Feb/2017:21:53:02 +0530] "GET /ITAFWebApplication/js/demo3/searchTable.js HTTP/1.1" 200 1022
0:0:0:0:0:0:0:1 - - [01/Feb/2017:21:53:02 +0530] "GET /ITAFWebApplication/js/demo3/responsiveTables.js HTTP/1.1" 200 1886
0:0:0:0:0:0:0:1 - - [01/Feb/2017:21:53:02 +0530] "GET /ITAFWebApplication/js/demo3/RowSorter.js HTTP/1.1" 200 8102
0:0:0:0:0:0:0:1 - - [01/Feb/2017:21:53:16 +0530] "GET /ITAFWebApplication/css/demo3/try.css HTTP/1.1" 200 4871
0:0:0:0:0:0:0:1 - - [01/Feb/2017:21:53:16 +0530] "GET /ITAFWebApplication/css/demo3/responsiveTables.css HTTP/1.1" 200 182
0:0:0:0:0:0:0:1 - - [01/Feb/2017:21:53:16 +0530] "GET /ITAFWebApplication/css/bootstrap.min.css HTTP/1.1" 200 121260
0:0:0:0:0:0:0:1 - - [01/Feb/2017:21:53:16 +0530] "POST /ITAFWebApplication/itafpack.do HTTP/1.1" 200 63962
0:0:0:0:0:0:0:1 - - [01/Feb/2017:21:53:16 +0530] "GET /ITAFWebApplication/files/advancedReport.html?projectname=Coverall2015&actionType=execute HTTP/1.1" 200 14721
0:0:0:0:0:0:0:1 - - [01/Feb/2017:21:53:20 +0530] "POST /ITAFWebApplication/itafpack.do HTTP/1.1" 500 2512
0:0:0:0:0:0:0:1 - - [01/Feb/2017:21:53:48 +0530] "GET /ITAFWebApplication/ HTTP/1.1" 200 27677
0:0:0:0:0:0:0:1 - - [01/Feb/2017:21:53:48 +0530] "GET /ITAFWebApplication/css/bootstrap.min.css HTTP/1.1" 200 121260
0:0:0:0:0:0:0:1 - - [01/Feb/2017:21:53:48 +0530] "GET /ITAFWebApplication/css/login.css HTTP/1.1" 200 1077
0:0:0:0:0:0:0:1 - - [01/Feb/2017:21:53:55 +0530] "GET /ITAFWebApplication/css/bootstrap.min.css HTTP/1.1" 200 121260
0:0:0:0:0:0:0:1 - - [01/Feb/2017:21:53:55 +0530] "GET /ITAFWebApplication/css/demo3/try.css HTTP/1.1" 200 4871
0:0:0:0:0:0:0:1 - - [01/Feb/2017:21:53:55 +0530] "POST /ITAFWebApplication/login.do HTTP/1.1" 200 50112
0:0:0:0:0:0:0:1 - - [01/Feb/2017:21:53:55 +0530] "GET /ITAFWebApplication/css/demo3/responsiveTables.css HTTP/1.1" 200 182
0:0:0:0:0:0:0:1 - - [01/Feb/2017:21:53:55 +0530] "GET /ITAFWebApplication/js/demo3/try.js HTTP/1.1" 200 45488
0:0:0:0:0:0:0:1 - - [01/Feb/2017:21:53:55 +0530] "GET /ITAFWebApplication/js/jquery.min.js HTTP/1.1" 200 84380
0:0:0:0:0:0:0:1 - - [01/Feb/2017:21:53:55 +0530] "GET /ITAFWebApplication/js/bootstrap.min.js HTTP/1.1" 200 36868
0:0:0:0:0:0:0:1 - - [01/Feb/2017:21:53:55 +0530] "GET /ITAFWebApplication/js/demo3/responsiveTables.js HTTP/1.1" 200 1886
0:0:0:0:0:0:0:1 - - [01/Feb/2017:21:53:55 +0530] "GET /ITAFWebApplication/js/objectCap.js HTTP/1.1" 200 11106
0:0:0:0:0:0:0:1 - - [01/Feb/2017:21:53:55 +0530] "GET /ITAFWebApplication/js/demo3/bootstrap-filestyle.min.js HTTP/1.1" 200 7190
0:0:0:0:0:0:0:1 - - [01/Feb/2017:21:53:55 +0530] "GET /ITAFWebApplication/js/demo3/searchTable.js HTTP/1.1" 200 1022
0:0:0:0:0:0:0:1 - - [01/Feb/2017:21:53:55 +0530] "GET /ITAFWebApplication/js/demo3/RowSorter.js HTTP/1.1" 200 8102
0:0:0:0:0:0:0:1 - - [01/Feb/2017:21:55:13 +0530] "POST /ITAFWebApplication/logout.do HTTP/1.1" 302 -
0:0:0:0:0:0:0:1 - - [01/Feb/2017:21:55:13 +0530] "GET /ITAFWebApplication/login.jsp HTTP/1.1" 200 27677
0:0:0:0:0:0:0:1 - - [01/Feb/2017:21:55:13 +0530] "GET /ITAFWebApplication/css/login.css HTTP/1.1" 200 1077
0:0:0:0:0:0:0:1 - - [01/Feb/2017:21:55:13 +0530] "GET /ITAFWebApplication/css/bootstrap.min.css HTTP/1.1" 200 121260
0:0:0:0:0:0:0:1 - - [01/Feb/2017:21:55:18 +0530] "GET /ITAFWebApplication/css/bootstrap.min.css HTTP/1.1" 200 121260
0:0:0:0:0:0:0:1 - - [01/Feb/2017:21:55:18 +0530] "GET /ITAFWebApplication/css/demo3/try.css HTTP/1.1" 200 4871
0:0:0:0:0:0:0:1 - - [01/Feb/2017:21:55:18 +0530] "POST /ITAFWebApplication/login.do HTTP/1.1" 200 50112
0:0:0:0:0:0:0:1 - - [01/Feb/2017:21:55:18 +0530] "GET /ITAFWebApplication/css/demo3/responsiveTables.css HTTP/1.1" 200 182
0:0:0:0:0:0:0:1 - - [01/Feb/2017:21:55:18 +0530] "GET /ITAFWebApplication/js/jquery.min.js HTTP/1.1" 200 84380
0:0:0:0:0:0:0:1 - - [01/Feb/2017:21:55:18 +0530] "GET /ITAFWebApplication/js/demo3/try.js HTTP/1.1" 200 45488
0:0:0:0:0:0:0:1 - - [01/Feb/2017:21:55:18 +0530] "GET /ITAFWebApplication/js/demo3/RowSorter.js HTTP/1.1" 200 8102
0:0:0:0:0:0:0:1 - - [01/Feb/2017:21:55:18 +0530] "GET /ITAFWebApplication/js/bootstrap.min.js HTTP/1.1" 200 36868
0:0:0:0:0:0:0:1 - - [01/Feb/2017:21:55:18 +0530] "GET /ITAFWebApplication/js/demo3/bootstrap-filestyle.min.js HTTP/1.1" 200 7190
0:0:0:0:0:0:0:1 - - [01/Feb/2017:21:55:18 +0530] "GET /ITAFWebApplication/js/objectCap.js HTTP/1.1" 200 11106
0:0:0:0:0:0:0:1 - - [01/Feb/2017:21:55:18 +0530] "GET /ITAFWebApplication/js/demo3/searchTable.js HTTP/1.1" 200 1022
0:0:0:0:0:0:0:1 - - [01/Feb/2017:21:55:18 +0530] "GET /ITAFWebApplication/js/demo3/responsiveTables.js HTTP/1.1" 200 1886
0:0:0:0:0:0:0:1 - - [01/Feb/2017:21:55:21 +0530] "POST /ITAFWebApplication/itafpack.do HTTP/1.1" 200 63552
0:0:0:0:0:0:0:1 - - [01/Feb/2017:21:55:21 +0530] "GET /ITAFWebApplication/files/advancedReport.html?projectname=Coverall2015&actionType=execute HTTP/1.1" 200 14721
0:0:0:0:0:0:0:1 - - [01/Feb/2017:21:55:24 +0530] "GET /ITAFWebApplication/css/demo3/try.css HTTP/1.1" 200 4871
0:0:0:0:0:0:0:1 - - [01/Feb/2017:21:55:24 +0530] "GET /ITAFWebApplication/css/bootstrap.min.css HTTP/1.1" 200 121260
0:0:0:0:0:0:0:1 - - [01/Feb/2017:21:55:24 +0530] "POST /ITAFWebApplication/itafpack.do HTTP/1.1" 200 63555
0:0:0:0:0:0:0:1 - - [01/Feb/2017:21:55:24 +0530] "GET /ITAFWebApplication/files/advancedReport.html?projectname=Coverall2015&actionType=execute HTTP/1.1" 200 14721
0:0:0:0:0:0:0:1 - - [01/Feb/2017:21:55:26 +0530] "POST /ITAFWebApplication/itafexecute.do HTTP/1.1" 200 19490
0:0:0:0:0:0:0:1 - - [01/Feb/2017:21:55:26 +0530] "GET /ITAFWebApplication/css/bootstrap.min.css HTTP/1.1" 200 121260
0:0:0:0:0:0:0:1 - - [01/Feb/2017:21:55:26 +0530] "GET /ITAFWebApplication/css/demo3/try.css HTTP/1.1" 200 4871
0:0:0:0:0:0:0:1 - - [01/Feb/2017:21:55:26 +0530] "GET /ITAFWebApplication/js/demo3/executetry.js HTTP/1.1" 200 1945
0:0:0:0:0:0:0:1 - - [01/Feb/2017:21:55:26 +0530] "GET /ITAFWebApplication/js/demo3/bootstrap-progressbar.js HTTP/1.1" 200 6284
0:0:0:0:0:0:0:1 - - [01/Feb/2017:21:55:26 +0530] "GET /ITAFWebApplication/js/loader.js HTTP/1.1" 200 70294
0:0:0:0:0:0:0:1 - - [01/Feb/2017:21:56:06 +0530] "POST /ITAFWebApplication/itafexecute.do HTTP/1.1" 200 2
0:0:0:0:0:0:0:1 - - [01/Feb/2017:22:00:17 +0530] "POST /ITAFWebApplication/itafexecute.do HTTP/1.1" 200 2
0:0:0:0:0:0:0:1 - - [01/Feb/2017:22:00:24 +0530] "GET /ITAFWebApplication/css/bootstrap.min.css HTTP/1.1" 200 121260
0:0:0:0:0:0:0:1 - - [01/Feb/2017:22:00:24 +0530] "GET /ITAFWebApplication/css/demo3/try.css HTTP/1.1" 200 4871
0:0:0:0:0:0:0:1 - - [01/Feb/2017:22:00:24 +0530] "POST /ITAFWebApplication/itafexecute.do HTTP/1.1" 200 50118
0:0:0:0:0:0:0:1 - - [01/Feb/2017:22:00:24 +0530] "GET /ITAFWebApplication/css/demo3/responsiveTables.css HTTP/1.1" 200 182
0:0:0:0:0:0:0:1 - - [01/Feb/2017:22:00:24 +0530] "GET /ITAFWebApplication/js/demo3/searchTable.js HTTP/1.1" 200 1022
0:0:0:0:0:0:0:1 - - [01/Feb/2017:22:00:24 +0530] "GET /ITAFWebApplication/js/demo3/try.js HTTP/1.1" 200 45488
0:0:0:0:0:0:0:1 - - [01/Feb/2017:22:00:24 +0530] "GET /ITAFWebApplication/js/demo3/RowSorter.js HTTP/1.1" 200 8102
0:0:0:0:0:0:0:1 - - [01/Feb/2017:22:00:24 +0530] "GET /ITAFWebApplication/js/objectCap.js HTTP/1.1" 200 11106
0:0:0:0:0:0:0:1 - - [01/Feb/2017:22:00:24 +0530] "GET /ITAFWebApplication/js/demo3/responsiveTables.js HTTP/1.1" 200 1886
0:0:0:0:0:0:0:1 - - [01/Feb/2017:22:00:24 +0530] "GET /ITAFWebApplication/js/demo3/bootstrap-filestyle.min.js HTTP/1.1" 200 7190
0:0:0:0:0:0:0:1 - - [01/Feb/2017:22:00:32 +0530] "POST /ITAFWebApplication/itafpack.do HTTP/1.1" 200 63556
0:0:0:0:0:0:0:1 - - [01/Feb/2017:22:00:32 +0530] "GET /ITAFWebApplication/js/demo3/RowSorter.js HTTP/1.1" 200 8102
0:0:0:0:0:0:0:1 - - [01/Feb/2017:22:00:32 +0530] "GET /ITAFWebApplication/js/demo3/bootstrap-filestyle.min.js HTTP/1.1" 200 7190
0:0:0:0:0:0:0:1 - - [01/Feb/2017:22:00:32 +0530] "GET /ITAFWebApplication/css/demo3/responsiveTables.css HTTP/1.1" 200 182
0:0:0:0:0:0:0:1 - - [01/Feb/2017:22:00:32 +0530] "GET /ITAFWebApplication/js/demo3/responsiveTables.js HTTP/1.1" 200 1886
0:0:0:0:0:0:0:1 - - [01/Feb/2017:22:00:32 +0530] "GET /ITAFWebApplication/js/demo3/try.js HTTP/1.1" 200 45488
0:0:0:0:0:0:0:1 - - [01/Feb/2017:22:00:32 +0530] "GET /ITAFWebApplication/js/demo3/searchTable.js HTTP/1.1" 200 1022
0:0:0:0:0:0:0:1 - - [01/Feb/2017:22:00:32 +0530] "GET /ITAFWebApplication/js/objectCap.js HTTP/1.1" 200 11106
0:0:0:0:0:0:0:1 - - [01/Feb/2017:22:00:32 +0530] "GET /ITAFWebApplication/files/advancedReport.html?projectname=Coverall2015&actionType=execute HTTP/1.1" 200 14720
0:0:0:0:0:0:0:1 - - [01/Feb/2017:22:00:36 +0530] "POST /ITAFWebApplication/itafpack.do HTTP/1.1" 200 63559
0:0:0:0:0:0:0:1 - - [01/Feb/2017:22:00:36 +0530] "GET /ITAFWebApplication/css/demo3/try.css HTTP/1.1" 200 4871
0:0:0:0:0:0:0:1 - - [01/Feb/2017:22:00:36 +0530] "GET /ITAFWebApplication/css/bootstrap.min.css HTTP/1.1" 200 121260
0:0:0:0:0:0:0:1 - - [01/Feb/2017:22:00:36 +0530] "GET /ITAFWebApplication/css/demo3/responsiveTables.css HTTP/1.1" 200 182
0:0:0:0:0:0:0:1 - - [01/Feb/2017:22:00:36 +0530] "GET /ITAFWebApplication/files/advancedReport.html?projectname=Coverall2015&actionType=execute HTTP/1.1" 200 14720
0:0:0:0:0:0:0:1 - - [01/Feb/2017:22:00:39 +0530] "POST /ITAFWebApplication/itafexecute.do HTTP/1.1" 200 19490
0:0:0:0:0:0:0:1 - - [01/Feb/2017:22:00:39 +0530] "GET /ITAFWebApplication/js/loader.js HTTP/1.1" 200 70294
0:0:0:0:0:0:0:1 - - [01/Feb/2017:22:00:39 +0530] "GET /ITAFWebApplication/js/demo3/bootstrap-progressbar.js HTTP/1.1" 200 6284
0:0:0:0:0:0:0:1 - - [01/Feb/2017:22:00:39 +0530] "GET /ITAFWebApplication/js/demo3/executetry.js HTTP/1.1" 200 1945
0:0:0:0:0:0:0:1 - - [01/Feb/2017:22:01:08 +0530] "GET /ITAFWebApplication/ HTTP/1.1" 200 27677
0:0:0:0:0:0:0:1 - - [01/Feb/2017:22:01:08 +0530] "GET /ITAFWebApplication/css/bootstrap.min.css HTTP/1.1" 200 121260
0:0:0:0:0:0:0:1 - - [01/Feb/2017:22:01:08 +0530] "GET /ITAFWebApplication/css/login.css HTTP/1.1" 200 1077
0:0:0:0:0:0:0:1 - - [01/Feb/2017:22:01:13 +0530] "GET /ITAFWebApplication/css/bootstrap.min.css HTTP/1.1" 200 121260
0:0:0:0:0:0:0:1 - - [01/Feb/2017:22:01:13 +0530] "GET /ITAFWebApplication/css/demo3/try.css HTTP/1.1" 200 4871
0:0:0:0:0:0:0:1 - - [01/Feb/2017:22:01:13 +0530] "POST /ITAFWebApplication/login.do HTTP/1.1" 200 50112
0:0:0:0:0:0:0:1 - - [01/Feb/2017:22:01:13 +0530] "GET /ITAFWebApplication/css/demo3/responsiveTables.css HTTP/1.1" 200 182
0:0:0:0:0:0:0:1 - - [01/Feb/2017:22:01:13 +0530] "GET /ITAFWebApplication/js/demo3/searchTable.js HTTP/1.1" 200 1022
0:0:0:0:0:0:0:1 - - [01/Feb/2017:22:01:13 +0530] "GET /ITAFWebApplication/js/demo3/responsiveTables.js HTTP/1.1" 200 1886
0:0:0:0:0:0:0:1 - - [01/Feb/2017:22:01:13 +0530] "GET /ITAFWebApplication/js/demo3/try.js HTTP/1.1" 200 45488
0:0:0:0:0:0:0:1 - - [01/Feb/2017:22:01:13 +0530] "GET /ITAFWebApplication/js/demo3/RowSorter.js HTTP/1.1" 200 8102
0:0:0:0:0:0:0:1 - - [01/Feb/2017:22:01:13 +0530] "GET /ITAFWebApplication/js/demo3/bootstrap-filestyle.min.js HTTP/1.1" 200 7190
0:0:0:0:0:0:0:1 - - [01/Feb/2017:22:01:13 +0530] "GET /ITAFWebApplication/js/objectCap.js HTTP/1.1" 200 11106
0:0:0:0:0:0:0:1 - - [01/Feb/2017:22:01:17 +0530] "GET /ITAFWebApplication/css/bootstrap.min.css HTTP/1.1" 200 121260
0:0:0:0:0:0:0:1 - - [01/Feb/2017:22:01:17 +0530] "GET /ITAFWebApplication/css/demo3/try.css HTTP/1.1" 200 4871
0:0:0:0:0:0:0:1 - - [01/Feb/2017:22:01:17 +0530] "GET /ITAFWebApplication/css/demo3/responsiveTables.css HTTP/1.1" 200 182
0:0:0:0:0:0:0:1 - - [01/Feb/2017:22:01:17 +0530] "POST /ITAFWebApplication/itafpack.do HTTP/1.1" 200 63560
0:0:0:0:0:0:0:1 - - [01/Feb/2017:22:01:17 +0530] "GET /ITAFWebApplication/files/advancedReport.html?projectname=Coverall2015&actionType=execute HTTP/1.1" 200 14720
0:0:0:0:0:0:0:1 - - [01/Feb/2017:22:01:19 +0530] "POST /ITAFWebApplication/itafpack.do HTTP/1.1" 200 63563
0:0:0:0:0:0:0:1 - - [01/Feb/2017:22:01:19 +0530] "GET /ITAFWebApplication/css/demo3/try.css HTTP/1.1" 200 4871
0:0:0:0:0:0:0:1 - - [01/Feb/2017:22:01:20 +0530] "GET /ITAFWebApplication/css/bootstrap.min.css HTTP/1.1" 200 121260
0:0:0:0:0:0:0:1 - - [01/Feb/2017:22:01:20 +0530] "GET /ITAFWebApplication/css/demo3/responsiveTables.css HTTP/1.1" 200 182
0:0:0:0:0:0:0:1 - - [01/Feb/2017:22:01:20 +0530] "GET /ITAFWebApplication/files/advancedReport.html?projectname=Coverall2015&actionType=execute HTTP/1.1" 200 14720
0:0:0:0:0:0:0:1 - - [01/Feb/2017:22:01:23 +0530] "POST /ITAFWebApplication/itafpack.do HTTP/1.1" 200 93427
0:0:0:0:0:0:0:1 - - [01/Feb/2017:22:01:23 +0530] "GET /ITAFWebApplication/files/advancedReport.html?projectname=Coverall2015&actionType=execute HTTP/1.1" 200 14720
0:0:0:0:0:0:0:1 - - [01/Feb/2017:22:01:30 +0530] "GET /ITAFWebApplication/css/bootstrap.min.css HTTP/1.1" 200 121260
0:0:0:0:0:0:0:1 - - [01/Feb/2017:22:01:30 +0530] "GET /ITAFWebApplication/css/demo3/try.css HTTP/1.1" 200 4871
0:0:0:0:0:0:0:1 - - [01/Feb/2017:22:01:30 +0530] "POST /ITAFWebApplication/itafpack.do HTTP/1.1" 200 120238
0:0:0:0:0:0:0:1 - - [01/Feb/2017:22:01:30 +0530] "GET /ITAFWebApplication/files/advancedReport.html?projectname=Coverall2015&actionType=execute HTTP/1.1" 200 14720
0:0:0:0:0:0:0:1 - - [01/Feb/2017:22:02:29 +0530] "GET /ITAFWebApplication/css/bootstrap.min.css HTTP/1.1" 200 121260
0:0:0:0:0:0:0:1 - - [01/Feb/2017:22:02:29 +0530] "GET /ITAFWebApplication/css/demo3/try.css HTTP/1.1" 200 4871
0:0:0:0:0:0:0:1 - - [01/Feb/2017:22:02:29 +0530] "POST /ITAFWebApplication/itafpack.do HTTP/1.1" 200 137905
0:0:0:0:0:0:0:1 - - [01/Feb/2017:22:02:29 +0530] "GET /ITAFWebApplication/files/advancedReport.html?projectname=Coverall2015&actionType=execute HTTP/1.1" 200 14720
0:0:0:0:0:0:0:1 - - [01/Feb/2017:22:02:31 +0530] "POST /ITAFWebApplication/itafpack.do HTTP/1.1" 200 137762
0:0:0:0:0:0:0:1 - - [01/Feb/2017:22:02:31 +0530] "GET /ITAFWebApplication/css/bootstrap.min.css HTTP/1.1" 200 121260
0:0:0:0:0:0:0:1 - - [01/Feb/2017:22:02:31 +0530] "GET /ITAFWebApplication/css/demo3/try.css HTTP/1.1" 200 4871
0:0:0:0:0:0:0:1 - - [01/Feb/2017:22:02:31 +0530] "GET /ITAFWebApplication/files/advancedReport.html?projectname=Coverall2015&actionType=execute HTTP/1.1" 200 14720
0:0:0:0:0:0:0:1 - - [01/Feb/2017:22:02:46 +0530] "GET /ITAFWebApplication/css/demo3/try.css HTTP/1.1" 200 4871
0:0:0:0:0:0:0:1 - - [01/Feb/2017:22:02:46 +0530] "GET /ITAFWebApplication/css/bootstrap.min.css HTTP/1.1" 200 121260
0:0:0:0:0:0:0:1 - - [01/Feb/2017:22:02:46 +0530] "POST /ITAFWebApplication/itafpack.do HTTP/1.1" 200 137905
0:0:0:0:0:0:0:1 - - [01/Feb/2017:22:02:46 +0530] "GET /ITAFWebApplication/files/advancedReport.html?projectname=Coverall2015&actionType=execute HTTP/1.1" 200 14720
0:0:0:0:0:0:0:1 - - [01/Feb/2017:22:02:51 +0530] "POST /ITAFWebApplication/itafexecute.do HTTP/1.1" 200 19490
0:0:0:0:0:0:0:1 - - [01/Feb/2017:22:02:51 +0530] "GET /ITAFWebApplication/css/bootstrap.min.css HTTP/1.1" 200 121260
0:0:0:0:0:0:0:1 - - [01/Feb/2017:22:02:51 +0530] "GET /ITAFWebApplication/css/demo3/try.css HTTP/1.1" 200 4871
0:0:0:0:0:0:0:1 - - [01/Feb/2017:22:02:51 +0530] "GET /ITAFWebApplication/js/demo3/executetry.js HTTP/1.1" 200 1945
0:0:0:0:0:0:0:1 - - [01/Feb/2017:22:02:52 +0530] "GET /ITAFWebApplication/js/demo3/bootstrap-progressbar.js HTTP/1.1" 200 6284
0:0:0:0:0:0:0:1 - - [01/Feb/2017:22:02:52 +0530] "GET /ITAFWebApplication/js/loader.js HTTP/1.1" 200 70294
0:0:0:0:0:0:0:1 - - [01/Feb/2017:22:05:33 +0530] "POST /ITAFWebApplication/itafexecute.do HTTP/1.1" 200 2
0:0:0:0:0:0:0:1 - - [01/Feb/2017:22:05:36 +0530] "GET /ITAFWebApplication/css/demo3/try.css HTTP/1.1" 200 4871
0:0:0:0:0:0:0:1 - - [01/Feb/2017:22:05:36 +0530] "GET /ITAFWebApplication/css/bootstrap.min.css HTTP/1.1" 200 121260
0:0:0:0:0:0:0:1 - - [01/Feb/2017:22:05:36 +0530] "POST /ITAFWebApplication/itafexecute.do HTTP/1.1" 200 50118
0:0:0:0:0:0:0:1 - - [01/Feb/2017:22:05:38 +0530] "POST /ITAFWebApplication/itafpack.do HTTP/1.1" 200 63564
0:0:0:0:0:0:0:1 - - [01/Feb/2017:22:05:38 +0530] "GET /ITAFWebApplication/files/advancedReport.html?projectname=Coverall2015&actionType=execute HTTP/1.1" 200 17850
0:0:0:0:0:0:0:1 - - [01/Feb/2017:22:06:08 +0530] "GET /ITAFWebApplication/css/bootstrap.min.css HTTP/1.1" 200 121260
0:0:0:0:0:0:0:1 - - [01/Feb/2017:22:06:08 +0530] "GET /ITAFWebApplication/css/demo3/try.css HTTP/1.1" 200 4871
0:0:0:0:0:0:0:1 - - [01/Feb/2017:22:06:08 +0530] "POST /ITAFWebApplication/itafpack.do HTTP/1.1" 200 63564
0:0:0:0:0:0:0:1 - - [01/Feb/2017:22:06:08 +0530] "GET /ITAFWebApplication/files/advancedReport.html?projectname=Coverall2015&actionType=execute HTTP/1.1" 200 17850
0:0:0:0:0:0:0:1 - - [01/Feb/2017:22:06:10 +0530] "POST /ITAFWebApplication/itafpack.do HTTP/1.1" 200 63567
0:0:0:0:0:0:0:1 - - [01/Feb/2017:22:06:10 +0530] "GET /ITAFWebApplication/css/bootstrap.min.css HTTP/1.1" 200 121260
0:0:0:0:0:0:0:1 - - [01/Feb/2017:22:06:10 +0530] "GET /ITAFWebApplication/css/demo3/try.css HTTP/1.1" 200 4871
0:0:0:0:0:0:0:1 - - [01/Feb/2017:22:06:10 +0530] "GET /ITAFWebApplication/files/advancedReport.html?projectname=Coverall2015&actionType=execute HTTP/1.1" 200 17850
0:0:0:0:0:0:0:1 - - [01/Feb/2017:22:06:11 +0530] "POST /ITAFWebApplication/itafpack.do HTTP/1.1" 200 93431
0:0:0:0:0:0:0:1 - - [01/Feb/2017:22:06:11 +0530] "GET /ITAFWebApplication/css/bootstrap.min.css HTTP/1.1" 200 121260
0:0:0:0:0:0:0:1 - - [01/Feb/2017:22:06:11 +0530] "GET /ITAFWebApplication/css/demo3/try.css HTTP/1.1" 200 4871
0:0:0:0:0:0:0:1 - - [01/Feb/2017:22:06:11 +0530] "GET /ITAFWebApplication/files/advancedReport.html?projectname=Coverall2015&actionType=execute HTTP/1.1" 200 17850
0:0:0:0:0:0:0:1 - - [01/Feb/2017:22:06:16 +0530] "GET /ITAFWebApplication/css/bootstrap.min.css HTTP/1.1" 200 121260
0:0:0:0:0:0:0:1 - - [01/Feb/2017:22:06:16 +0530] "GET /ITAFWebApplication/css/demo3/try.css HTTP/1.1" 200 4871
0:0:0:0:0:0:0:1 - - [01/Feb/2017:22:06:16 +0530] "POST /ITAFWebApplication/itafpack.do HTTP/1.1" 200 65581
0:0:0:0:0:0:0:1 - - [01/Feb/2017:22:06:16 +0530] "GET /ITAFWebApplication/files/advancedReport.html?projectname=Coverall2015&actionType=execute HTTP/1.1" 200 17850
0:0:0:0:0:0:0:1 - - [01/Feb/2017:22:06:18 +0530] "GET /ITAFWebApplication/css/bootstrap.min.css HTTP/1.1" 200 121260
0:0:0:0:0:0:0:1 - - [01/Feb/2017:22:06:18 +0530] "GET /ITAFWebApplication/css/demo3/try.css HTTP/1.1" 200 4871
0:0:0:0:0:0:0:1 - - [01/Feb/2017:22:06:18 +0530] "POST /ITAFWebApplication/itafpack.do HTTP/1.1" 200 66402
0:0:0:0:0:0:0:1 - - [01/Feb/2017:22:06:18 +0530] "GET /ITAFWebApplication/files/advancedReport.html?projectname=Coverall2015&actionType=execute HTTP/1.1" 200 17850
0:0:0:0:0:0:0:1 - - [01/Feb/2017:22:09:26 +0530] "POST /ITAFWebApplication/itafpack.do HTTP/1.1" 200 63568
0:0:0:0:0:0:0:1 - - [01/Feb/2017:22:09:26 +0530] "GET /ITAFWebApplication/css/demo3/try.css HTTP/1.1" 200 4871
0:0:0:0:0:0:0:1 - - [01/Feb/2017:22:09:26 +0530] "GET /ITAFWebApplication/css/bootstrap.min.css HTTP/1.1" 200 121260
0:0:0:0:0:0:0:1 - - [01/Feb/2017:22:09:26 +0530] "GET /ITAFWebApplication/files/advancedReport.html?projectname=Coverall2015&actionType=execute HTTP/1.1" 200 17850
0:0:0:0:0:0:0:1 - - [01/Feb/2017:22:09:28 +0530] "POST /ITAFWebApplication/itafpack.do HTTP/1.1" 200 63571
0:0:0:0:0:0:0:1 - - [01/Feb/2017:22:09:28 +0530] "GET /ITAFWebApplication/css/demo3/try.css HTTP/1.1" 200 4871
0:0:0:0:0:0:0:1 - - [01/Feb/2017:22:09:28 +0530] "GET /ITAFWebApplication/css/bootstrap.min.css HTTP/1.1" 200 121260
0:0:0:0:0:0:0:1 - - [01/Feb/2017:22:09:28 +0530] "GET /ITAFWebApplication/files/advancedReport.html?projectname=Coverall2015&actionType=execute HTTP/1.1" 200 17850
0:0:0:0:0:0:0:1 - - [01/Feb/2017:22:09:34 +0530] "GET /ITAFWebApplication/css/bootstrap.min.css HTTP/1.1" 200 121260
0:0:0:0:0:0:0:1 - - [01/Feb/2017:22:09:34 +0530] "GET /ITAFWebApplication/css/demo3/try.css HTTP/1.1" 200 4871
0:0:0:0:0:0:0:1 - - [01/Feb/2017:22:09:34 +0530] "POST /ITAFWebApplication/itafpack.do HTTP/1.1" 200 218157
0:0:0:0:0:0:0:1 - - [01/Feb/2017:22:09:34 +0530] "GET /ITAFWebApplication/files/advancedReport.html?projectname=Coverall2015&actionType=execute HTTP/1.1" 200 17850
0:0:0:0:0:0:0:1 - - [01/Feb/2017:22:10:31 +0530] "GET /ITAFWebApplication/css/demo3/try.css HTTP/1.1" 200 4871
0:0:0:0:0:0:0:1 - - [01/Feb/2017:22:10:31 +0530] "GET /ITAFWebApplication/css/bootstrap.min.css HTTP/1.1" 200 121260
0:0:0:0:0:0:0:1 - - [01/Feb/2017:22:10:31 +0530] "POST /ITAFWebApplication/itafpack.do HTTP/1.1" 200 218233
0:0:0:0:0:0:0:1 - - [01/Feb/2017:22:10:31 +0530] "GET /ITAFWebApplication/files/advancedReport.html?projectname=Coverall2015&actionType=execute HTTP/1.1" 200 17850
0:0:0:0:0:0:0:1 - - [01/Feb/2017:22:10:33 +0530] "POST /ITAFWebApplication/itafexecute.do HTTP/1.1" 200 19490
0:0:0:0:0:0:0:1 - - [01/Feb/2017:22:10:33 +0530] "GET /ITAFWebApplication/css/bootstrap.min.css HTTP/1.1" 200 121260
0:0:0:0:0:0:0:1 - - [01/Feb/2017:22:10:33 +0530] "GET /ITAFWebApplication/css/demo3/try.css HTTP/1.1" 200 4871
0:0:0:0:0:0:0:1 - - [01/Feb/2017:22:10:33 +0530] "GET /ITAFWebApplication/js/demo3/bootstrap-progressbar.js HTTP/1.1" 200 6284
0:0:0:0:0:0:0:1 - - [01/Feb/2017:22:10:33 +0530] "GET /ITAFWebApplication/js/loader.js HTTP/1.1" 200 70294
0:0:0:0:0:0:0:1 - - [01/Feb/2017:22:10:33 +0530] "GET /ITAFWebApplication/js/demo3/executetry.js HTTP/1.1" 200 1945
0:0:0:0:0:0:0:1 - - [01/Feb/2017:22:13:20 +0530] "POST /ITAFWebApplication/itafexecute.do HTTP/1.1" 200 2
0:0:0:0:0:0:0:1 - - [01/Feb/2017:22:13:22 +0530] "GET /ITAFWebApplication/css/bootstrap.min.css HTTP/1.1" 200 121260
0:0:0:0:0:0:0:1 - - [01/Feb/2017:22:13:22 +0530] "GET /ITAFWebApplication/css/demo3/try.css HTTP/1.1" 200 4871
0:0:0:0:0:0:0:1 - - [01/Feb/2017:22:13:22 +0530] "POST /ITAFWebApplication/itafexecute.do HTTP/1.1" 200 50118
0:0:0:0:0:0:0:1 - - [01/Feb/2017:22:13:24 +0530] "POST /ITAFWebApplication/itafpack.do HTTP/1.1" 200 63572
0:0:0:0:0:0:0:1 - - [01/Feb/2017:22:13:24 +0530] "GET /ITAFWebApplication/files/advancedReport.html?projectname=Coverall2015&actionType=execute HTTP/1.1" 200 17854
0:0:0:0:0:0:0:1 - - [01/Feb/2017:22:14:32 +0530] "GET /ITAFWebApplication/css/bootstrap.min.css HTTP/1.1" 200 121260
0:0:0:0:0:0:0:1 - - [01/Feb/2017:22:14:32 +0530] "GET /ITAFWebApplication/css/demo3/try.css HTTP/1.1" 200 4871
0:0:0:0:0:0:0:1 - - [01/Feb/2017:22:14:32 +0530] "POST /ITAFWebApplication/itafpack.do HTTP/1.1" 200 218087
0:0:0:0:0:0:0:1 - - [01/Feb/2017:22:14:32 +0530] "GET /ITAFWebApplication/files/advancedReport.html?projectname=Coverall2015&actionType=execute HTTP/1.1" 200 17854
0:0:0:0:0:0:0:1 - - [01/Feb/2017:22:14:44 +0530] "GET /ITAFWebApplication/css/bootstrap.min.css HTTP/1.1" 200 121260
0:0:0:0:0:0:0:1 - - [01/Feb/2017:22:14:44 +0530] "GET /ITAFWebApplication/css/demo3/try.css HTTP/1.1" 200 4871
0:0:0:0:0:0:0:1 - - [01/Feb/2017:22:14:44 +0530] "POST /ITAFWebApplication/itafpack.do HTTP/1.1" 200 218233
0:0:0:0:0:0:0:1 - - [01/Feb/2017:22:14:44 +0530] "GET /ITAFWebApplication/files/advancedReport.html?projectname=Coverall2015&actionType=execute HTTP/1.1" 200 17854
0:0:0:0:0:0:0:1 - - [01/Feb/2017:22:15:03 +0530] "GET /ITAFWebApplication/css/bootstrap.min.css HTTP/1.1" 200 121260
0:0:0:0:0:0:0:1 - - [01/Feb/2017:22:15:03 +0530] "GET /ITAFWebApplication/css/demo3/try.css HTTP/1.1" 200 4871
0:0:0:0:0:0:0:1 - - [01/Feb/2017:22:15:03 +0530] "POST /ITAFWebApplication/itafpack.do HTTP/1.1" 200 63572
0:0:0:0:0:0:0:1 - - [01/Feb/2017:22:15:03 +0530] "GET /ITAFWebApplication/files/advancedReport.html?projectname=Coverall2015&actionType=execute HTTP/1.1" 200 17854
0:0:0:0:0:0:0:1 - - [01/Feb/2017:22:15:05 +0530] "POST /ITAFWebApplication/itafexecute.do HTTP/1.1" 200 19490
0:0:0:0:0:0:0:1 - - [01/Feb/2017:22:15:05 +0530] "GET /ITAFWebApplication/js/loader.js HTTP/1.1" 200 70294
0:0:0:0:0:0:0:1 - - [01/Feb/2017:22:15:05 +0530] "GET /ITAFWebApplication/js/demo3/executetry.js HTTP/1.1" 200 1945
0:0:0:0:0:0:0:1 - - [01/Feb/2017:22:15:05 +0530] "GET /ITAFWebApplication/js/demo3/bootstrap-progressbar.js HTTP/1.1" 200 6284
0:0:0:0:0:0:0:1 - - [01/Feb/2017:22:15:28 +0530] "GET /ITAFWebApplication/ HTTP/1.1" 200 27677
0:0:0:0:0:0:0:1 - - [01/Feb/2017:22:15:28 +0530] "GET /ITAFWebApplication/css/login.css HTTP/1.1" 200 1077
0:0:0:0:0:0:0:1 - - [01/Feb/2017:22:15:28 +0530] "GET /ITAFWebApplication/css/bootstrap.min.css HTTP/1.1" 200 121260
0:0:0:0:0:0:0:1 - - [01/Feb/2017:22:15:34 +0530] "POST /ITAFWebApplication/itafexecute.do HTTP/1.1" 200 2
0:0:0:0:0:0:0:1 - - [01/Feb/2017:22:15:38 +0530] "GET /ITAFWebApplication/css/bootstrap.min.css HTTP/1.1" 200 121260
0:0:0:0:0:0:0:1 - - [01/Feb/2017:22:15:38 +0530] "POST /ITAFWebApplication/login.do HTTP/1.1" 200 50112
0:0:0:0:0:0:0:1 - - [01/Feb/2017:22:15:38 +0530] "GET /ITAFWebApplication/css/demo3/try.css HTTP/1.1" 200 4871
0:0:0:0:0:0:0:1 - - [01/Feb/2017:22:15:38 +0530] "GET /ITAFWebApplication/css/demo3/responsiveTables.css HTTP/1.1" 200 182
0:0:0:0:0:0:0:1 - - [01/Feb/2017:22:15:38 +0530] "GET /ITAFWebApplication/js/demo3/try.js HTTP/1.1" 200 45488
0:0:0:0:0:0:0:1 - - [01/Feb/2017:22:15:38 +0530] "GET /ITAFWebApplication/js/demo3/searchTable.js HTTP/1.1" 200 1022
0:0:0:0:0:0:0:1 - - [01/Feb/2017:22:15:38 +0530] "GET /ITAFWebApplication/js/demo3/RowSorter.js HTTP/1.1" 200 8102
0:0:0:0:0:0:0:1 - - [01/Feb/2017:22:15:38 +0530] "GET /ITAFWebApplication/js/demo3/responsiveTables.js HTTP/1.1" 200 1886
0:0:0:0:0:0:0:1 - - [01/Feb/2017:22:15:38 +0530] "GET /ITAFWebApplication/js/demo3/bootstrap-filestyle.min.js HTTP/1.1" 200 7190
0:0:0:0:0:0:0:1 - - [01/Feb/2017:22:15:38 +0530] "GET /ITAFWebApplication/js/objectCap.js HTTP/1.1" 200 11106
0:0:0:0:0:0:0:1 - - [01/Feb/2017:22:15:44 +0530] "GET /ITAFWebApplication/css/bootstrap.min.css HTTP/1.1" 200 121260
0:0:0:0:0:0:0:1 - - [01/Feb/2017:22:15:44 +0530] "GET /ITAFWebApplication/css/demo3/try.css HTTP/1.1" 200 4871
0:0:0:0:0:0:0:1 - - [01/Feb/2017:22:15:44 +0530] "POST /ITAFWebApplication/itafpack.do HTTP/1.1" 200 63572
0:0:0:0:0:0:0:1 - - [01/Feb/2017:22:15:44 +0530] "GET /ITAFWebApplication/css/demo3/responsiveTables.css HTTP/1.1" 200 182
0:0:0:0:0:0:0:1 - - [01/Feb/2017:22:15:44 +0530] "GET /ITAFWebApplication/files/advancedReport.html?projectname=Coverall2015&actionType=execute HTTP/1.1" 200 13176
0:0:0:0:0:0:0:1 - - [01/Feb/2017:22:15:46 +0530] "POST /ITAFWebApplication/itafpack.do HTTP/1.1" 200 63575
0:0:0:0:0:0:0:1 - - [01/Feb/2017:22:15:46 +0530] "GET /ITAFWebApplication/files/advancedReport.html?projectname=Coverall2015&actionType=execute HTTP/1.1" 200 13176
0:0:0:0:0:0:0:1 - - [01/Feb/2017:22:15:49 +0530] "GET /ITAFWebApplication/css/demo3/try.css HTTP/1.1" 200 4871
0:0:0:0:0:0:0:1 - - [01/Feb/2017:22:15:49 +0530] "GET /ITAFWebApplication/css/bootstrap.min.css HTTP/1.1" 200 121260
0:0:0:0:0:0:0:1 - - [01/Feb/2017:22:15:49 +0530] "POST /ITAFWebApplication/itafpack.do HTTP/1.1" 200 164950
0:0:0:0:0:0:0:1 - - [01/Feb/2017:22:15:49 +0530] "GET /ITAFWebApplication/files/advancedReport.html?projectname=Coverall2015&actionType=execute HTTP/1.1" 200 13176
0:0:0:0:0:0:0:1 - - [01/Feb/2017:22:16:01 +0530] "GET /ITAFWebApplication/css/bootstrap.min.css HTTP/1.1" 200 121260
0:0:0:0:0:0:0:1 - - [01/Feb/2017:22:16:01 +0530] "GET /ITAFWebApplication/css/demo3/try.css HTTP/1.1" 200 4871
0:0:0:0:0:0:0:1 - - [01/Feb/2017:22:16:01 +0530] "POST /ITAFWebApplication/itafpack.do HTTP/1.1" 200 62555
0:0:0:0:0:0:0:1 - - [01/Feb/2017:22:16:01 +0530] "GET /ITAFWebApplication/files/advancedReport.html?projectname=Coverall2015&actionType=execute HTTP/1.1" 200 13176
0:0:0:0:0:0:0:1 - - [01/Feb/2017:22:16:04 +0530] "POST /ITAFWebApplication/itafexecute.do HTTP/1.1" 200 19490
0:0:0:0:0:0:0:1 - - [01/Feb/2017:22:16:04 +0530] "GET /ITAFWebApplication/css/bootstrap.min.css HTTP/1.1" 200 121260
0:0:0:0:0:0:0:1 - - [01/Feb/2017:22:16:04 +0530] "GET /ITAFWebApplication/css/demo3/try.css HTTP/1.1" 200 4871
0:0:0:0:0:0:0:1 - - [01/Feb/2017:22:16:04 +0530] "GET /ITAFWebApplication/js/demo3/executetry.js HTTP/1.1" 200 1945
0:0:0:0:0:0:0:1 - - [01/Feb/2017:22:16:04 +0530] "GET /ITAFWebApplication/js/demo3/bootstrap-progressbar.js HTTP/1.1" 200 6284
0:0:0:0:0:0:0:1 - - [01/Feb/2017:22:16:04 +0530] "GET /ITAFWebApplication/js/loader.js HTTP/1.1" 200 70294
0:0:0:0:0:0:0:1 - - [01/Feb/2017:22:17:50 +0530] "GET /ITAFWebApplication/ HTTP/1.1" 200 27677
0:0:0:0:0:0:0:1 - - [01/Feb/2017:22:17:50 +0530] "GET /ITAFWebApplication/css/login.css HTTP/1.1" 200 1077
0:0:0:0:0:0:0:1 - - [01/Feb/2017:22:17:50 +0530] "GET /ITAFWebApplication/css/bootstrap.min.css HTTP/1.1" 200 121260
0:0:0:0:0:0:0:1 - - [01/Feb/2017:22:17:57 +0530] "POST /ITAFWebApplication/itafexecute.do HTTP/1.1" 200 2
0:0:0:0:0:0:0:1 - - [01/Feb/2017:22:18:41 +0530] "POST /ITAFWebApplication/login.do HTTP/1.1" 200 50112
0:0:0:0:0:0:0:1 - - [01/Feb/2017:22:18:41 +0530] "GET /ITAFWebApplication/css/bootstrap.min.css HTTP/1.1" 200 121260
0:0:0:0:0:0:0:1 - - [01/Feb/2017:22:18:41 +0530] "GET /ITAFWebApplication/css/demo3/responsiveTables.css HTTP/1.1" 200 182
0:0:0:0:0:0:0:1 - - [01/Feb/2017:22:18:41 +0530] "GET /ITAFWebApplication/js/bootstrap.min.js HTTP/1.1" 200 36868
0:0:0:0:0:0:0:1 - - [01/Feb/2017:22:18:41 +0530] "GET /ITAFWebApplication/js/demo3/RowSorter.js HTTP/1.1" 200 8102
0:0:0:0:0:0:0:1 - - [01/Feb/2017:22:18:41 +0530] "GET /ITAFWebApplication/js/demo3/try.js HTTP/1.1" 200 45488
0:0:0:0:0:0:0:1 - - [01/Feb/2017:22:18:41 +0530] "GET /ITAFWebApplication/js/jquery.min.js HTTP/1.1" 200 84380
0:0:0:0:0:0:0:1 - - [01/Feb/2017:22:18:41 +0530] "GET /ITAFWebApplication/js/objectCap.js HTTP/1.1" 200 11106
0:0:0:0:0:0:0:1 - - [01/Feb/2017:22:18:41 +0530] "GET /ITAFWebApplication/js/demo3/bootstrap-filestyle.min.js HTTP/1.1" 200 7190
0:0:0:0:0:0:0:1 - - [01/Feb/2017:22:18:41 +0530] "GET /ITAFWebApplication/js/demo3/searchTable.js HTTP/1.1" 200 1022
0:0:0:0:0:0:0:1 - - [01/Feb/2017:22:18:41 +0530] "GET /ITAFWebApplication/css/demo3/try.css HTTP/1.1" 200 4871
0:0:0:0:0:0:0:1 - - [01/Feb/2017:22:18:41 +0530] "GET /ITAFWebApplication/js/demo3/responsiveTables.js HTTP/1.1" 200 1886
0:0:0:0:0:0:0:1 - - [01/Feb/2017:22:18:45 +0530] "POST /ITAFWebApplication/itafpack.do HTTP/1.1" 200 63478
0:0:0:0:0:0:0:1 - - [01/Feb/2017:22:18:45 +0530] "GET /ITAFWebApplication/files/advancedReport.html?projectname=Coverall2015&actionType=execute HTTP/1.1" 200 20399
0:0:0:0:0:0:0:1 - - [01/Feb/2017:22:18:47 +0530] "POST /ITAFWebApplication/itafexecute.do HTTP/1.1" 200 19490
0:0:0:0:0:0:0:1 - - [01/Feb/2017:22:18:47 +0530] "GET /ITAFWebApplication/css/bootstrap.min.css HTTP/1.1" 200 121260
0:0:0:0:0:0:0:1 - - [01/Feb/2017:22:18:47 +0530] "GET /ITAFWebApplication/css/demo3/try.css HTTP/1.1" 200 4871
0:0:0:0:0:0:0:1 - - [01/Feb/2017:22:18:47 +0530] "GET /ITAFWebApplication/js/demo3/bootstrap-progressbar.js HTTP/1.1" 200 6284
0:0:0:0:0:0:0:1 - - [01/Feb/2017:22:18:47 +0530] "GET /ITAFWebApplication/js/demo3/executetry.js HTTP/1.1" 200 1945
0:0:0:0:0:0:0:1 - - [01/Feb/2017:22:18:47 +0530] "GET /ITAFWebApplication/js/loader.js HTTP/1.1" 200 70294
0:0:0:0:0:0:0:1 - - [01/Feb/2017:22:18:48 +0530] "GET /ITAFWebApplication/css/bootstrap.min.css HTTP/1.1" 200 121260
0:0:0:0:0:0:0:1 - - [01/Feb/2017:22:18:48 +0530] "GET /ITAFWebApplication/css/demo3/try.css HTTP/1.1" 200 4871
0:0:0:0:0:0:0:1 - - [01/Feb/2017:22:18:48 +0530] "POST /ITAFWebApplication/itafexecute.do HTTP/1.1" 200 50118
0:0:0:0:0:0:0:1 - - [01/Feb/2017:22:18:50 +0530] "POST /ITAFWebApplication/itafpack.do HTTP/1.1" 200 63478
0:0:0:0:0:0:0:1 - - [01/Feb/2017:22:18:50 +0530] "GET /ITAFWebApplication/files/advancedReport.html?projectname=Coverall2015&actionType=execute HTTP/1.1" 200 20399
0:0:0:0:0:0:0:1 - - [01/Feb/2017:22:18:51 +0530] "POST /ITAFWebApplication/itafpack.do HTTP/1.1" 200 63481
0:0:0:0:0:0:0:1 - - [01/Feb/2017:22:18:51 +0530] "GET /ITAFWebApplication/css/demo3/try.css HTTP/1.1" 200 4871
0:0:0:0:0:0:0:1 - - [01/Feb/2017:22:18:51 +0530] "GET /ITAFWebApplication/css/bootstrap.min.css HTTP/1.1" 200 121260
0:0:0:0:0:0:0:1 - - [01/Feb/2017:22:18:51 +0530] "GET /ITAFWebApplication/files/advancedReport.html?projectname=Coverall2015&actionType=execute HTTP/1.1" 200 20399
0:0:0:0:0:0:0:1 - - [01/Feb/2017:22:18:53 +0530] "POST /ITAFWebApplication/itafexecute.do HTTP/1.1" 200 19490
0:0:0:0:0:0:0:1 - - [01/Feb/2017:22:18:53 +0530] "GET /ITAFWebApplication/css/bootstrap.min.css HTTP/1.1" 200 121260
0:0:0:0:0:0:0:1 - - [01/Feb/2017:22:18:53 +0530] "GET /ITAFWebApplication/css/demo3/try.css HTTP/1.1" 200 4871
0:0:0:0:0:0:0:1 - - [01/Feb/2017:22:18:53 +0530] "GET /ITAFWebApplication/js/loader.js HTTP/1.1" 200 70294
0:0:0:0:0:0:0:1 - - [01/Feb/2017:22:18:53 +0530] "GET /ITAFWebApplication/js/demo3/executetry.js HTTP/1.1" 200 1945
0:0:0:0:0:0:0:1 - - [01/Feb/2017:22:18:53 +0530] "GET /ITAFWebApplication/js/demo3/bootstrap-progressbar.js HTTP/1.1" 200 6284
0:0:0:0:0:0:0:1 - - [01/Feb/2017:22:21:36 +0530] "POST /ITAFWebApplication/itafexecute.do HTTP/1.1" 200 2
0:0:0:0:0:0:0:1 - - [01/Feb/2017:22:22:03 +0530] "POST /ITAFWebApplication/itafexecute.do HTTP/1.1" 500 1751
0:0:0:0:0:0:0:1 - - [01/Feb/2017:22:31:56 +0530] "POST /ITAFWebApplication/logout.do HTTP/1.1" 302 -
0:0:0:0:0:0:0:1 - - [01/Feb/2017:22:31:56 +0530] "GET /ITAFWebApplication/login.jsp HTTP/1.1" 200 27677
0:0:0:0:0:0:0:1 - - [01/Feb/2017:22:31:56 +0530] "GET /ITAFWebApplication/css/login.css HTTP/1.1" 200 1077
0:0:0:0:0:0:0:1 - - [01/Feb/2017:22:31:56 +0530] "GET /ITAFWebApplication/css/bootstrap.min.css HTTP/1.1" 200 121260
