0:0:0:0:0:0:0:1 - - [10/Dec/2016:12:59:11 +0530] "GET /ITAFWebApplication/ HTTP/1.1" 302 -
0:0:0:0:0:0:0:1 - - [10/Dec/2016:12:59:11 +0530] "GET /ITAFWebApplication/login.jsp HTTP/1.1" 200 27677
0:0:0:0:0:0:0:1 - - [10/Dec/2016:12:59:11 +0530] "GET /ITAFWebApplication/css/bootstrap.min.css HTTP/1.1" 200 121260
0:0:0:0:0:0:0:1 - - [10/Dec/2016:12:59:11 +0530] "GET /ITAFWebApplication/css/login.css HTTP/1.1" 200 1077
0:0:0:0:0:0:0:1 - - [10/Dec/2016:12:59:11 +0530] "GET /ITAFWebApplication/js/login.js HTTP/1.1" 200 6947
0:0:0:0:0:0:0:1 - - [10/Dec/2016:12:59:11 +0530] "GET /ITAFWebApplication/Images/iTAF_logo.png HTTP/1.1" 200 33472
0:0:0:0:0:0:0:1 - - [10/Dec/2016:12:59:11 +0530] "GET /ITAFWebApplication/fonts/glyphicons-halflings-regular.woff2 HTTP/1.1" 200 18028
0:0:0:0:0:0:0:1 - - [10/Dec/2016:12:59:19 +0530] "GET /ITAFWebApplication/css/demo3/try.css HTTP/1.1" 200 4871
0:0:0:0:0:0:0:1 - - [10/Dec/2016:12:59:19 +0530] "POST /ITAFWebApplication/login.do HTTP/1.1" 200 47732
0:0:0:0:0:0:0:1 - - [10/Dec/2016:12:59:19 +0530] "GET /ITAFWebApplication/css/demo3/responsiveTables.css HTTP/1.1" 200 182
0:0:0:0:0:0:0:1 - - [10/Dec/2016:12:59:19 +0530] "GET /ITAFWebApplication/js/jquery.min.js HTTP/1.1" 200 84380
0:0:0:0:0:0:0:1 - - [10/Dec/2016:12:59:19 +0530] "GET /ITAFWebApplication/js/demo3/responsiveTables.js HTTP/1.1" 200 1886
0:0:0:0:0:0:0:1 - - [10/Dec/2016:12:59:19 +0530] "GET /ITAFWebApplication/js/bootstrap.min.js HTTP/1.1" 200 36868
0:0:0:0:0:0:0:1 - - [10/Dec/2016:12:59:19 +0530] "GET /ITAFWebApplication/js/demo3/try.js HTTP/1.1" 200 45488
0:0:0:0:0:0:0:1 - - [10/Dec/2016:12:59:19 +0530] "GET /ITAFWebApplication/js/demo3/RowSorter.js HTTP/1.1" 200 8102
0:0:0:0:0:0:0:1 - - [10/Dec/2016:12:59:19 +0530] "GET /ITAFWebApplication/js/demo3/bootstrap-filestyle.min.js HTTP/1.1" 200 7190
0:0:0:0:0:0:0:1 - - [10/Dec/2016:12:59:19 +0530] "GET /ITAFWebApplication/js/objectCap.js HTTP/1.1" 200 11106
0:0:0:0:0:0:0:1 - - [10/Dec/2016:12:59:19 +0530] "GET /ITAFWebApplication/js/demo3/searchTable.js HTTP/1.1" 200 1022
0:0:0:0:0:0:0:1 - - [10/Dec/2016:13:01:41 +0530] "POST /ITAFWebApplication/itafpack.do HTTP/1.1" 200 49370
0:0:0:0:0:0:0:1 - - [10/Dec/2016:13:01:41 +0530] "GET /ITAFWebApplication/files/advancedReport.html?projectname=QBEPOC&actionType=execute HTTP/1.1" 200 -
0:0:0:0:0:0:0:1 - - [10/Dec/2016:13:02:13 +0530] "POST /ITAFWebApplication/itafpack.do HTTP/1.1" 200 49349
0:0:0:0:0:0:0:1 - - [10/Dec/2016:13:02:13 +0530] "GET /ITAFWebApplication/files/advancedReport.html?projectname=QBEPOC&actionType=execute HTTP/1.1" 200 -
0:0:0:0:0:0:0:1 - - [10/Dec/2016:13:03:29 +0530] "POST /ITAFWebApplication/itafpack.do HTTP/1.1" 200 66469
0:0:0:0:0:0:0:1 - - [10/Dec/2016:13:03:29 +0530] "GET /ITAFWebApplication/files/advancedReport.html?projectname=QBEPOC&actionType=execute HTTP/1.1" 200 -
0:0:0:0:0:0:0:1 - - [10/Dec/2016:13:03:47 +0530] "POST /ITAFWebApplication/itafpack.do HTTP/1.1" 200 73859
0:0:0:0:0:0:0:1 - - [10/Dec/2016:13:03:48 +0530] "GET /ITAFWebApplication/files/advancedReport.html?projectname=QBE&actionType=execute HTTP/1.1" 200 23724
0:0:0:0:0:0:0:1 - - [10/Dec/2016:13:04:00 +0530] "POST /ITAFWebApplication/itafpack.do HTTP/1.1" 200 54229
0:0:0:0:0:0:0:1 - - [10/Dec/2016:13:04:00 +0530] "GET /ITAFWebApplication/files/advancedReport.html?projectname=QBEPOC&actionType=execute HTTP/1.1" 200 -
0:0:0:0:0:0:0:1 - - [10/Dec/2016:13:04:49 +0530] "POST /ITAFWebApplication/Seleniumservice/resources/startStopObjectCapture HTTP/1.1" 200 34
0:0:0:0:0:0:0:1 - - [10/Dec/2016:13:04:50 +0530] "GET /ITAFWebApplication/js/inject.js HTTP/1.1" 200 14541
0:0:0:0:0:0:0:1 - - [10/Dec/2016:13:06:03 +0530] "POST /ITAFWebApplication/Seleniumservice/resources/startStopObjectCapture HTTP/1.1" 200 109
0:0:0:0:0:0:0:1 - - [10/Dec/2016:13:07:07 +0530] "POST /ITAFWebApplication/logout.do HTTP/1.1" 302 -
0:0:0:0:0:0:0:1 - - [10/Dec/2016:13:07:07 +0530] "GET /ITAFWebApplication/login.jsp HTTP/1.1" 200 27677
0:0:0:0:0:0:0:1 - - [10/Dec/2016:13:07:47 +0530] "GET /ITAFWebApplication/login.jsp HTTP/1.1" 200 27677
0:0:0:0:0:0:0:1 - - [10/Dec/2016:13:07:47 +0530] "GET /ITAFWebApplication/css/login.css HTTP/1.1" 200 1077
0:0:0:0:0:0:0:1 - - [10/Dec/2016:13:07:47 +0530] "GET /ITAFWebApplication/css/bootstrap.min.css HTTP/1.1" 200 121260
0:0:0:0:0:0:0:1 - - [10/Dec/2016:13:07:47 +0530] "GET /ITAFWebApplication/Images/iTAF_logo.png HTTP/1.1" 200 33472
0:0:0:0:0:0:0:1 - - [10/Dec/2016:13:07:48 +0530] "GET /ITAFWebApplication/js/login.js HTTP/1.1" 200 6947
0:0:0:0:0:0:0:1 - - [10/Dec/2016:13:07:48 +0530] "GET /ITAFWebApplication/fonts/glyphicons-halflings-regular.woff2 HTTP/1.1" 200 18028
0:0:0:0:0:0:0:1 - - [10/Dec/2016:13:11:57 +0530] "POST /ITAFWebApplication/login.do HTTP/1.1" 200 48914
0:0:0:0:0:0:0:1 - - [10/Dec/2016:13:11:57 +0530] "GET /ITAFWebApplication/css/demo3/try.css HTTP/1.1" 200 4871
0:0:0:0:0:0:0:1 - - [10/Dec/2016:13:11:57 +0530] "GET /ITAFWebApplication/css/demo3/responsiveTables.css HTTP/1.1" 200 182
0:0:0:0:0:0:0:1 - - [10/Dec/2016:13:11:57 +0530] "GET /ITAFWebApplication/js/jquery.min.js HTTP/1.1" 200 84380
0:0:0:0:0:0:0:1 - - [10/Dec/2016:13:11:57 +0530] "GET /ITAFWebApplication/js/demo3/searchTable.js HTTP/1.1" 200 1022
0:0:0:0:0:0:0:1 - - [10/Dec/2016:13:11:57 +0530] "GET /ITAFWebApplication/js/objectCap.js HTTP/1.1" 200 11106
0:0:0:0:0:0:0:1 - - [10/Dec/2016:13:11:57 +0530] "GET /ITAFWebApplication/js/demo3/RowSorter.js HTTP/1.1" 200 8102
0:0:0:0:0:0:0:1 - - [10/Dec/2016:13:11:57 +0530] "GET /ITAFWebApplication/js/demo3/try.js HTTP/1.1" 200 45488
0:0:0:0:0:0:0:1 - - [10/Dec/2016:13:11:57 +0530] "GET /ITAFWebApplication/js/demo3/responsiveTables.js HTTP/1.1" 200 1886
0:0:0:0:0:0:0:1 - - [10/Dec/2016:13:11:57 +0530] "GET /ITAFWebApplication/js/demo3/bootstrap-filestyle.min.js HTTP/1.1" 200 7190
0:0:0:0:0:0:0:1 - - [10/Dec/2016:13:11:57 +0530] "GET /ITAFWebApplication/js/bootstrap.min.js HTTP/1.1" 200 36868
0:0:0:0:0:0:0:1 - - [10/Dec/2016:13:12:05 +0530] "POST /ITAFWebApplication/itafpack.do HTTP/1.1" 200 54229
0:0:0:0:0:0:0:1 - - [10/Dec/2016:13:12:05 +0530] "GET /ITAFWebApplication/files/advancedReport.html?projectname=QBEPOC&actionType=execute HTTP/1.1" 200 -
0:0:0:0:0:0:0:1 - - [10/Dec/2016:13:12:21 +0530] "POST /ITAFWebApplication/itafpack.do HTTP/1.1" 200 54206
0:0:0:0:0:0:0:1 - - [10/Dec/2016:13:12:21 +0530] "GET /ITAFWebApplication/files/advancedReport.html?projectname=QBEPOC&actionType=execute HTTP/1.1" 200 -
0:0:0:0:0:0:0:1 - - [10/Dec/2016:13:12:24 +0530] "POST /ITAFWebApplication/itafpack.do HTTP/1.1" 200 66304
0:0:0:0:0:0:0:1 - - [10/Dec/2016:13:12:24 +0530] "GET /ITAFWebApplication/files/advancedReport.html?projectname=QBEPOC&actionType=execute HTTP/1.1" 200 -
0:0:0:0:0:0:0:1 - - [10/Dec/2016:13:12:45 +0530] "POST /ITAFWebApplication/Seleniumservice/resources/startStopObjectCapture HTTP/1.1" 200 34
0:0:0:0:0:0:0:1 - - [10/Dec/2016:13:12:45 +0530] "GET /ITAFWebApplication/js/inject.js HTTP/1.1" 200 14541
0:0:0:0:0:0:0:1 - - [10/Dec/2016:13:13:00 +0530] "GET /ITAFWebApplication/js/inject.js HTTP/1.1" 200 14541
0:0:0:0:0:0:0:1 - - [10/Dec/2016:13:13:12 +0530] "POST /ITAFWebApplication/Seleniumservice/resources/startStopObjectCapture HTTP/1.1" 200 109
0:0:0:0:0:0:0:1 - - [10/Dec/2016:13:13:33 +0530] "POST /ITAFWebApplication/Seleniumservice/resources/startStopObjectCapture HTTP/1.1" 200 19
0:0:0:0:0:0:0:1 - - [10/Dec/2016:13:14:55 +0530] "POST /ITAFWebApplication/Seleniumservice/resources/startStopObjectCapture HTTP/1.1" 200 34
0:0:0:0:0:0:0:1 - - [10/Dec/2016:13:14:55 +0530] "GET /ITAFWebApplication/js/inject.js HTTP/1.1" 200 14541
0:0:0:0:0:0:0:1 - - [10/Dec/2016:13:15:11 +0530] "POST /ITAFWebApplication/Seleniumservice/resources/startStopObjectCapture HTTP/1.1" 200 1290
0:0:0:0:0:0:0:1 - - [10/Dec/2016:13:15:22 +0530] "POST /ITAFWebApplication/Seleniumservice/resources/startStopObjectCapture HTTP/1.1" 200 34
0:0:0:0:0:0:0:1 - - [10/Dec/2016:13:15:25 +0530] "GET /ITAFWebApplication/js/inject.js HTTP/1.1" 200 14541
0:0:0:0:0:0:0:1 - - [10/Dec/2016:13:15:32 +0530] "POST /ITAFWebApplication/Seleniumservice/resources/startStopObjectCapture HTTP/1.1" 200 1346
0:0:0:0:0:0:0:1 - - [10/Dec/2016:13:15:43 +0530] "POST /ITAFWebApplication/Seleniumservice/resources/updateCSV HTTP/1.1" 500 4653
0:0:0:0:0:0:0:1 - - [10/Dec/2016:13:15:47 +0530] "POST /ITAFWebApplication/itafpack.do HTTP/1.1" 200 66304
0:0:0:0:0:0:0:1 - - [10/Dec/2016:13:15:48 +0530] "GET /ITAFWebApplication/files/advancedReport.html?projectname=QBEPOC&actionType=execute HTTP/1.1" 200 -
0:0:0:0:0:0:0:1 - - [10/Dec/2016:13:59:37 +0530] "POST /ITAFWebApplication/itafpack.do HTTP/1.1" 302 -
0:0:0:0:0:0:0:1 - - [10/Dec/2016:13:59:37 +0530] "GET /ITAFWebApplication/login.jsp HTTP/1.1" 200 27677
0:0:0:0:0:0:0:1 - - [10/Dec/2016:13:59:44 +0530] "POST /ITAFWebApplication/login.do HTTP/1.1" 200 48914
0:0:0:0:0:0:0:1 - - [10/Dec/2016:13:59:50 +0530] "POST /ITAFWebApplication/itafpack.do HTTP/1.1" 200 54207
0:0:0:0:0:0:0:1 - - [10/Dec/2016:13:59:50 +0530] "GET /ITAFWebApplication/files/advancedReport.html?projectname=QBEPOC&actionType=execute HTTP/1.1" 200 -
0:0:0:0:0:0:0:1 - - [10/Dec/2016:13:59:58 +0530] "POST /ITAFWebApplication/itafpack.do HTTP/1.1" 200 54264
0:0:0:0:0:0:0:1 - - [10/Dec/2016:13:59:59 +0530] "GET /ITAFWebApplication/files/advancedReport.html?projectname=QBEPOC&actionType=execute HTTP/1.1" 200 -
0:0:0:0:0:0:0:1 - - [10/Dec/2016:14:00:56 +0530] "POST /ITAFWebApplication/Seleniumservice/resources/startStopObjectCapture HTTP/1.1" 200 34
0:0:0:0:0:0:0:1 - - [10/Dec/2016:14:01:00 +0530] "GET /ITAFWebApplication/js/inject.js HTTP/1.1" 200 14541
0:0:0:0:0:0:0:1 - - [10/Dec/2016:14:02:21 +0530] "POST /ITAFWebApplication/Seleniumservice/resources/startStopObjectCapture HTTP/1.1" 200 1869
0:0:0:0:0:0:0:1 - - [10/Dec/2016:14:02:32 +0530] "POST /ITAFWebApplication/Seleniumservice/resources/updateCSV HTTP/1.1" 204 -
0:0:0:0:0:0:0:1 - - [10/Dec/2016:14:02:36 +0530] "POST /ITAFWebApplication/itafpack.do HTTP/1.1" 200 84552
0:0:0:0:0:0:0:1 - - [10/Dec/2016:14:02:36 +0530] "GET /ITAFWebApplication/files/advancedReport.html?projectname=QBEPOC&actionType=execute HTTP/1.1" 200 -
0:0:0:0:0:0:0:1 - - [10/Dec/2016:14:03:27 +0530] "POST /ITAFWebApplication/itafpack.do HTTP/1.1" 200 84749
0:0:0:0:0:0:0:1 - - [10/Dec/2016:14:03:27 +0530] "GET /ITAFWebApplication/files/advancedReport.html?projectname=QBEPOC&actionType=execute HTTP/1.1" 200 -
0:0:0:0:0:0:0:1 - - [10/Dec/2016:14:03:50 +0530] "POST /ITAFWebApplication/itafpack.do HTTP/1.1" 200 58641
0:0:0:0:0:0:0:1 - - [10/Dec/2016:14:03:50 +0530] "GET /ITAFWebApplication/files/advancedReport.html?projectname=QBEPOC&actionType=execute HTTP/1.1" 200 -
0:0:0:0:0:0:0:1 - - [10/Dec/2016:14:04:01 +0530] "POST /ITAFWebApplication/itafpack.do HTTP/1.1" 200 58666
0:0:0:0:0:0:0:1 - - [10/Dec/2016:14:04:01 +0530] "GET /ITAFWebApplication/files/advancedReport.html?projectname=QBEPOC&actionType=execute HTTP/1.1" 200 -
0:0:0:0:0:0:0:1 - - [10/Dec/2016:14:04:15 +0530] "POST /ITAFWebApplication/uploaddownload.do HTTP/1.1" 200 4096
0:0:0:0:0:0:0:1 - - [10/Dec/2016:14:04:43 +0530] "POST /ITAFWebApplication/itafpack.do HTTP/1.1" 200 60299
0:0:0:0:0:0:0:1 - - [10/Dec/2016:14:04:43 +0530] "GET /ITAFWebApplication/files/advancedReport.html?projectname=QBEPOC&actionType=execute HTTP/1.1" 200 -
0:0:0:0:0:0:0:1 - - [10/Dec/2016:14:04:45 +0530] "POST /ITAFWebApplication/itafpack.do HTTP/1.1" 200 61511
0:0:0:0:0:0:0:1 - - [10/Dec/2016:14:04:45 +0530] "GET /ITAFWebApplication/files/advancedReport.html?projectname=QBEPOC&actionType=execute HTTP/1.1" 200 -
0:0:0:0:0:0:0:1 - - [10/Dec/2016:14:05:39 +0530] "POST /ITAFWebApplication/itafpack.do HTTP/1.1" 200 88846
0:0:0:0:0:0:0:1 - - [10/Dec/2016:14:05:39 +0530] "GET /ITAFWebApplication/files/advancedReport.html?projectname=QBEPOC&actionType=execute HTTP/1.1" 200 -
0:0:0:0:0:0:0:1 - - [10/Dec/2016:14:05:55 +0530] "POST /ITAFWebApplication/itafpack.do HTTP/1.1" 200 88973
0:0:0:0:0:0:0:1 - - [10/Dec/2016:14:05:55 +0530] "GET /ITAFWebApplication/files/advancedReport.html?projectname=QBEPOC&actionType=execute HTTP/1.1" 200 -
0:0:0:0:0:0:0:1 - - [10/Dec/2016:14:05:59 +0530] "POST /ITAFWebApplication/itafpack.do HTTP/1.1" 200 60299
0:0:0:0:0:0:0:1 - - [10/Dec/2016:14:05:59 +0530] "GET /ITAFWebApplication/files/advancedReport.html?projectname=QBEPOC&actionType=execute HTTP/1.1" 200 -
0:0:0:0:0:0:0:1 - - [10/Dec/2016:14:06:02 +0530] "POST /ITAFWebApplication/itafpack.do HTTP/1.1" 200 61502
0:0:0:0:0:0:0:1 - - [10/Dec/2016:14:06:02 +0530] "GET /ITAFWebApplication/files/advancedReport.html?projectname=QBEPOC&actionType=execute HTTP/1.1" 200 -
0:0:0:0:0:0:0:1 - - [10/Dec/2016:14:06:34 +0530] "POST /ITAFWebApplication/itafpack.do HTTP/1.1" 200 61690
0:0:0:0:0:0:0:1 - - [10/Dec/2016:14:06:34 +0530] "GET /ITAFWebApplication/files/advancedReport.html?projectname=QBEPOC&actionType=execute HTTP/1.1" 200 -
0:0:0:0:0:0:0:1 - - [10/Dec/2016:14:07:03 +0530] "POST /ITAFWebApplication/itafpack.do HTTP/1.1" 200 58513
0:0:0:0:0:0:0:1 - - [10/Dec/2016:14:07:03 +0530] "GET /ITAFWebApplication/files/advancedReport.html?projectname=QBEPOC&actionType=execute HTTP/1.1" 200 -
0:0:0:0:0:0:0:1 - - [10/Dec/2016:14:07:10 +0530] "POST /ITAFWebApplication/itafpack.do HTTP/1.1" 200 63730
0:0:0:0:0:0:0:1 - - [10/Dec/2016:14:07:10 +0530] "GET /ITAFWebApplication/files/advancedReport.html?projectname=QBEPOC&actionType=execute HTTP/1.1" 200 -
0:0:0:0:0:0:0:1 - - [10/Dec/2016:14:07:17 +0530] "POST /ITAFWebApplication/itafpack.do HTTP/1.1" 200 70733
0:0:0:0:0:0:0:1 - - [10/Dec/2016:14:07:17 +0530] "GET /ITAFWebApplication/files/advancedReport.html?projectname=QBEPOC&actionType=execute HTTP/1.1" 200 -
0:0:0:0:0:0:0:1 - - [10/Dec/2016:14:07:27 +0530] "POST /ITAFWebApplication/itafpack.do HTTP/1.1" 200 73859
0:0:0:0:0:0:0:1 - - [10/Dec/2016:14:07:27 +0530] "GET /ITAFWebApplication/files/advancedReport.html?projectname=QBE&actionType=execute HTTP/1.1" 200 23724
0:0:0:0:0:0:0:1 - - [10/Dec/2016:14:07:30 +0530] "POST /ITAFWebApplication/itafpack.do HTTP/1.1" 200 95689
0:0:0:0:0:0:0:1 - - [10/Dec/2016:14:07:30 +0530] "GET /ITAFWebApplication/files/advancedReport.html?projectname=QBE&actionType=execute HTTP/1.1" 200 23724
0:0:0:0:0:0:0:1 - - [10/Dec/2016:14:07:40 +0530] "POST /ITAFWebApplication/itafexecute.do HTTP/1.1" 200 19379
0:0:0:0:0:0:0:1 - - [10/Dec/2016:14:07:41 +0530] "GET /ITAFWebApplication/js/demo3/executetry.js HTTP/1.1" 200 1945
0:0:0:0:0:0:0:1 - - [10/Dec/2016:14:07:41 +0530] "GET /ITAFWebApplication/js/loader.js HTTP/1.1" 200 70294
0:0:0:0:0:0:0:1 - - [10/Dec/2016:14:07:41 +0530] "GET /ITAFWebApplication/js/demo3/bootstrap-progressbar.js HTTP/1.1" 200 6284
0:0:0:0:0:0:0:1 - - [10/Dec/2016:14:09:17 +0530] "POST /ITAFWebApplication/itafexecute.do HTTP/1.1" 200 2
0:0:0:0:0:0:0:1 - - [10/Dec/2016:14:09:20 +0530] "POST /ITAFWebApplication/itafexecute.do HTTP/1.1" 200 48920
0:0:0:0:0:0:0:1 - - [10/Dec/2016:14:09:31 +0530] "POST /ITAFWebApplication/itafpack.do HTTP/1.1" 200 63568
0:0:0:0:0:0:0:1 - - [10/Dec/2016:14:09:31 +0530] "GET /ITAFWebApplication/files/advancedReport.html?projectname=QBEPOC&actionType=execute HTTP/1.1" 200 13145
0:0:0:0:0:0:0:1 - - [10/Dec/2016:14:09:34 +0530] "POST /ITAFWebApplication/itafpack.do HTTP/1.1" 200 93893
0:0:0:0:0:0:0:1 - - [10/Dec/2016:14:09:34 +0530] "GET /ITAFWebApplication/files/advancedReport.html?projectname=QBEPOC&actionType=execute HTTP/1.1" 200 13145
0:0:0:0:0:0:0:1 - - [10/Dec/2016:14:10:03 +0530] "POST /ITAFWebApplication/itafpack.do HTTP/1.1" 200 102881
0:0:0:0:0:0:0:1 - - [10/Dec/2016:14:10:03 +0530] "GET /ITAFWebApplication/files/advancedReport.html?projectname=QBEPOC&actionType=execute HTTP/1.1" 200 13145
0:0:0:0:0:0:0:1 - - [10/Dec/2016:14:10:04 +0530] "POST /ITAFWebApplication/itafpack.do HTTP/1.1" 200 102738
0:0:0:0:0:0:0:1 - - [10/Dec/2016:14:10:05 +0530] "GET /ITAFWebApplication/files/advancedReport.html?projectname=QBEPOC&actionType=execute HTTP/1.1" 200 13145
0:0:0:0:0:0:0:1 - - [10/Dec/2016:14:10:11 +0530] "POST /ITAFWebApplication/itafpack.do HTTP/1.1" 200 102881
0:0:0:0:0:0:0:1 - - [10/Dec/2016:14:10:12 +0530] "GET /ITAFWebApplication/files/advancedReport.html?projectname=QBEPOC&actionType=execute HTTP/1.1" 200 13145
0:0:0:0:0:0:0:1 - - [10/Dec/2016:14:10:14 +0530] "POST /ITAFWebApplication/itafexecute.do HTTP/1.1" 200 19379
0:0:0:0:0:0:0:1 - - [10/Dec/2016:14:12:20 +0530] "POST /ITAFWebApplication/itafexecute.do HTTP/1.1" 200 2
0:0:0:0:0:0:0:1 - - [10/Dec/2016:14:13:53 +0530] "POST /ITAFWebApplication/itafexecute.do HTTP/1.1" 200 48920
0:0:0:0:0:0:0:1 - - [10/Dec/2016:14:14:04 +0530] "POST /ITAFWebApplication/itafpack.do HTTP/1.1" 200 73859
0:0:0:0:0:0:0:1 - - [10/Dec/2016:14:14:04 +0530] "GET /ITAFWebApplication/files/advancedReport.html?projectname=QBE&actionType=execute HTTP/1.1" 200 23724
0:0:0:0:0:0:0:1 - - [10/Dec/2016:14:14:07 +0530] "POST /ITAFWebApplication/itafpack.do HTTP/1.1" 200 95689
0:0:0:0:0:0:0:1 - - [10/Dec/2016:14:14:07 +0530] "GET /ITAFWebApplication/files/advancedReport.html?projectname=QBE&actionType=execute HTTP/1.1" 200 23724
0:0:0:0:0:0:0:1 - - [10/Dec/2016:14:14:34 +0530] "POST /ITAFWebApplication/itafexecute.do HTTP/1.1" 200 19379
0:0:0:0:0:0:0:1 - - [10/Dec/2016:14:14:57 +0530] "POST /ITAFWebApplication/itafexecute.do HTTP/1.1" 200 48920
0:0:0:0:0:0:0:1 - - [10/Dec/2016:14:15:02 +0530] "POST /ITAFWebApplication/itafpack.do HTTP/1.1" 200 73859
0:0:0:0:0:0:0:1 - - [10/Dec/2016:14:15:02 +0530] "GET /ITAFWebApplication/files/advancedReport.html?projectname=QBE&actionType=execute HTTP/1.1" 200 23724
0:0:0:0:0:0:0:1 - - [10/Dec/2016:14:35:48 +0530] "POST /ITAFWebApplication/itafpack.do HTTP/1.1" 200 63568
0:0:0:0:0:0:0:1 - - [10/Dec/2016:14:35:48 +0530] "GET /ITAFWebApplication/files/advancedReport.html?projectname=QBEPOC&actionType=execute HTTP/1.1" 200 13144
0:0:0:0:0:0:0:1 - - [10/Dec/2016:14:35:56 +0530] "POST /ITAFWebApplication/itafpack.do HTTP/1.1" 200 102738
0:0:0:0:0:0:0:1 - - [10/Dec/2016:14:35:56 +0530] "GET /ITAFWebApplication/files/advancedReport.html?projectname=QBEPOC&actionType=execute HTTP/1.1" 200 13144
0:0:0:0:0:0:0:1 - - [10/Dec/2016:14:36:59 +0530] "POST /ITAFWebApplication/itafpack.do HTTP/1.1" 200 102891
0:0:0:0:0:0:0:1 - - [10/Dec/2016:14:36:59 +0530] "GET /ITAFWebApplication/files/advancedReport.html?projectname=QBEPOC&actionType=execute HTTP/1.1" 200 13144
0:0:0:0:0:0:0:1 - - [10/Dec/2016:14:37:02 +0530] "POST /ITAFWebApplication/itafexecute.do HTTP/1.1" 200 19379
0:0:0:0:0:0:0:1 - - [10/Dec/2016:14:37:11 +0530] "POST /ITAFWebApplication/itafexecute.do HTTP/1.1" 200 48920
0:0:0:0:0:0:0:1 - - [10/Dec/2016:14:37:12 +0530] "POST /ITAFWebApplication/itafexecute.do HTTP/1.1" 200 19379
0:0:0:0:0:0:0:1 - - [10/Dec/2016:14:39:30 +0530] "POST /ITAFWebApplication/itafexecute.do HTTP/1.1" 200 2
0:0:0:0:0:0:0:1 - - [10/Dec/2016:14:39:41 +0530] "POST /ITAFWebApplication/itafexecute.do HTTP/1.1" 200 48920
0:0:0:0:0:0:0:1 - - [10/Dec/2016:14:39:47 +0530] "POST /ITAFWebApplication/itafpack.do HTTP/1.1" 200 63568
0:0:0:0:0:0:0:1 - - [10/Dec/2016:14:39:47 +0530] "GET /ITAFWebApplication/files/advancedReport.html?projectname=QBEPOC&actionType=execute HTTP/1.1" 200 13142
0:0:0:0:0:0:0:1 - - [10/Dec/2016:14:39:50 +0530] "POST /ITAFWebApplication/itafpack.do HTTP/1.1" 200 102748
0:0:0:0:0:0:0:1 - - [10/Dec/2016:14:39:50 +0530] "GET /ITAFWebApplication/files/advancedReport.html?projectname=QBEPOC&actionType=execute HTTP/1.1" 200 13142
0:0:0:0:0:0:0:1 - - [10/Dec/2016:14:41:08 +0530] "POST /ITAFWebApplication/itafpack.do HTTP/1.1" 200 65356
0:0:0:0:0:0:0:1 - - [10/Dec/2016:14:41:09 +0530] "GET /ITAFWebApplication/files/advancedReport.html?projectname=QBEPOC&actionType=execute HTTP/1.1" 200 13142
0:0:0:0:0:0:0:1 - - [10/Dec/2016:14:41:11 +0530] "POST /ITAFWebApplication/itafpack.do HTTP/1.1" 200 66594
0:0:0:0:0:0:0:1 - - [10/Dec/2016:14:41:11 +0530] "GET /ITAFWebApplication/files/advancedReport.html?projectname=QBEPOC&actionType=execute HTTP/1.1" 200 13142
0:0:0:0:0:0:0:1 - - [10/Dec/2016:14:41:20 +0530] "POST /ITAFWebApplication/itafpack.do HTTP/1.1" 200 66753
0:0:0:0:0:0:0:1 - - [10/Dec/2016:14:41:20 +0530] "GET /ITAFWebApplication/files/advancedReport.html?projectname=QBEPOC&actionType=execute HTTP/1.1" 200 13142
0:0:0:0:0:0:0:1 - - [10/Dec/2016:14:41:58 +0530] "GET /ITAFWebApplication/ HTTP/1.1" 302 -
0:0:0:0:0:0:0:1 - - [10/Dec/2016:14:41:58 +0530] "GET /ITAFWebApplication/login.jsp HTTP/1.1" 200 27677
0:0:0:0:0:0:0:1 - - [10/Dec/2016:14:41:58 +0530] "GET /ITAFWebApplication/css/login.css HTTP/1.1" 200 1077
0:0:0:0:0:0:0:1 - - [10/Dec/2016:14:41:58 +0530] "GET /ITAFWebApplication/css/bootstrap.min.css HTTP/1.1" 200 121260
0:0:0:0:0:0:0:1 - - [10/Dec/2016:14:41:58 +0530] "GET /ITAFWebApplication/js/login.js HTTP/1.1" 200 6947
0:0:0:0:0:0:0:1 - - [10/Dec/2016:14:41:58 +0530] "GET /ITAFWebApplication/fonts/glyphicons-halflings-regular.woff2 HTTP/1.1" 200 18028
0:0:0:0:0:0:0:1 - - [10/Dec/2016:14:41:58 +0530] "GET /ITAFWebApplication/Images/iTAF_logo.png HTTP/1.1" 200 33472
0:0:0:0:0:0:0:1 - - [10/Dec/2016:14:42:05 +0530] "POST /ITAFWebApplication/login.do HTTP/1.1" 200 48914
0:0:0:0:0:0:0:1 - - [10/Dec/2016:14:42:05 +0530] "GET /ITAFWebApplication/css/demo3/try.css HTTP/1.1" 200 4871
0:0:0:0:0:0:0:1 - - [10/Dec/2016:14:42:05 +0530] "GET /ITAFWebApplication/css/demo3/responsiveTables.css HTTP/1.1" 200 182
0:0:0:0:0:0:0:1 - - [10/Dec/2016:14:42:05 +0530] "GET /ITAFWebApplication/js/bootstrap.min.js HTTP/1.1" 200 36868
0:0:0:0:0:0:0:1 - - [10/Dec/2016:14:42:05 +0530] "GET /ITAFWebApplication/js/jquery.min.js HTTP/1.1" 200 84380
0:0:0:0:0:0:0:1 - - [10/Dec/2016:14:42:06 +0530] "GET /ITAFWebApplication/js/demo3/searchTable.js HTTP/1.1" 200 1022
0:0:0:0:0:0:0:1 - - [10/Dec/2016:14:42:06 +0530] "GET /ITAFWebApplication/js/demo3/try.js HTTP/1.1" 200 45488
0:0:0:0:0:0:0:1 - - [10/Dec/2016:14:42:06 +0530] "GET /ITAFWebApplication/js/objectCap.js HTTP/1.1" 200 11106
0:0:0:0:0:0:0:1 - - [10/Dec/2016:14:42:06 +0530] "GET /ITAFWebApplication/js/demo3/bootstrap-filestyle.min.js HTTP/1.1" 200 7190
0:0:0:0:0:0:0:1 - - [10/Dec/2016:14:42:06 +0530] "GET /ITAFWebApplication/js/demo3/RowSorter.js HTTP/1.1" 200 8102
0:0:0:0:0:0:0:1 - - [10/Dec/2016:14:42:06 +0530] "GET /ITAFWebApplication/js/demo3/responsiveTables.js HTTP/1.1" 200 1886
0:0:0:0:0:0:0:1 - - [10/Dec/2016:14:42:12 +0530] "POST /ITAFWebApplication/itafpack.do HTTP/1.1" 200 63568
0:0:0:0:0:0:0:1 - - [10/Dec/2016:14:42:12 +0530] "GET /ITAFWebApplication/files/advancedReport.html?projectname=QBEPOC&actionType=execute HTTP/1.1" 200 13142
0:0:0:0:0:0:0:1 - - [10/Dec/2016:14:42:32 +0530] "POST /ITAFWebApplication/itafexecute.do HTTP/1.1" 200 19379
0:0:0:0:0:0:0:1 - - [10/Dec/2016:14:42:32 +0530] "GET /ITAFWebApplication/js/demo3/executetry.js HTTP/1.1" 200 1945
0:0:0:0:0:0:0:1 - - [10/Dec/2016:14:42:32 +0530] "GET /ITAFWebApplication/js/demo3/bootstrap-progressbar.js HTTP/1.1" 200 6284
0:0:0:0:0:0:0:1 - - [10/Dec/2016:14:42:32 +0530] "GET /ITAFWebApplication/js/loader.js HTTP/1.1" 200 70294
0:0:0:0:0:0:0:1 - - [10/Dec/2016:15:23:32 +0530] "POST /ITAFWebApplication/itafexecute.do HTTP/1.1" 200 2
0:0:0:0:0:0:0:1 - - [10/Dec/2016:15:55:32 +0530] "POST /ITAFWebApplication/itafexecute.do HTTP/1.1" 302 -
0:0:0:0:0:0:0:1 - - [10/Dec/2016:15:55:32 +0530] "GET /ITAFWebApplication/login.jsp HTTP/1.1" 200 27677
0:0:0:0:0:0:0:1 - - [10/Dec/2016:15:55:40 +0530] "POST /ITAFWebApplication/login.do HTTP/1.1" 200 48914
0:0:0:0:0:0:0:1 - - [10/Dec/2016:15:55:45 +0530] "POST /ITAFWebApplication/itafpack.do HTTP/1.1" 200 63568
0:0:0:0:0:0:0:1 - - [10/Dec/2016:15:55:45 +0530] "GET /ITAFWebApplication/files/advancedReport.html?projectname=QBEPOC&actionType=execute HTTP/1.1" 200 13146
0:0:0:0:0:0:0:1 - - [10/Dec/2016:15:55:52 +0530] "POST /ITAFWebApplication/itafpack.do HTTP/1.1" 200 102748
0:0:0:0:0:0:0:1 - - [10/Dec/2016:15:55:52 +0530] "GET /ITAFWebApplication/files/advancedReport.html?projectname=QBEPOC&actionType=execute HTTP/1.1" 200 13146
0:0:0:0:0:0:0:1 - - [10/Dec/2016:15:56:46 +0530] "POST /ITAFWebApplication/itafpack.do HTTP/1.1" 200 102891
0:0:0:0:0:0:0:1 - - [10/Dec/2016:15:56:46 +0530] "GET /ITAFWebApplication/files/advancedReport.html?projectname=QBEPOC&actionType=execute HTTP/1.1" 200 13146
0:0:0:0:0:0:0:1 - - [10/Dec/2016:15:56:48 +0530] "POST /ITAFWebApplication/itafexecute.do HTTP/1.1" 200 19379
0:0:0:0:0:0:0:1 - - [10/Dec/2016:15:58:02 +0530] "POST /ITAFWebApplication/itafexecute.do HTTP/1.1" 200 2
0:0:0:0:0:0:0:1 - - [10/Dec/2016:15:58:03 +0530] "POST /ITAFWebApplication/itafexecute.do HTTP/1.1" 200 48920
0:0:0:0:0:0:0:1 - - [10/Dec/2016:15:58:11 +0530] "POST /ITAFWebApplication/itafpack.do HTTP/1.1" 200 63568
0:0:0:0:0:0:0:1 - - [10/Dec/2016:15:58:11 +0530] "GET /ITAFWebApplication/files/advancedReport.html?projectname=QBEPOC&actionType=execute HTTP/1.1" 200 13142
0:0:0:0:0:0:0:1 - - [10/Dec/2016:15:58:16 +0530] "POST /ITAFWebApplication/itafpack.do HTTP/1.1" 200 102748
0:0:0:0:0:0:0:1 - - [10/Dec/2016:15:58:16 +0530] "GET /ITAFWebApplication/files/advancedReport.html?projectname=QBEPOC&actionType=execute HTTP/1.1" 200 13142
0:0:0:0:0:0:0:1 - - [10/Dec/2016:16:00:18 +0530] "POST /ITAFWebApplication/itafpack.do HTTP/1.1" 200 102891
0:0:0:0:0:0:0:1 - - [10/Dec/2016:16:00:18 +0530] "GET /ITAFWebApplication/files/advancedReport.html?projectname=QBEPOC&actionType=execute HTTP/1.1" 200 13142
0:0:0:0:0:0:0:1 - - [10/Dec/2016:16:00:22 +0530] "POST /ITAFWebApplication/itafexecute.do HTTP/1.1" 200 19379
0:0:0:0:0:0:0:1 - - [10/Dec/2016:16:00:26 +0530] "POST /ITAFWebApplication/itafexecute.do HTTP/1.1" 200 48920
0:0:0:0:0:0:0:1 - - [10/Dec/2016:16:00:29 +0530] "POST /ITAFWebApplication/itafpack.do HTTP/1.1" 200 63568
0:0:0:0:0:0:0:1 - - [10/Dec/2016:16:00:29 +0530] "GET /ITAFWebApplication/files/advancedReport.html?projectname=QBEPOC&actionType=execute HTTP/1.1" 200 13142
0:0:0:0:0:0:0:1 - - [10/Dec/2016:16:00:33 +0530] "POST /ITAFWebApplication/itafpack.do HTTP/1.1" 200 102748
0:0:0:0:0:0:0:1 - - [10/Dec/2016:16:00:33 +0530] "GET /ITAFWebApplication/files/advancedReport.html?projectname=QBEPOC&actionType=execute HTTP/1.1" 200 13142
0:0:0:0:0:0:0:1 - - [10/Dec/2016:16:00:39 +0530] "POST /ITAFWebApplication/itafpack.do HTTP/1.1" 200 102891
0:0:0:0:0:0:0:1 - - [10/Dec/2016:16:00:39 +0530] "GET /ITAFWebApplication/files/advancedReport.html?projectname=QBEPOC&actionType=execute HTTP/1.1" 200 13142
0:0:0:0:0:0:0:1 - - [10/Dec/2016:16:00:41 +0530] "POST /ITAFWebApplication/itafexecute.do HTTP/1.1" 200 19379
0:0:0:0:0:0:0:1 - - [10/Dec/2016:16:00:51 +0530] "POST /ITAFWebApplication/itafexecute.do HTTP/1.1" 200 48920
0:0:0:0:0:0:0:1 - - [10/Dec/2016:16:00:56 +0530] "POST /ITAFWebApplication/itafpack.do HTTP/1.1" 200 63568
0:0:0:0:0:0:0:1 - - [10/Dec/2016:16:00:56 +0530] "GET /ITAFWebApplication/files/advancedReport.html?projectname=QBEPOC&actionType=execute HTTP/1.1" 200 13142
0:0:0:0:0:0:0:1 - - [10/Dec/2016:16:01:06 +0530] "POST /ITAFWebApplication/itafpack.do HTTP/1.1" 200 102748
0:0:0:0:0:0:0:1 - - [10/Dec/2016:16:01:06 +0530] "GET /ITAFWebApplication/files/advancedReport.html?projectname=QBEPOC&actionType=execute HTTP/1.1" 200 13142
0:0:0:0:0:0:0:1 - - [10/Dec/2016:16:02:38 +0530] "POST /ITAFWebApplication/itafpack.do HTTP/1.1" 200 93850
0:0:0:0:0:0:0:1 - - [10/Dec/2016:16:02:38 +0530] "GET /ITAFWebApplication/files/advancedReport.html?projectname=QBEPOC&actionType=execute HTTP/1.1" 200 13142
0:0:0:0:0:0:0:1 - - [10/Dec/2016:16:02:40 +0530] "POST /ITAFWebApplication/itafexecute.do HTTP/1.1" 200 19379
0:0:0:0:0:0:0:1 - - [10/Dec/2016:16:03:07 +0530] "POST /ITAFWebApplication/itafexecute.do HTTP/1.1" 200 2
0:0:0:0:0:0:0:1 - - [10/Dec/2016:16:04:54 +0530] "POST /ITAFWebApplication/itafexecute.do HTTP/1.1" 200 48920
0:0:0:0:0:0:0:1 - - [10/Dec/2016:16:12:01 +0530] "GET /ITAFWebApplication/ HTTP/1.1" 302 -
0:0:0:0:0:0:0:1 - - [10/Dec/2016:16:12:01 +0530] "GET /ITAFWebApplication/login.jsp HTTP/1.1" 200 27677
0:0:0:0:0:0:0:1 - - [10/Dec/2016:16:12:01 +0530] "GET /ITAFWebApplication/css/login.css HTTP/1.1" 200 1077
0:0:0:0:0:0:0:1 - - [10/Dec/2016:16:12:01 +0530] "GET /ITAFWebApplication/css/bootstrap.min.css HTTP/1.1" 200 121260
0:0:0:0:0:0:0:1 - - [10/Dec/2016:16:12:01 +0530] "GET /ITAFWebApplication/Images/iTAF_logo.png HTTP/1.1" 200 33472
0:0:0:0:0:0:0:1 - - [10/Dec/2016:16:12:01 +0530] "GET /ITAFWebApplication/js/login.js HTTP/1.1" 200 6947
0:0:0:0:0:0:0:1 - - [10/Dec/2016:16:12:01 +0530] "GET /ITAFWebApplication/fonts/glyphicons-halflings-regular.woff2 HTTP/1.1" 200 18028
0:0:0:0:0:0:0:1 - - [10/Dec/2016:16:13:19 +0530] "POST /ITAFWebApplication/login.do HTTP/1.1" 200 48914
0:0:0:0:0:0:0:1 - - [10/Dec/2016:16:13:19 +0530] "GET /ITAFWebApplication/css/demo3/try.css HTTP/1.1" 200 4871
0:0:0:0:0:0:0:1 - - [10/Dec/2016:16:13:19 +0530] "GET /ITAFWebApplication/css/demo3/responsiveTables.css HTTP/1.1" 200 182
0:0:0:0:0:0:0:1 - - [10/Dec/2016:16:13:19 +0530] "GET /ITAFWebApplication/js/jquery.min.js HTTP/1.1" 200 84380
0:0:0:0:0:0:0:1 - - [10/Dec/2016:16:13:19 +0530] "GET /ITAFWebApplication/js/demo3/bootstrap-filestyle.min.js HTTP/1.1" 200 7190
0:0:0:0:0:0:0:1 - - [10/Dec/2016:16:13:19 +0530] "GET /ITAFWebApplication/js/demo3/responsiveTables.js HTTP/1.1" 200 1886
0:0:0:0:0:0:0:1 - - [10/Dec/2016:16:13:19 +0530] "GET /ITAFWebApplication/js/demo3/RowSorter.js HTTP/1.1" 200 8102
0:0:0:0:0:0:0:1 - - [10/Dec/2016:16:13:19 +0530] "GET /ITAFWebApplication/js/objectCap.js HTTP/1.1" 200 11106
0:0:0:0:0:0:0:1 - - [10/Dec/2016:16:13:19 +0530] "GET /ITAFWebApplication/js/bootstrap.min.js HTTP/1.1" 200 36868
0:0:0:0:0:0:0:1 - - [10/Dec/2016:16:13:19 +0530] "GET /ITAFWebApplication/js/demo3/try.js HTTP/1.1" 200 45488
0:0:0:0:0:0:0:1 - - [10/Dec/2016:16:13:19 +0530] "GET /ITAFWebApplication/js/demo3/searchTable.js HTTP/1.1" 200 1022
0:0:0:0:0:0:0:1 - - [10/Dec/2016:16:13:35 +0530] "POST /ITAFWebApplication/itafpack.do HTTP/1.1" 200 50584
0:0:0:0:0:0:0:1 - - [10/Dec/2016:16:13:35 +0530] "GET /ITAFWebApplication/files/advancedReport.html?projectname=QBEPOC2&actionType=execute HTTP/1.1" 200 -
0:0:0:0:0:0:0:1 - - [10/Dec/2016:16:13:38 +0530] "POST /ITAFWebApplication/itafpack.do HTTP/1.1" 200 50440
0:0:0:0:0:0:0:1 - - [10/Dec/2016:16:13:38 +0530] "GET /ITAFWebApplication/files/advancedReport.html?projectname=QBEPOC2&actionType=execute HTTP/1.1" 200 -
0:0:0:0:0:0:0:1 - - [10/Dec/2016:16:13:57 +0530] "POST /ITAFWebApplication/itafpack.do HTTP/1.1" 200 50910
0:0:0:0:0:0:0:1 - - [10/Dec/2016:16:13:57 +0530] "GET /ITAFWebApplication/files/advancedReport.html?projectname=QBEPOC2&actionType=execute HTTP/1.1" 200 -
0:0:0:0:0:0:0:1 - - [10/Dec/2016:16:14:00 +0530] "POST /ITAFWebApplication/itafpack.do HTTP/1.1" 200 51050
0:0:0:0:0:0:0:1 - - [10/Dec/2016:16:14:00 +0530] "GET /ITAFWebApplication/files/advancedReport.html?projectname=QBEPOC2&actionType=execute HTTP/1.1" 200 -
0:0:0:0:0:0:0:1 - - [10/Dec/2016:16:14:05 +0530] "POST /ITAFWebApplication/itafpack.do HTTP/1.1" 200 68047
0:0:0:0:0:0:0:1 - - [10/Dec/2016:16:14:05 +0530] "GET /ITAFWebApplication/files/advancedReport.html?projectname=QBEPOC2&actionType=execute HTTP/1.1" 200 -
0:0:0:0:0:0:0:1 - - [10/Dec/2016:16:14:14 +0530] "POST /ITAFWebApplication/Seleniumservice/resources/startStopObjectCapture HTTP/1.1" 200 34
0:0:0:0:0:0:0:1 - - [10/Dec/2016:16:14:15 +0530] "GET /ITAFWebApplication/js/inject.js HTTP/1.1" 200 14541
0:0:0:0:0:0:0:1 - - [10/Dec/2016:16:14:32 +0530] "POST /ITAFWebApplication/Seleniumservice/resources/startStopObjectCapture HTTP/1.1" 200 109
0:0:0:0:0:0:0:1 - - [10/Dec/2016:16:14:55 +0530] "POST /ITAFWebApplication/Seleniumservice/resources/startStopObjectCapture HTTP/1.1" 200 34
0:0:0:0:0:0:0:1 - - [10/Dec/2016:16:14:55 +0530] "GET /ITAFWebApplication/js/inject.js HTTP/1.1" 200 14541
0:0:0:0:0:0:0:1 - - [10/Dec/2016:16:15:47 +0530] "POST /ITAFWebApplication/itafpack.do HTTP/1.1" 200 55483
0:0:0:0:0:0:0:1 - - [10/Dec/2016:16:15:47 +0530] "GET /ITAFWebApplication/files/advancedReport.html?projectname=QBEPOC2&actionType=execute HTTP/1.1" 200 -
0:0:0:0:0:0:0:1 - - [10/Dec/2016:16:15:49 +0530] "POST /ITAFWebApplication/itafpack.do HTTP/1.1" 200 67589
0:0:0:0:0:0:0:1 - - [10/Dec/2016:16:15:50 +0530] "GET /ITAFWebApplication/files/advancedReport.html?projectname=QBEPOC2&actionType=execute HTTP/1.1" 200 -
0:0:0:0:0:0:0:1 - - [10/Dec/2016:16:16:07 +0530] "POST /ITAFWebApplication/Seleniumservice/resources/startStopObjectCapture HTTP/1.1" 200 109
0:0:0:0:0:0:0:1 - - [10/Dec/2016:16:17:25 +0530] "POST /ITAFWebApplication/Seleniumservice/resources/startStopObjectCapture HTTP/1.1" 200 34
0:0:0:0:0:0:0:1 - - [10/Dec/2016:16:17:25 +0530] "GET /ITAFWebApplication/js/inject.js HTTP/1.1" 200 14541
0:0:0:0:0:0:0:1 - - [10/Dec/2016:16:17:52 +0530] "POST /ITAFWebApplication/Seleniumservice/resources/startStopObjectCapture HTTP/1.1" 200 1076
0:0:0:0:0:0:0:1 - - [10/Dec/2016:16:17:55 +0530] "POST /ITAFWebApplication/Seleniumservice/resources/updateCSV HTTP/1.1" 204 -
0:0:0:0:0:0:0:1 - - [10/Dec/2016:16:17:56 +0530] "POST /ITAFWebApplication/Seleniumservice/resources/updateCSV HTTP/1.1" 204 -
0:0:0:0:0:0:0:1 - - [10/Dec/2016:16:18:02 +0530] "POST /ITAFWebApplication/itafpack.do HTTP/1.1" 200 55500
0:0:0:0:0:0:0:1 - - [10/Dec/2016:16:18:02 +0530] "GET /ITAFWebApplication/files/advancedReport.html?projectname=QBEPOC2&actionType=execute HTTP/1.1" 200 -
0:0:0:0:0:0:0:1 - - [10/Dec/2016:16:18:08 +0530] "POST /ITAFWebApplication/itafpack.do HTTP/1.1" 200 55500
0:0:0:0:0:0:0:1 - - [10/Dec/2016:16:18:08 +0530] "GET /ITAFWebApplication/files/advancedReport.html?projectname=QBEPOC2&actionType=execute HTTP/1.1" 200 -
0:0:0:0:0:0:0:1 - - [10/Dec/2016:16:18:32 +0530] "POST /ITAFWebApplication/Seleniumservice/resources/startStopObjectCapture HTTP/1.1" 200 34
0:0:0:0:0:0:0:1 - - [10/Dec/2016:16:18:35 +0530] "GET /ITAFWebApplication/js/inject.js HTTP/1.1" 200 14541
0:0:0:0:0:0:0:1 - - [10/Dec/2016:16:18:49 +0530] "POST /ITAFWebApplication/Seleniumservice/resources/startStopObjectCapture HTTP/1.1" 200 1088
0:0:0:0:0:0:0:1 - - [10/Dec/2016:16:18:52 +0530] "POST /ITAFWebApplication/Seleniumservice/resources/updateCSV HTTP/1.1" 204 -
0:0:0:0:0:0:0:1 - - [10/Dec/2016:16:18:58 +0530] "POST /ITAFWebApplication/itafpack.do HTTP/1.1" 200 67777
0:0:0:0:0:0:0:1 - - [10/Dec/2016:16:18:59 +0530] "GET /ITAFWebApplication/files/advancedReport.html?projectname=QBEPOC2&actionType=execute HTTP/1.1" 200 -
0:0:0:0:0:0:0:1 - - [10/Dec/2016:16:19:03 +0530] "POST /ITAFWebApplication/itafpack.do HTTP/1.1" 200 67939
0:0:0:0:0:0:0:1 - - [10/Dec/2016:16:19:03 +0530] "GET /ITAFWebApplication/files/advancedReport.html?projectname=QBEPOC2&actionType=execute HTTP/1.1" 200 -
0:0:0:0:0:0:0:1 - - [10/Dec/2016:16:19:23 +0530] "POST /ITAFWebApplication/itafpack.do HTTP/1.1" 200 59833
0:0:0:0:0:0:0:1 - - [10/Dec/2016:16:19:23 +0530] "GET /ITAFWebApplication/files/advancedReport.html?projectname=QBEPOC2&actionType=execute HTTP/1.1" 200 -
0:0:0:0:0:0:0:1 - - [10/Dec/2016:16:19:29 +0530] "POST /ITAFWebApplication/itafpack.do HTTP/1.1" 200 59860
0:0:0:0:0:0:0:1 - - [10/Dec/2016:16:19:29 +0530] "GET /ITAFWebApplication/files/advancedReport.html?projectname=QBEPOC2&actionType=execute HTTP/1.1" 200 -
0:0:0:0:0:0:0:1 - - [10/Dec/2016:16:19:33 +0530] "POST /ITAFWebApplication/itafpack.do HTTP/1.1" 200 61498
0:0:0:0:0:0:0:1 - - [10/Dec/2016:16:19:33 +0530] "GET /ITAFWebApplication/files/advancedReport.html?projectname=QBEPOC2&actionType=execute HTTP/1.1" 200 -
0:0:0:0:0:0:0:1 - - [10/Dec/2016:16:19:35 +0530] "POST /ITAFWebApplication/itafpack.do HTTP/1.1" 200 61954
0:0:0:0:0:0:0:1 - - [10/Dec/2016:16:19:35 +0530] "GET /ITAFWebApplication/files/advancedReport.html?projectname=QBEPOC2&actionType=execute HTTP/1.1" 200 -
0:0:0:0:0:0:0:1 - - [10/Dec/2016:16:19:43 +0530] "POST /ITAFWebApplication/itafpack.do HTTP/1.1" 200 62121
0:0:0:0:0:0:0:1 - - [10/Dec/2016:16:19:43 +0530] "GET /ITAFWebApplication/files/advancedReport.html?projectname=QBEPOC2&actionType=execute HTTP/1.1" 200 -
0:0:0:0:0:0:0:1 - - [10/Dec/2016:16:19:45 +0530] "POST /ITAFWebApplication/itafexecute.do HTTP/1.1" 200 19474
0:0:0:0:0:0:0:1 - - [10/Dec/2016:16:19:45 +0530] "GET /ITAFWebApplication/js/demo3/executetry.js HTTP/1.1" 200 1945
0:0:0:0:0:0:0:1 - - [10/Dec/2016:16:19:45 +0530] "GET /ITAFWebApplication/js/demo3/bootstrap-progressbar.js HTTP/1.1" 200 6284
0:0:0:0:0:0:0:1 - - [10/Dec/2016:16:19:45 +0530] "GET /ITAFWebApplication/js/loader.js HTTP/1.1" 200 70294
0:0:0:0:0:0:0:1 - - [10/Dec/2016:16:20:08 +0530] "POST /ITAFWebApplication/itafexecute.do HTTP/1.1" 200 301
0:0:0:0:0:0:0:1 - - [10/Dec/2016:21:24:06 +0530] "GET /ITAFWebApplication/ HTTP/1.1" 302 -
0:0:0:0:0:0:0:1 - - [10/Dec/2016:21:24:06 +0530] "GET /ITAFWebApplication/login.jsp HTTP/1.1" 200 27677
0:0:0:0:0:0:0:1 - - [10/Dec/2016:21:24:06 +0530] "GET /ITAFWebApplication/css/bootstrap.min.css HTTP/1.1" 200 121260
0:0:0:0:0:0:0:1 - - [10/Dec/2016:21:24:06 +0530] "GET /ITAFWebApplication/css/login.css HTTP/1.1" 200 1077
0:0:0:0:0:0:0:1 - - [10/Dec/2016:21:24:06 +0530] "GET /ITAFWebApplication/Images/iTAF_logo.png HTTP/1.1" 200 33472
0:0:0:0:0:0:0:1 - - [10/Dec/2016:21:24:06 +0530] "GET /ITAFWebApplication/js/login.js HTTP/1.1" 200 6947
0:0:0:0:0:0:0:1 - - [10/Dec/2016:21:24:06 +0530] "GET /ITAFWebApplication/fonts/glyphicons-halflings-regular.woff2 HTTP/1.1" 200 18028
0:0:0:0:0:0:0:1 - - [10/Dec/2016:21:24:14 +0530] "GET /ITAFWebApplication/css/demo3/try.css HTTP/1.1" 200 4871
0:0:0:0:0:0:0:1 - - [10/Dec/2016:21:24:14 +0530] "POST /ITAFWebApplication/login.do HTTP/1.1" 200 50104
0:0:0:0:0:0:0:1 - - [10/Dec/2016:21:24:14 +0530] "GET /ITAFWebApplication/css/demo3/responsiveTables.css HTTP/1.1" 200 182
0:0:0:0:0:0:0:1 - - [10/Dec/2016:21:24:14 +0530] "GET /ITAFWebApplication/js/jquery.min.js HTTP/1.1" 200 84380
0:0:0:0:0:0:0:1 - - [10/Dec/2016:21:24:14 +0530] "GET /ITAFWebApplication/js/demo3/searchTable.js HTTP/1.1" 200 1022
0:0:0:0:0:0:0:1 - - [10/Dec/2016:21:24:14 +0530] "GET /ITAFWebApplication/js/bootstrap.min.js HTTP/1.1" 200 36868
0:0:0:0:0:0:0:1 - - [10/Dec/2016:21:24:14 +0530] "GET /ITAFWebApplication/js/demo3/try.js HTTP/1.1" 200 45488
0:0:0:0:0:0:0:1 - - [10/Dec/2016:21:24:14 +0530] "GET /ITAFWebApplication/js/demo3/bootstrap-filestyle.min.js HTTP/1.1" 200 7190
0:0:0:0:0:0:0:1 - - [10/Dec/2016:21:24:14 +0530] "GET /ITAFWebApplication/js/demo3/responsiveTables.js HTTP/1.1" 200 1886
0:0:0:0:0:0:0:1 - - [10/Dec/2016:21:24:14 +0530] "GET /ITAFWebApplication/js/objectCap.js HTTP/1.1" 200 11106
0:0:0:0:0:0:0:1 - - [10/Dec/2016:21:24:14 +0530] "GET /ITAFWebApplication/js/demo3/RowSorter.js HTTP/1.1" 200 8102
0:0:0:0:0:0:0:1 - - [10/Dec/2016:21:24:25 +0530] "POST /ITAFWebApplication/itafpack.do HTTP/1.1" 200 59706
0:0:0:0:0:0:0:1 - - [10/Dec/2016:21:24:25 +0530] "GET /ITAFWebApplication/files/advancedReport.html?projectname=QBEPOC2&actionType=execute HTTP/1.1" 200 12673
0:0:0:0:0:0:0:1 - - [10/Dec/2016:21:24:39 +0530] "POST /ITAFWebApplication/itafexecute.do HTTP/1.1" 200 19474
0:0:0:0:0:0:0:1 - - [10/Dec/2016:21:24:39 +0530] "GET /ITAFWebApplication/js/loader.js HTTP/1.1" 200 70294
0:0:0:0:0:0:0:1 - - [10/Dec/2016:21:24:39 +0530] "GET /ITAFWebApplication/js/demo3/executetry.js HTTP/1.1" 200 1945
0:0:0:0:0:0:0:1 - - [10/Dec/2016:21:24:39 +0530] "GET /ITAFWebApplication/js/demo3/bootstrap-progressbar.js HTTP/1.1" 200 6284
0:0:0:0:0:0:0:1 - - [10/Dec/2016:21:25:03 +0530] "POST /ITAFWebApplication/itafexecute.do HTTP/1.1" 200 301
0:0:0:0:0:0:0:1 - - [10/Dec/2016:21:25:11 +0530] "POST /ITAFWebApplication/itafexecute.do HTTP/1.1" 200 50110
0:0:0:0:0:0:0:1 - - [10/Dec/2016:21:25:20 +0530] "POST /ITAFWebApplication/itafpack.do HTTP/1.1" 200 51767
0:0:0:0:0:0:0:1 - - [10/Dec/2016:21:25:20 +0530] "GET /ITAFWebApplication/files/advancedReport.html?projectname=QBEPOC3&actionType=execute HTTP/1.1" 200 -
0:0:0:0:0:0:0:1 - - [10/Dec/2016:21:25:22 +0530] "POST /ITAFWebApplication/itafpack.do HTTP/1.1" 200 51623
0:0:0:0:0:0:0:1 - - [10/Dec/2016:21:25:22 +0530] "GET /ITAFWebApplication/files/advancedReport.html?projectname=QBEPOC3&actionType=execute HTTP/1.1" 200 -
0:0:0:0:0:0:0:1 - - [10/Dec/2016:21:25:39 +0530] "POST /ITAFWebApplication/itafpack.do HTTP/1.1" 200 51771
0:0:0:0:0:0:0:1 - - [10/Dec/2016:21:25:39 +0530] "GET /ITAFWebApplication/files/advancedReport.html?projectname=QBEPOC3&actionType=execute HTTP/1.1" 200 -
0:0:0:0:0:0:0:1 - - [10/Dec/2016:21:25:51 +0530] "POST /ITAFWebApplication/itafpack.do HTTP/1.1" 200 68900
0:0:0:0:0:0:0:1 - - [10/Dec/2016:21:25:51 +0530] "GET /ITAFWebApplication/files/advancedReport.html?projectname=QBEPOC3&actionType=execute HTTP/1.1" 200 -
0:0:0:0:0:0:0:1 - - [10/Dec/2016:21:26:12 +0530] "POST /ITAFWebApplication/Seleniumservice/resources/startStopObjectCapture HTTP/1.1" 200 34
0:0:0:0:0:0:0:1 - - [10/Dec/2016:21:26:15 +0530] "GET /ITAFWebApplication/js/inject.js HTTP/1.1" 200 14541
0:0:0:0:0:0:0:1 - - [10/Dec/2016:21:26:46 +0530] "POST /ITAFWebApplication/Seleniumservice/resources/startStopObjectCapture HTTP/1.1" 200 1168
0:0:0:0:0:0:0:1 - - [10/Dec/2016:21:26:49 +0530] "POST /ITAFWebApplication/Seleniumservice/resources/updateCSV HTTP/1.1" 204 -
0:0:0:0:0:0:0:1 - - [10/Dec/2016:21:28:53 +0530] "POST /ITAFWebApplication/itafpack.do HTTP/1.1" 200 61015
0:0:0:0:0:0:0:1 - - [10/Dec/2016:21:28:53 +0530] "GET /ITAFWebApplication/files/advancedReport.html?projectname=QBEPOC3&actionType=execute HTTP/1.1" 200 -
0:0:0:0:0:0:0:1 - - [10/Dec/2016:21:28:59 +0530] "POST /ITAFWebApplication/itafpack.do HTTP/1.1" 200 61041
0:0:0:0:0:0:0:1 - - [10/Dec/2016:21:28:59 +0530] "GET /ITAFWebApplication/files/advancedReport.html?projectname=QBEPOC3&actionType=execute HTTP/1.1" 200 -
0:0:0:0:0:0:0:1 - - [10/Dec/2016:21:29:04 +0530] "POST /ITAFWebApplication/itafpack.do HTTP/1.1" 200 62678
0:0:0:0:0:0:0:1 - - [10/Dec/2016:21:29:04 +0530] "GET /ITAFWebApplication/files/advancedReport.html?projectname=QBEPOC3&actionType=execute HTTP/1.1" 200 -
0:0:0:0:0:0:0:1 - - [10/Dec/2016:21:29:08 +0530] "POST /ITAFWebApplication/itafpack.do HTTP/1.1" 200 63095
0:0:0:0:0:0:0:1 - - [10/Dec/2016:21:29:08 +0530] "GET /ITAFWebApplication/files/advancedReport.html?projectname=QBEPOC3&actionType=execute HTTP/1.1" 200 -
0:0:0:0:0:0:0:1 - - [10/Dec/2016:21:29:23 +0530] "POST /ITAFWebApplication/itafpack.do HTTP/1.1" 200 63253
0:0:0:0:0:0:0:1 - - [10/Dec/2016:21:29:23 +0530] "GET /ITAFWebApplication/files/advancedReport.html?projectname=QBEPOC3&actionType=execute HTTP/1.1" 200 -
0:0:0:0:0:0:0:1 - - [10/Dec/2016:21:29:52 +0530] "POST /ITAFWebApplication/itafexecute.do HTTP/1.1" 200 19569
0:0:0:0:0:0:0:1 - - [10/Dec/2016:21:30:33 +0530] "POST /ITAFWebApplication/itafexecute.do HTTP/1.1" 200 701
0:0:0:0:0:0:0:1 - - [10/Dec/2016:21:31:53 +0530] "POST /ITAFWebApplication/itafexecute.do HTTP/1.1" 200 19569
0:0:0:0:0:0:0:1 - - [10/Dec/2016:21:32:19 +0530] "POST /ITAFWebApplication/itafexecute.do HTTP/1.1" 200 549
