0:0:0:0:0:0:0:1 - - [21/Feb/2017:15:59:41 +0530] "GET /ITAFWebApplication/ HTTP/1.1" 302 -
0:0:0:0:0:0:0:1 - - [21/Feb/2017:15:59:41 +0530] "GET /ITAFWebApplication/login.jsp HTTP/1.1" 200 27677
0:0:0:0:0:0:0:1 - - [21/Feb/2017:15:59:41 +0530] "GET /ITAFWebApplication/css/bootstrap.min.css HTTP/1.1" 200 121260
0:0:0:0:0:0:0:1 - - [21/Feb/2017:15:59:41 +0530] "GET /ITAFWebApplication/css/login.css HTTP/1.1" 200 1077
0:0:0:0:0:0:0:1 - - [21/Feb/2017:15:59:41 +0530] "GET /ITAFWebApplication/js/login.js HTTP/1.1" 200 6947
0:0:0:0:0:0:0:1 - - [21/Feb/2017:15:59:41 +0530] "GET /ITAFWebApplication/Images/iTAF_logo.png HTTP/1.1" 200 33472
0:0:0:0:0:0:0:1 - - [21/Feb/2017:15:59:41 +0530] "GET /ITAFWebApplication/fonts/glyphicons-halflings-regular.woff2 HTTP/1.1" 200 18028
0:0:0:0:0:0:0:1 - - [21/Feb/2017:15:59:50 +0530] "GET /ITAFWebApplication/css/bootstrap.min.css HTTP/1.1" 200 121260
0:0:0:0:0:0:0:1 - - [21/Feb/2017:15:59:50 +0530] "GET /ITAFWebApplication/css/demo3/try.css HTTP/1.1" 200 4871
0:0:0:0:0:0:0:1 - - [21/Feb/2017:15:59:51 +0530] "POST /ITAFWebApplication/login.do HTTP/1.1" 200 53664
0:0:0:0:0:0:0:1 - - [21/Feb/2017:15:59:51 +0530] "GET /ITAFWebApplication/css/demo3/responsiveTables.css HTTP/1.1" 200 182
0:0:0:0:0:0:0:1 - - [21/Feb/2017:15:59:51 +0530] "GET /ITAFWebApplication/js/jquery.min.js HTTP/1.1" 200 84380
0:0:0:0:0:0:0:1 - - [21/Feb/2017:15:59:51 +0530] "GET /ITAFWebApplication/js/demo3/try.js HTTP/1.1" 200 45488
0:0:0:0:0:0:0:1 - - [21/Feb/2017:15:59:51 +0530] "GET /ITAFWebApplication/js/demo3/RowSorter.js HTTP/1.1" 200 8102
0:0:0:0:0:0:0:1 - - [21/Feb/2017:15:59:51 +0530] "GET /ITAFWebApplication/js/bootstrap.min.js HTTP/1.1" 200 36868
0:0:0:0:0:0:0:1 - - [21/Feb/2017:15:59:51 +0530] "GET /ITAFWebApplication/js/demo3/bootstrap-filestyle.min.js HTTP/1.1" 200 7190
0:0:0:0:0:0:0:1 - - [21/Feb/2017:15:59:51 +0530] "GET /ITAFWebApplication/js/objectCap.js HTTP/1.1" 200 11106
0:0:0:0:0:0:0:1 - - [21/Feb/2017:15:59:51 +0530] "GET /ITAFWebApplication/js/demo3/searchTable.js HTTP/1.1" 200 1022
0:0:0:0:0:0:0:1 - - [21/Feb/2017:15:59:51 +0530] "GET /ITAFWebApplication/js/demo3/responsiveTables.js HTTP/1.1" 200 1886
0:0:0:0:0:0:0:1 - - [21/Feb/2017:16:00:30 +0530] "POST /ITAFWebApplication/itafexecute.do HTTP/1.1" 200 19779
0:0:0:0:0:0:0:1 - - [21/Feb/2017:16:00:30 +0530] "GET /ITAFWebApplication/css/bootstrap.min.css HTTP/1.1" 200 121260
0:0:0:0:0:0:0:1 - - [21/Feb/2017:16:00:30 +0530] "GET /ITAFWebApplication/css/demo3/try.css HTTP/1.1" 200 4871
0:0:0:0:0:0:0:1 - - [21/Feb/2017:16:00:30 +0530] "GET /ITAFWebApplication/js/demo3/bootstrap-progressbar.js HTTP/1.1" 200 6284
0:0:0:0:0:0:0:1 - - [21/Feb/2017:16:00:30 +0530] "GET /ITAFWebApplication/js/demo3/executetry.js HTTP/1.1" 200 1945
0:0:0:0:0:0:0:1 - - [21/Feb/2017:16:00:30 +0530] "GET /ITAFWebApplication/js/loader.js HTTP/1.1" 200 70294
0:0:0:0:0:0:0:1 - - [21/Feb/2017:16:00:43 +0530] "POST /ITAFWebApplication/itafexecute.do HTTP/1.1" 500 1751
0:0:0:0:0:0:0:1 - - [21/Feb/2017:16:12:18 +0530] "GET /ITAFWebApplication/ HTTP/1.1" 200 27677
0:0:0:0:0:0:0:1 - - [21/Feb/2017:16:12:18 +0530] "GET /ITAFWebApplication/css/login.css HTTP/1.1" 200 1077
0:0:0:0:0:0:0:1 - - [21/Feb/2017:16:12:18 +0530] "GET /ITAFWebApplication/css/bootstrap.min.css HTTP/1.1" 200 121260
