0:0:0:0:0:0:0:1 - - [05/Nov/2016:20:33:33 -0500] "GET /ITAFWebApplication/itafpack.do HTTP/1.1" 302 -
0:0:0:0:0:0:0:1 - - [05/Nov/2016:20:33:33 -0500] "GET /ITAFWebApplication/login.jsp HTTP/1.1" 200 27677
0:0:0:0:0:0:0:1 - - [05/Nov/2016:20:33:43 -0500] "POST /ITAFWebApplication/login.do HTTP/1.1" 200 52485
0:0:0:0:0:0:0:1 - - [05/Nov/2016:20:33:43 -0500] "GET /ITAFWebApplication/js/demo3/try.js HTTP/1.1" 304 -
0:0:0:0:0:0:0:1 - - [05/Nov/2016:20:33:51 -0500] "POST /ITAFWebApplication/itafpack.do HTTP/1.1" 200 72100
0:0:0:0:0:0:0:1 - - [05/Nov/2016:20:33:51 -0500] "GET /ITAFWebApplication/files/advancedReport.html?projectname=ACCC_OPAS&actionType=execute HTTP/1.1" 200 19958
0:0:0:0:0:0:0:1 - - [05/Nov/2016:20:33:54 -0500] "POST /ITAFWebApplication/itafpack.do HTTP/1.1" 200 72103
0:0:0:0:0:0:0:1 - - [05/Nov/2016:20:33:54 -0500] "GET /ITAFWebApplication/files/advancedReport.html?projectname=ACCC_OPAS&actionType=execute HTTP/1.1" 200 19958
0:0:0:0:0:0:0:1 - - [05/Nov/2016:20:34:35 -0500] "POST /ITAFWebApplication/itafpack.do HTTP/1.1" 200 122571
0:0:0:0:0:0:0:1 - - [05/Nov/2016:20:34:35 -0500] "GET /ITAFWebApplication/files/advancedReport.html?projectname=ACCC_OPAS&actionType=execute HTTP/1.1" 200 19958
0:0:0:0:0:0:0:1 - - [05/Nov/2016:20:36:06 -0500] "POST /ITAFWebApplication/itafpack.do HTTP/1.1" 200 74125
0:0:0:0:0:0:0:1 - - [05/Nov/2016:20:36:06 -0500] "GET /ITAFWebApplication/files/advancedReport.html?projectname=ACCC_OPAS&actionType=execute HTTP/1.1" 200 19958
0:0:0:0:0:0:0:1 - - [05/Nov/2016:20:36:10 -0500] "POST /ITAFWebApplication/itafpack.do HTTP/1.1" 200 74141
0:0:0:0:0:0:0:1 - - [05/Nov/2016:20:36:11 -0500] "GET /ITAFWebApplication/files/advancedReport.html?projectname=ACCC_OPAS&actionType=execute HTTP/1.1" 200 19958
0:0:0:0:0:0:0:1 - - [05/Nov/2016:20:36:43 -0500] "POST /ITAFWebApplication/itafexecute.do HTTP/1.1" 200 19694
0:0:0:0:0:0:0:1 - - [05/Nov/2016:20:40:45 -0500] "POST /ITAFWebApplication/itafexecute.do HTTP/1.1" 200 19694
0:0:0:0:0:0:0:1 - - [05/Nov/2016:20:40:45 -0500] "GET /ITAFWebApplication/css/bootstrap.min.css HTTP/1.1" 304 -
0:0:0:0:0:0:0:1 - - [05/Nov/2016:20:40:45 -0500] "GET /ITAFWebApplication/css/demo3/try.css HTTP/1.1" 304 -
0:0:0:0:0:0:0:1 - - [05/Nov/2016:20:40:45 -0500] "GET /ITAFWebApplication/css/bootstrap.min.css HTTP/1.1" 304 -
0:0:0:0:0:0:0:1 - - [05/Nov/2016:20:40:45 -0500] "GET /ITAFWebApplication/css/demo3/try.css HTTP/1.1" 304 -
0:0:0:0:0:0:0:1 - - [05/Nov/2016:20:40:45 -0500] "GET /ITAFWebApplication/js/jquery.min.js HTTP/1.1" 304 -
0:0:0:0:0:0:0:1 - - [05/Nov/2016:20:40:45 -0500] "GET /ITAFWebApplication/js/bootstrap.min.js HTTP/1.1" 304 -
0:0:0:0:0:0:0:1 - - [05/Nov/2016:20:40:45 -0500] "GET /ITAFWebApplication/fonts/glyphicons-halflings-regular.eot? HTTP/1.1" 304 -
0:0:0:0:0:0:0:1 - - [05/Nov/2016:20:40:45 -0500] "GET /ITAFWebApplication/js/demo3/executetry.js HTTP/1.1" 304 -
0:0:0:0:0:0:0:1 - - [05/Nov/2016:20:40:45 -0500] "GET /ITAFWebApplication/js/demo3/bootstrap-progressbar.js HTTP/1.1" 304 -
0:0:0:0:0:0:0:1 - - [05/Nov/2016:20:40:45 -0500] "GET /ITAFWebApplication/js/loader.js HTTP/1.1" 304 -
0:0:0:0:0:0:0:1 - - [05/Nov/2016:20:40:45 -0500] "GET /ITAFWebApplication/css/bootstrap.min.css HTTP/1.1" 304 -
0:0:0:0:0:0:0:1 - - [05/Nov/2016:20:40:45 -0500] "GET /ITAFWebApplication/css/demo3/try.css HTTP/1.1" 304 -
0:0:0:0:0:0:0:1 - - [05/Nov/2016:20:41:18 -0500] "POST /ITAFWebApplication/itafexecute.do HTTP/1.1" 200 2
0:0:0:0:0:0:0:1 - - [05/Nov/2016:20:42:19 -0500] "GET /ITAFWebApplication/login.jsp HTTP/1.1" 200 27677
0:0:0:0:0:0:0:1 - - [05/Nov/2016:20:42:31 -0500] "POST /ITAFWebApplication/login.do HTTP/1.1" 200 52485
0:0:0:0:0:0:0:1 - - [05/Nov/2016:20:42:37 -0500] "POST /ITAFWebApplication/itafpack.do HTTP/1.1" 200 72104
0:0:0:0:0:0:0:1 - - [05/Nov/2016:20:42:37 -0500] "GET /ITAFWebApplication/files/advancedReport.html?projectname=ACCC_OPAS&actionType=execute HTTP/1.1" 200 18398
0:0:0:0:0:0:0:1 - - [05/Nov/2016:20:42:38 -0500] "POST /ITAFWebApplication/itafpack.do HTTP/1.1" 200 72107
0:0:0:0:0:0:0:1 - - [05/Nov/2016:20:42:38 -0500] "GET /ITAFWebApplication/files/advancedReport.html?projectname=ACCC_OPAS&actionType=execute HTTP/1.1" 200 18398
0:0:0:0:0:0:0:1 - - [05/Nov/2016:20:42:44 -0500] "POST /ITAFWebApplication/itafpack.do HTTP/1.1" 200 713236
0:0:0:0:0:0:0:1 - - [05/Nov/2016:20:42:44 -0500] "GET /ITAFWebApplication/files/advancedReport.html?projectname=ACCC_OPAS&actionType=execute HTTP/1.1" 200 18398
0:0:0:0:0:0:0:1 - - [05/Nov/2016:20:43:04 -0500] "POST /ITAFWebApplication/itafpack.do HTTP/1.1" 200 74117
0:0:0:0:0:0:0:1 - - [05/Nov/2016:20:43:04 -0500] "GET /ITAFWebApplication/files/advancedReport.html?projectname=ACCC_OPAS&actionType=execute HTTP/1.1" 200 18398
0:0:0:0:0:0:0:1 - - [05/Nov/2016:20:43:06 -0500] "POST /ITAFWebApplication/itafpack.do HTTP/1.1" 200 74117
0:0:0:0:0:0:0:1 - - [05/Nov/2016:20:43:06 -0500] "GET /ITAFWebApplication/files/advancedReport.html?projectname=ACCC_OPAS&actionType=execute HTTP/1.1" 200 18398
0:0:0:0:0:0:0:1 - - [05/Nov/2016:20:43:07 -0500] "POST /ITAFWebApplication/itafpack.do HTTP/1.1" 200 74117
0:0:0:0:0:0:0:1 - - [05/Nov/2016:20:43:07 -0500] "GET /ITAFWebApplication/files/advancedReport.html?projectname=ACCC_OPAS&actionType=execute HTTP/1.1" 200 18398
0:0:0:0:0:0:0:1 - - [05/Nov/2016:20:43:08 -0500] "POST /ITAFWebApplication/itafpack.do HTTP/1.1" 200 74117
0:0:0:0:0:0:0:1 - - [05/Nov/2016:20:43:08 -0500] "GET /ITAFWebApplication/files/advancedReport.html?projectname=ACCC_OPAS&actionType=execute HTTP/1.1" 200 18398
0:0:0:0:0:0:0:1 - - [05/Nov/2016:20:43:10 -0500] "POST /ITAFWebApplication/itafpack.do HTTP/1.1" 200 74117
0:0:0:0:0:0:0:1 - - [05/Nov/2016:20:43:10 -0500] "GET /ITAFWebApplication/files/advancedReport.html?projectname=ACCC_OPAS&actionType=execute HTTP/1.1" 200 18398
0:0:0:0:0:0:0:1 - - [05/Nov/2016:20:43:11 -0500] "POST /ITAFWebApplication/itafpack.do HTTP/1.1" 200 74117
0:0:0:0:0:0:0:1 - - [05/Nov/2016:20:43:11 -0500] "GET /ITAFWebApplication/files/advancedReport.html?projectname=ACCC_OPAS&actionType=execute HTTP/1.1" 200 18398
0:0:0:0:0:0:0:1 - - [05/Nov/2016:20:43:12 -0500] "POST /ITAFWebApplication/itafpack.do HTTP/1.1" 200 74117
0:0:0:0:0:0:0:1 - - [05/Nov/2016:20:43:12 -0500] "GET /ITAFWebApplication/files/advancedReport.html?projectname=ACCC_OPAS&actionType=execute HTTP/1.1" 200 18398
0:0:0:0:0:0:0:1 - - [05/Nov/2016:20:43:13 -0500] "POST /ITAFWebApplication/itafpack.do HTTP/1.1" 200 74117
0:0:0:0:0:0:0:1 - - [05/Nov/2016:20:43:13 -0500] "GET /ITAFWebApplication/files/advancedReport.html?projectname=ACCC_OPAS&actionType=execute HTTP/1.1" 200 18398
0:0:0:0:0:0:0:1 - - [05/Nov/2016:20:43:18 -0500] "POST /ITAFWebApplication/itafpack.do HTTP/1.1" 200 79193
0:0:0:0:0:0:0:1 - - [05/Nov/2016:20:43:19 -0500] "GET /ITAFWebApplication/files/advancedReport.html?projectname=ACCC_OPAS&actionType=execute HTTP/1.1" 200 18398
0:0:0:0:0:0:0:1 - - [05/Nov/2016:20:43:49 -0500] "POST /ITAFWebApplication/itafpack.do HTTP/1.1" 200 79349
0:0:0:0:0:0:0:1 - - [05/Nov/2016:20:43:49 -0500] "GET /ITAFWebApplication/files/advancedReport.html?projectname=ACCC_OPAS&actionType=execute HTTP/1.1" 200 18398
0:0:0:0:0:0:0:1 - - [05/Nov/2016:20:44:13 -0500] "POST /ITAFWebApplication/itafpack.do HTTP/1.1" 200 79193
0:0:0:0:0:0:0:1 - - [05/Nov/2016:20:44:13 -0500] "GET /ITAFWebApplication/files/advancedReport.html?projectname=ACCC_OPAS&actionType=execute HTTP/1.1" 200 18398
0:0:0:0:0:0:0:1 - - [05/Nov/2016:20:44:17 -0500] "POST /ITAFWebApplication/itafpack.do HTTP/1.1" 200 79193
0:0:0:0:0:0:0:1 - - [05/Nov/2016:20:44:18 -0500] "GET /ITAFWebApplication/files/advancedReport.html?projectname=ACCC_OPAS&actionType=execute HTTP/1.1" 200 18398
0:0:0:0:0:0:0:1 - - [05/Nov/2016:20:44:21 -0500] "POST /ITAFWebApplication/itafpack.do HTTP/1.1" 200 79069
0:0:0:0:0:0:0:1 - - [05/Nov/2016:20:44:21 -0500] "GET /ITAFWebApplication/files/advancedReport.html?projectname=ACCC_OPAS&actionType=execute HTTP/1.1" 200 18398
0:0:0:0:0:0:0:1 - - [05/Nov/2016:20:44:24 -0500] "POST /ITAFWebApplication/itafpack.do HTTP/1.1" 200 79069
0:0:0:0:0:0:0:1 - - [05/Nov/2016:20:44:24 -0500] "GET /ITAFWebApplication/files/advancedReport.html?projectname=ACCC_OPAS&actionType=execute HTTP/1.1" 200 18398
0:0:0:0:0:0:0:1 - - [05/Nov/2016:20:44:26 -0500] "POST /ITAFWebApplication/itafpack.do HTTP/1.1" 200 79069
0:0:0:0:0:0:0:1 - - [05/Nov/2016:20:44:27 -0500] "GET /ITAFWebApplication/files/advancedReport.html?projectname=ACCC_OPAS&actionType=execute HTTP/1.1" 200 18398
0:0:0:0:0:0:0:1 - - [05/Nov/2016:20:44:27 -0500] "POST /ITAFWebApplication/itafpack.do HTTP/1.1" 200 79069
0:0:0:0:0:0:0:1 - - [05/Nov/2016:20:44:27 -0500] "GET /ITAFWebApplication/files/advancedReport.html?projectname=ACCC_OPAS&actionType=execute HTTP/1.1" 200 18398
0:0:0:0:0:0:0:1 - - [05/Nov/2016:20:44:31 -0500] "POST /ITAFWebApplication/itafpack.do HTTP/1.1" 200 79069
0:0:0:0:0:0:0:1 - - [05/Nov/2016:20:44:32 -0500] "GET /ITAFWebApplication/files/advancedReport.html?projectname=ACCC_OPAS&actionType=execute HTTP/1.1" 200 18398
0:0:0:0:0:0:0:1 - - [05/Nov/2016:20:44:34 -0500] "POST /ITAFWebApplication/itafpack.do HTTP/1.1" 200 76468
0:0:0:0:0:0:0:1 - - [05/Nov/2016:20:44:35 -0500] "GET /ITAFWebApplication/files/advancedReport.html?projectname=ACCC_OPAS&actionType=execute HTTP/1.1" 200 18398
0:0:0:0:0:0:0:1 - - [05/Nov/2016:20:44:38 -0500] "POST /ITAFWebApplication/itafpack.do HTTP/1.1" 200 79069
0:0:0:0:0:0:0:1 - - [05/Nov/2016:20:44:38 -0500] "GET /ITAFWebApplication/files/advancedReport.html?projectname=ACCC_OPAS&actionType=execute HTTP/1.1" 200 18398
0:0:0:0:0:0:0:1 - - [05/Nov/2016:20:47:31 -0500] "POST /ITAFWebApplication/itafpack.do HTTP/1.1" 200 79205
0:0:0:0:0:0:0:1 - - [05/Nov/2016:20:47:31 -0500] "GET /ITAFWebApplication/files/advancedReport.html?projectname=ACCC_OPAS&actionType=execute HTTP/1.1" 200 18398
0:0:0:0:0:0:0:1 - - [05/Nov/2016:20:47:42 -0500] "POST /ITAFWebApplication/itafexecute.do HTTP/1.1" 200 19694
0:0:0:0:0:0:0:1 - - [05/Nov/2016:20:51:40 -0500] "POST /ITAFWebApplication/itafexecute.do HTTP/1.1" 200 2
0:0:0:0:0:0:0:1 - - [05/Nov/2016:20:54:43 -0500] "GET /ITAFWebApplication/files/advancedReport.html?projectname=ACCC_OPAS&actionType=execute HTTP/1.1" 200 24590
0:0:0:0:0:0:0:1 - - [05/Nov/2016:20:54:47 -0500] "POST /ITAFWebApplication/itafpack.do HTTP/1.1" 200 79205
0:0:0:0:0:0:0:1 - - [05/Nov/2016:20:54:47 -0500] "GET /ITAFWebApplication/files/advancedReport.html?projectname=ACCC_OPAS&actionType=execute HTTP/1.1" 200 24590
0:0:0:0:0:0:0:1 - - [05/Nov/2016:20:54:51 -0500] "POST /ITAFWebApplication/itafpack.do HTTP/1.1" 200 79205
0:0:0:0:0:0:0:1 - - [05/Nov/2016:20:54:51 -0500] "GET /ITAFWebApplication/files/advancedReport.html?projectname=ACCC_OPAS&actionType=execute HTTP/1.1" 200 24590
0:0:0:0:0:0:0:1 - - [05/Nov/2016:20:54:53 -0500] "POST /ITAFWebApplication/itafpack.do HTTP/1.1" 200 79193
0:0:0:0:0:0:0:1 - - [05/Nov/2016:20:54:53 -0500] "GET /ITAFWebApplication/files/advancedReport.html?projectname=ACCC_OPAS&actionType=execute HTTP/1.1" 200 24590
0:0:0:0:0:0:0:1 - - [05/Nov/2016:20:55:01 -0500] "POST /ITAFWebApplication/itafpack.do HTTP/1.1" 200 79349
0:0:0:0:0:0:0:1 - - [05/Nov/2016:20:55:01 -0500] "GET /ITAFWebApplication/files/advancedReport.html?projectname=ACCC_OPAS&actionType=execute HTTP/1.1" 200 24590
0:0:0:0:0:0:0:1 - - [05/Nov/2016:20:55:25 -0500] "POST /ITAFWebApplication/itafpack.do HTTP/1.1" 200 79193
0:0:0:0:0:0:0:1 - - [05/Nov/2016:20:55:25 -0500] "GET /ITAFWebApplication/files/advancedReport.html?projectname=ACCC_OPAS&actionType=execute HTTP/1.1" 200 24590
0:0:0:0:0:0:0:1 - - [05/Nov/2016:20:55:27 -0500] "POST /ITAFWebApplication/itafpack.do HTTP/1.1" 200 79069
0:0:0:0:0:0:0:1 - - [05/Nov/2016:20:55:28 -0500] "GET /ITAFWebApplication/files/advancedReport.html?projectname=ACCC_OPAS&actionType=execute HTTP/1.1" 200 24590
0:0:0:0:0:0:0:1 - - [05/Nov/2016:20:55:54 -0500] "POST /ITAFWebApplication/itafexecute.do HTTP/1.1" 200 2
0:0:0:0:0:0:0:1 - - [05/Nov/2016:20:56:34 -0500] "POST /ITAFWebApplication/itafpack.do HTTP/1.1" 200 79205
0:0:0:0:0:0:0:1 - - [05/Nov/2016:20:56:34 -0500] "GET /ITAFWebApplication/files/advancedReport.html?projectname=ACCC_OPAS&actionType=execute HTTP/1.1" 200 18392
0:0:0:0:0:0:0:1 - - [05/Nov/2016:20:56:38 -0500] "POST /ITAFWebApplication/itafexecute.do HTTP/1.1" 200 19694
0:0:0:0:0:0:0:1 - - [05/Nov/2016:21:01:38 -0500] "POST /ITAFWebApplication/itafexecute.do HTTP/1.1" 200 2
