0:0:0:0:0:0:0:1 - admin [29/Sep/2016:17:27:33 +0530] "GET /manager/html HTTP/1.1" 200 19129
0:0:0:0:0:0:0:1 - admin [29/Sep/2016:17:27:38 +0530] "POST /manager/html/undeploy?path=/ITAFWebApplication&org.apache.catalina.filters.CSRF_NONCE=87C5F314E24B27DB94B911835B6E7691 HTTP/1.1" 200 17971
0:0:0:0:0:0:0:1 - admin [29/Sep/2016:17:28:24 +0530] "POST /manager/html/deploy?org.apache.catalina.filters.CSRF_NONCE=D5F3DADBAF09D5F1D34F5D6700F69FB0 HTTP/1.1" 200 19220
0:0:0:0:0:0:0:1 - - [29/Sep/2016:18:57:34 +0530] "GET / HTTP/1.1" 200 11450
0:0:0:0:0:0:0:1 - - [29/Sep/2016:18:57:35 +0530] "GET /manager/html HTTP/1.1" 401 2536
0:0:0:0:0:0:0:1 - admin [29/Sep/2016:18:57:35 +0530] "GET /manager/html HTTP/1.1" 200 19695
0:0:0:0:0:0:0:1 - admin [29/Sep/2016:18:57:39 +0530] "POST /manager/html/undeploy?path=/ITAFWebApplication&org.apache.catalina.filters.CSRF_NONCE=B28894BC2165DF66AE0913EB98BB5285 HTTP/1.1" 200 17972
0:0:0:0:0:0:0:1 - admin [29/Sep/2016:18:59:12 +0530] "POST /manager/html/deploy?org.apache.catalina.filters.CSRF_NONCE=C40CE175B007BF990AB8763D0672FBC6 HTTP/1.1" 200 19744
0:0:0:0:0:0:0:1 - - [29/Sep/2016:18:59:28 +0530] "GET /ITAFWebApplication/ HTTP/1.1" 404 1030
0:0:0:0:0:0:0:1 - admin [29/Sep/2016:18:59:41 +0530] "POST /manager/html/start?path=/ITAFWebApplication&org.apache.catalina.filters.CSRF_NONCE=851E1C517124F4E87991943FA2522A44 HTTP/1.1" 403 3502
0:0:0:0:0:0:0:1 - admin [29/Sep/2016:19:00:05 +0530] "POST /manager/html/deploy?org.apache.catalina.filters.CSRF_NONCE=D5F3DADBAF09D5F1D34F5D6700F69FB0 HTTP/1.1" 403 3502
0:0:0:0:0:0:0:1 - - [29/Sep/2016:19:00:51 +0530] "GET /managelocalhost:8080 HTTP/1.1" 404 1032
0:0:0:0:0:0:0:1 - - [29/Sep/2016:19:00:57 +0530] "GET / HTTP/1.1" 200 11450
0:0:0:0:0:0:0:1 - admin [29/Sep/2016:19:00:59 +0530] "GET /manager/html HTTP/1.1" 200 19683
0:0:0:0:0:0:0:1 - - [29/Sep/2016:19:01:26 +0530] "GET /ITAFWebApplication/login.jsp HTTP/1.1" 404 1048
0:0:0:0:0:0:0:1 - admin [29/Sep/2016:19:01:52 +0530] "POST /manager/html/reload?path=/ITAFWebApplication&org.apache.catalina.filters.CSRF_NONCE=1FAD68AD9A56A296E74DF97F5DE2A37B HTTP/1.1" 200 19744
0:0:0:0:0:0:0:1 - admin [29/Sep/2016:19:01:56 +0530] "POST /manager/html/reload?path=/ITAFWebApplication&org.apache.catalina.filters.CSRF_NONCE=1635DC7E0EA01FAE20DB9B28C775E6F5 HTTP/1.1" 200 19744
0:0:0:0:0:0:0:1 - - [29/Sep/2016:19:02:09 +0530] "GET /ITAFWebApplication/ HTTP/1.1" 404 1030
0:0:0:0:0:0:0:1 - - [29/Sep/2016:19:04:05 +0530] "GET /favicon.ico HTTP/1.1" 200 21630
0:0:0:0:0:0:0:1 - - [29/Sep/2016:19:04:05 +0530] "GET /ITAFWebApplication/login.jsp HTTP/1.1" 404 1048
0:0:0:0:0:0:0:1 - - [29/Sep/2016:19:04:15 +0530] "GET /ITAFWebApplication/ HTTP/1.1" 404 1030
0:0:0:0:0:0:0:1 - - [29/Sep/2016:19:06:49 +0530] "GET / HTTP/1.1" 200 11450
0:0:0:0:0:0:0:1 - - [29/Sep/2016:19:06:55 +0530] "GET /files/ HTTP/1.1" 404 1004
0:0:0:0:0:0:0:1 - admin [29/Sep/2016:19:06:51 +0530] "GET /manager/html HTTP/1.1" 200 19683
0:0:0:0:0:0:0:1 - - [29/Sep/2016:19:09:33 +0530] "GET /ITAFWebApplication/login.jsp HTTP/1.1" 404 1048
0:0:0:0:0:0:0:1 - - [29/Sep/2016:19:12:39 +0530] "GET /ITAFWebApplication/ HTTP/1.1" 302 -
0:0:0:0:0:0:0:1 - - [29/Sep/2016:19:12:40 +0530] "GET /ITAFWebApplication/login.jsp HTTP/1.1" 200 27731
0:0:0:0:0:0:0:1 - - [29/Sep/2016:19:12:40 +0530] "GET /ITAFWebApplication/css/login.css HTTP/1.1" 200 1031
0:0:0:0:0:0:0:1 - - [29/Sep/2016:19:12:40 +0530] "GET /ITAFWebApplication/css/bootstrap.min.css HTTP/1.1" 200 121260
0:0:0:0:0:0:0:1 - - [29/Sep/2016:19:12:40 +0530] "GET /ITAFWebApplication/Images/New_Image.jpg HTTP/1.1" 200 626653
0:0:0:0:0:0:0:1 - - [29/Sep/2016:19:12:40 +0530] "GET /ITAFWebApplication/js/login.js HTTP/1.1" 304 -
0:0:0:0:0:0:0:1 - - [29/Sep/2016:19:12:40 +0530] "GET /ITAFWebApplication/fonts/glyphicons-halflings-regular.woff HTTP/1.1" 304 -
0:0:0:0:0:0:0:1 - - [29/Sep/2016:19:13:04 +0530] "GET /ITAFWebApplication/css/demo3/try.css HTTP/1.1" 200 4663
0:0:0:0:0:0:0:1 - - [29/Sep/2016:19:13:05 +0530] "GET /ITAFWebApplication/css/demo3/responsiveTables.css HTTP/1.1" 200 182
0:0:0:0:0:0:0:1 - - [29/Sep/2016:19:13:05 +0530] "POST /ITAFWebApplication/login.do HTTP/1.1" 200 43708
0:0:0:0:0:0:0:1 - - [29/Sep/2016:19:13:05 +0530] "GET /ITAFWebApplication/js/demo3/try.js HTTP/1.1" 200 39047
0:0:0:0:0:0:0:1 - - [29/Sep/2016:19:13:05 +0530] "GET /ITAFWebApplication/js/bootstrap.min.js HTTP/1.1" 200 36868
0:0:0:0:0:0:0:1 - - [29/Sep/2016:19:13:05 +0530] "GET /ITAFWebApplication/js/jquery.min.js HTTP/1.1" 200 84380
0:0:0:0:0:0:0:1 - - [29/Sep/2016:19:13:05 +0530] "GET /ITAFWebApplication/js/demo3/searchTable.js HTTP/1.1" 200 1022
0:0:0:0:0:0:0:1 - - [29/Sep/2016:19:13:05 +0530] "GET /ITAFWebApplication/js/demo3/bootstrap-filestyle.min.js HTTP/1.1" 200 7190
0:0:0:0:0:0:0:1 - - [29/Sep/2016:19:13:05 +0530] "GET /ITAFWebApplication/js/demo3/responsiveTables.js HTTP/1.1" 200 1886
0:0:0:0:0:0:0:1 - - [29/Sep/2016:19:13:27 +0530] "POST /ITAFWebApplication/itafpack.do HTTP/1.1" 200 61056
0:0:0:0:0:0:0:1 - - [29/Sep/2016:19:13:27 +0530] "GET /ITAFWebApplication/files/advancedReport.html?projectname=Billling&actionType=execute HTTP/1.1" 200 15098
0:0:0:0:0:0:0:1 - - [29/Sep/2016:19:13:35 +0530] "POST /ITAFWebApplication/Seleniumservice/resources/startITAF HTTP/1.1" 500 6931
0:0:0:0:0:0:0:1 - - [29/Sep/2016:20:11:33 +0530] "POST /ITAFWebApplication/itafpack.do HTTP/1.1" 302 -
0:0:0:0:0:0:0:1 - - [29/Sep/2016:20:11:33 +0530] "GET /ITAFWebApplication/login.jsp HTTP/1.1" 200 27731
0:0:0:0:0:0:0:1 - - [29/Sep/2016:20:11:33 +0530] "GET /ITAFWebApplication/css/login.css HTTP/1.1" 304 -
0:0:0:0:0:0:0:1 - - [29/Sep/2016:20:11:33 +0530] "GET /ITAFWebApplication/css/bootstrap.min.css HTTP/1.1" 304 -
0:0:0:0:0:0:0:1 - - [29/Sep/2016:20:11:33 +0530] "GET /ITAFWebApplication/js/login.js HTTP/1.1" 304 -
0:0:0:0:0:0:0:1 - - [29/Sep/2016:20:11:33 +0530] "GET /ITAFWebApplication/Images/New_Image.jpg HTTP/1.1" 304 -
0:0:0:0:0:0:0:1 - - [29/Sep/2016:20:11:52 +0530] "POST /ITAFWebApplication/login.do HTTP/1.1" 200 43708
0:0:0:0:0:0:0:1 - - [29/Sep/2016:20:11:58 +0530] "POST /ITAFWebApplication/itafpack.do HTTP/1.1" 200 61057
0:0:0:0:0:0:0:1 - - [29/Sep/2016:20:11:58 +0530] "GET /ITAFWebApplication/files/advancedReport.html?projectname=Billling&actionType=execute HTTP/1.1" 200 15098
0:0:0:0:0:0:0:1 - - [29/Sep/2016:20:12:04 +0530] "POST /ITAFWebApplication/Seleniumservice/resources/startITAF HTTP/1.1" 500 6939
0:0:0:0:0:0:0:1 - - [29/Sep/2016:20:17:58 +0530] "POST /ITAFWebApplication/Seleniumservice/resources/startITAF HTTP/1.1" 500 6939
0:0:0:0:0:0:0:1 - - [29/Sep/2016:20:18:05 +0530] "POST /ITAFWebApplication/Seleniumservice/resources/startITAF HTTP/1.1" 500 6939
0:0:0:0:0:0:0:1 - - [29/Sep/2016:20:40:32 +0530] "GET /ITAFWebApplication/ HTTP/1.1" 302 -
0:0:0:0:0:0:0:1 - - [29/Sep/2016:20:40:32 +0530] "GET /ITAFWebApplication/login.jsp HTTP/1.1" 200 27731
0:0:0:0:0:0:0:1 - - [29/Sep/2016:20:40:43 +0530] "POST /ITAFWebApplication/login.do HTTP/1.1" 200 43708
0:0:0:0:0:0:0:1 - - [29/Sep/2016:20:41:01 +0530] "POST /ITAFWebApplication/itafpack.do HTTP/1.1" 200 61057
0:0:0:0:0:0:0:1 - - [29/Sep/2016:20:41:01 +0530] "GET /ITAFWebApplication/files/advancedReport.html?projectname=Billling&actionType=execute HTTP/1.1" 200 15098
0:0:0:0:0:0:0:1 - - [29/Sep/2016:20:41:11 +0530] "GET /favicon.ico HTTP/1.1" 200 21630
0:0:0:0:0:0:0:1 - - [29/Sep/2016:20:41:09 +0530] "GET /ITAFWebApplication/main.jsp HTTP/1.1" 200 14003
0:0:0:0:0:0:0:1 - - [29/Sep/2016:20:41:09 +0530] "GET /ITAFWebApplication/css/bootstrap.min.css HTTP/1.1" 200 121260
0:0:0:0:0:0:0:1 - - [29/Sep/2016:20:41:09 +0530] "GET /ITAFWebApplication/js/demo3/responsiveTables.js HTTP/1.1" 200 1886
0:0:0:0:0:0:0:1 - - [29/Sep/2016:20:41:09 +0530] "GET /ITAFWebApplication/css/demo3/try.css HTTP/1.1" 200 4663
0:0:0:0:0:0:0:1 - - [29/Sep/2016:20:41:09 +0530] "GET /ITAFWebApplication/js/bootstrap.min.js HTTP/1.1" 200 36868
0:0:0:0:0:0:0:1 - - [29/Sep/2016:20:41:11 +0530] "POST /ITAFWebApplication/Seleniumservice/resources/startITAF HTTP/1.1" 204 -
0:0:0:0:0:0:0:1 - - [29/Sep/2016:20:41:11 +0530] "POST /ITAFWebApplication/Seleniumservice/resources/getProjectDetails HTTP/1.1" 200 178
0:0:0:0:0:0:0:1 - - [29/Sep/2016:20:41:11 +0530] "GET /ITAFWebApplication/js/inject.js HTTP/1.1" 200 14248
0:0:0:0:0:0:0:1 - - [29/Sep/2016:20:41:11 +0530] "POST /ITAFWebApplication/Seleniumservice/resources/injectScript HTTP/1.1" 204 -
0:0:0:0:0:0:0:1 - - [29/Sep/2016:20:41:32 +0530] "GET /favicon.ico HTTP/1.1" 200 21630
0:0:0:0:0:0:0:1 - - [29/Sep/2016:20:41:30 +0530] "GET /ITAFWebApplication/main.jsp HTTP/1.1" 200 14003
0:0:0:0:0:0:0:1 - - [29/Sep/2016:20:41:30 +0530] "GET /ITAFWebApplication/css/bootstrap.min.css HTTP/1.1" 200 121260
0:0:0:0:0:0:0:1 - - [29/Sep/2016:20:41:30 +0530] "GET /ITAFWebApplication/css/demo3/try.css HTTP/1.1" 200 4663
0:0:0:0:0:0:0:1 - - [29/Sep/2016:20:41:30 +0530] "GET /ITAFWebApplication/js/demo3/responsiveTables.js HTTP/1.1" 200 1886
0:0:0:0:0:0:0:1 - - [29/Sep/2016:20:41:30 +0530] "GET /ITAFWebApplication/js/bootstrap.min.js HTTP/1.1" 200 36868
0:0:0:0:0:0:0:1 - - [29/Sep/2016:20:41:32 +0530] "POST /ITAFWebApplication/Seleniumservice/resources/startITAF HTTP/1.1" 204 -
0:0:0:0:0:0:0:1 - - [29/Sep/2016:20:41:32 +0530] "POST /ITAFWebApplication/Seleniumservice/resources/getProjectDetails HTTP/1.1" 200 178
0:0:0:0:0:0:0:1 - - [29/Sep/2016:20:41:32 +0530] "GET /ITAFWebApplication/js/inject.js HTTP/1.1" 200 14248
0:0:0:0:0:0:0:1 - - [29/Sep/2016:20:41:32 +0530] "POST /ITAFWebApplication/Seleniumservice/resources/injectScript HTTP/1.1" 204 -
0:0:0:0:0:0:0:1 - - [29/Sep/2016:20:41:56 +0530] "POST /ITAFWebApplication/Seleniumservice/resources/injectScript HTTP/1.1" 204 -
0:0:0:0:0:0:0:1 - - [29/Sep/2016:20:42:03 +0530] "POST /ITAFWebApplication/Seleniumservice/resources/injectScript HTTP/1.1" 204 -
0:0:0:0:0:0:0:1 - - [29/Sep/2016:20:42:10 +0530] "POST /ITAFWebApplication/Seleniumservice/resources/injectScript HTTP/1.1" 204 -
0:0:0:0:0:0:0:1 - - [29/Sep/2016:20:42:28 +0530] "POST /ITAFWebApplication/Seleniumservice/resources/injectScript HTTP/1.1" 204 -
0:0:0:0:0:0:0:1 - - [29/Sep/2016:20:44:58 +0530] "POST /ITAFWebApplication/Seleniumservice/resources/updateCSV HTTP/1.1" 204 -
0:0:0:0:0:0:0:1 - - [29/Sep/2016:20:47:25 +0530] "POST /ITAFWebApplication/Seleniumservice/resources/injectScript HTTP/1.1" 500 7849
0:0:0:0:0:0:0:1 - - [29/Sep/2016:20:47:42 +0530] "GET /ITAFWebApplication/css/bootstrap.min.css.map HTTP/1.1" 404 1080
0:0:0:0:0:0:0:1 - - [29/Sep/2016:20:48:54 +0530] "POST /ITAFWebApplication/itafpack.do HTTP/1.1" 200 46120
0:0:0:0:0:0:0:1 - - [29/Sep/2016:20:48:54 +0530] "GET /ITAFWebApplication/files/advancedReport.html?projectname=adactin&actionType=execute HTTP/1.1" 200 -
0:0:0:0:0:0:0:1 - - [29/Sep/2016:20:48:58 +0530] "POST /ITAFWebApplication/itafpack.do HTTP/1.1" 200 45594
0:0:0:0:0:0:0:1 - - [29/Sep/2016:20:48:58 +0530] "GET /ITAFWebApplication/files/advancedReport.html?projectname=adactin&actionType=execute HTTP/1.1" 200 -
0:0:0:0:0:0:0:1 - - [29/Sep/2016:20:49:23 +0530] "POST /ITAFWebApplication/itafpack.do HTTP/1.1" 200 45672
0:0:0:0:0:0:0:1 - - [29/Sep/2016:20:49:23 +0530] "GET /ITAFWebApplication/files/advancedReport.html?projectname=adactin&actionType=execute HTTP/1.1" 200 -
0:0:0:0:0:0:0:1 - - [29/Sep/2016:20:49:41 +0530] "POST /ITAFWebApplication/itafpack.do HTTP/1.1" 200 63378
0:0:0:0:0:0:0:1 - - [29/Sep/2016:20:49:41 +0530] "GET /ITAFWebApplication/files/advancedReport.html?projectname=adactin&actionType=execute HTTP/1.1" 200 -
0:0:0:0:0:0:0:1 - - [29/Sep/2016:20:49:50 +0530] "GET /favicon.ico HTTP/1.1" 200 21630
0:0:0:0:0:0:0:1 - - [29/Sep/2016:20:49:48 +0530] "GET /ITAFWebApplication/main.jsp HTTP/1.1" 200 14003
0:0:0:0:0:0:0:1 - - [29/Sep/2016:20:49:48 +0530] "GET /ITAFWebApplication/css/bootstrap.min.css HTTP/1.1" 200 121260
0:0:0:0:0:0:0:1 - - [29/Sep/2016:20:49:48 +0530] "GET /ITAFWebApplication/css/demo3/try.css HTTP/1.1" 200 4663
0:0:0:0:0:0:0:1 - - [29/Sep/2016:20:49:48 +0530] "GET /ITAFWebApplication/js/demo3/responsiveTables.js HTTP/1.1" 200 1886
0:0:0:0:0:0:0:1 - - [29/Sep/2016:20:49:48 +0530] "GET /ITAFWebApplication/js/bootstrap.min.js HTTP/1.1" 200 36868
0:0:0:0:0:0:0:1 - - [29/Sep/2016:20:49:50 +0530] "POST /ITAFWebApplication/Seleniumservice/resources/startITAF HTTP/1.1" 204 -
0:0:0:0:0:0:0:1 - - [29/Sep/2016:20:49:50 +0530] "POST /ITAFWebApplication/Seleniumservice/resources/getProjectDetails HTTP/1.1" 200 144
0:0:0:0:0:0:0:1 - - [29/Sep/2016:20:49:50 +0530] "GET /ITAFWebApplication/js/inject.js HTTP/1.1" 200 14248
0:0:0:0:0:0:0:1 - - [29/Sep/2016:20:49:50 +0530] "POST /ITAFWebApplication/Seleniumservice/resources/injectScript HTTP/1.1" 204 -
0:0:0:0:0:0:0:1 - - [29/Sep/2016:20:49:59 +0530] "POST /ITAFWebApplication/Seleniumservice/resources/injectScript HTTP/1.1" 204 -
0:0:0:0:0:0:0:1 - - [29/Sep/2016:20:50:10 +0530] "POST /ITAFWebApplication/Seleniumservice/resources/updateCSV HTTP/1.1" 204 -
0:0:0:0:0:0:0:1 - - [29/Sep/2016:20:50:30 +0530] "POST /ITAFWebApplication/Seleniumservice/resources/injectScript HTTP/1.1" 204 -
0:0:0:0:0:0:0:1 - - [29/Sep/2016:20:53:35 +0530] "POST /ITAFWebApplication/itafpack.do HTTP/1.1" 200 80393
0:0:0:0:0:0:0:1 - - [29/Sep/2016:20:53:35 +0530] "GET /ITAFWebApplication/files/advancedReport.html?projectname=adactin&actionType=execute HTTP/1.1" 200 -
0:0:0:0:0:0:0:1 - - [29/Sep/2016:20:54:07 +0530] "POST /ITAFWebApplication/itafpack.do HTTP/1.1" 200 80493
0:0:0:0:0:0:0:1 - - [29/Sep/2016:20:54:07 +0530] "GET /ITAFWebApplication/files/advancedReport.html?projectname=adactin&actionType=execute HTTP/1.1" 200 -
0:0:0:0:0:0:0:1 - - [29/Sep/2016:20:54:13 +0530] "POST /ITAFWebApplication/itafexecute.do HTTP/1.1" 200 11907
0:0:0:0:0:0:0:1 - - [29/Sep/2016:20:54:13 +0530] "GET /ITAFWebApplication/js/loader.js HTTP/1.1" 200 70294
0:0:0:0:0:0:0:1 - - [29/Sep/2016:20:54:13 +0530] "GET /ITAFWebApplication/js/demo3/executetry.js HTTP/1.1" 200 1755
0:0:0:0:0:0:0:1 - - [29/Sep/2016:20:54:13 +0530] "GET /ITAFWebApplication/js/demo3/bootstrap-progressbar.js HTTP/1.1" 200 6284
0:0:0:0:0:0:0:1 - - [29/Sep/2016:20:54:30 +0530] "POST /ITAFWebApplication/itafexecute.do HTTP/1.1" 200 2
0:0:0:0:0:0:0:1 - - [29/Sep/2016:20:56:42 +0530] "GET /ITAFWebApplication/ HTTP/1.1" 200 27731
0:0:0:0:0:0:0:1 - - [29/Sep/2016:20:56:51 +0530] "POST /ITAFWebApplication/login.do HTTP/1.1" 200 44856
0:0:0:0:0:0:0:1 - - [29/Sep/2016:20:56:59 +0530] "POST /ITAFWebApplication/itafpack.do HTTP/1.1" 200 50846
0:0:0:0:0:0:0:1 - - [29/Sep/2016:20:56:59 +0530] "GET /ITAFWebApplication/files/advancedReport.html?projectname=adactin&actionType=execute HTTP/1.1" 200 -
0:0:0:0:0:0:0:1 - - [29/Sep/2016:20:57:06 +0530] "GET /ITAFWebApplication/main.jsp HTTP/1.1" 200 14003
0:0:0:0:0:0:0:1 - - [29/Sep/2016:20:57:06 +0530] "GET /ITAFWebApplication/js/demo3/responsiveTables.js HTTP/1.1" 200 1886
0:0:0:0:0:0:0:1 - - [29/Sep/2016:20:57:06 +0530] "GET /ITAFWebApplication/css/demo3/try.css HTTP/1.1" 200 4663
0:0:0:0:0:0:0:1 - - [29/Sep/2016:20:57:06 +0530] "GET /ITAFWebApplication/css/bootstrap.min.css HTTP/1.1" 200 121260
0:0:0:0:0:0:0:1 - - [29/Sep/2016:20:57:06 +0530] "GET /ITAFWebApplication/js/bootstrap.min.js HTTP/1.1" 200 36868
0:0:0:0:0:0:0:1 - - [29/Sep/2016:20:57:09 +0530] "GET /favicon.ico HTTP/1.1" 200 21630
0:0:0:0:0:0:0:1 - - [29/Sep/2016:20:57:09 +0530] "GET /ITAFWebApplication/js/inject.js HTTP/1.1" 200 14248
0:0:0:0:0:0:0:1 - - [29/Sep/2016:20:57:09 +0530] "POST /ITAFWebApplication/Seleniumservice/resources/injectScript HTTP/1.1" 204 -
0:0:0:0:0:0:0:1 - - [29/Sep/2016:20:57:09 +0530] "POST /ITAFWebApplication/Seleniumservice/resources/startITAF HTTP/1.1" 204 -
0:0:0:0:0:0:0:1 - - [29/Sep/2016:20:57:09 +0530] "POST /ITAFWebApplication/Seleniumservice/resources/getProjectDetails HTTP/1.1" 200 144
0:0:0:0:0:0:0:1 - - [29/Sep/2016:20:57:14 +0530] "POST /ITAFWebApplication/itafexecute.do HTTP/1.1" 200 11907
0:0:0:0:0:0:0:1 - - [29/Sep/2016:20:57:35 +0530] "POST /ITAFWebApplication/itafexecute.do HTTP/1.1" 200 2
0:0:0:0:0:0:0:1 - - [29/Sep/2016:21:03:17 +0530] "GET /ITAFWebApplication/ HTTP/1.1" 302 -
0:0:0:0:0:0:0:1 - - [29/Sep/2016:21:03:17 +0530] "GET /ITAFWebApplication/login.jsp HTTP/1.1" 200 27731
0:0:0:0:0:0:0:1 - - [29/Sep/2016:21:03:26 +0530] "POST /ITAFWebApplication/login.do HTTP/1.1" 200 44856
0:0:0:0:0:0:0:1 - - [29/Sep/2016:21:03:32 +0530] "POST /ITAFWebApplication/itafpack.do HTTP/1.1" 200 50846
0:0:0:0:0:0:0:1 - - [29/Sep/2016:21:03:32 +0530] "GET /ITAFWebApplication/files/advancedReport.html?projectname=adactin&actionType=execute HTTP/1.1" 200 -
0:0:0:0:0:0:0:1 - - [29/Sep/2016:21:03:35 +0530] "POST /ITAFWebApplication/itafpack.do HTTP/1.1" 200 50849
0:0:0:0:0:0:0:1 - - [29/Sep/2016:21:03:35 +0530] "GET /ITAFWebApplication/files/advancedReport.html?projectname=adactin&actionType=execute HTTP/1.1" 200 -
0:0:0:0:0:0:0:1 - - [29/Sep/2016:21:03:51 +0530] "POST /ITAFWebApplication/itafpack.do HTTP/1.1" 200 53082
0:0:0:0:0:0:0:1 - - [29/Sep/2016:21:03:51 +0530] "GET /ITAFWebApplication/files/advancedReport.html?projectname=adactin&actionType=execute HTTP/1.1" 200 -
0:0:0:0:0:0:0:1 - - [29/Sep/2016:21:03:54 +0530] "POST /ITAFWebApplication/itafpack.do HTTP/1.1" 200 53107
0:0:0:0:0:0:0:1 - - [29/Sep/2016:21:03:54 +0530] "GET /ITAFWebApplication/files/advancedReport.html?projectname=adactin&actionType=execute HTTP/1.1" 200 -
0:0:0:0:0:0:0:1 - - [29/Sep/2016:21:03:59 +0530] "POST /ITAFWebApplication/itafpack.do HTTP/1.1" 200 54913
0:0:0:0:0:0:0:1 - - [29/Sep/2016:21:03:59 +0530] "GET /ITAFWebApplication/files/advancedReport.html?projectname=adactin&actionType=execute HTTP/1.1" 200 -
0:0:0:0:0:0:0:1 - - [29/Sep/2016:21:04:01 +0530] "POST /ITAFWebApplication/itafpack.do HTTP/1.1" 200 55698
0:0:0:0:0:0:0:1 - - [29/Sep/2016:21:04:01 +0530] "GET /ITAFWebApplication/files/advancedReport.html?projectname=adactin&actionType=execute HTTP/1.1" 200 -
0:0:0:0:0:0:0:1 - - [29/Sep/2016:21:04:11 +0530] "POST /ITAFWebApplication/itafpack.do HTTP/1.1" 200 56236
0:0:0:0:0:0:0:1 - - [29/Sep/2016:21:04:12 +0530] "GET /ITAFWebApplication/files/advancedReport.html?projectname=adactin&actionType=execute HTTP/1.1" 200 -
0:0:0:0:0:0:0:1 - - [29/Sep/2016:21:04:15 +0530] "POST /ITAFWebApplication/itafexecute.do HTTP/1.1" 200 11907
0:0:0:0:0:0:0:1 - - [29/Sep/2016:21:04:33 +0530] "POST /ITAFWebApplication/itafexecute.do HTTP/1.1" 200 19
0:0:0:0:0:0:0:1 - - [29/Sep/2016:21:06:10 +0530] "GET /ITAFWebApplication/ HTTP/1.1" 200 27731
0:0:0:0:0:0:0:1 - - [29/Sep/2016:21:06:18 +0530] "POST /ITAFWebApplication/login.do HTTP/1.1" 200 44856
0:0:0:0:0:0:0:1 - - [29/Sep/2016:21:06:20 +0530] "POST /ITAFWebApplication/itafexecute.do HTTP/1.1" 200 11907
0:0:0:0:0:0:0:1 - - [29/Sep/2016:21:06:36 +0530] "POST /ITAFWebApplication/itafexecute.do HTTP/1.1" 200 19
0:0:0:0:0:0:0:1 - - [29/Sep/2016:21:10:48 +0530] "GET /ITAFWebApplication/ HTTP/1.1" 302 -
0:0:0:0:0:0:0:1 - - [29/Sep/2016:21:10:48 +0530] "GET /ITAFWebApplication/login.jsp HTTP/1.1" 200 27731
0:0:0:0:0:0:0:1 - - [29/Sep/2016:21:10:48 +0530] "GET /ITAFWebApplication/css/bootstrap.min.css HTTP/1.1" 200 121260
0:0:0:0:0:0:0:1 - - [29/Sep/2016:21:10:48 +0530] "GET /ITAFWebApplication/css/login.css HTTP/1.1" 200 1031
0:0:0:0:0:0:0:1 - - [29/Sep/2016:21:10:48 +0530] "GET /ITAFWebApplication/Images/New_Image.jpg HTTP/1.1" 200 626653
0:0:0:0:0:0:0:1 - - [29/Sep/2016:21:10:48 +0530] "GET /ITAFWebApplication/js/login.js HTTP/1.1" 200 6947
0:0:0:0:0:0:0:1 - - [29/Sep/2016:21:10:48 +0530] "GET /ITAFWebApplication/fonts/glyphicons-halflings-regular.woff2 HTTP/1.1" 200 18028
0:0:0:0:0:0:0:1 - - [29/Sep/2016:21:10:58 +0530] "GET /ITAFWebApplication/css/demo3/try.css HTTP/1.1" 200 4663
0:0:0:0:0:0:0:1 - - [29/Sep/2016:21:10:58 +0530] "GET /ITAFWebApplication/css/demo3/responsiveTables.css HTTP/1.1" 200 182
0:0:0:0:0:0:0:1 - - [29/Sep/2016:21:10:58 +0530] "POST /ITAFWebApplication/login.do HTTP/1.1" 200 44856
0:0:0:0:0:0:0:1 - - [29/Sep/2016:21:10:58 +0530] "GET /ITAFWebApplication/js/jquery.min.js HTTP/1.1" 200 84380
0:0:0:0:0:0:0:1 - - [29/Sep/2016:21:10:58 +0530] "GET /ITAFWebApplication/js/demo3/searchTable.js HTTP/1.1" 200 1022
0:0:0:0:0:0:0:1 - - [29/Sep/2016:21:10:58 +0530] "GET /ITAFWebApplication/js/demo3/bootstrap-filestyle.min.js HTTP/1.1" 200 7190
0:0:0:0:0:0:0:1 - - [29/Sep/2016:21:10:58 +0530] "GET /ITAFWebApplication/js/demo3/responsiveTables.js HTTP/1.1" 200 1886
0:0:0:0:0:0:0:1 - - [29/Sep/2016:21:10:58 +0530] "GET /ITAFWebApplication/js/demo3/try.js HTTP/1.1" 200 39047
0:0:0:0:0:0:0:1 - - [29/Sep/2016:21:10:58 +0530] "GET /ITAFWebApplication/js/bootstrap.min.js HTTP/1.1" 200 36868
0:0:0:0:0:0:0:1 - - [29/Sep/2016:21:11:16 +0530] "GET /ITAFWebApplication/ HTTP/1.1" 200 27731
0:0:0:0:0:0:0:1 - - [29/Sep/2016:21:11:30 +0530] "GET /favicon.ico HTTP/1.1" 200 21630
0:0:0:0:0:0:0:1 - - [29/Sep/2016:21:11:36 +0530] "POST /ITAFWebApplication/login.do HTTP/1.1" 200 44856
0:0:0:0:0:0:0:1 - - [29/Sep/2016:21:13:16 +0530] "POST /ITAFWebApplication/itafexecute.do HTTP/1.1" 200 11907
0:0:0:0:0:0:0:1 - - [29/Sep/2016:21:13:16 +0530] "GET /ITAFWebApplication/js/loader.js HTTP/1.1" 200 70294
0:0:0:0:0:0:0:1 - - [29/Sep/2016:21:13:16 +0530] "GET /ITAFWebApplication/js/demo3/bootstrap-progressbar.js HTTP/1.1" 200 6284
0:0:0:0:0:0:0:1 - - [29/Sep/2016:21:13:16 +0530] "GET /ITAFWebApplication/js/demo3/executetry.js HTTP/1.1" 200 1755
0:0:0:0:0:0:0:1 - - [29/Sep/2016:21:15:09 +0530] "POST /ITAFWebApplication/itafexecute.do HTTP/1.1" 200 19
0:0:0:0:0:0:0:1 - - [29/Sep/2016:21:15:39 +0530] "POST /ITAFWebApplication/itafexecute.do HTTP/1.1" 200 238
0:0:0:0:0:0:0:1 - - [29/Sep/2016:21:15:39 +0530] "GET /ITAFWebApplication/files/advancedReport.html?projectname=adactin&actionType=execute HTTP/1.1" 200 13511
0:0:0:0:0:0:0:1 - - [29/Sep/2016:21:15:52 +0530] "POST /ITAFWebApplication/itafexecute.do HTTP/1.1" 200 2
0:0:0:0:0:0:0:1 - - [29/Sep/2016:21:15:56 +0530] "POST /ITAFWebApplication/itafexecute.do HTTP/1.1" 200 238
0:0:0:0:0:0:0:1 - - [29/Sep/2016:21:15:56 +0530] "GET /ITAFWebApplication/files/advancedReport.html?projectname=adactin&actionType=execute HTTP/1.1" 200 13511
0:0:0:0:0:0:0:1 - - [29/Sep/2016:21:16:10 +0530] "POST /ITAFWebApplication/itafexecute.do HTTP/1.1" 200 19
0:0:0:0:0:0:0:1 - - [29/Sep/2016:21:17:04 +0530] "GET /ITAFWebApplication/ HTTP/1.1" 302 -
0:0:0:0:0:0:0:1 - - [29/Sep/2016:21:17:04 +0530] "GET /ITAFWebApplication/login.jsp HTTP/1.1" 200 27731
0:0:0:0:0:0:0:1 - - [29/Sep/2016:21:17:05 +0530] "GET /ITAFWebApplication/Images/New_Image.jpg HTTP/1.1" 200 626653
0:0:0:0:0:0:0:1 - - [29/Sep/2016:21:17:05 +0530] "GET /ITAFWebApplication/css/bootstrap.min.css HTTP/1.1" 304 -
0:0:0:0:0:0:0:1 - - [29/Sep/2016:21:17:05 +0530] "GET /ITAFWebApplication/css/login.css HTTP/1.1" 304 -
0:0:0:0:0:0:0:1 - - [29/Sep/2016:21:17:05 +0530] "GET /ITAFWebApplication/js/login.js HTTP/1.1" 304 -
0:0:0:0:0:0:0:1 - - [29/Sep/2016:21:17:05 +0530] "GET /ITAFWebApplication/fonts/glyphicons-halflings-regular.eot? HTTP/1.1" 304 -
0:0:0:0:0:0:0:1 - - [29/Sep/2016:21:17:13 +0530] "POST /ITAFWebApplication/login.do HTTP/1.1" 200 27792
0:0:0:0:0:0:0:1 - - [29/Sep/2016:21:17:20 +0530] "POST /ITAFWebApplication/login.do HTTP/1.1" 200 44856
0:0:0:0:0:0:0:1 - - [29/Sep/2016:21:17:20 +0530] "GET /ITAFWebApplication/css/demo3/try.css HTTP/1.1" 200 4663
0:0:0:0:0:0:0:1 - - [29/Sep/2016:21:17:20 +0530] "GET /ITAFWebApplication/css/demo3/responsiveTables.css HTTP/1.1" 304 -
0:0:0:0:0:0:0:1 - - [29/Sep/2016:21:17:20 +0530] "GET /ITAFWebApplication/js/jquery.min.js HTTP/1.1" 304 -
0:0:0:0:0:0:0:1 - - [29/Sep/2016:21:17:20 +0530] "GET /ITAFWebApplication/js/bootstrap.min.js HTTP/1.1" 304 -
0:0:0:0:0:0:0:1 - - [29/Sep/2016:21:17:20 +0530] "GET /ITAFWebApplication/js/demo3/try.js HTTP/1.1" 200 39047
0:0:0:0:0:0:0:1 - - [29/Sep/2016:21:17:20 +0530] "GET /ITAFWebApplication/js/demo3/responsiveTables.js HTTP/1.1" 304 -
0:0:0:0:0:0:0:1 - - [29/Sep/2016:21:17:20 +0530] "GET /ITAFWebApplication/js/demo3/searchTable.js HTTP/1.1" 304 -
0:0:0:0:0:0:0:1 - - [29/Sep/2016:21:17:20 +0530] "GET /ITAFWebApplication/js/demo3/bootstrap-filestyle.min.js HTTP/1.1" 304 -
0:0:0:0:0:0:0:1 - - [29/Sep/2016:21:17:22 +0530] "POST /ITAFWebApplication/itafexecute.do HTTP/1.1" 200 11907
0:0:0:0:0:0:0:1 - - [29/Sep/2016:21:17:22 +0530] "GET /ITAFWebApplication/js/demo3/executetry.js HTTP/1.1" 200 1755
0:0:0:0:0:0:0:1 - - [29/Sep/2016:21:17:22 +0530] "GET /ITAFWebApplication/js/demo3/bootstrap-progressbar.js HTTP/1.1" 304 -
0:0:0:0:0:0:0:1 - - [29/Sep/2016:21:17:22 +0530] "GET /ITAFWebApplication/js/loader.js HTTP/1.1" 200 70294
0:0:0:0:0:0:0:1 - - [29/Sep/2016:21:17:37 +0530] "POST /ITAFWebApplication/itafexecute.do HTTP/1.1" 200 19
0:0:0:0:0:0:0:1 - - [29/Sep/2016:22:22:36 +0530] "GET /favicon.ico HTTP/1.1" 200 21630
0:0:0:0:0:0:0:1 - - [29/Sep/2016:22:22:36 +0530] "GET /ITAFWebApplication HTTP/1.1" 302 -
0:0:0:0:0:0:0:1 - - [29/Sep/2016:22:22:36 +0530] "GET /ITAFWebApplication/ HTTP/1.1" 404 1030
0:0:0:0:0:0:0:1 - - [29/Sep/2016:22:24:07 +0530] "GET / HTTP/1.1" 200 11450
0:0:0:0:0:0:0:1 - - [29/Sep/2016:22:24:08 +0530] "GET /tomcat.css HTTP/1.1" 200 5926
0:0:0:0:0:0:0:1 - - [29/Sep/2016:22:24:08 +0530] "GET /tomcat.png HTTP/1.1" 200 5103
0:0:0:0:0:0:0:1 - - [29/Sep/2016:22:24:08 +0530] "GET /bg-nav.png HTTP/1.1" 200 1401
0:0:0:0:0:0:0:1 - - [29/Sep/2016:22:24:08 +0530] "GET /bg-upper.png HTTP/1.1" 200 3103
0:0:0:0:0:0:0:1 - - [29/Sep/2016:22:24:08 +0530] "GET /asf-logo.png HTTP/1.1" 200 17811
0:0:0:0:0:0:0:1 - - [29/Sep/2016:22:24:08 +0530] "GET /bg-button.png HTTP/1.1" 200 713
0:0:0:0:0:0:0:1 - - [29/Sep/2016:22:24:08 +0530] "GET /bg-middle.png HTTP/1.1" 200 1918
0:0:0:0:0:0:0:1 - - [29/Sep/2016:22:24:03 +0530] "GET /ITAFWebApplication/ HTTP/1.1" 404 1030
0:0:0:0:0:0:0:1 - - [29/Sep/2016:22:24:11 +0530] "GET /manager/html HTTP/1.1" 401 2536
0:0:0:0:0:0:0:1 - admin [29/Sep/2016:22:25:23 +0530] "GET /manager/html HTTP/1.1" 200 19395
0:0:0:0:0:0:0:1 - - [29/Sep/2016:22:25:23 +0530] "GET /manager/images/asf-logo.gif HTTP/1.1" 200 7279
0:0:0:0:0:0:0:1 - - [29/Sep/2016:22:25:23 +0530] "GET /manager/images/tomcat.gif HTTP/1.1" 200 2066
0:0:0:0:0:0:0:1 - admin [29/Sep/2016:22:25:32 +0530] "POST /manager/html/reload;jsessionid=D69B4F3EB47E81F4D1B4A78D335BBC59?path=/ITAFWebApplication&org.apache.catalina.filters.CSRF_NONCE=927E75C732D38F40A2E45B6F7CAE389B HTTP/1.1" 200 18048
0:0:0:0:0:0:0:1 - admin [29/Sep/2016:22:25:35 +0530] "POST /manager/html/stop?path=/ITAFWebApplication&org.apache.catalina.filters.CSRF_NONCE=2887222CE60D9337CF020A2F00273D40 HTTP/1.1" 200 17482
0:0:0:0:0:0:0:1 - admin [29/Sep/2016:22:25:38 +0530] "POST /manager/html/start?path=/ITAFWebApplication&org.apache.catalina.filters.CSRF_NONCE=D115069E5685D8E8709F4619109B6AFF HTTP/1.1" 200 18047
0:0:0:0:0:0:0:1 - admin [29/Sep/2016:22:25:44 +0530] "POST /manager/html/stop?path=/ITAFWebApplication&org.apache.catalina.filters.CSRF_NONCE=47A3AADCC02B3D149AD6696100939913 HTTP/1.1" 200 17482
0:0:0:0:0:0:0:1 - admin [29/Sep/2016:22:26:58 +0530] "POST /manager/html/deploy?org.apache.catalina.filters.CSRF_NONCE=F1A75FC23F70359394D186011A38A872 HTTP/1.1" 200 17483
0:0:0:0:0:0:0:1 - - [29/Sep/2016:22:27:11 +0530] "GET /ITAFWebApplication/ HTTP/1.1" 404 1030
0:0:0:0:0:0:0:1 - - [29/Sep/2016:22:27:31 +0530] "GET / HTTP/1.1" 200 11450
0:0:0:0:0:0:0:1 - - [29/Sep/2016:22:27:31 +0530] "GET /tomcat.css HTTP/1.1" 200 5926
0:0:0:0:0:0:0:1 - - [29/Sep/2016:22:27:31 +0530] "GET /tomcat.png HTTP/1.1" 200 5103
0:0:0:0:0:0:0:1 - - [29/Sep/2016:22:27:31 +0530] "GET /bg-nav.png HTTP/1.1" 200 1401
0:0:0:0:0:0:0:1 - - [29/Sep/2016:22:27:31 +0530] "GET /bg-button.png HTTP/1.1" 200 713
0:0:0:0:0:0:0:1 - - [29/Sep/2016:22:27:31 +0530] "GET /asf-logo.png HTTP/1.1" 200 17811
0:0:0:0:0:0:0:1 - - [29/Sep/2016:22:27:31 +0530] "GET /bg-middle.png HTTP/1.1" 200 1918
0:0:0:0:0:0:0:1 - - [29/Sep/2016:22:27:31 +0530] "GET /bg-upper.png HTTP/1.1" 200 3103
0:0:0:0:0:0:0:1 - admin [29/Sep/2016:22:27:40 +0530] "GET /manager/html HTTP/1.1" 200 17422
0:0:0:0:0:0:0:1 - admin [29/Sep/2016:22:28:57 +0530] "POST /manager/html/upload?org.apache.catalina.filters.CSRF_NONCE=33709FA9E2BABAF12F39AFC87902531C HTTP/1.1" 200 17495
0:0:0:0:0:0:0:1 - - [29/Sep/2016:22:29:13 +0530] "GET /ITAFWebApplication/ HTTP/1.1" 404 1030
0:0:0:0:0:0:0:1 - - [29/Sep/2016:22:31:16 +0530] "GET / HTTP/1.1" 200 11450
0:0:0:0:0:0:0:1 - - [29/Sep/2016:22:31:16 +0530] "GET /tomcat.css HTTP/1.1" 200 5926
0:0:0:0:0:0:0:1 - admin [29/Sep/2016:22:31:18 +0530] "GET /manager/html HTTP/1.1" 200 17987
0:0:0:0:0:0:0:1 - admin [29/Sep/2016:22:31:30 +0530] "POST /manager/html/upload?org.apache.catalina.filters.CSRF_NONCE=76D591410644127C6D0BE88B0FD8C526 HTTP/1.1" 200 18090
0:0:0:0:0:0:0:1 - - [29/Sep/2016:22:32:17 +0530] "GET /ITAFWebApplication/ HTTP/1.1" 404 1030
0:0:0:0:0:0:0:1 - - [29/Sep/2016:22:34:00 +0530] "GET / HTTP/1.1" 200 11450
0:0:0:0:0:0:0:1 - - [29/Sep/2016:22:34:00 +0530] "GET /tomcat.css HTTP/1.1" 200 5926
0:0:0:0:0:0:0:1 - - [29/Sep/2016:22:34:00 +0530] "GET /tomcat.png HTTP/1.1" 200 5103
0:0:0:0:0:0:0:1 - - [29/Sep/2016:22:34:00 +0530] "GET /bg-nav.png HTTP/1.1" 200 1401
0:0:0:0:0:0:0:1 - - [29/Sep/2016:22:34:00 +0530] "GET /asf-logo.png HTTP/1.1" 200 17811
0:0:0:0:0:0:0:1 - - [29/Sep/2016:22:34:00 +0530] "GET /bg-upper.png HTTP/1.1" 200 3103
0:0:0:0:0:0:0:1 - - [29/Sep/2016:22:34:00 +0530] "GET /bg-middle.png HTTP/1.1" 200 1918
0:0:0:0:0:0:0:1 - - [29/Sep/2016:22:34:00 +0530] "GET /bg-button.png HTTP/1.1" 200 713
0:0:0:0:0:0:0:1 - admin [29/Sep/2016:22:34:02 +0530] "GET /manager/html HTTP/1.1" 200 18184
0:0:0:0:0:0:0:1 - admin [29/Sep/2016:22:34:06 +0530] "POST /manager/html/undeploy?path=/ITAFWebApplication&org.apache.catalina.filters.CSRF_NONCE=A642D4ED9BCB6D1B75B417C7E9645202 HTTP/1.1" 200 17783
0:0:0:0:0:0:0:1 - admin [29/Sep/2016:22:34:09 +0530] "POST /manager/html/undeploy?path=/ITAFWebApplication&org.apache.catalina.filters.CSRF_NONCE=0D127F36BC024B598F7A5F741ADF3AE6 HTTP/1.1" 200 17783
0:0:0:0:0:0:0:1 - admin [29/Sep/2016:22:34:16 +0530] "POST /manager/html/upload?org.apache.catalina.filters.CSRF_NONCE=54C9982B58497845A014F53475EF1849 HTTP/1.1" 200 18184
0:0:0:0:0:0:0:1 - - [29/Sep/2016:22:34:21 +0530] "GET /ITAFWebApplication/ HTTP/1.1" 404 1030
0:0:0:0:0:0:0:1 - - [29/Sep/2016:22:37:04 +0530] "GET /ITAFWebApplication/login.jsp HTTP/1.1" 404 1048
0:0:0:0:0:0:0:1 - - [29/Sep/2016:22:39:48 +0530] "GET / HTTP/1.1" 200 11450
0:0:0:0:0:0:0:1 - - [29/Sep/2016:22:39:48 +0530] "GET /tomcat.css HTTP/1.1" 200 5926
0:0:0:0:0:0:0:1 - - [29/Sep/2016:22:39:48 +0530] "GET /tomcat.png HTTP/1.1" 200 5103
0:0:0:0:0:0:0:1 - - [29/Sep/2016:22:39:48 +0530] "GET /bg-nav.png HTTP/1.1" 200 1401
0:0:0:0:0:0:0:1 - - [29/Sep/2016:22:39:48 +0530] "GET /asf-logo.png HTTP/1.1" 200 17811
0:0:0:0:0:0:0:1 - - [29/Sep/2016:22:39:48 +0530] "GET /bg-button.png HTTP/1.1" 200 713
0:0:0:0:0:0:0:1 - - [29/Sep/2016:22:39:48 +0530] "GET /bg-middle.png HTTP/1.1" 200 1918
0:0:0:0:0:0:0:1 - - [29/Sep/2016:22:39:48 +0530] "GET /bg-upper.png HTTP/1.1" 200 3103
0:0:0:0:0:0:0:1 - - [29/Sep/2016:22:39:43 +0530] "GET /ITAFWebApplication/ HTTP/1.1" 404 1030
0:0:0:0:0:0:0:1 - admin [29/Sep/2016:22:39:52 +0530] "GET /manager/html HTTP/1.1" 200 18184
0:0:0:0:0:0:0:1 - admin [29/Sep/2016:22:39:52 +0530] "GET /manager/images/asf-logo.gif HTTP/1.1" 200 7279
0:0:0:0:0:0:0:1 - admin [29/Sep/2016:22:39:52 +0530] "GET /manager/images/tomcat.gif HTTP/1.1" 200 2066
0:0:0:0:0:0:0:1 - admin [29/Sep/2016:22:39:59 +0530] "POST /manager/html/upload?org.apache.catalina.filters.CSRF_NONCE=C4C6B60D100AF0FC9C9E6DB57267ED28 HTTP/1.1" 200 18257
0:0:0:0:0:0:0:1 - - [29/Sep/2016:22:40:02 +0530] "GET /ITAFWebApplication/ HTTP/1.1" 404 1030
0:0:0:0:0:0:0:1 - - [29/Sep/2016:22:41:32 +0530] "GET / HTTP/1.1" 200 11450
0:0:0:0:0:0:0:1 - - [29/Sep/2016:22:41:32 +0530] "GET /tomcat.css HTTP/1.1" 200 5926
0:0:0:0:0:0:0:1 - - [29/Sep/2016:22:41:32 +0530] "GET /tomcat.png HTTP/1.1" 200 5103
0:0:0:0:0:0:0:1 - - [29/Sep/2016:22:41:32 +0530] "GET /asf-logo.png HTTP/1.1" 200 17811
0:0:0:0:0:0:0:1 - - [29/Sep/2016:22:41:32 +0530] "GET /bg-upper.png HTTP/1.1" 200 3103
0:0:0:0:0:0:0:1 - - [29/Sep/2016:22:41:32 +0530] "GET /bg-nav.png HTTP/1.1" 200 1401
0:0:0:0:0:0:0:1 - - [29/Sep/2016:22:41:32 +0530] "GET /bg-button.png HTTP/1.1" 200 713
0:0:0:0:0:0:0:1 - - [29/Sep/2016:22:41:32 +0530] "GET /bg-middle.png HTTP/1.1" 200 1918
0:0:0:0:0:0:0:1 - admin [29/Sep/2016:22:41:34 +0530] "GET /manager/html HTTP/1.1" 200 18184
0:0:0:0:0:0:0:1 - admin [29/Sep/2016:22:41:34 +0530] "GET /manager/images/asf-logo.gif HTTP/1.1" 200 7279
0:0:0:0:0:0:0:1 - admin [29/Sep/2016:22:41:34 +0530] "GET /manager/images/tomcat.gif HTTP/1.1" 200 2066
0:0:0:0:0:0:0:1 - admin [29/Sep/2016:22:41:38 +0530] "POST /manager/html/stop?path=/ITAFWebApplication&org.apache.catalina.filters.CSRF_NONCE=DADFAD27517B14AEF9E8FC538FE6C408 HTTP/1.1" 200 17679
0:0:0:0:0:0:0:1 - admin [29/Sep/2016:22:41:43 +0530] "POST /manager/html/undeploy?path=/ITAFWebApplication&org.apache.catalina.filters.CSRF_NONCE=BD2EF78BD0DE3FB91AB2197C56EB3CE1 HTTP/1.1" 200 17783
0:0:0:0:0:0:0:1 - admin [29/Sep/2016:22:41:46 +0530] "POST /manager/html/undeploy?path=/ITAFWebApplication&org.apache.catalina.filters.CSRF_NONCE=402AF69AA92E8328F03C961009A7A678 HTTP/1.1" 200 17783
0:0:0:0:0:0:0:1 - - [29/Sep/2016:22:41:55 +0530] "GET /ITAFWebApplication/ HTTP/1.1" 404 1030
0:0:0:0:0:0:0:1 - admin [29/Sep/2016:22:41:52 +0530] "POST /manager/html/upload?org.apache.catalina.filters.CSRF_NONCE=47500B39FA14FD67D2DF1CAEFA613324 HTTP/1.1" 200 18184
0:0:0:0:0:0:0:1 - - [29/Sep/2016:22:42:04 +0530] "GET / HTTP/1.1" 200 11450
0:0:0:0:0:0:0:1 - - [29/Sep/2016:22:42:04 +0530] "GET /tomcat.css HTTP/1.1" 200 5926
0:0:0:0:0:0:0:1 - - [29/Sep/2016:22:42:04 +0530] "GET /tomcat.png HTTP/1.1" 200 5103
0:0:0:0:0:0:0:1 - - [29/Sep/2016:22:42:04 +0530] "GET /asf-logo.png HTTP/1.1" 200 17811
0:0:0:0:0:0:0:1 - - [29/Sep/2016:22:42:04 +0530] "GET /bg-nav.png HTTP/1.1" 200 1401
0:0:0:0:0:0:0:1 - - [29/Sep/2016:22:42:04 +0530] "GET /bg-button.png HTTP/1.1" 200 713
0:0:0:0:0:0:0:1 - - [29/Sep/2016:22:42:04 +0530] "GET /bg-upper.png HTTP/1.1" 200 3103
0:0:0:0:0:0:0:1 - - [29/Sep/2016:22:42:04 +0530] "GET /bg-middle.png HTTP/1.1" 200 1918
0:0:0:0:0:0:0:1 - admin [29/Sep/2016:22:42:07 +0530] "GET /manager/html HTTP/1.1" 200 18184
0:0:0:0:0:0:0:1 - admin [29/Sep/2016:22:42:07 +0530] "GET /manager/images/tomcat.gif HTTP/1.1" 200 2066
0:0:0:0:0:0:0:1 - admin [29/Sep/2016:22:42:07 +0530] "GET /manager/images/asf-logo.gif HTTP/1.1" 200 7279
0:0:0:0:0:0:0:1 - admin [29/Sep/2016:22:42:17 +0530] "POST /manager/html/stop?path=/ITAFWebApplication&org.apache.catalina.filters.CSRF_NONCE=6F1642E316DF862E73E79899FDF5852D HTTP/1.1" 200 17679
0:0:0:0:0:0:0:1 - admin [29/Sep/2016:22:42:22 +0530] "POST /manager/html/start?path=/ITAFWebApplication&org.apache.catalina.filters.CSRF_NONCE=64523941557FF91B157D1CB5E0E7461F HTTP/1.1" 200 18244
0:0:0:0:0:0:0:1 - - [29/Sep/2016:22:42:51 +0530] "GET /examples/ HTTP/1.1" 200 1156
0:0:0:0:0:0:0:1 - - [29/Sep/2016:22:42:58 +0530] "GET / HTTP/1.1" 200 11450
0:0:0:0:0:0:0:1 - - [29/Sep/2016:22:42:58 +0530] "GET /tomcat.png HTTP/1.1" 200 5103
0:0:0:0:0:0:0:1 - - [29/Sep/2016:22:42:58 +0530] "GET /tomcat.css HTTP/1.1" 200 5926
0:0:0:0:0:0:0:1 - - [29/Sep/2016:22:42:58 +0530] "GET /bg-nav.png HTTP/1.1" 200 1401
0:0:0:0:0:0:0:1 - - [29/Sep/2016:22:42:58 +0530] "GET /asf-logo.png HTTP/1.1" 200 17811
0:0:0:0:0:0:0:1 - - [29/Sep/2016:22:42:58 +0530] "GET /bg-upper.png HTTP/1.1" 200 3103
0:0:0:0:0:0:0:1 - - [29/Sep/2016:22:42:58 +0530] "GET /bg-button.png HTTP/1.1" 200 713
0:0:0:0:0:0:0:1 - - [29/Sep/2016:22:42:58 +0530] "GET /bg-middle.png HTTP/1.1" 200 1918
0:0:0:0:0:0:0:1 - admin [29/Sep/2016:22:43:01 +0530] "GET /manager/html HTTP/1.1" 200 18184
0:0:0:0:0:0:0:1 - admin [29/Sep/2016:22:43:01 +0530] "GET /manager/images/asf-logo.gif HTTP/1.1" 200 7279
0:0:0:0:0:0:0:1 - admin [29/Sep/2016:22:43:01 +0530] "GET /manager/images/tomcat.gif HTTP/1.1" 200 2066
0:0:0:0:0:0:0:1 - - [29/Sep/2016:22:43:20 +0530] "GET /favicon.ico HTTP/1.1" 200 21630
0:0:0:0:0:0:0:1 - admin [29/Sep/2016:22:43:15 +0530] "POST /manager/html/stop?path=/ITAFWebApplication&org.apache.catalina.filters.CSRF_NONCE=A575E5BD336FD2476AD51164939F5148 HTTP/1.1" 200 17679
0:0:0:0:0:0:0:1 - admin [29/Sep/2016:22:43:20 +0530] "POST /manager/html/stop?path=/ITAFWebApplication&org.apache.catalina.filters.CSRF_NONCE=A575E5BD336FD2476AD51164939F5148 HTTP/1.1" 200 17679
0:0:0:0:0:0:0:1 - admin [29/Sep/2016:22:43:20 +0530] "GET /manager/images/tomcat.gif HTTP/1.1" 304 -
0:0:0:0:0:0:0:1 - admin [29/Sep/2016:22:43:20 +0530] "GET /manager/images/asf-logo.gif HTTP/1.1" 304 -
0:0:0:0:0:0:0:1 - - [29/Sep/2016:22:43:39 +0530] "GET /ITAFWebApplication/ HTTP/1.1" 404 1030
0:0:0:0:0:0:0:1 - admin [29/Sep/2016:22:43:37 +0530] "POST /manager/html/deploy?org.apache.catalina.filters.CSRF_NONCE=DA7532DF4A5FFB4B728B04D69B972416 HTTP/1.1" 200 17680
0:0:0:0:0:0:0:1 - - [29/Sep/2016:22:43:56 +0530] "GET /ITAFWebApplication/ HTTP/1.1" 404 1030
0:0:0:0:0:0:0:1 - - [29/Sep/2016:22:43:56 +0530] "GET /favicon.ico HTTP/1.1" 200 21630
0:0:0:0:0:0:0:1 - - [29/Sep/2016:22:47:16 +0530] "GET / HTTP/1.1" 200 11450
0:0:0:0:0:0:0:1 - - [29/Sep/2016:22:47:16 +0530] "GET /tomcat.png HTTP/1.1" 200 5103
0:0:0:0:0:0:0:1 - - [29/Sep/2016:22:47:16 +0530] "GET /tomcat.css HTTP/1.1" 200 5926
0:0:0:0:0:0:0:1 - - [29/Sep/2016:22:47:16 +0530] "GET /asf-logo.png HTTP/1.1" 200 17811
0:0:0:0:0:0:0:1 - - [29/Sep/2016:22:47:16 +0530] "GET /bg-nav.png HTTP/1.1" 200 1401
0:0:0:0:0:0:0:1 - - [29/Sep/2016:22:47:16 +0530] "GET /bg-middle.png HTTP/1.1" 200 1918
0:0:0:0:0:0:0:1 - - [29/Sep/2016:22:47:16 +0530] "GET /bg-upper.png HTTP/1.1" 200 3103
0:0:0:0:0:0:0:1 - - [29/Sep/2016:22:47:16 +0530] "GET /bg-button.png HTTP/1.1" 200 713
0:0:0:0:0:0:0:1 - - [29/Sep/2016:22:47:25 +0530] "GET / HTTP/1.1" 200 11450
0:0:0:0:0:0:0:1 - - [29/Sep/2016:22:47:25 +0530] "GET /tomcat.css HTTP/1.1" 200 5926
0:0:0:0:0:0:0:1 - - [29/Sep/2016:22:47:25 +0530] "GET /tomcat.png HTTP/1.1" 200 5103
0:0:0:0:0:0:0:1 - - [29/Sep/2016:22:47:25 +0530] "GET /favicon.ico HTTP/1.1" 200 21630
0:0:0:0:0:0:0:1 - - [29/Sep/2016:22:47:25 +0530] "GET /bg-nav.png HTTP/1.1" 200 1401
0:0:0:0:0:0:0:1 - - [29/Sep/2016:22:47:25 +0530] "GET /bg-upper.png HTTP/1.1" 200 3103
0:0:0:0:0:0:0:1 - - [29/Sep/2016:22:47:25 +0530] "GET /bg-button.png HTTP/1.1" 200 713
0:0:0:0:0:0:0:1 - - [29/Sep/2016:22:47:25 +0530] "GET /asf-logo.png HTTP/1.1" 200 17811
0:0:0:0:0:0:0:1 - - [29/Sep/2016:22:47:25 +0530] "GET /bg-middle.png HTTP/1.1" 200 1918
0:0:0:0:0:0:0:1 - - [29/Sep/2016:22:47:27 +0530] "GET /manager/html HTTP/1.1" 401 2536
0:0:0:0:0:0:0:1 - admin [29/Sep/2016:22:47:34 +0530] "GET /manager/html HTTP/1.1" 200 18184
0:0:0:0:0:0:0:1 - - [29/Sep/2016:22:47:34 +0530] "GET /manager/images/asf-logo.gif HTTP/1.1" 200 7279
0:0:0:0:0:0:0:1 - - [29/Sep/2016:22:47:34 +0530] "GET /manager/images/tomcat.gif HTTP/1.1" 200 2066
0:0:0:0:0:0:0:1 - admin [29/Sep/2016:22:47:51 +0530] "POST /manager/html/stop?path=/ITAFWebApplication&org.apache.catalina.filters.CSRF_NONCE=84FC92637C8CF72EED40D3FF601E3EE2 HTTP/1.1" 200 17679
0:0:0:0:0:0:0:1 - admin [29/Sep/2016:22:48:17 +0530] "POST /manager/html/undeploy?path=/ITAFWebApplication&org.apache.catalina.filters.CSRF_NONCE=D75575F876DE857E82980692FEBDB88D HTTP/1.1" 200 17783
0:0:0:0:0:0:0:1 - admin [29/Sep/2016:22:48:19 +0530] "POST /manager/html/undeploy?path=/ITAFWebApplication&org.apache.catalina.filters.CSRF_NONCE=E69F3F690103718F5B7B77D537430565 HTTP/1.1" 200 17783
0:0:0:0:0:0:0:1 - admin [29/Sep/2016:22:48:20 +0530] "POST /manager/html/undeploy?path=/ITAFWebApplication&org.apache.catalina.filters.CSRF_NONCE=2454463784DED0CCBF4DA5529A4C1400 HTTP/1.1" 200 17783
0:0:0:0:0:0:0:1 - - [29/Sep/2016:22:54:41 +0530] "GET / HTTP/1.1" 200 11450
0:0:0:0:0:0:0:1 - admin [29/Sep/2016:22:54:44 +0530] "GET /manager/html HTTP/1.1" 200 19636
0:0:0:0:0:0:0:1 - - [29/Sep/2016:22:55:02 +0530] "GET /ITAFWebApplication/ HTTP/1.1" 404 1030
0:0:0:0:0:0:0:1 - admin [29/Sep/2016:22:54:58 +0530] "POST /manager/html/stop;jsessionid=A8C5DD490F62A2DC49C4639C41E22FDB?path=/ITAFWebApplication&org.apache.catalina.filters.CSRF_NONCE=1EACD9B744C4BDEB1C74428495177BE3 HTTP/1.1" 200 17679
0:0:0:0:0:0:0:1 - admin [29/Sep/2016:22:56:18 +0530] "POST /manager/html/deploy?org.apache.catalina.filters.CSRF_NONCE=CF3CE089CEE8B091451CC031E3212835 HTTP/1.1" 200 19354
0:0:0:0:0:0:0:1 - - [29/Sep/2016:22:56:45 +0530] "GET /ITAF/ HTTP/1.1" 302 -
0:0:0:0:0:0:0:1 - - [29/Sep/2016:22:56:46 +0530] "GET /ITAF/login.jsp HTTP/1.1" 200 27731
0:0:0:0:0:0:0:1 - - [29/Sep/2016:22:56:46 +0530] "GET /ITAF/css/login.css HTTP/1.1" 304 -
0:0:0:0:0:0:0:1 - - [29/Sep/2016:22:56:46 +0530] "GET /ITAF/css/bootstrap.min.css HTTP/1.1" 304 -
0:0:0:0:0:0:0:1 - - [29/Sep/2016:22:56:46 +0530] "GET /ITAF/Images/New_Image.jpg HTTP/1.1" 200 626653
0:0:0:0:0:0:0:1 - - [29/Sep/2016:22:56:46 +0530] "GET /ITAF/js/login.js HTTP/1.1" 304 -
0:0:0:0:0:0:0:1 - - [29/Sep/2016:22:56:46 +0530] "GET /ITAF/fonts/glyphicons-halflings-regular.eot? HTTP/1.1" 304 -
0:0:0:0:0:0:0:1 - - [29/Sep/2016:22:57:30 +0530] "GET /ITAF/login.jsp HTTP/1.1" 200 27731
0:0:0:0:0:0:0:1 - - [29/Sep/2016:22:57:30 +0530] "GET /ITAF/css/login.css HTTP/1.1" 200 1031
0:0:0:0:0:0:0:1 - - [29/Sep/2016:22:57:30 +0530] "GET /ITAF/js/login.js HTTP/1.1" 200 6947
0:0:0:0:0:0:0:1 - - [29/Sep/2016:22:57:30 +0530] "GET /ITAF/Images/New_Image.jpg HTTP/1.1" 200 626653
0:0:0:0:0:0:0:1 - - [29/Sep/2016:22:57:30 +0530] "GET /ITAF/css/bootstrap.min.css HTTP/1.1" 200 121260
0:0:0:0:0:0:0:1 - - [29/Sep/2016:22:57:30 +0530] "GET /ITAF/fonts/glyphicons-halflings-regular.eot? HTTP/1.1" 200 20127
0:0:0:0:0:0:0:1 - - [29/Sep/2016:22:57:33 +0530] "GET /ITAF/login.jsp HTTP/1.1" 200 27731
0:0:0:0:0:0:0:1 - - [29/Sep/2016:22:57:33 +0530] "GET /ITAF/css/login.css HTTP/1.1" 304 -
0:0:0:0:0:0:0:1 - - [29/Sep/2016:22:57:33 +0530] "GET /ITAF/css/bootstrap.min.css HTTP/1.1" 304 -
0:0:0:0:0:0:0:1 - - [29/Sep/2016:22:57:33 +0530] "GET /ITAF/Images/New_Image.jpg HTTP/1.1" 304 -
0:0:0:0:0:0:0:1 - - [29/Sep/2016:22:57:33 +0530] "GET /ITAF/fonts/glyphicons-halflings-regular.eot? HTTP/1.1" 304 -
0:0:0:0:0:0:0:1 - - [29/Sep/2016:22:57:33 +0530] "GET /ITAF/js/login.js HTTP/1.1" 304 -
0:0:0:0:0:0:0:1 - - [29/Sep/2016:22:58:37 +0530] "GET /ITAF/login.jsp HTTP/1.1" 200 27731
0:0:0:0:0:0:0:1 - - [29/Sep/2016:22:58:37 +0530] "GET /ITAF/css/login.css HTTP/1.1" 200 1031
0:0:0:0:0:0:0:1 - - [29/Sep/2016:22:58:37 +0530] "GET /ITAF/css/bootstrap.min.css HTTP/1.1" 200 121260
0:0:0:0:0:0:0:1 - - [29/Sep/2016:22:58:37 +0530] "GET /ITAF/Images/New_Image.jpg HTTP/1.1" 200 626653
0:0:0:0:0:0:0:1 - - [29/Sep/2016:22:58:37 +0530] "GET /ITAF/js/login.js HTTP/1.1" 200 6947
0:0:0:0:0:0:0:1 - - [29/Sep/2016:22:58:37 +0530] "GET /ITAF/fonts/glyphicons-halflings-regular.woff2 HTTP/1.1" 200 18028
0:0:0:0:0:0:0:1 - - [29/Sep/2016:22:58:38 +0530] "GET /ITAF/js/login.js HTTP/1.1" 200 6947
0:0:0:0:0:0:0:1 - - [29/Sep/2016:23:10:38 +0530] "GET /manager/html HTTP/1.1" 401 2536
0:0:0:0:0:0:0:1 - admin [29/Sep/2016:23:10:45 +0530] "GET /manager/html HTTP/1.1" 200 18924
0:0:0:0:0:0:0:1 - admin [29/Sep/2016:23:10:52 +0530] "POST /manager/html/undeploy;jsessionid=426D3C8D4CE36409B5FBDBAB31680FF2?path=/ITAF&org.apache.catalina.filters.CSRF_NONCE=500A812A6E106EDEFF16D239551D7FF8 HTTP/1.1" 200 16457
0:0:0:0:0:0:0:1 - admin [29/Sep/2016:23:12:06 +0530] "POST /manager/html/deploy?org.apache.catalina.filters.CSRF_NONCE=227C03E6F8164EFEFC6B27DE0E1C9607 HTTP/1.1" 200 17721
0:0:0:0:0:0:0:1 - - [29/Sep/2016:23:12:52 +0530] "GET /ITAFWebApplication HTTP/1.1" 404 1028
0:0:0:0:0:0:0:1 - - [29/Sep/2016:23:13:10 +0530] "GET /ITAFWebApplication/login.jsp HTTP/1.1" 404 1048
0:0:0:0:0:0:0:1 - - [29/Sep/2016:23:13:32 +0530] "GET /ITAFWebApplication/ HTTP/1.1" 404 1030
0:0:0:0:0:0:0:1 - - [29/Sep/2016:23:14:43 +0530] "GET /ITAFWebApplication/login.jsp HTTP/1.1" 200 27731
0:0:0:0:0:0:0:1 - - [29/Sep/2016:23:14:43 +0530] "GET /ITAFWebApplication/Images/New_Image.jpg HTTP/1.1" 200 626653
0:0:0:0:0:0:0:1 - - [29/Sep/2016:23:14:43 +0530] "GET /ITAFWebApplication/css/login.css HTTP/1.1" 200 1031
0:0:0:0:0:0:0:1 - - [29/Sep/2016:23:14:43 +0530] "GET /ITAFWebApplication/css/bootstrap.min.css HTTP/1.1" 200 121260
0:0:0:0:0:0:0:1 - - [29/Sep/2016:23:14:43 +0530] "GET /ITAFWebApplication/js/login.js HTTP/1.1" 200 6947
0:0:0:0:0:0:0:1 - - [29/Sep/2016:23:14:43 +0530] "GET /ITAFWebApplication/fonts/glyphicons-halflings-regular.eot? HTTP/1.1" 200 20127
0:0:0:0:0:0:0:1 - - [29/Sep/2016:23:15:18 +0530] "GET /ITAFWebApplication/css/demo3/try.css HTTP/1.1" 200 4663
0:0:0:0:0:0:0:1 - - [29/Sep/2016:23:15:18 +0530] "GET /ITAFWebApplication/css/demo3/responsiveTables.css HTTP/1.1" 200 182
0:0:0:0:0:0:0:1 - - [29/Sep/2016:23:15:19 +0530] "POST /ITAFWebApplication/login.do HTTP/1.1" 200 44856
0:0:0:0:0:0:0:1 - - [29/Sep/2016:23:15:19 +0530] "GET /ITAFWebApplication/js/jquery.min.js HTTP/1.1" 200 84380
0:0:0:0:0:0:0:1 - - [29/Sep/2016:23:15:19 +0530] "GET /ITAFWebApplication/js/bootstrap.min.js HTTP/1.1" 200 36868
0:0:0:0:0:0:0:1 - - [29/Sep/2016:23:15:19 +0530] "GET /ITAFWebApplication/js/demo3/responsiveTables.js HTTP/1.1" 200 1886
0:0:0:0:0:0:0:1 - - [29/Sep/2016:23:15:19 +0530] "GET /ITAFWebApplication/js/demo3/try.js HTTP/1.1" 200 39047
0:0:0:0:0:0:0:1 - - [29/Sep/2016:23:15:19 +0530] "GET /ITAFWebApplication/js/demo3/searchTable.js HTTP/1.1" 200 1022
0:0:0:0:0:0:0:1 - - [29/Sep/2016:23:15:19 +0530] "GET /ITAFWebApplication/js/demo3/bootstrap-filestyle.min.js HTTP/1.1" 200 7190
0:0:0:0:0:0:0:1 - - [29/Sep/2016:23:15:26 +0530] "POST /ITAFWebApplication/itafpack.do HTTP/1.1" 200 53107
0:0:0:0:0:0:0:1 - - [29/Sep/2016:23:15:26 +0530] "GET /ITAFWebApplication/files/advancedReport.html?projectname=adactin&actionType=execute HTTP/1.1" 200 13511
0:0:0:0:0:0:0:1 - - [29/Sep/2016:23:16:14 +0530] "GET /ITAFWebApplication/ HTTP/1.1" 302 -
0:0:0:0:0:0:0:1 - - [29/Sep/2016:23:16:14 +0530] "GET /ITAFWebApplication/login.jsp HTTP/1.1" 200 27731
0:0:0:0:0:0:0:1 - - [29/Sep/2016:23:16:14 +0530] "GET /ITAFWebApplication/css/login.css HTTP/1.1" 200 1031
0:0:0:0:0:0:0:1 - - [29/Sep/2016:23:16:14 +0530] "GET /ITAFWebApplication/Images/New_Image.jpg HTTP/1.1" 200 626653
0:0:0:0:0:0:0:1 - - [29/Sep/2016:23:16:14 +0530] "GET /ITAFWebApplication/css/bootstrap.min.css HTTP/1.1" 200 121260
0:0:0:0:0:0:0:1 - - [29/Sep/2016:23:16:14 +0530] "GET /ITAFWebApplication/js/login.js HTTP/1.1" 200 6947
0:0:0:0:0:0:0:1 - - [29/Sep/2016:23:16:14 +0530] "GET /ITAFWebApplication/fonts/glyphicons-halflings-regular.woff2 HTTP/1.1" 200 18028
0:0:0:0:0:0:0:1 - - [29/Sep/2016:23:16:14 +0530] "GET /ITAFWebApplication/js/login.js HTTP/1.1" 200 6947
0:0:0:0:0:0:0:1 - - [29/Sep/2016:23:16:22 +0530] "POST /ITAFWebApplication/login.do HTTP/1.1" 200 44856
0:0:0:0:0:0:0:1 - - [29/Sep/2016:23:16:22 +0530] "GET /ITAFWebApplication/css/bootstrap.min.css HTTP/1.1" 200 121260
0:0:0:0:0:0:0:1 - - [29/Sep/2016:23:16:22 +0530] "GET /ITAFWebApplication/css/demo3/try.css HTTP/1.1" 200 4663
0:0:0:0:0:0:0:1 - - [29/Sep/2016:23:16:22 +0530] "GET /ITAFWebApplication/css/demo3/responsiveTables.css HTTP/1.1" 200 182
0:0:0:0:0:0:0:1 - - [29/Sep/2016:23:16:22 +0530] "GET /ITAFWebApplication/js/jquery.min.js HTTP/1.1" 200 84380
0:0:0:0:0:0:0:1 - - [29/Sep/2016:23:16:22 +0530] "GET /ITAFWebApplication/js/bootstrap.min.js HTTP/1.1" 200 36868
0:0:0:0:0:0:0:1 - - [29/Sep/2016:23:16:22 +0530] "GET /ITAFWebApplication/js/demo3/try.js HTTP/1.1" 200 39047
0:0:0:0:0:0:0:1 - - [29/Sep/2016:23:16:22 +0530] "GET /ITAFWebApplication/js/demo3/responsiveTables.js HTTP/1.1" 200 1886
0:0:0:0:0:0:0:1 - - [29/Sep/2016:23:16:23 +0530] "GET /ITAFWebApplication/js/demo3/bootstrap-filestyle.min.js HTTP/1.1" 200 7190
0:0:0:0:0:0:0:1 - - [29/Sep/2016:23:16:23 +0530] "GET /ITAFWebApplication/js/demo3/searchTable.js HTTP/1.1" 200 1022
0:0:0:0:0:0:0:1 - - [29/Sep/2016:23:16:27 +0530] "POST /ITAFWebApplication/itafpack.do HTTP/1.1" 200 53107
0:0:0:0:0:0:0:1 - - [29/Sep/2016:23:16:27 +0530] "GET /ITAFWebApplication/files/advancedReport.html?projectname=adactin&actionType=execute HTTP/1.1" 200 13511
0:0:0:0:0:0:0:1 - - [29/Sep/2016:23:16:33 +0530] "GET /ITAFWebApplication/js/jquery.min.map HTTP/1.1" 404 1064
0:0:0:0:0:0:0:1 - - [29/Sep/2016:23:16:33 +0530] "GET /ITAFWebApplication/css/bootstrap.min.css.map HTTP/1.1" 404 1080
0:0:0:0:0:0:0:1 - - [29/Sep/2016:23:25:06 +0530] "GET / HTTP/1.1" 200 11450
0:0:0:0:0:0:0:1 - admin [29/Sep/2016:23:25:08 +0530] "GET /manager/html HTTP/1.1" 200 18196
0:0:0:0:0:0:0:1 - admin [29/Sep/2016:23:25:11 +0530] "POST /manager/html/undeploy?path=/ITAFWebApplication&org.apache.catalina.filters.CSRF_NONCE=0A1D119BD9A280AC83A4568B2123BED8 HTTP/1.1" 200 16472
0:0:0:0:0:0:0:1 - admin [29/Sep/2016:23:29:23 +0530] "POST /manager/html/deploy?org.apache.catalina.filters.CSRF_NONCE=9BFDFE9000B15B10C244D9521890482E HTTP/1.1" 200 18257
0:0:0:0:0:0:0:1 - - [29/Sep/2016:23:29:37 +0530] "GET /ITAFWebApplication/ HTTP/1.1" 302 -
0:0:0:0:0:0:0:1 - - [29/Sep/2016:23:29:37 +0530] "GET /ITAFWebApplication/login.jsp HTTP/1.1" 200 27731
0:0:0:0:0:0:0:1 - - [29/Sep/2016:23:30:26 +0530] "GET /ITAFWebApplication HTTP/1.1" 302 -
0:0:0:0:0:0:0:1 - - [29/Sep/2016:23:30:26 +0530] "GET /ITAFWebApplication/ HTTP/1.1" 200 27731
0:0:0:0:0:0:0:1 - - [29/Sep/2016:23:30:26 +0530] "GET /ITAFWebApplication/css/login.css HTTP/1.1" 200 1031
0:0:0:0:0:0:0:1 - - [29/Sep/2016:23:30:26 +0530] "GET /ITAFWebApplication/css/bootstrap.min.css HTTP/1.1" 200 121260
0:0:0:0:0:0:0:1 - - [29/Sep/2016:23:30:26 +0530] "GET /ITAFWebApplication/Images/New_Image.jpg HTTP/1.1" 200 626653
0:0:0:0:0:0:0:1 - - [29/Sep/2016:23:30:26 +0530] "GET /ITAFWebApplication/js/login.js HTTP/1.1" 200 6947
0:0:0:0:0:0:0:1 - - [29/Sep/2016:23:30:26 +0530] "GET /ITAFWebApplication/fonts/glyphicons-halflings-regular.woff2 HTTP/1.1" 200 18028
0:0:0:0:0:0:0:1 - - [29/Sep/2016:23:30:34 +0530] "GET /ITAFWebApplication/css/bootstrap.min.css HTTP/1.1" 200 121260
0:0:0:0:0:0:0:1 - - [29/Sep/2016:23:30:34 +0530] "GET /ITAFWebApplication/css/demo3/try.css HTTP/1.1" 200 4663
0:0:0:0:0:0:0:1 - - [29/Sep/2016:23:30:34 +0530] "GET /ITAFWebApplication/css/demo3/responsiveTables.css HTTP/1.1" 200 182
0:0:0:0:0:0:0:1 - - [29/Sep/2016:23:30:35 +0530] "POST /ITAFWebApplication/login.do HTTP/1.1" 200 44856
0:0:0:0:0:0:0:1 - - [29/Sep/2016:23:30:35 +0530] "GET /ITAFWebApplication/js/bootstrap.min.js HTTP/1.1" 200 36868
0:0:0:0:0:0:0:1 - - [29/Sep/2016:23:30:35 +0530] "GET /ITAFWebApplication/js/jquery.min.js HTTP/1.1" 200 84380
0:0:0:0:0:0:0:1 - - [29/Sep/2016:23:30:35 +0530] "GET /ITAFWebApplication/js/demo3/try.js HTTP/1.1" 200 39026
0:0:0:0:0:0:0:1 - - [29/Sep/2016:23:30:35 +0530] "GET /ITAFWebApplication/js/demo3/responsiveTables.js HTTP/1.1" 200 1886
0:0:0:0:0:0:0:1 - - [29/Sep/2016:23:30:35 +0530] "GET /ITAFWebApplication/js/demo3/bootstrap-filestyle.min.js HTTP/1.1" 200 7190
0:0:0:0:0:0:0:1 - - [29/Sep/2016:23:30:35 +0530] "GET /ITAFWebApplication/js/demo3/searchTable.js HTTP/1.1" 200 1022
0:0:0:0:0:0:0:1 - - [29/Sep/2016:23:30:39 +0530] "POST /ITAFWebApplication/itafexecute.do HTTP/1.1" 200 11907
0:0:0:0:0:0:0:1 - - [29/Sep/2016:23:30:39 +0530] "GET /ITAFWebApplication/js/loader.js HTTP/1.1" 200 70294
0:0:0:0:0:0:0:1 - - [29/Sep/2016:23:30:39 +0530] "GET /ITAFWebApplication/js/demo3/bootstrap-progressbar.js HTTP/1.1" 200 6284
0:0:0:0:0:0:0:1 - - [29/Sep/2016:23:30:39 +0530] "GET /ITAFWebApplication/js/demo3/executetry.js HTTP/1.1" 200 1755
0:0:0:0:0:0:0:1 - - [29/Sep/2016:23:31:16 +0530] "POST /ITAFWebApplication/itafexecute.do HTTP/1.1" 200 19
0:0:0:0:0:0:0:1 - - [29/Sep/2016:23:32:51 +0530] "POST /ITAFWebApplication/itafexecute.do HTTP/1.1" 200 44862
0:0:0:0:0:0:0:1 - - [29/Sep/2016:23:32:51 +0530] "GET /ITAFWebApplication/js/demo3/try.js HTTP/1.1" 304 -
