0:0:0:0:0:0:0:1 - - [10/Feb/2017:15:24:23 +0530] "GET /ITAFWebApplication/ HTTP/1.1" 302 -
0:0:0:0:0:0:0:1 - - [10/Feb/2017:15:24:24 +0530] "GET /ITAFWebApplication/login.jsp HTTP/1.1" 200 27677
0:0:0:0:0:0:0:1 - - [10/Feb/2017:15:24:24 +0530] "GET /ITAFWebApplication/css/bootstrap.min.css HTTP/1.1" 200 121260
0:0:0:0:0:0:0:1 - - [10/Feb/2017:15:24:24 +0530] "GET /ITAFWebApplication/css/login.css HTTP/1.1" 200 1077
0:0:0:0:0:0:0:1 - - [10/Feb/2017:15:24:24 +0530] "GET /ITAFWebApplication/js/login.js HTTP/1.1" 200 6947
0:0:0:0:0:0:0:1 - - [10/Feb/2017:15:24:24 +0530] "GET /ITAFWebApplication/Images/iTAF_logo.png HTTP/1.1" 200 33472
0:0:0:0:0:0:0:1 - - [10/Feb/2017:15:24:24 +0530] "GET /ITAFWebApplication/fonts/glyphicons-halflings-regular.woff2 HTTP/1.1" 200 18028
0:0:0:0:0:0:0:1 - - [10/Feb/2017:15:24:24 +0530] "GET /favicon.ico HTTP/1.1" 200 21630
0:0:0:0:0:0:0:1 - - [10/Feb/2017:15:24:49 +0530] "GET /ITAFWebApplication/css/bootstrap.min.css HTTP/1.1" 200 121260
0:0:0:0:0:0:0:1 - - [10/Feb/2017:15:24:49 +0530] "GET /ITAFWebApplication/css/demo3/try.css HTTP/1.1" 200 4871
0:0:0:0:0:0:0:1 - - [10/Feb/2017:15:24:49 +0530] "POST /ITAFWebApplication/login.do HTTP/1.1" 200 50112
0:0:0:0:0:0:0:1 - - [10/Feb/2017:15:24:49 +0530] "GET /ITAFWebApplication/css/demo3/responsiveTables.css HTTP/1.1" 200 182
0:0:0:0:0:0:0:1 - - [10/Feb/2017:15:24:49 +0530] "GET /ITAFWebApplication/js/jquery.min.js HTTP/1.1" 200 84380
0:0:0:0:0:0:0:1 - - [10/Feb/2017:15:24:49 +0530] "GET /ITAFWebApplication/js/bootstrap.min.js HTTP/1.1" 200 36868
0:0:0:0:0:0:0:1 - - [10/Feb/2017:15:24:49 +0530] "GET /ITAFWebApplication/js/demo3/try.js HTTP/1.1" 200 45488
0:0:0:0:0:0:0:1 - - [10/Feb/2017:15:24:49 +0530] "GET /ITAFWebApplication/js/demo3/responsiveTables.js HTTP/1.1" 200 1886
0:0:0:0:0:0:0:1 - - [10/Feb/2017:15:24:49 +0530] "GET /ITAFWebApplication/js/demo3/bootstrap-filestyle.min.js HTTP/1.1" 200 7190
0:0:0:0:0:0:0:1 - - [10/Feb/2017:15:24:49 +0530] "GET /ITAFWebApplication/js/demo3/RowSorter.js HTTP/1.1" 200 8102
0:0:0:0:0:0:0:1 - - [10/Feb/2017:15:24:49 +0530] "GET /ITAFWebApplication/js/demo3/searchTable.js HTTP/1.1" 200 1022
0:0:0:0:0:0:0:1 - - [10/Feb/2017:15:24:49 +0530] "GET /ITAFWebApplication/js/objectCap.js HTTP/1.1" 200 11106
0:0:0:0:0:0:0:1 - - [10/Feb/2017:15:25:16 +0530] "GET /ITAFWebApplication/css/bootstrap.min.css HTTP/1.1" 200 121260
0:0:0:0:0:0:0:1 - - [10/Feb/2017:15:25:16 +0530] "POST /ITAFWebApplication/itafpack.do HTTP/1.1" 200 51775
0:0:0:0:0:0:0:1 - - [10/Feb/2017:15:25:16 +0530] "GET /ITAFWebApplication/css/demo3/try.css HTTP/1.1" 200 4871
0:0:0:0:0:0:0:1 - - [10/Feb/2017:15:25:16 +0530] "GET /ITAFWebApplication/css/demo3/responsiveTables.css HTTP/1.1" 200 182
0:0:0:0:0:0:0:1 - - [10/Feb/2017:15:25:16 +0530] "GET /ITAFWebApplication/files/advancedReport.html?projectname=OpenAir&actionType=execute HTTP/1.1" 200 -
0:0:0:0:0:0:0:1 - - [10/Feb/2017:15:25:35 +0530] "GET /ITAFWebApplication/css/bootstrap.min.css HTTP/1.1" 200 121260
0:0:0:0:0:0:0:1 - - [10/Feb/2017:15:25:35 +0530] "GET /ITAFWebApplication/css/demo3/try.css HTTP/1.1" 200 4871
0:0:0:0:0:0:0:1 - - [10/Feb/2017:15:25:35 +0530] "POST /ITAFWebApplication/itafpack.do HTTP/1.1" 200 51631
0:0:0:0:0:0:0:1 - - [10/Feb/2017:15:25:35 +0530] "GET /ITAFWebApplication/css/demo3/responsiveTables.css HTTP/1.1" 200 182
0:0:0:0:0:0:0:1 - - [10/Feb/2017:15:25:35 +0530] "GET /ITAFWebApplication/files/advancedReport.html?projectname=OpenAir&actionType=execute HTTP/1.1" 200 -
0:0:0:0:0:0:0:1 - - [10/Feb/2017:15:25:55 +0530] "POST /ITAFWebApplication/itafexecute.do HTTP/1.1" 200 19585
0:0:0:0:0:0:0:1 - - [10/Feb/2017:15:25:55 +0530] "GET /ITAFWebApplication/css/bootstrap.min.css HTTP/1.1" 200 121260
0:0:0:0:0:0:0:1 - - [10/Feb/2017:15:25:55 +0530] "GET /ITAFWebApplication/js/loader.js HTTP/1.1" 200 70294
0:0:0:0:0:0:0:1 - - [10/Feb/2017:15:25:55 +0530] "GET /ITAFWebApplication/css/demo3/try.css HTTP/1.1" 200 4871
0:0:0:0:0:0:0:1 - - [10/Feb/2017:15:25:55 +0530] "GET /ITAFWebApplication/js/demo3/bootstrap-progressbar.js HTTP/1.1" 200 6284
0:0:0:0:0:0:0:1 - - [10/Feb/2017:15:25:55 +0530] "GET /ITAFWebApplication/js/demo3/executetry.js HTTP/1.1" 200 1945
0:0:0:0:0:0:0:1 - - [10/Feb/2017:15:26:04 +0530] "GET /ITAFWebApplication/css/bootstrap.min.css HTTP/1.1" 200 121260
0:0:0:0:0:0:0:1 - - [10/Feb/2017:15:26:04 +0530] "GET /ITAFWebApplication/css/demo3/try.css HTTP/1.1" 200 4871
0:0:0:0:0:0:0:1 - - [10/Feb/2017:15:26:04 +0530] "POST /ITAFWebApplication/itafexecute.do HTTP/1.1" 200 51301
0:0:0:0:0:0:0:1 - - [10/Feb/2017:15:26:04 +0530] "GET /ITAFWebApplication/css/demo3/responsiveTables.css HTTP/1.1" 200 182
0:0:0:0:0:0:0:1 - - [10/Feb/2017:15:26:06 +0530] "POST /ITAFWebApplication/itafpack.do HTTP/1.1" 200 56764
0:0:0:0:0:0:0:1 - - [10/Feb/2017:15:26:06 +0530] "GET /ITAFWebApplication/css/bootstrap.min.css HTTP/1.1" 200 121260
0:0:0:0:0:0:0:1 - - [10/Feb/2017:15:26:06 +0530] "GET /ITAFWebApplication/css/demo3/try.css HTTP/1.1" 200 4871
0:0:0:0:0:0:0:1 - - [10/Feb/2017:15:26:06 +0530] "GET /ITAFWebApplication/css/demo3/responsiveTables.css HTTP/1.1" 200 182
0:0:0:0:0:0:0:1 - - [10/Feb/2017:15:26:06 +0530] "GET /ITAFWebApplication/files/advancedReport.html?projectname=ErieDemo&actionType=execute HTTP/1.1" 200 -
0:0:0:0:0:0:0:1 - - [10/Feb/2017:15:26:09 +0530] "POST /ITAFWebApplication/itafexecute.do HTTP/1.1" 200 19585
0:0:0:0:0:0:0:1 - - [10/Feb/2017:15:26:09 +0530] "GET /ITAFWebApplication/js/demo3/executetry.js HTTP/1.1" 200 1945
0:0:0:0:0:0:0:1 - - [10/Feb/2017:15:26:09 +0530] "GET /ITAFWebApplication/js/demo3/bootstrap-progressbar.js HTTP/1.1" 200 6284
0:0:0:0:0:0:0:1 - - [10/Feb/2017:15:26:09 +0530] "GET /ITAFWebApplication/js/loader.js HTTP/1.1" 200 70294
0:0:0:0:0:0:0:1 - - [10/Feb/2017:15:26:39 +0530] "POST /ITAFWebApplication/itafexecute.do HTTP/1.1" 200 1069
0:0:0:0:0:0:0:1 - - [10/Feb/2017:15:26:48 +0530] "POST /ITAFWebApplication/itafexecute.do HTTP/1.1" 200 240
0:0:0:0:0:0:0:1 - - [10/Feb/2017:15:26:48 +0530] "GET /ITAFWebApplication/files/advancedReport.html?projectname=ErieDemo&actionType=execute HTTP/1.1" 200 -
0:0:0:0:0:0:0:1 - - [10/Feb/2017:15:26:53 +0530] "GET /ITAFWebApplication/css/demo3/try.css HTTP/1.1" 200 4871
0:0:0:0:0:0:0:1 - - [10/Feb/2017:15:26:53 +0530] "GET /ITAFWebApplication/css/bootstrap.min.css HTTP/1.1" 200 121260
0:0:0:0:0:0:0:1 - - [10/Feb/2017:15:26:53 +0530] "POST /ITAFWebApplication/itafexecute.do HTTP/1.1" 200 51301
0:0:0:0:0:0:0:1 - - [10/Feb/2017:15:26:53 +0530] "GET /ITAFWebApplication/css/demo3/responsiveTables.css HTTP/1.1" 200 182
0:0:0:0:0:0:0:1 - - [10/Feb/2017:15:26:57 +0530] "POST /ITAFWebApplication/itafpack.do HTTP/1.1" 200 56764
0:0:0:0:0:0:0:1 - - [10/Feb/2017:15:26:57 +0530] "GET /ITAFWebApplication/files/advancedReport.html?projectname=ErieDemo&actionType=execute HTTP/1.1" 200 -
0:0:0:0:0:0:0:1 - - [10/Feb/2017:15:26:58 +0530] "POST /ITAFWebApplication/itafexecute.do HTTP/1.1" 200 19585
0:0:0:0:0:0:0:1 - - [10/Feb/2017:15:26:58 +0530] "GET /ITAFWebApplication/css/bootstrap.min.css HTTP/1.1" 200 121260
0:0:0:0:0:0:0:1 - - [10/Feb/2017:15:26:58 +0530] "GET /ITAFWebApplication/css/demo3/try.css HTTP/1.1" 200 4871
0:0:0:0:0:0:0:1 - - [10/Feb/2017:15:27:21 +0530] "POST /ITAFWebApplication/itafexecute.do HTTP/1.1" 200 1069
0:0:0:0:0:0:0:1 - - [10/Feb/2017:15:27:24 +0530] "POST /ITAFWebApplication/itafexecute.do HTTP/1.1" 200 19585
0:0:0:0:0:0:0:1 - - [10/Feb/2017:15:27:24 +0530] "GET /ITAFWebApplication/css/bootstrap.min.css HTTP/1.1" 200 121260
0:0:0:0:0:0:0:1 - - [10/Feb/2017:15:27:24 +0530] "GET /ITAFWebApplication/css/demo3/try.css HTTP/1.1" 200 4871
0:0:0:0:0:0:0:1 - - [10/Feb/2017:15:32:22 +0530] "POST /ITAFWebApplication/itafexecute.do HTTP/1.1" 200 19148
0:0:0:0:0:0:0:1 - - [10/Feb/2017:15:32:22 +0530] "GET /ITAFWebApplication/css/bootstrap.min.css HTTP/1.1" 200 121260
0:0:0:0:0:0:0:1 - - [10/Feb/2017:15:32:22 +0530] "GET /ITAFWebApplication/css/demo3/try.css HTTP/1.1" 200 4871
0:0:0:0:0:0:0:1 - - [10/Feb/2017:16:56:39 +0530] "POST /ITAFWebApplication/itafexecute.do HTTP/1.1" 302 -
0:0:0:0:0:0:0:1 - - [10/Feb/2017:16:56:39 +0530] "GET /ITAFWebApplication/login.jsp HTTP/1.1" 200 27677
0:0:0:0:0:0:0:1 - - [10/Feb/2017:16:56:39 +0530] "GET /ITAFWebApplication/css/login.css HTTP/1.1" 200 1077
0:0:0:0:0:0:0:1 - - [10/Feb/2017:16:56:39 +0530] "GET /ITAFWebApplication/css/bootstrap.min.css HTTP/1.1" 200 121260
0:0:0:0:0:0:0:1 - - [10/Feb/2017:16:56:48 +0530] "POST /ITAFWebApplication/login.do HTTP/1.1" 200 51295
0:0:0:0:0:0:0:1 - - [10/Feb/2017:16:56:48 +0530] "GET /ITAFWebApplication/css/bootstrap.min.css HTTP/1.1" 200 121260
0:0:0:0:0:0:0:1 - - [10/Feb/2017:16:56:48 +0530] "GET /ITAFWebApplication/css/demo3/responsiveTables.css HTTP/1.1" 200 182
0:0:0:0:0:0:0:1 - - [10/Feb/2017:16:56:48 +0530] "GET /ITAFWebApplication/css/demo3/try.css HTTP/1.1" 200 4871
0:0:0:0:0:0:0:1 - - [10/Feb/2017:16:56:48 +0530] "GET /ITAFWebApplication/js/demo3/RowSorter.js HTTP/1.1" 200 8102
0:0:0:0:0:0:0:1 - - [10/Feb/2017:16:56:48 +0530] "GET /ITAFWebApplication/js/bootstrap.min.js HTTP/1.1" 200 36868
0:0:0:0:0:0:0:1 - - [10/Feb/2017:16:56:48 +0530] "GET /ITAFWebApplication/js/demo3/responsiveTables.js HTTP/1.1" 200 1886
0:0:0:0:0:0:0:1 - - [10/Feb/2017:16:56:48 +0530] "GET /ITAFWebApplication/js/demo3/searchTable.js HTTP/1.1" 200 1022
0:0:0:0:0:0:0:1 - - [10/Feb/2017:16:56:48 +0530] "GET /ITAFWebApplication/js/demo3/try.js HTTP/1.1" 200 45488
0:0:0:0:0:0:0:1 - - [10/Feb/2017:16:56:48 +0530] "GET /ITAFWebApplication/js/jquery.min.js HTTP/1.1" 200 84380
0:0:0:0:0:0:0:1 - - [10/Feb/2017:16:56:48 +0530] "GET /ITAFWebApplication/js/demo3/bootstrap-filestyle.min.js HTTP/1.1" 200 7190
0:0:0:0:0:0:0:1 - - [10/Feb/2017:16:56:48 +0530] "GET /ITAFWebApplication/js/objectCap.js HTTP/1.1" 200 11106
0:0:0:0:0:0:0:1 - - [10/Feb/2017:16:56:59 +0530] "POST /ITAFWebApplication/logout.do HTTP/1.1" 302 -
0:0:0:0:0:0:0:1 - - [10/Feb/2017:16:56:59 +0530] "GET /ITAFWebApplication/login.jsp HTTP/1.1" 200 27677
0:0:0:0:0:0:0:1 - - [10/Feb/2017:16:56:59 +0530] "GET /ITAFWebApplication/css/bootstrap.min.css HTTP/1.1" 200 121260
0:0:0:0:0:0:0:1 - - [10/Feb/2017:16:56:59 +0530] "GET /ITAFWebApplication/css/login.css HTTP/1.1" 200 1077
