0:0:0:0:0:0:0:1 - - [26/Oct/2016:00:00:10 -0500] "POST /ITAFWebApplication/itafexecute.do HTTP/1.1" 200 18725
0:0:0:0:0:0:0:1 - - [26/Oct/2016:00:00:15 -0500] "POST /ITAFWebApplication/itafexecute.do HTTP/1.1" 200 52141
0:0:0:0:0:0:0:1 - - [26/Oct/2016:00:00:16 -0500] "POST /ITAFWebApplication/itafexecute.do HTTP/1.1" 200 18725
0:0:0:0:0:0:0:1 - - [26/Oct/2016:00:01:08 -0500] "POST /ITAFWebApplication/itafexecute.do HTTP/1.1" 200 52141
0:0:0:0:0:0:0:1 - - [26/Oct/2016:00:01:25 -0500] "POST /ITAFWebApplication/itafpack.do HTTP/1.1" 200 68401
0:0:0:0:0:0:0:1 - - [26/Oct/2016:00:01:25 -0500] "GET /ITAFWebApplication/files/advancedReport.html?projectname=ACCC&actionType=execute HTTP/1.1" 200 17411
0:0:0:0:0:0:0:1 - - [26/Oct/2016:00:02:02 -0500] "POST /ITAFWebApplication/itafpack.do HTTP/1.1" 200 68407
0:0:0:0:0:0:0:1 - - [26/Oct/2016:00:02:02 -0500] "GET /ITAFWebApplication/files/advancedReport.html?projectname=ACCC&actionType=execute HTTP/1.1" 200 17411
0:0:0:0:0:0:0:1 - - [26/Oct/2016:00:02:19 -0500] "POST /ITAFWebApplication/itafpack.do HTTP/1.1" 200 573380
0:0:0:0:0:0:0:1 - - [26/Oct/2016:00:02:20 -0500] "GET /ITAFWebApplication/files/advancedReport.html?projectname=ACCC&actionType=execute HTTP/1.1" 200 17411
0:0:0:0:0:0:0:1 - - [26/Oct/2016:00:05:26 -0500] "POST /ITAFWebApplication/itafpack.do HTTP/1.1" 200 70459
0:0:0:0:0:0:0:1 - - [26/Oct/2016:00:05:26 -0500] "GET /ITAFWebApplication/files/advancedReport.html?projectname=ACCC&actionType=execute HTTP/1.1" 200 17411
0:0:0:0:0:0:0:1 - - [26/Oct/2016:00:05:31 -0500] "POST /ITAFWebApplication/itafpack.do HTTP/1.1" 200 71238
0:0:0:0:0:0:0:1 - - [26/Oct/2016:00:05:31 -0500] "GET /ITAFWebApplication/files/advancedReport.html?projectname=ACCC&actionType=execute HTTP/1.1" 200 17411
0:0:0:0:0:0:0:1 - - [26/Oct/2016:00:05:56 -0500] "POST /ITAFWebApplication/itafpack.do HTTP/1.1" 200 71238
0:0:0:0:0:0:0:1 - - [26/Oct/2016:00:05:56 -0500] "GET /ITAFWebApplication/files/advancedReport.html?projectname=ACCC&actionType=execute HTTP/1.1" 200 17411
0:0:0:0:0:0:0:1 - - [26/Oct/2016:00:05:57 -0500] "POST /ITAFWebApplication/itafpack.do HTTP/1.1" 200 71237
0:0:0:0:0:0:0:1 - - [26/Oct/2016:00:05:57 -0500] "GET /ITAFWebApplication/files/advancedReport.html?projectname=ACCC&actionType=execute HTTP/1.1" 200 17411
0:0:0:0:0:0:0:1 - - [26/Oct/2016:00:06:00 -0500] "POST /ITAFWebApplication/itafpack.do HTTP/1.1" 200 71238
0:0:0:0:0:0:0:1 - - [26/Oct/2016:00:06:00 -0500] "GET /ITAFWebApplication/files/advancedReport.html?projectname=ACCC&actionType=execute HTTP/1.1" 200 17411
0:0:0:0:0:0:0:1 - - [26/Oct/2016:00:06:01 -0500] "POST /ITAFWebApplication/itafpack.do HTTP/1.1" 200 71239
0:0:0:0:0:0:0:1 - - [26/Oct/2016:00:06:02 -0500] "GET /ITAFWebApplication/files/advancedReport.html?projectname=ACCC&actionType=execute HTTP/1.1" 200 17411
0:0:0:0:0:0:0:1 - - [26/Oct/2016:00:06:04 -0500] "POST /ITAFWebApplication/itafpack.do HTTP/1.1" 200 71237
0:0:0:0:0:0:0:1 - - [26/Oct/2016:00:06:04 -0500] "GET /ITAFWebApplication/files/advancedReport.html?projectname=ACCC&actionType=execute HTTP/1.1" 200 17411
0:0:0:0:0:0:0:1 - - [26/Oct/2016:00:06:12 -0500] "POST /ITAFWebApplication/itafpack.do HTTP/1.1" 200 71238
0:0:0:0:0:0:0:1 - - [26/Oct/2016:00:06:12 -0500] "GET /ITAFWebApplication/files/advancedReport.html?projectname=ACCC&actionType=execute HTTP/1.1" 200 17411
0:0:0:0:0:0:0:1 - - [26/Oct/2016:00:06:14 -0500] "POST /ITAFWebApplication/itafpack.do HTTP/1.1" 200 71238
0:0:0:0:0:0:0:1 - - [26/Oct/2016:00:06:14 -0500] "GET /ITAFWebApplication/files/advancedReport.html?projectname=ACCC&actionType=execute HTTP/1.1" 200 17411
0:0:0:0:0:0:0:1 - - [26/Oct/2016:00:06:17 -0500] "POST /ITAFWebApplication/itafpack.do HTTP/1.1" 200 71238
0:0:0:0:0:0:0:1 - - [26/Oct/2016:00:06:17 -0500] "GET /ITAFWebApplication/files/advancedReport.html?projectname=ACCC&actionType=execute HTTP/1.1" 200 17411
0:0:0:0:0:0:0:1 - - [26/Oct/2016:00:07:15 -0500] "POST /ITAFWebApplication/itafpack.do HTTP/1.1" 200 71237
0:0:0:0:0:0:0:1 - - [26/Oct/2016:00:07:15 -0500] "GET /ITAFWebApplication/files/advancedReport.html?projectname=ACCC&actionType=execute HTTP/1.1" 200 17411
0:0:0:0:0:0:0:1 - - [26/Oct/2016:00:07:17 -0500] "POST /ITAFWebApplication/itafpack.do HTTP/1.1" 200 71237
0:0:0:0:0:0:0:1 - - [26/Oct/2016:00:07:17 -0500] "GET /ITAFWebApplication/files/advancedReport.html?projectname=ACCC&actionType=execute HTTP/1.1" 200 17411
0:0:0:0:0:0:0:1 - - [26/Oct/2016:00:07:18 -0500] "POST /ITAFWebApplication/itafpack.do HTTP/1.1" 200 71237
0:0:0:0:0:0:0:1 - - [26/Oct/2016:00:07:18 -0500] "GET /ITAFWebApplication/files/advancedReport.html?projectname=ACCC&actionType=execute HTTP/1.1" 200 17411
0:0:0:0:0:0:0:1 - - [26/Oct/2016:00:07:43 -0500] "POST /ITAFWebApplication/itafpack.do HTTP/1.1" 200 118868
0:0:0:0:0:0:0:1 - - [26/Oct/2016:00:07:43 -0500] "GET /ITAFWebApplication/files/advancedReport.html?projectname=ACCC&actionType=execute HTTP/1.1" 200 17411
0:0:0:0:0:0:0:1 - - [26/Oct/2016:00:10:05 -0500] "POST /ITAFWebApplication/itafpack.do HTTP/1.1" 200 70459
0:0:0:0:0:0:0:1 - - [26/Oct/2016:00:10:06 -0500] "GET /ITAFWebApplication/files/advancedReport.html?projectname=ACCC&actionType=execute HTTP/1.1" 200 17411
0:0:0:0:0:0:0:1 - - [26/Oct/2016:00:10:09 -0500] "POST /ITAFWebApplication/itafpack.do HTTP/1.1" 200 71234
0:0:0:0:0:0:0:1 - - [26/Oct/2016:00:10:10 -0500] "GET /ITAFWebApplication/files/advancedReport.html?projectname=ACCC&actionType=execute HTTP/1.1" 200 17411
0:0:0:0:0:0:0:1 - - [26/Oct/2016:00:10:13 -0500] "POST /ITAFWebApplication/itafpack.do HTTP/1.1" 200 71237
0:0:0:0:0:0:0:1 - - [26/Oct/2016:00:10:13 -0500] "GET /ITAFWebApplication/files/advancedReport.html?projectname=ACCC&actionType=execute HTTP/1.1" 200 17411
0:0:0:0:0:0:0:1 - - [26/Oct/2016:00:10:22 -0500] "POST /ITAFWebApplication/itafpack.do HTTP/1.1" 200 71236
0:0:0:0:0:0:0:1 - - [26/Oct/2016:00:10:22 -0500] "GET /ITAFWebApplication/files/advancedReport.html?projectname=ACCC&actionType=execute HTTP/1.1" 200 17411
0:0:0:0:0:0:0:1 - - [26/Oct/2016:00:10:31 -0500] "POST /ITAFWebApplication/itafpack.do HTTP/1.1" 200 71236
0:0:0:0:0:0:0:1 - - [26/Oct/2016:00:10:31 -0500] "GET /ITAFWebApplication/files/advancedReport.html?projectname=ACCC&actionType=execute HTTP/1.1" 200 17411
0:0:0:0:0:0:0:1 - - [26/Oct/2016:00:10:33 -0500] "POST /ITAFWebApplication/itafpack.do HTTP/1.1" 200 71238
0:0:0:0:0:0:0:1 - - [26/Oct/2016:00:10:33 -0500] "GET /ITAFWebApplication/files/advancedReport.html?projectname=ACCC&actionType=execute HTTP/1.1" 200 17411
0:0:0:0:0:0:0:1 - - [26/Oct/2016:00:10:34 -0500] "POST /ITAFWebApplication/itafpack.do HTTP/1.1" 200 71237
0:0:0:0:0:0:0:1 - - [26/Oct/2016:00:10:34 -0500] "GET /ITAFWebApplication/files/advancedReport.html?projectname=ACCC&actionType=execute HTTP/1.1" 200 17411
0:0:0:0:0:0:0:1 - - [26/Oct/2016:00:10:37 -0500] "POST /ITAFWebApplication/itafpack.do HTTP/1.1" 200 71237
0:0:0:0:0:0:0:1 - - [26/Oct/2016:00:10:38 -0500] "GET /ITAFWebApplication/files/advancedReport.html?projectname=ACCC&actionType=execute HTTP/1.1" 200 17411
0:0:0:0:0:0:0:1 - - [26/Oct/2016:00:10:45 -0500] "POST /ITAFWebApplication/itafpack.do HTTP/1.1" 200 71238
0:0:0:0:0:0:0:1 - - [26/Oct/2016:00:10:45 -0500] "GET /ITAFWebApplication/files/advancedReport.html?projectname=ACCC&actionType=execute HTTP/1.1" 200 17411
0:0:0:0:0:0:0:1 - - [26/Oct/2016:00:10:49 -0500] "POST /ITAFWebApplication/itafpack.do HTTP/1.1" 200 71236
0:0:0:0:0:0:0:1 - - [26/Oct/2016:00:10:50 -0500] "GET /ITAFWebApplication/files/advancedReport.html?projectname=ACCC&actionType=execute HTTP/1.1" 200 17411
0:0:0:0:0:0:0:1 - - [26/Oct/2016:00:10:54 -0500] "POST /ITAFWebApplication/itafpack.do HTTP/1.1" 200 71237
0:0:0:0:0:0:0:1 - - [26/Oct/2016:00:10:54 -0500] "GET /ITAFWebApplication/files/advancedReport.html?projectname=ACCC&actionType=execute HTTP/1.1" 200 17411
0:0:0:0:0:0:0:1 - - [26/Oct/2016:00:10:54 -0500] "POST /ITAFWebApplication/itafpack.do HTTP/1.1" 200 71238
0:0:0:0:0:0:0:1 - - [26/Oct/2016:00:10:54 -0500] "GET /ITAFWebApplication/files/advancedReport.html?projectname=ACCC&actionType=execute HTTP/1.1" 200 17411
0:0:0:0:0:0:0:1 - - [26/Oct/2016:00:10:56 -0500] "POST /ITAFWebApplication/itafpack.do HTTP/1.1" 200 71237
0:0:0:0:0:0:0:1 - - [26/Oct/2016:00:10:56 -0500] "GET /ITAFWebApplication/files/advancedReport.html?projectname=ACCC&actionType=execute HTTP/1.1" 200 17411
0:0:0:0:0:0:0:1 - - [26/Oct/2016:00:11:39 -0500] "POST /ITAFWebApplication/itafexecute.do HTTP/1.1" 200 18725
0:0:0:0:0:0:0:1 - - [26/Oct/2016:02:37:20 -0500] "POST /ITAFWebApplication/itafexecute.do HTTP/1.1" 302 -
0:0:0:0:0:0:0:1 - - [26/Oct/2016:02:41:06 -0500] "GET /ITAFWebApplication/login.jsp HTTP/1.1" 200 27677
0:0:0:0:0:0:0:1 - - [26/Oct/2016:02:41:06 -0500] "GET /ITAFWebApplication/css/login.css HTTP/1.1" 200 1077
0:0:0:0:0:0:0:1 - - [26/Oct/2016:02:41:06 -0500] "GET /ITAFWebApplication/css/bootstrap.min.css HTTP/1.1" 200 121260
0:0:0:0:0:0:0:1 - - [26/Oct/2016:02:41:06 -0500] "GET /ITAFWebApplication/Images/iTAF_logo.png HTTP/1.1" 200 33472
0:0:0:0:0:0:0:1 - - [26/Oct/2016:02:41:06 -0500] "GET /ITAFWebApplication/js/login.js HTTP/1.1" 200 6947
0:0:0:0:0:0:0:1 - - [26/Oct/2016:02:41:06 -0500] "GET /ITAFWebApplication/fonts/glyphicons-halflings-regular.woff2 HTTP/1.1" 200 18028
0:0:0:0:0:0:0:1 - - [26/Oct/2016:02:47:03 -0500] "POST /ITAFWebApplication/login.do HTTP/1.1" 200 27738
0:0:0:0:0:0:0:1 - - [26/Oct/2016:02:47:21 -0500] "POST /ITAFWebApplication/login.do HTTP/1.1" 200 52141
0:0:0:0:0:0:0:1 - - [26/Oct/2016:02:47:21 -0500] "GET /ITAFWebApplication/css/demo3/try.css HTTP/1.1" 200 4871
0:0:0:0:0:0:0:1 - - [26/Oct/2016:02:47:21 -0500] "GET /ITAFWebApplication/css/demo3/responsiveTables.css HTTP/1.1" 200 182
0:0:0:0:0:0:0:1 - - [26/Oct/2016:02:47:21 -0500] "GET /ITAFWebApplication/js/jquery.min.js HTTP/1.1" 200 84380
0:0:0:0:0:0:0:1 - - [26/Oct/2016:02:47:21 -0500] "GET /ITAFWebApplication/js/demo3/RowSorter.js HTTP/1.1" 200 8102
0:0:0:0:0:0:0:1 - - [26/Oct/2016:02:47:21 -0500] "GET /ITAFWebApplication/js/bootstrap.min.js HTTP/1.1" 200 36868
0:0:0:0:0:0:0:1 - - [26/Oct/2016:02:47:21 -0500] "GET /ITAFWebApplication/js/objectCap.js HTTP/1.1" 200 11106
0:0:0:0:0:0:0:1 - - [26/Oct/2016:02:47:21 -0500] "GET /ITAFWebApplication/js/demo3/bootstrap-filestyle.min.js HTTP/1.1" 200 7190
0:0:0:0:0:0:0:1 - - [26/Oct/2016:02:47:21 -0500] "GET /ITAFWebApplication/js/demo3/searchTable.js HTTP/1.1" 200 1022
0:0:0:0:0:0:0:1 - - [26/Oct/2016:02:47:21 -0500] "GET /ITAFWebApplication/js/demo3/responsiveTables.js HTTP/1.1" 200 1886
0:0:0:0:0:0:0:1 - - [26/Oct/2016:02:47:21 -0500] "GET /ITAFWebApplication/js/demo3/try.js HTTP/1.1" 200 46054
0:0:0:0:0:0:0:1 - - [26/Oct/2016:02:47:26 -0500] "POST /ITAFWebApplication/itafexecute.do HTTP/1.1" 200 18725
0:0:0:0:0:0:0:1 - - [26/Oct/2016:02:47:26 -0500] "GET /ITAFWebApplication/js/loader.js HTTP/1.1" 200 70294
0:0:0:0:0:0:0:1 - - [26/Oct/2016:02:47:26 -0500] "GET /ITAFWebApplication/js/demo3/executetry.js HTTP/1.1" 200 1755
0:0:0:0:0:0:0:1 - - [26/Oct/2016:02:47:26 -0500] "GET /ITAFWebApplication/js/demo3/bootstrap-progressbar.js HTTP/1.1" 200 6284
0:0:0:0:0:0:0:1 - - [26/Oct/2016:02:49:50 -0500] "POST /ITAFWebApplication/itafexecute.do HTTP/1.1" 200 2
0:0:0:0:0:0:0:1 - - [26/Oct/2016:02:50:44 -0500] "POST /ITAFWebApplication/itafexecute.do HTTP/1.1" 200 18725
0:0:0:0:0:0:0:1 - - [26/Oct/2016:03:02:53 -0500] "POST /ITAFWebApplication/itafexecute.do HTTP/1.1" 200 52141
0:0:0:0:0:0:0:1 - - [26/Oct/2016:03:05:12 -0500] "POST /ITAFWebApplication/itafexecute.do HTTP/1.1" 200 18725
0:0:0:0:0:0:0:1 - - [26/Oct/2016:03:05:17 -0500] "POST /ITAFWebApplication/itafexecute.do HTTP/1.1" 200 18279
0:0:0:0:0:0:0:1 - - [26/Oct/2016:03:05:21 -0500] "POST /ITAFWebApplication/itafexecute.do HTTP/1.1" 200 18725
0:0:0:0:0:0:0:1 - - [26/Oct/2016:03:05:23 -0500] "POST /ITAFWebApplication/itafexecute.do HTTP/1.1" 200 52147
0:0:0:0:0:0:0:1 - - [26/Oct/2016:03:05:48 -0500] "POST /ITAFWebApplication/itafexecute.do HTTP/1.1" 200 18725
0:0:0:0:0:0:0:1 - - [26/Oct/2016:03:25:19 -0500] "POST /ITAFWebApplication/itafexecute.do HTTP/1.1" 200 52141
0:0:0:0:0:0:0:1 - - [26/Oct/2016:03:30:21 -0500] "POST /ITAFWebApplication/itafexecute.do HTTP/1.1" 200 18725
0:0:0:0:0:0:0:1 - - [26/Oct/2016:03:33:44 -0500] "POST /ITAFWebApplication/itafexecute.do HTTP/1.1" 200 2
0:0:0:0:0:0:0:1 - - [26/Oct/2016:03:33:57 -0500] "POST /ITAFWebApplication/itafexecute.do HTTP/1.1" 200 52141
0:0:0:0:0:0:0:1 - - [26/Oct/2016:03:34:02 -0500] "POST /ITAFWebApplication/itafpack.do HTTP/1.1" 200 68405
0:0:0:0:0:0:0:1 - - [26/Oct/2016:03:34:02 -0500] "GET /ITAFWebApplication/files/advancedReport.html?projectname=ACCC&actionType=execute HTTP/1.1" 200 17409
0:0:0:0:0:0:0:1 - - [26/Oct/2016:03:38:29 -0500] "POST /ITAFWebApplication/itafexecute.do HTTP/1.1" 200 18279
0:0:0:0:0:0:0:1 - - [26/Oct/2016:05:07:25 -0500] "GET /ITAFWebApplication/login.jsp HTTP/1.1" 200 27677
0:0:0:0:0:0:0:1 - - [26/Oct/2016:05:07:25 -0500] "GET /ITAFWebApplication/css/bootstrap.min.css HTTP/1.1" 200 121260
0:0:0:0:0:0:0:1 - - [26/Oct/2016:05:07:25 -0500] "GET /ITAFWebApplication/css/login.css HTTP/1.1" 200 1077
0:0:0:0:0:0:0:1 - - [26/Oct/2016:05:07:25 -0500] "GET /ITAFWebApplication/js/login.js HTTP/1.1" 200 6947
0:0:0:0:0:0:0:1 - - [26/Oct/2016:05:07:25 -0500] "GET /ITAFWebApplication/Images/iTAF_logo.png HTTP/1.1" 200 33472
0:0:0:0:0:0:0:1 - - [26/Oct/2016:05:07:25 -0500] "GET /ITAFWebApplication/fonts/glyphicons-halflings-regular.woff2 HTTP/1.1" 200 18028
0:0:0:0:0:0:0:1 - - [26/Oct/2016:05:07:41 -0500] "GET /ITAFWebApplication/css/demo3/try.css HTTP/1.1" 200 4871
0:0:0:0:0:0:0:1 - - [26/Oct/2016:05:07:41 -0500] "POST /ITAFWebApplication/login.do HTTP/1.1" 200 52141
0:0:0:0:0:0:0:1 - - [26/Oct/2016:05:07:41 -0500] "GET /ITAFWebApplication/js/jquery.min.js HTTP/1.1" 200 84380
0:0:0:0:0:0:0:1 - - [26/Oct/2016:05:07:41 -0500] "GET /ITAFWebApplication/css/demo3/responsiveTables.css HTTP/1.1" 200 182
0:0:0:0:0:0:0:1 - - [26/Oct/2016:05:07:41 -0500] "GET /ITAFWebApplication/js/demo3/responsiveTables.js HTTP/1.1" 200 1886
0:0:0:0:0:0:0:1 - - [26/Oct/2016:05:07:41 -0500] "GET /ITAFWebApplication/js/demo3/try.js HTTP/1.1" 200 46054
0:0:0:0:0:0:0:1 - - [26/Oct/2016:05:07:41 -0500] "GET /ITAFWebApplication/js/demo3/searchTable.js HTTP/1.1" 200 1022
0:0:0:0:0:0:0:1 - - [26/Oct/2016:05:07:41 -0500] "GET /ITAFWebApplication/js/objectCap.js HTTP/1.1" 200 11106
0:0:0:0:0:0:0:1 - - [26/Oct/2016:05:07:41 -0500] "GET /ITAFWebApplication/js/demo3/bootstrap-filestyle.min.js HTTP/1.1" 200 7190
0:0:0:0:0:0:0:1 - - [26/Oct/2016:05:07:41 -0500] "GET /ITAFWebApplication/js/bootstrap.min.js HTTP/1.1" 200 36868
0:0:0:0:0:0:0:1 - - [26/Oct/2016:05:07:41 -0500] "GET /ITAFWebApplication/js/demo3/RowSorter.js HTTP/1.1" 200 8102
0:0:0:0:0:0:0:1 - - [26/Oct/2016:05:07:46 -0500] "POST /ITAFWebApplication/itafexecute.do HTTP/1.1" 200 19493
0:0:0:0:0:0:0:1 - - [26/Oct/2016:05:07:46 -0500] "GET /ITAFWebApplication/js/loader.js HTTP/1.1" 200 70294
0:0:0:0:0:0:0:1 - - [26/Oct/2016:05:07:46 -0500] "GET /ITAFWebApplication/js/demo3/executetry.js HTTP/1.1" 200 1945
0:0:0:0:0:0:0:1 - - [26/Oct/2016:05:07:46 -0500] "GET /ITAFWebApplication/js/demo3/bootstrap-progressbar.js HTTP/1.1" 200 6284
0:0:0:0:0:0:0:1 - - [26/Oct/2016:05:09:49 -0500] "POST /ITAFWebApplication/itafexecute.do HTTP/1.1" 200 2
0:0:0:0:0:0:0:1 - - [26/Oct/2016:05:11:00 -0500] "POST /ITAFWebApplication/itafexecute.do HTTP/1.1" 200 19493
0:0:0:0:0:0:0:1 - - [26/Oct/2016:05:14:04 -0500] "POST /ITAFWebApplication/itafexecute.do HTTP/1.1" 200 2
0:0:0:0:0:0:0:1 - - [26/Oct/2016:05:27:28 -0500] "GET /ITAFWebApplication HTTP/1.1" 302 -
0:0:0:0:0:0:0:1 - - [26/Oct/2016:05:27:28 -0500] "GET /ITAFWebApplication/ HTTP/1.1" 302 -
0:0:0:0:0:0:0:1 - - [26/Oct/2016:05:27:29 -0500] "GET /ITAFWebApplication/login.jsp HTTP/1.1" 200 27677
0:0:0:0:0:0:0:1 - - [26/Oct/2016:05:27:29 -0500] "GET /ITAFWebApplication/css/login.css HTTP/1.1" 200 1077
0:0:0:0:0:0:0:1 - - [26/Oct/2016:05:27:29 -0500] "GET /ITAFWebApplication/css/bootstrap.min.css HTTP/1.1" 200 121260
0:0:0:0:0:0:0:1 - - [26/Oct/2016:05:27:29 -0500] "GET /ITAFWebApplication/js/login.js HTTP/1.1" 200 6947
0:0:0:0:0:0:0:1 - - [26/Oct/2016:05:27:29 -0500] "GET /ITAFWebApplication/Images/iTAF_logo.png HTTP/1.1" 200 33472
0:0:0:0:0:0:0:1 - - [26/Oct/2016:05:27:29 -0500] "GET /ITAFWebApplication/fonts/glyphicons-halflings-regular.woff2 HTTP/1.1" 200 18028
0:0:0:0:0:0:0:1 - - [26/Oct/2016:05:28:20 -0500] "POST /ITAFWebApplication/login.do HTTP/1.1" 200 27738
0:0:0:0:0:0:0:1 - - [26/Oct/2016:05:28:43 -0500] "GET /ITAFWebApplication/css/demo3/try.css HTTP/1.1" 200 4871
0:0:0:0:0:0:0:1 - - [26/Oct/2016:05:28:43 -0500] "POST /ITAFWebApplication/login.do HTTP/1.1" 200 52141
0:0:0:0:0:0:0:1 - - [26/Oct/2016:05:28:43 -0500] "GET /ITAFWebApplication/css/demo3/responsiveTables.css HTTP/1.1" 200 182
0:0:0:0:0:0:0:1 - - [26/Oct/2016:05:28:43 -0500] "GET /ITAFWebApplication/js/jquery.min.js HTTP/1.1" 200 84380
0:0:0:0:0:0:0:1 - - [26/Oct/2016:05:28:43 -0500] "GET /ITAFWebApplication/js/bootstrap.min.js HTTP/1.1" 200 36868
0:0:0:0:0:0:0:1 - - [26/Oct/2016:05:28:43 -0500] "GET /ITAFWebApplication/js/demo3/responsiveTables.js HTTP/1.1" 200 1886
0:0:0:0:0:0:0:1 - - [26/Oct/2016:05:28:43 -0500] "GET /ITAFWebApplication/js/demo3/bootstrap-filestyle.min.js HTTP/1.1" 200 7190
0:0:0:0:0:0:0:1 - - [26/Oct/2016:05:28:43 -0500] "GET /ITAFWebApplication/js/demo3/searchTable.js HTTP/1.1" 200 1022
0:0:0:0:0:0:0:1 - - [26/Oct/2016:05:28:43 -0500] "GET /ITAFWebApplication/js/objectCap.js HTTP/1.1" 200 11106
0:0:0:0:0:0:0:1 - - [26/Oct/2016:05:28:43 -0500] "GET /ITAFWebApplication/js/demo3/RowSorter.js HTTP/1.1" 200 8102
0:0:0:0:0:0:0:1 - - [26/Oct/2016:05:28:43 -0500] "GET /ITAFWebApplication/js/demo3/try.js HTTP/1.1" 200 46054
0:0:0:0:0:0:0:1 - - [26/Oct/2016:05:29:55 -0500] "POST /ITAFWebApplication/itafexecute.do HTTP/1.1" 200 19493
0:0:0:0:0:0:0:1 - - [26/Oct/2016:05:29:55 -0500] "GET /ITAFWebApplication/js/demo3/executetry.js HTTP/1.1" 200 1945
0:0:0:0:0:0:0:1 - - [26/Oct/2016:05:29:55 -0500] "GET /ITAFWebApplication/js/demo3/bootstrap-progressbar.js HTTP/1.1" 200 6284
0:0:0:0:0:0:0:1 - - [26/Oct/2016:05:29:55 -0500] "GET /ITAFWebApplication/js/loader.js HTTP/1.1" 200 70294
0:0:0:0:0:0:0:1 - - [26/Oct/2016:05:32:56 -0500] "POST /ITAFWebApplication/itafexecute.do HTTP/1.1" 200 1058
0:0:0:0:0:0:0:1 - - [26/Oct/2016:06:40:44 -0500] "POST /ITAFWebApplication/itafexecute.do HTTP/1.1" 302 -
0:0:0:0:0:0:0:1 - - [26/Oct/2016:06:40:44 -0500] "GET /ITAFWebApplication/login.jsp HTTP/1.1" 200 27677
0:0:0:0:0:0:0:1 - - [26/Oct/2016:07:13:29 -0500] "POST /ITAFWebApplication/login.do HTTP/1.1" 302 -
0:0:0:0:0:0:0:1 - - [26/Oct/2016:07:13:29 -0500] "GET /ITAFWebApplication/login.jsp HTTP/1.1" 200 27677
0:0:0:0:0:0:0:1 - - [26/Oct/2016:07:18:44 -0500] "POST /ITAFWebApplication/login.do HTTP/1.1" 200 52141
0:0:0:0:0:0:0:1 - - [26/Oct/2016:07:22:22 -0500] "POST /ITAFWebApplication/itafexecute.do HTTP/1.1" 200 19493
0:0:0:0:0:0:0:1 - - [26/Oct/2016:07:27:03 -0500] "GET /ITAFWebApplication/login.jsp HTTP/1.1" 200 27677
0:0:0:0:0:0:0:1 - - [26/Oct/2016:07:27:03 -0500] "GET /ITAFWebApplication/css/login.css HTTP/1.1" 200 1077
0:0:0:0:0:0:0:1 - - [26/Oct/2016:07:27:03 -0500] "GET /ITAFWebApplication/css/bootstrap.min.css HTTP/1.1" 200 121260
0:0:0:0:0:0:0:1 - - [26/Oct/2016:07:27:03 -0500] "GET /ITAFWebApplication/Images/iTAF_logo.png HTTP/1.1" 200 33472
0:0:0:0:0:0:0:1 - - [26/Oct/2016:07:27:03 -0500] "GET /ITAFWebApplication/js/login.js HTTP/1.1" 200 6947
0:0:0:0:0:0:0:1 - - [26/Oct/2016:07:27:04 -0500] "GET /ITAFWebApplication/fonts/glyphicons-halflings-regular.woff2 HTTP/1.1" 200 18028
0:0:0:0:0:0:0:1 - - [26/Oct/2016:07:27:17 -0500] "POST /ITAFWebApplication/itafexecute.do HTTP/1.1" 200 2
0:0:0:0:0:0:0:1 - - [26/Oct/2016:07:27:48 -0500] "POST /ITAFWebApplication/login.do HTTP/1.1" 200 27738
0:0:0:0:0:0:0:1 - - [26/Oct/2016:07:28:15 -0500] "GET /ITAFWebApplication/css/demo3/try.css HTTP/1.1" 200 4871
0:0:0:0:0:0:0:1 - - [26/Oct/2016:07:28:15 -0500] "POST /ITAFWebApplication/login.do HTTP/1.1" 200 52141
0:0:0:0:0:0:0:1 - - [26/Oct/2016:07:28:15 -0500] "GET /ITAFWebApplication/css/demo3/responsiveTables.css HTTP/1.1" 200 182
0:0:0:0:0:0:0:1 - - [26/Oct/2016:07:28:15 -0500] "GET /ITAFWebApplication/js/jquery.min.js HTTP/1.1" 200 84380
0:0:0:0:0:0:0:1 - - [26/Oct/2016:07:28:15 -0500] "GET /ITAFWebApplication/js/bootstrap.min.js HTTP/1.1" 200 36868
0:0:0:0:0:0:0:1 - - [26/Oct/2016:07:28:15 -0500] "GET /ITAFWebApplication/js/demo3/RowSorter.js HTTP/1.1" 200 8102
0:0:0:0:0:0:0:1 - - [26/Oct/2016:07:28:15 -0500] "GET /ITAFWebApplication/js/demo3/bootstrap-filestyle.min.js HTTP/1.1" 200 7190
0:0:0:0:0:0:0:1 - - [26/Oct/2016:07:28:15 -0500] "GET /ITAFWebApplication/js/demo3/searchTable.js HTTP/1.1" 200 1022
0:0:0:0:0:0:0:1 - - [26/Oct/2016:07:28:15 -0500] "GET /ITAFWebApplication/js/demo3/responsiveTables.js HTTP/1.1" 200 1886
0:0:0:0:0:0:0:1 - - [26/Oct/2016:07:28:15 -0500] "GET /ITAFWebApplication/js/objectCap.js HTTP/1.1" 200 11106
0:0:0:0:0:0:0:1 - - [26/Oct/2016:07:28:15 -0500] "GET /ITAFWebApplication/js/demo3/try.js HTTP/1.1" 200 46054
0:0:0:0:0:0:0:1 - - [26/Oct/2016:07:29:10 -0500] "POST /ITAFWebApplication/itafexecute.do HTTP/1.1" 200 19493
0:0:0:0:0:0:0:1 - - [26/Oct/2016:07:29:10 -0500] "GET /ITAFWebApplication/js/loader.js HTTP/1.1" 200 70294
0:0:0:0:0:0:0:1 - - [26/Oct/2016:07:29:10 -0500] "GET /ITAFWebApplication/js/demo3/executetry.js HTTP/1.1" 200 1945
0:0:0:0:0:0:0:1 - - [26/Oct/2016:07:29:10 -0500] "GET /ITAFWebApplication/js/demo3/bootstrap-progressbar.js HTTP/1.1" 200 6284
0:0:0:0:0:0:0:1 - - [26/Oct/2016:07:32:07 -0500] "POST /ITAFWebApplication/itafexecute.do HTTP/1.1" 200 2
0:0:0:0:0:0:0:1 - - [26/Oct/2016:07:34:52 -0500] "GET /ITAFWebApplication/login.jsp HTTP/1.1" 200 27677
0:0:0:0:0:0:0:1 - - [26/Oct/2016:07:34:52 -0500] "GET /ITAFWebApplication/css/login.css HTTP/1.1" 200 1077
0:0:0:0:0:0:0:1 - - [26/Oct/2016:07:34:52 -0500] "GET /ITAFWebApplication/css/bootstrap.min.css HTTP/1.1" 200 121260
0:0:0:0:0:0:0:1 - - [26/Oct/2016:07:34:52 -0500] "GET /ITAFWebApplication/js/login.js HTTP/1.1" 200 6947
0:0:0:0:0:0:0:1 - - [26/Oct/2016:07:34:52 -0500] "GET /ITAFWebApplication/Images/iTAF_logo.png HTTP/1.1" 200 33472
0:0:0:0:0:0:0:1 - - [26/Oct/2016:07:34:52 -0500] "GET /ITAFWebApplication/fonts/glyphicons-halflings-regular.woff2 HTTP/1.1" 200 18028
0:0:0:0:0:0:0:1 - - [26/Oct/2016:07:35:05 -0500] "GET /ITAFWebApplication/css/demo3/try.css HTTP/1.1" 200 4871
0:0:0:0:0:0:0:1 - - [26/Oct/2016:07:35:05 -0500] "POST /ITAFWebApplication/login.do HTTP/1.1" 200 52141
0:0:0:0:0:0:0:1 - - [26/Oct/2016:07:35:05 -0500] "GET /ITAFWebApplication/js/jquery.min.js HTTP/1.1" 200 84380
0:0:0:0:0:0:0:1 - - [26/Oct/2016:07:35:05 -0500] "GET /ITAFWebApplication/css/demo3/responsiveTables.css HTTP/1.1" 200 182
0:0:0:0:0:0:0:1 - - [26/Oct/2016:07:35:05 -0500] "GET /ITAFWebApplication/js/bootstrap.min.js HTTP/1.1" 200 36868
0:0:0:0:0:0:0:1 - - [26/Oct/2016:07:35:05 -0500] "GET /ITAFWebApplication/js/demo3/responsiveTables.js HTTP/1.1" 200 1886
0:0:0:0:0:0:0:1 - - [26/Oct/2016:07:35:05 -0500] "GET /ITAFWebApplication/js/demo3/RowSorter.js HTTP/1.1" 200 8102
0:0:0:0:0:0:0:1 - - [26/Oct/2016:07:35:05 -0500] "GET /ITAFWebApplication/js/demo3/bootstrap-filestyle.min.js HTTP/1.1" 200 7190
0:0:0:0:0:0:0:1 - - [26/Oct/2016:07:35:05 -0500] "GET /ITAFWebApplication/js/demo3/searchTable.js HTTP/1.1" 200 1022
0:0:0:0:0:0:0:1 - - [26/Oct/2016:07:35:05 -0500] "GET /ITAFWebApplication/js/objectCap.js HTTP/1.1" 200 11106
0:0:0:0:0:0:0:1 - - [26/Oct/2016:07:35:05 -0500] "GET /ITAFWebApplication/js/demo3/try.js HTTP/1.1" 200 46054
0:0:0:0:0:0:0:1 - - [26/Oct/2016:07:37:08 -0500] "POST /ITAFWebApplication/itafexecute.do HTTP/1.1" 200 19493
0:0:0:0:0:0:0:1 - - [26/Oct/2016:07:37:08 -0500] "GET /ITAFWebApplication/js/demo3/executetry.js HTTP/1.1" 200 1945
0:0:0:0:0:0:0:1 - - [26/Oct/2016:07:37:08 -0500] "GET /ITAFWebApplication/js/loader.js HTTP/1.1" 200 70294
0:0:0:0:0:0:0:1 - - [26/Oct/2016:07:37:08 -0500] "GET /ITAFWebApplication/js/demo3/bootstrap-progressbar.js HTTP/1.1" 200 6284
0:0:0:0:0:0:0:1 - - [26/Oct/2016:07:40:07 -0500] "POST /ITAFWebApplication/itafexecute.do HTTP/1.1" 200 1058
0:0:0:0:0:0:0:1 - - [26/Oct/2016:07:40:18 -0500] "POST /ITAFWebApplication/itafexecute.do HTTP/1.1" 200 236
0:0:0:0:0:0:0:1 - - [26/Oct/2016:07:40:18 -0500] "GET /ITAFWebApplication/files/advancedReport.html?projectname=ACCC&actionType=execute HTTP/1.1" 200 17411
0:0:0:0:0:0:0:1 - - [26/Oct/2016:07:40:23 -0500] "POST /ITAFWebApplication/itafexecute.do HTTP/1.1" 200 236
0:0:0:0:0:0:0:1 - - [26/Oct/2016:07:40:23 -0500] "GET /ITAFWebApplication/files/advancedReport.html?projectname=ACCC&actionType=execute HTTP/1.1" 200 17411
0:0:0:0:0:0:0:1 - - [26/Oct/2016:07:40:58 -0500] "POST /ITAFWebApplication/itafexecute.do HTTP/1.1" 200 52141
