172.16.202.83 - - [22/Sep/2016:11:55:22 +0530] "GET /ITAFWebApplication/login.jsp HTTP/1.1" 200 27656
172.16.202.83 - - [22/Sep/2016:11:55:22 +0530] "GET /ITAFWebApplication/css/login.css HTTP/1.1" 302 -
172.16.202.83 - - [22/Sep/2016:11:55:22 +0530] "GET /ITAFWebApplication/css/bootstrap.min.css HTTP/1.1" 302 -
172.16.202.83 - - [22/Sep/2016:11:55:23 +0530] "GET /ITAFWebApplication/css/login.jsp HTTP/1.1" 404 1056
172.16.202.83 - - [22/Sep/2016:11:55:23 +0530] "GET /ITAFWebApplication/css/login.jsp HTTP/1.1" 404 1056
172.16.202.83 - - [22/Sep/2016:11:55:24 +0530] "GET /ITAFWebApplication/Images/iTAF_logo1.gif HTTP/1.1" 302 -
172.16.202.83 - - [22/Sep/2016:11:55:24 +0530] "GET /ITAFWebApplication/js/login.js HTTP/1.1" 302 -
172.16.202.83 - - [22/Sep/2016:11:55:24 +0530] "GET /ITAFWebApplication/Images/login.jsp HTTP/1.1" 404 1062
172.16.202.83 - - [22/Sep/2016:11:55:24 +0530] "GET /ITAFWebApplication/js/login.jsp HTTP/1.1" 404 1054
