0:0:0:0:0:0:0:1 - - [13/May/2017:17:33:46 +0530] "GET / HTTP/1.1" 200 11450
0:0:0:0:0:0:0:1 - - [13/May/2017:17:33:46 +0530] "GET /tomcat.png HTTP/1.1" 200 5103
0:0:0:0:0:0:0:1 - - [13/May/2017:17:33:46 +0530] "GET /tomcat.css HTTP/1.1" 200 5926
0:0:0:0:0:0:0:1 - - [13/May/2017:17:33:47 +0530] "GET /bg-button.png HTTP/1.1" 200 713
0:0:0:0:0:0:0:1 - - [13/May/2017:17:33:47 +0530] "GET /asf-logo.png HTTP/1.1" 200 17811
0:0:0:0:0:0:0:1 - - [13/May/2017:17:33:47 +0530] "GET /bg-nav.png HTTP/1.1" 200 1401
0:0:0:0:0:0:0:1 - - [13/May/2017:17:33:47 +0530] "GET /bg-upper.png HTTP/1.1" 200 3103
0:0:0:0:0:0:0:1 - - [13/May/2017:17:33:47 +0530] "GET /bg-middle.png HTTP/1.1" 200 1918
0:0:0:0:0:0:0:1 - - [13/May/2017:17:33:48 +0530] "GET /favicon.ico HTTP/1.1" 200 21630
0:0:0:0:0:0:0:1 - - [13/May/2017:17:33:52 +0530] "GET /manager/status HTTP/1.1" 401 2536
0:0:0:0:0:0:0:1 - admin [13/May/2017:17:33:58 +0530] "GET /manager/status HTTP/1.1" 200 7759
0:0:0:0:0:0:0:1 - - [13/May/2017:17:33:58 +0530] "GET /manager/images/asf-logo.gif HTTP/1.1" 200 7279
0:0:0:0:0:0:0:1 - - [13/May/2017:17:33:58 +0530] "GET /manager/images/tomcat.gif HTTP/1.1" 200 2066
0:0:0:0:0:0:0:1 - admin [13/May/2017:17:34:02 +0530] "GET /manager/html/list HTTP/1.1" 200 19650
0:0:0:0:0:0:0:1 - - [13/May/2017:17:34:05 +0530] "GET /ITAFWebApplication/ HTTP/1.1" 302 -
0:0:0:0:0:0:0:1 - - [13/May/2017:17:34:05 +0530] "GET /ITAFWebApplication/login.jsp HTTP/1.1" 200 27663
0:0:0:0:0:0:0:1 - - [13/May/2017:17:34:05 +0530] "GET /ITAFWebApplication/css/login.css HTTP/1.1" 200 1077
0:0:0:0:0:0:0:1 - - [13/May/2017:17:34:05 +0530] "GET /ITAFWebApplication/css/bootstrap.min.css HTTP/1.1" 200 121260
0:0:0:0:0:0:0:1 - - [13/May/2017:17:34:06 +0530] "GET /ITAFWebApplication/js/login.js HTTP/1.1" 200 6947
0:0:0:0:0:0:0:1 - - [13/May/2017:17:34:06 +0530] "GET /ITAFWebApplication/Images/iTAF_logo.png HTTP/1.1" 200 33472
0:0:0:0:0:0:0:1 - - [13/May/2017:17:34:06 +0530] "GET /ITAFWebApplication/fonts/glyphicons-halflings-regular.woff2 HTTP/1.1" 200 18028
0:0:0:0:0:0:0:1 - - [13/May/2017:17:34:28 +0530] "GET /ITAFWebApplication/ HTTP/1.1" 200 27663
0:0:0:0:0:0:0:1 - - [13/May/2017:17:34:28 +0530] "GET /ITAFWebApplication/css/login.css HTTP/1.1" 200 1077
0:0:0:0:0:0:0:1 - - [13/May/2017:17:34:28 +0530] "GET /ITAFWebApplication/css/bootstrap.min.css HTTP/1.1" 200 121260
0:0:0:0:0:0:0:1 - - [13/May/2017:17:34:29 +0530] "GET /ITAFWebApplication/js/login.js HTTP/1.1" 200 6947
0:0:0:0:0:0:0:1 - - [13/May/2017:17:34:29 +0530] "GET /ITAFWebApplication/Images/iTAF_logo.png HTTP/1.1" 200 33472
0:0:0:0:0:0:0:1 - - [13/May/2017:17:34:30 +0530] "GET /ITAFWebApplication/fonts/glyphicons-halflings-regular.woff2 HTTP/1.1" 200 18028
0:0:0:0:0:0:0:1 - - [13/May/2017:17:34:31 +0530] "GET /favicon.ico HTTP/1.1" 200 21630
0:0:0:0:0:0:0:1 - - [13/May/2017:17:34:44 +0530] "POST /ITAFWebApplication/login.do HTTP/1.1" 200 68139
0:0:0:0:0:0:0:1 - - [13/May/2017:17:34:45 +0530] "GET /ITAFWebApplication/css/bootstrap.min.css HTTP/1.1" 200 121260
0:0:0:0:0:0:0:1 - - [13/May/2017:17:34:45 +0530] "GET /ITAFWebApplication/css/demo3/try.css HTTP/1.1" 200 4877
0:0:0:0:0:0:0:1 - - [13/May/2017:17:34:45 +0530] "GET /ITAFWebApplication/css/demo3/responsiveTables.css HTTP/1.1" 200 182
0:0:0:0:0:0:0:1 - - [13/May/2017:17:34:45 +0530] "GET /ITAFWebApplication/js/jquery.min.js HTTP/1.1" 200 84380
0:0:0:0:0:0:0:1 - - [13/May/2017:17:34:45 +0530] "GET /ITAFWebApplication/js/bootstrap.min.js HTTP/1.1" 200 36868
0:0:0:0:0:0:0:1 - - [13/May/2017:17:34:45 +0530] "GET /ITAFWebApplication/js/demo3/try.js HTTP/1.1" 200 47890
0:0:0:0:0:0:0:1 - - [13/May/2017:17:34:45 +0530] "GET /ITAFWebApplication/js/demo3/RowSorter.js HTTP/1.1" 200 8102
0:0:0:0:0:0:0:1 - - [13/May/2017:17:34:45 +0530] "GET /ITAFWebApplication/js/demo3/searchTable.js HTTP/1.1" 200 1022
0:0:0:0:0:0:0:1 - - [13/May/2017:17:34:45 +0530] "GET /ITAFWebApplication/js/demo3/responsiveTables.js HTTP/1.1" 200 1886
0:0:0:0:0:0:0:1 - - [13/May/2017:17:34:46 +0530] "GET /ITAFWebApplication/js/objectCap.js HTTP/1.1" 200 11106
0:0:0:0:0:0:0:1 - - [13/May/2017:17:34:46 +0530] "GET /ITAFWebApplication/js/demo3/bootstrap-filestyle.min.js HTTP/1.1" 200 7190
0:0:0:0:0:0:0:1 - - [13/May/2017:17:35:06 +0530] "POST /ITAFWebApplication/logout.do HTTP/1.1" 302 -
0:0:0:0:0:0:0:1 - - [13/May/2017:17:35:06 +0530] "GET /ITAFWebApplication/login.jsp HTTP/1.1" 200 27663
0:0:0:0:0:0:0:1 - - [13/May/2017:17:35:06 +0530] "GET /ITAFWebApplication/css/login.css HTTP/1.1" 200 1077
0:0:0:0:0:0:0:1 - - [13/May/2017:17:35:06 +0530] "GET /ITAFWebApplication/css/bootstrap.min.css HTTP/1.1" 200 121260
