GroupName,Iteration,TestCaseID,TransactionType,TestCaseDesription,StartDate,EndDate,Status,Description,Screenshot
"coverall","Cycle1","TC001","Login","quote details","2017/03/29 14:38:00","2017/03/29 14:38:06","PASS","",""
"coverall","Cycle1","TC001","New Quote","quote details","2017/03/29 14:38:06","2017/03/29 14:38:36","PASS","",""
"coverall","Cycle1","TC001","Quote Info","quote details","2017/03/29 14:38:36","2017/03/29 14:38:48","PASS","",""
"coverall","Cycle1","TC001","Insured Info","quote details","2017/03/29 14:38:48","2017/03/29 14:39:17","PASS","",""
"coverall","Cycle1","TC001","Login","quote details","2017/03/29 15:27:05","2017/03/29 15:27:11","PASS","",""
"coverall","Cycle1","TC001","New Quote","quote details","2017/03/29 15:27:11","2017/03/29 15:27:25","PASS","",""
"coverall","Cycle1","TC001","Quote Info","quote details","2017/03/29 15:27:25","2017/03/29 15:27:37","PASS","",""
"coverall","Cycle1","TC001","Insured Info","quote details","2017/03/29 15:27:37","2017/03/29 15:28:07","PASS","",""
"coverall","Cycle1","TC001","Login","quote details","2017/03/29 15:32:00","2017/03/29 15:32:06","PASS","",""
"coverall","Cycle1","TC001","New Quote","quote details","2017/03/29 15:32:06","2017/03/29 15:32:20","PASS","",""
"coverall","Cycle1","TC001","Quote Info","quote details","2017/03/29 15:32:20","2017/03/29 15:32:39","PASS","",""
"coverall","Cycle1","TC001","Insured Info","quote details","2017/03/29 15:32:39","2017/03/29 15:33:03","PASS","",""
"coverall","Cycle1","TC001","Producer","quote details","2017/03/29 15:33:03","2017/03/29 15:33:15","PASS","",""
"coverall","Cycle1","TC001","Login","quote details","2017/03/29 15:36:33","2017/03/29 15:36:39","PASS","",""
"coverall","Cycle1","TC001","New Quote","quote details","2017/03/29 15:36:39","2017/03/29 15:36:55","PASS","",""
"coverall","Cycle1","TC001","Quote Info","quote details","2017/03/29 15:36:55","2017/03/29 15:37:12","PASS","",""
"coverall","Cycle1","TC001","Insured Info","quote details","2017/03/29 15:37:12","2017/03/29 15:37:42","PASS","",""
"coverall","Cycle1","TC001","Producer","quote details","2017/03/29 15:37:42","2017/03/29 15:37:55","PASS","",""
"coverall","Cycle1","TC001","Login","quote details","2017/03/29 15:39:28","2017/03/29 15:39:34","PASS","",""
"coverall","Cycle1","TC001","New Quote","quote details","2017/03/29 15:39:34","2017/03/29 15:39:48","PASS","",""
"coverall","Cycle1","TC001","Quote Info","quote details","2017/03/29 15:39:48","2017/03/29 15:40:04","PASS","",""
"coverall","Cycle1","TC001","Insured Info","quote details","2017/03/29 15:40:04","2017/03/29 15:40:27","PASS","",""
"coverall","Cycle1","TC001","Producer","quote details","2017/03/29 15:40:27","2017/03/29 15:40:36","PASS","",""
"coverall","Cycle1","TC001","Login","quote details","2017/03/29 15:55:38","2017/03/29 15:55:44","PASS","",""
"coverall","Cycle1","TC001","New Quote","quote details","2017/03/29 15:55:44","2017/03/29 15:56:01","PASS","",""
"coverall","Cycle1","TC001","Quote Info","quote details","2017/03/29 15:56:01","2017/03/29 15:56:17","PASS","",""
"coverall","Cycle1","TC001","Insured Info","quote details","2017/03/29 15:56:17","2017/03/29 15:56:50","PASS","",""
"coverall","Cycle1","TC001","Producer","quote details","2017/03/29 15:56:50","2017/03/29 15:57:03","PASS","",""
"coverall","Cycle1","TC001","Login","quote details","2017/03/29 16:00:33","2017/03/29 16:00:39","PASS","",""
"coverall","Cycle1","TC001","New Quote","quote details","2017/03/29 16:00:39","2017/03/29 16:00:55","PASS","",""
"coverall","Cycle1","TC001","Insured Info","quote details","2017/03/29 16:00:55","2017/03/29 16:01:25","PASS","",""
"coverall","Cycle1","TC001","Producer","quote details","2017/03/29 16:01:25","2017/03/29 16:01:38","PASS","",""
"coverall","Cycle1","TC001","Login","quote details","2017/03/29 16:13:33","2017/03/29 16:13:39","PASS","",""
"coverall","Cycle1","TC001","New Quote","quote details","2017/03/29 16:13:39","2017/03/29 16:13:53","PASS","",""
"coverall","Cycle1","TC001","Insured Info","quote details","2017/03/29 16:13:53","2017/03/29 16:15:34","FAIL","Expected condition failed: waiting for element to be clickable: By.xpath: //input[contains(@id,'business_name-textbox')] (tried for 100 second(s) with 500 MILLISECONDS interval)
Build info: version: 'unknown', revision: '2aa21c1', time: '2016-08-02 14:59:43 -0700'
System info: host: 'IND-MHP3DW70363', ip: '192.168.56.1', os.name: 'Windows 7', os.arch: 'amd64', os.version: '6.1', java.version: '1.8.0_60'
Driver info: org.openqa.selenium.ie.InternetExplorerDriver
Capabilities [{browserAttachTimeout=0, ie.enableFullPageScreenshot=true, enablePersistentHover=true, ie.forceCreateProcessApi=false, ie.forceShellWindowsApi=false, pageLoadStrategy=normal, ignoreZoomSetting=false, ie.fileUploadDialogTimeout=3000, version=11, platform=WINDOWS, nativeEvents=true, ie.ensureCleanSession=false, elementScrollBehavior=0, ie.browserCommandLineSwitches=, requireWindowFocus=false, browserName=internet explorer, initialBrowserUrl=http://localhost:20598/, javascriptEnabled=true, ignoreProtectedModeSettings=true, enableElementCacheCleanup=true, unexpectedAlertBehaviour=ignore}]
Session ID: 1716a342-e170-4e3a-86d5-c7346bd1a643","file:\\C:\\ITAF_Repository\\Coverall2015\\Resources\\Results\\\\\\\\\\\\\\\\\\\\ScreenShots\TC001_Insured Info_20170329161353.jpeg"
"coverall","Cycle1","TC001","Login","quote details","2017/03/29 16:24:12","2017/03/29 16:24:18","PASS","",""
"coverall","Cycle1","TC001","New Quote","quote details","2017/03/29 16:24:18","2017/03/29 16:24:47","PASS","",""
"coverall","Cycle1","TC001","Insured Info","quote details","2017/03/29 16:24:47","2017/03/29 16:25:11","PASS","",""
"coverall","Cycle1","TC001","Producer","quote details","2017/03/29 16:25:11","2017/03/29 16:25:20","PASS","",""
