Extent Reports config file path3 is: D:\iTAF_UI_DEVELOPMENT_UNRELEASED\.metadata\.plugins\org.eclipse.wst.server.core\tmp0\wtpwebapps\ITAFWebApplication\WEB-INF\extent-config.xml
Extent Reports config file path4 is: D:\iTAF_UI_DEVELOPMENT_UNRELEASED\.metadata\.plugins\org.eclipse.wst.server.core\tmp0\wtpwebapps\ITAFWebApplication\WEB-INF\extent-config.xml
Chrome
Chrome
this is baseUrl:https://qaqb.cover-all.com/security-sso/login?service=https%3A%2F%2Fqaqb.cover-all.com%2Fmic%2Findex.jsp
This is Chrome broswer
https://qaqb.cover-all.com/security-sso/login?service=https%3A%2F%2Fqaqb.cover-all.com%2Fmic%2Findex.jsp
DriverNAme:chrome
DriverNa:chrome
D:\Softwares\sts-bundle\sts-3.8.3.RELEASE\libs\chromedriver.exe
user.dir path:D:\Softwares\sts-bundle\sts-3.8.3.RELEASE
this is driver setup..
Extent Reports config file path5 is: D:\iTAF_UI_DEVELOPMENT_UNRELEASED\.metadata\.plugins\org.eclipse.wst.server.core\tmp0\wtpwebapps\ITAFWebApplication\WEB-INF\extent-config.xml
formula or string:C:\ITAF_Repository\QBE\CommonResources\MainController.xls
In MainController value of pauseExecution1:false
FilePath is:C:\ITAF_Repository\QBE\CommonResources\MainController.xls
SheetName is:MainControlSheet
bhaskar exception
Execute Flag is N
Execute Flag is N
In MainController value of pauseExecution2:false
Value of controllerTransactionType: ApplicationLogin
FilePath is:C:\ITAF_Repository\QBE\CommonResources\Transaction_Input_Files.xls
SheetName is:Web_Transaction_Input_Files
bhaskar transactionType:ApplicationLogin
bhaskar directoryPath:QBE
bhaskar inputExcel:ApplicationLogin.xls
operationType is:Input
C:\ITAF_Repository\QBE\Resources\Input\\\\\\\\\\\\\\\\\\\\\\\QBE\ApplicationLogin.xls
filePath is:C:\ITAF_Repository\QBE\Resources\Input\\\\\\\\\\\\\\\\\\\\\\\QBE\ApplicationLogin.xls

FilePath is:C:\ITAF_Repository\QBE\Resources\Input\\\\\\\\\\\\\\\\\\\\\\\QBE\ApplicationLogin.xls
SheetName is:Values
bhaskar tCase:TC1
bhaskar tType:ApplicationLogin
1
FilePath is:C:\ITAF_Repository\QBE\Resources\Input\\\\\\\\\\\\\\\\\\\\\\\QBE\ApplicationLogin.xls
SheetName is:Values
Null
!@#$%^&*!@#$%^&*ctrlValue:admin
Null
!@#$%^&*!@#$%^&*ctrlValue:admin123
Null
Null
Null
