Iteration,TestCaseID,TransactionType,CurrentDate,RowType,Status,PassCount,FailCount
"Cycle1","TC1","VerifyDetails","2016/12/09 18:37:01","Header","FAIL","","","AirportCode","Street","City","ZIP"
"Cycle1","TC1","VerifyDetails","2016/12/09 18:37:01","Data","FAIL","0","3","FAIL |RT 1, P.O. BOX 26D|00WV","FAIL |BEVERLY|RT 1, P.O. BOX 26D","FAIL |26253|BEVERLY"
"Cycle1","TC1","VerifyDetails","2016/12/09 18:53:52","Header","PASS","","","AirportCode","Street","City","ZIP"
"Cycle1","TC1","VerifyDetails","2016/12/09 18:53:52","Data","PASS","4","0","00WV","RT 1, P.O. BOX 26D","BEVERLY","26253"
"Cycle1","TC1","VerifyDetails","2017/04/10 15:28:50","Header","PASS","","","QuotedPremium"
"Cycle1","TC1","VerifyDetails","2017/04/10 15:28:50","Data","PASS","1","0","$8,775.00"
"Cycle1","TC1","VerifyDetails","2017/04/10 18:39:40","Header","PASS","","","QuotedPremium"
"Cycle1","TC1","VerifyDetails","2017/04/10 18:39:40","Data","PASS","1","0","$8,775.00"
"Cycle1","TC1","VerifyDetails","2017/04/10 18:53:29","Header","PASS","","","QuotedPremium"
"Cycle1","TC1","VerifyDetails","2017/04/10 18:53:29","Data","PASS","1","0","$8,775.00"
"Cycle1","TC1","VerifyDetails","2017/04/11 11:07:49","Header","PASS","","","QuotedPremium"
"Cycle1","TC1","VerifyDetails","2017/04/11 11:07:49","Data","PASS","1","0","$8,775.00"
"Cycle1","TC1","VerifyDetails","2017/04/11 11:21:55","Header","PASS","","","QuotedPremium"
"Cycle1","TC1","VerifyDetails","2017/04/11 11:21:55","Data","PASS","1","0","$8,775.00"
