/D:/Apache%20Software%20Foundation/Tomcat%208.5/webapps/ITAFWebApplication/WEB-INF/lib/iTAFJAR.jar
Extent Reports config file path is: D:\Apache Software Foundation\Tomcat 8.5\webapps\ITAFWebApplication\WEB-INF\extent-config.xml
formula or string:C:\\ITAF_Repository\ErieFirstQuote\CommonResources\MainController.xls
In MainController value of pauseExecution1:false
FilePath is:C:\\ITAF_Repository\ErieFirstQuote\CommonResources\MainController.xls
SheetName is:MainControlSheet
bhaskar exception
Execute Flag is N
In MainController value of pauseExecution2:false
Value of controllerTransactionType: Customerinfo
FilePath is:C:\\ITAF_Repository\ErieFirstQuote\CommonResources\Transaction_Input_Files.xls
SheetName is:Web_Transaction_Input_Files
bhaskar transactionType:Customerinfo
bhaskar directoryPath:ErieFirstQuote
bhaskar inputExcel:Customerinfo.xls
operationType is:Input
C:\\ITAF_Repository\ErieFirstQuote\Resources\Input\\ErieFirstQuote\Customerinfo.xls
filePath is:C:\\ITAF_Repository\ErieFirstQuote\Resources\Input\\ErieFirstQuote\Customerinfo.xls

FilePath is:C:\\ITAF_Repository\ErieFirstQuote\Resources\Input\\ErieFirstQuote\Customerinfo.xls
SheetName is:Values
bhaskar tCase:TC1
bhaskar tType:Customerinfo
1
FilePath is:C:\\ITAF_Repository\ErieFirstQuote\Resources\Input\\ErieFirstQuote\Customerinfo.xls
SheetName is:Values
!@#$%^&*!@#$%^&*ctrlValue:Shalini
!@#$%^&*!@#$%^&*ctrlValue:R
!@#$%^&*!@#$%^&*ctrlValue:Rajeev
Value of controllerTransactionType: 
No Transaction Found in the Maincontroller at Cell : 6
Value of controllerTransactionType: 
No Transaction Found in the Maincontroller at Cell : 7
Value of controllerTransactionType: 
No Transaction Found in the Maincontroller at Cell : 8
Value of controllerTransactionType: 
No Transaction Found in the Maincontroller at Cell : 9
Value of controllerTransactionType: null
No Transaction Found in the Maincontroller at Cell : 10
In MainController value of pauseExecution3:false
{"resultdata":[{"groupName":"QuoteCreation","iteration":"Cycle1","testCaseID":"TC1","transactionType":"Customerinfo","testCaseDesription":"CreateQuote","startDate":"2016/12/19 16:51:24","endDate":"2016/12/19 16:51:30","status":"PASS","description":""}]}
{"PASS":1,"FAIL":0,"reportdata":"{\"resultdata\":[{\"groupName\":\"QuoteCreation\",\"iteration\":\"Cycle1\",\"testCaseID\":\"TC1\",\"transactionType\":\"Customerinfo\",\"testCaseDesription\":\"CreateQuote\",\"startDate\":\"2016/12/19 16:51:24\",\"endDate\":\"2016/12/19 16:51:30\",\"status\":\"PASS\",\"description\":\"\"}]}"}
projectnameErie-->aactionexecute
projectnameErie-->aactionexecute
projectnameErie-->aactionexecute
fullpath=D:\Apache Software Foundation\Tomcat 8.5\webapps\ITAFWebApplication\WEB-INF\extent-config.xml
FilePath is:C:\\ITAF_Repository\Erie\CommonResources\Config.xls
SheetName is:Config
row count25
{RESULTOUTPUT=C:\\ITAF_Repository\ErieFirstQuote\Resources\Results\\Report.csv, DASHBOARDRESULTSPATH=C:\\ITAF_Repository\ErieFirstQuote\Resources\Results\\CompareDetailed_Results.csv, CONTROLLER_FILEPATH=C:\\ITAF_Repository\ErieFirstQuote\CommonResources\MainController.xls, CONSOLELOG_FILEPATH=C:\\ITAF_Repository\ErieFirstQuote\Resources\Results\\ConsoleOutputLog.txt, MSEXCEL=2003, BASEURL=https://www.erieinsurance.com/OnlineQuote/#/AboutYou, RESULT_FILEPATH=C:\\ITAF_Repository\ErieFirstQuote\Resources\Results\\, VERIFICATIONTABLELISTPATH=C:\\ITAF_Repository\ErieFirstQuote\CommonResources\VerificationTableList.xls, BROWSERTYPE=Chrome, PROJECT_NAME=Erie, EXECUTION_APPROACH=Linear, TRANSACTION_INPUT_FILEPATH=C:\\ITAF_Repository\ErieFirstQuote\CommonResources\Transaction_Input_Files.xls, CYCLENUMBER=Cycle1, DASHBOARD_FILEPATH=C:\\ITAF_Repository\ErieFirstQuote\Resources\Results\\Results_Dashboard_Utility.xlsm, DYNAMICRESULTSPATH=C:\\ITAF_Repository\ErieFirstQuote\Resources\Results\\DynamicDetailed_Results.csv, INPUT_DATA_FILEPATH=C:\\ITAF_Repository\ErieFirstQuote\Resources\Input\\, EXPECTEDVALUESPATH=C:\\ITAF_Repository\ErieFirstQuote\Resources\Verification\\, EMAIL_ID=shalini.rajeev@majesco.com, TIMEOUT=100, VERIFCATIONTEMPLATEPATH=C:\\ITAF_Repository\ErieFirstQuote\Templates\\, HTMLREPORT_FILEPATH=C:\\ITAF_Repository\ErieFirstQuote\Resources\Results\\advancedReport.html, VERIFICATIONRESULTSPATH=C:\\ITAF_Repository\ErieFirstQuote\Resources\Results\\Summary_Results.csv, TRANSACTION_INFO=C:\\ITAF_Repository\ErieFirstQuote\CommonResources\UniqueNumber.xls, USERINTERACTION=True}
{RESULTOUTPUT=C:\\ITAF_Repository\ErieFirstQuote\Resources\Results\\Report.csv, DASHBOARDRESULTSPATH=C:\\ITAF_Repository\ErieFirstQuote\Resources\Results\\CompareDetailed_Results.csv, CONTROLLER_FILEPATH=C:\ITAF_Repository\Erie\CommonResources\MainController.xls, CONSOLELOG_FILEPATH=C:\\ITAF_Repository\ErieFirstQuote\Resources\Results\\ConsoleOutputLog.txt, MSEXCEL=2003, BASEURL=https://www.erieinsurance.com/OnlineQuote/#/AboutYou, RESULT_FILEPATH=C:\\ITAF_Repository\ErieFirstQuote\Resources\Results\\, VERIFICATIONTABLELISTPATH=C:\\ITAF_Repository\ErieFirstQuote\CommonResources\VerificationTableList.xls, BROWSERTYPE=Chrome, PROJECT_NAME=Erie, EXECUTION_APPROACH=Linear, TRANSACTION_INPUT_FILEPATH=C:\\ITAF_Repository\ErieFirstQuote\CommonResources\Transaction_Input_Files.xls, CYCLENUMBER=Cycle1, DASHBOARD_FILEPATH=C:\\ITAF_Repository\ErieFirstQuote\Resources\Results\\Results_Dashboard_Utility.xlsm, DYNAMICRESULTSPATH=C:\\ITAF_Repository\ErieFirstQuote\Resources\Results\\DynamicDetailed_Results.csv, INPUT_DATA_FILEPATH=C:\\ITAF_Repository\ErieFirstQuote\Resources\Input\\, EXPECTEDVALUESPATH=C:\\ITAF_Repository\ErieFirstQuote\Resources\Verification\\, EMAIL_ID=shalini.rajeev@majesco.com, TIMEOUT=100, VERIFCATIONTEMPLATEPATH=C:\\ITAF_Repository\ErieFirstQuote\Templates\\, HTMLREPORT_FILEPATH=C:\\ITAF_Repository\ErieFirstQuote\Resources\Results\\advancedReport.html, VERIFICATIONRESULTSPATH=C:\\ITAF_Repository\ErieFirstQuote\Resources\Results\\Summary_Results.csv, TRANSACTION_INFO=C:\\ITAF_Repository\ErieFirstQuote\CommonResources\UniqueNumber.xls, USERINTERACTION=True}
{RESULTOUTPUT=C:\\ITAF_Repository\ErieFirstQuote\Resources\Results\\Report.csv, DASHBOARDRESULTSPATH=C:\\ITAF_Repository\ErieFirstQuote\Resources\Results\\CompareDetailed_Results.csv, CONTROLLER_FILEPATH=C:\ITAF_Repository\Erie\CommonResources\MainController.xls, CONSOLELOG_FILEPATH=C:\\ITAF_Repository\ErieFirstQuote\Resources\Results\\ConsoleOutputLog.txt, MSEXCEL=2003, BASEURL=https://www.erieinsurance.com/OnlineQuote/#/AboutYou, RESULT_FILEPATH=C:\\ITAF_Repository\ErieFirstQuote\Resources\Results\\, VERIFICATIONTABLELISTPATH=C:\\ITAF_Repository\ErieFirstQuote\CommonResources\VerificationTableList.xls, BROWSERTYPE=Chrome, PROJECT_NAME=Erie, EXECUTION_APPROACH=Linear, TRANSACTION_INPUT_FILEPATH=C:\\ITAF_Repository\ErieFirstQuote\CommonResources\Transaction_Input_Files.xls, CYCLENUMBER=Cycle1, DASHBOARD_FILEPATH=C:\\ITAF_Repository\ErieFirstQuote\Resources\Results\\Results_Dashboard_Utility.xlsm, DYNAMICRESULTSPATH=C:\\ITAF_Repository\ErieFirstQuote\Resources\Results\\DynamicDetailed_Results.csv, INPUT_DATA_FILEPATH=C:\\ITAF_Repository\ErieFirstQuote\Resources\Input\\, EXPECTEDVALUESPATH=C:\\ITAF_Repository\ErieFirstQuote\Resources\Verification\\, EMAIL_ID=shalini.rajeev@majesco.com, TIMEOUT=100, VERIFCATIONTEMPLATEPATH=C:\\ITAF_Repository\ErieFirstQuote\Templates\\, HTMLREPORT_FILEPATH=C:\\ITAF_Repository\ErieFirstQuote\Resources\Results\\advancedReport.html, VERIFICATIONRESULTSPATH=C:\\ITAF_Repository\ErieFirstQuote\Resources\Results\\Summary_Results.csv, TRANSACTION_INFO=C:\\ITAF_Repository\ErieFirstQuote\CommonResources\UniqueNumber.xls, USERINTERACTION=True}
{RESULTOUTPUT=C:\\ITAF_Repository\ErieFirstQuote\Resources\Results\\Report.csv, DASHBOARDRESULTSPATH=C:\\ITAF_Repository\ErieFirstQuote\Resources\Results\\CompareDetailed_Results.csv, CONTROLLER_FILEPATH=C:\ITAF_Repository\Erie\CommonResources\MainController.xls, CONSOLELOG_FILEPATH=C:\\ITAF_Repository\ErieFirstQuote\Resources\Results\\ConsoleOutputLog.txt, MSEXCEL=2003, BASEURL=https://www.erieinsurance.com/OnlineQuote/#/AboutYou, RESULT_FILEPATH=C:\\ITAF_Repository\ErieFirstQuote\Resources\Results\\, VERIFICATIONTABLELISTPATH=C:\\ITAF_Repository\ErieFirstQuote\CommonResources\VerificationTableList.xls, BROWSERTYPE=Chrome, PROJECT_NAME=Erie, EXECUTION_APPROACH=Linear, TRANSACTION_INPUT_FILEPATH=C:\ITAF_Repository\Erie\CommonResources\Transaction_Input_Files.xls, CYCLENUMBER=Cycle1, DASHBOARD_FILEPATH=C:\\ITAF_Repository\ErieFirstQuote\Resources\Results\\Results_Dashboard_Utility.xlsm, DYNAMICRESULTSPATH=C:\\ITAF_Repository\ErieFirstQuote\Resources\Results\\DynamicDetailed_Results.csv, INPUT_DATA_FILEPATH=C:\\ITAF_Repository\ErieFirstQuote\Resources\Input\\, EXPECTEDVALUESPATH=C:\\ITAF_Repository\ErieFirstQuote\Resources\Verification\\, EMAIL_ID=shalini.rajeev@majesco.com, TIMEOUT=100, VERIFCATIONTEMPLATEPATH=C:\\ITAF_Repository\ErieFirstQuote\Templates\\, HTMLREPORT_FILEPATH=C:\\ITAF_Repository\ErieFirstQuote\Resources\Results\\advancedReport.html, VERIFICATIONRESULTSPATH=C:\\ITAF_Repository\ErieFirstQuote\Resources\Results\\Summary_Results.csv, TRANSACTION_INFO=C:\\ITAF_Repository\ErieFirstQuote\CommonResources\UniqueNumber.xls, USERINTERACTION=True}
{RESULTOUTPUT=C:\\ITAF_Repository\ErieFirstQuote\Resources\Results\\Report.csv, DASHBOARDRESULTSPATH=C:\\ITAF_Repository\ErieFirstQuote\Resources\Results\\CompareDetailed_Results.csv, CONTROLLER_FILEPATH=C:\ITAF_Repository\Erie\CommonResources\MainController.xls, CONSOLELOG_FILEPATH=C:\\ITAF_Repository\ErieFirstQuote\Resources\Results\\ConsoleOutputLog.txt, MSEXCEL=2003, BASEURL=https://www.erieinsurance.com/OnlineQuote/#/AboutYou, RESULT_FILEPATH=C:\\ITAF_Repository\ErieFirstQuote\Resources\Results\\, VERIFICATIONTABLELISTPATH=C:\\ITAF_Repository\ErieFirstQuote\CommonResources\VerificationTableList.xls, BROWSERTYPE=Chrome, PROJECT_NAME=Erie, EXECUTION_APPROACH=Linear, TRANSACTION_INPUT_FILEPATH=C:\ITAF_Repository\Erie\CommonResources\Transaction_Input_Files.xls, CYCLENUMBER=Cycle1, DASHBOARD_FILEPATH=C:\\ITAF_Repository\ErieFirstQuote\Resources\Results\\Results_Dashboard_Utility.xlsm, DYNAMICRESULTSPATH=C:\\ITAF_Repository\ErieFirstQuote\Resources\Results\\DynamicDetailed_Results.csv, INPUT_DATA_FILEPATH=C:\ITAF_Repository\Erie\Resources\Input\\\\\\\\\\\\\\\\\\\\\\\\\\\, EXPECTEDVALUESPATH=C:\\ITAF_Repository\ErieFirstQuote\Resources\Verification\\, EMAIL_ID=shalini.rajeev@majesco.com, TIMEOUT=100, VERIFCATIONTEMPLATEPATH=C:\\ITAF_Repository\ErieFirstQuote\Templates\\, HTMLREPORT_FILEPATH=C:\\ITAF_Repository\ErieFirstQuote\Resources\Results\\advancedReport.html, VERIFICATIONRESULTSPATH=C:\\ITAF_Repository\ErieFirstQuote\Resources\Results\\Summary_Results.csv, TRANSACTION_INFO=C:\\ITAF_Repository\ErieFirstQuote\CommonResources\UniqueNumber.xls, USERINTERACTION=True}
{RESULTOUTPUT=C:\ITAF_Repository\Erie\Resources\Results\\Report.csv, DASHBOARDRESULTSPATH=C:\\ITAF_Repository\ErieFirstQuote\Resources\Results\\CompareDetailed_Results.csv, CONTROLLER_FILEPATH=C:\ITAF_Repository\Erie\CommonResources\MainController.xls, CONSOLELOG_FILEPATH=C:\\ITAF_Repository\ErieFirstQuote\Resources\Results\\ConsoleOutputLog.txt, MSEXCEL=2003, BASEURL=https://www.erieinsurance.com/OnlineQuote/#/AboutYou, RESULT_FILEPATH=C:\\ITAF_Repository\ErieFirstQuote\Resources\Results\\, VERIFICATIONTABLELISTPATH=C:\\ITAF_Repository\ErieFirstQuote\CommonResources\VerificationTableList.xls, BROWSERTYPE=Chrome, PROJECT_NAME=Erie, EXECUTION_APPROACH=Linear, TRANSACTION_INPUT_FILEPATH=C:\ITAF_Repository\Erie\CommonResources\Transaction_Input_Files.xls, CYCLENUMBER=Cycle1, DASHBOARD_FILEPATH=C:\\ITAF_Repository\ErieFirstQuote\Resources\Results\\Results_Dashboard_Utility.xlsm, DYNAMICRESULTSPATH=C:\\ITAF_Repository\ErieFirstQuote\Resources\Results\\DynamicDetailed_Results.csv, INPUT_DATA_FILEPATH=C:\ITAF_Repository\Erie\Resources\Input\\\\\\\\\\\\\\\\\\\\\\\\\\\, EXPECTEDVALUESPATH=C:\\ITAF_Repository\ErieFirstQuote\Resources\Verification\\, EMAIL_ID=shalini.rajeev@majesco.com, TIMEOUT=100, VERIFCATIONTEMPLATEPATH=C:\\ITAF_Repository\ErieFirstQuote\Templates\\, HTMLREPORT_FILEPATH=C:\\ITAF_Repository\ErieFirstQuote\Resources\Results\\advancedReport.html, VERIFICATIONRESULTSPATH=C:\\ITAF_Repository\ErieFirstQuote\Resources\Results\\Summary_Results.csv, TRANSACTION_INFO=C:\\ITAF_Repository\ErieFirstQuote\CommonResources\UniqueNumber.xls, USERINTERACTION=True}
{RESULTOUTPUT=C:\ITAF_Repository\Erie\Resources\Results\\Report.csv, DASHBOARDRESULTSPATH=C:\\ITAF_Repository\ErieFirstQuote\Resources\Results\\CompareDetailed_Results.csv, CONTROLLER_FILEPATH=C:\ITAF_Repository\Erie\CommonResources\MainController.xls, CONSOLELOG_FILEPATH=C:\\ITAF_Repository\ErieFirstQuote\Resources\Results\\ConsoleOutputLog.txt, MSEXCEL=2003, BASEURL=https://www.erieinsurance.com/OnlineQuote/#/AboutYou?AgentNumber=DD1465, RESULT_FILEPATH=C:\\ITAF_Repository\ErieFirstQuote\Resources\Results\\, VERIFICATIONTABLELISTPATH=C:\\ITAF_Repository\ErieFirstQuote\CommonResources\VerificationTableList.xls, BROWSERTYPE=Chrome, PROJECT_NAME=Erie, EXECUTION_APPROACH=Linear, TRANSACTION_INPUT_FILEPATH=C:\ITAF_Repository\Erie\CommonResources\Transaction_Input_Files.xls, CYCLENUMBER=Cycle1, DASHBOARD_FILEPATH=C:\\ITAF_Repository\ErieFirstQuote\Resources\Results\\Results_Dashboard_Utility.xlsm, DYNAMICRESULTSPATH=C:\\ITAF_Repository\ErieFirstQuote\Resources\Results\\DynamicDetailed_Results.csv, INPUT_DATA_FILEPATH=C:\ITAF_Repository\Erie\Resources\Input\\\\\\\\\\\\\\\\\\\\\\\\\\\, EXPECTEDVALUESPATH=C:\\ITAF_Repository\ErieFirstQuote\Resources\Verification\\, EMAIL_ID=shalini.rajeev@majesco.com, TIMEOUT=100, VERIFCATIONTEMPLATEPATH=C:\\ITAF_Repository\ErieFirstQuote\Templates\\, HTMLREPORT_FILEPATH=C:\\ITAF_Repository\ErieFirstQuote\Resources\Results\\advancedReport.html, VERIFICATIONRESULTSPATH=C:\\ITAF_Repository\ErieFirstQuote\Resources\Results\\Summary_Results.csv, TRANSACTION_INFO=C:\\ITAF_Repository\ErieFirstQuote\CommonResources\UniqueNumber.xls, USERINTERACTION=True}
{RESULTOUTPUT=C:\ITAF_Repository\Erie\Resources\Results\\Report.csv, DASHBOARDRESULTSPATH=C:\\ITAF_Repository\ErieFirstQuote\Resources\Results\\CompareDetailed_Results.csv, CONTROLLER_FILEPATH=C:\ITAF_Repository\Erie\CommonResources\MainController.xls, CONSOLELOG_FILEPATH=C:\\ITAF_Repository\ErieFirstQuote\Resources\Results\\ConsoleOutputLog.txt, MSEXCEL=2003, BASEURL=https://www.erieinsurance.com/OnlineQuote/#/AboutYou?AgentNumber=DD1465, RESULT_FILEPATH=C:\\ITAF_Repository\ErieFirstQuote\Resources\Results\\, VERIFICATIONTABLELISTPATH=C:\\ITAF_Repository\ErieFirstQuote\CommonResources\VerificationTableList.xls, BROWSERTYPE=Chrome, PROJECT_NAME=Erie, EXECUTION_APPROACH=Linear, TRANSACTION_INPUT_FILEPATH=C:\ITAF_Repository\Erie\CommonResources\Transaction_Input_Files.xls, CYCLENUMBER=Cycle1, DASHBOARD_FILEPATH=C:\\ITAF_Repository\ErieFirstQuote\Resources\Results\\Results_Dashboard_Utility.xlsm, DYNAMICRESULTSPATH=C:\\ITAF_Repository\ErieFirstQuote\Resources\Results\\DynamicDetailed_Results.csv, INPUT_DATA_FILEPATH=C:\ITAF_Repository\Erie\Resources\Input\\\\\\\\\\\\\\\\\\\\\\\\\\\, EXPECTEDVALUESPATH=C:\ITAF_Repository\Erie\Resources\Verification\\\\\\\\\\\\\\\\\\\\\\\\\\\, EMAIL_ID=shalini.rajeev@majesco.com, TIMEOUT=100, VERIFCATIONTEMPLATEPATH=C:\\ITAF_Repository\ErieFirstQuote\Templates\\, HTMLREPORT_FILEPATH=C:\\ITAF_Repository\ErieFirstQuote\Resources\Results\\advancedReport.html, VERIFICATIONRESULTSPATH=C:\\ITAF_Repository\ErieFirstQuote\Resources\Results\\Summary_Results.csv, TRANSACTION_INFO=C:\\ITAF_Repository\ErieFirstQuote\CommonResources\UniqueNumber.xls, USERINTERACTION=True}
{RESULTOUTPUT=C:\ITAF_Repository\Erie\Resources\Results\\Report.csv, DASHBOARDRESULTSPATH=C:\\ITAF_Repository\ErieFirstQuote\Resources\Results\\CompareDetailed_Results.csv, CONTROLLER_FILEPATH=C:\ITAF_Repository\Erie\CommonResources\MainController.xls, CONSOLELOG_FILEPATH=C:\\ITAF_Repository\ErieFirstQuote\Resources\Results\\ConsoleOutputLog.txt, MSEXCEL=2003, BASEURL=https://www.erieinsurance.com/OnlineQuote/#/AboutYou?AgentNumber=DD1465, RESULT_FILEPATH=C:\\ITAF_Repository\ErieFirstQuote\Resources\Results\\, VERIFICATIONTABLELISTPATH=C:\\ITAF_Repository\ErieFirstQuote\CommonResources\VerificationTableList.xls, BROWSERTYPE=Chrome, PROJECT_NAME=Erie, EXECUTION_APPROACH=Linear, TRANSACTION_INPUT_FILEPATH=C:\ITAF_Repository\Erie\CommonResources\Transaction_Input_Files.xls, CYCLENUMBER=Cycle1, DASHBOARD_FILEPATH=C:\\ITAF_Repository\ErieFirstQuote\Resources\Results\\Results_Dashboard_Utility.xlsm, DYNAMICRESULTSPATH=C:\\ITAF_Repository\ErieFirstQuote\Resources\Results\\DynamicDetailed_Results.csv, INPUT_DATA_FILEPATH=C:\ITAF_Repository\Erie\Resources\Input\\\\\\\\\\\\\\\\\\\\\\\\\\\, EXPECTEDVALUESPATH=C:\ITAF_Repository\Erie\Resources\Verification\\\\\\\\\\\\\\\\\\\\\\\\\\\, EMAIL_ID=shalini.rajeev@majesco.com, TIMEOUT=100, VERIFCATIONTEMPLATEPATH=C:\\ITAF_Repository\ErieFirstQuote\Templates\\, HTMLREPORT_FILEPATH=C:\\ITAF_Repository\ErieFirstQuote\Resources\Results\\advancedReport.html, VERIFICATIONRESULTSPATH=C:\\ITAF_Repository\ErieFirstQuote\Resources\Results\\Summary_Results.csv, TRANSACTION_INFO=C:\ITAF_Repository\Erie\CommonResources\UniqueNumber.xls, USERINTERACTION=True}
{RESULTOUTPUT=C:\ITAF_Repository\Erie\Resources\Results\\Report.csv, DASHBOARDRESULTSPATH=C:\\ITAF_Repository\ErieFirstQuote\Resources\Results\\CompareDetailed_Results.csv, CONTROLLER_FILEPATH=C:\ITAF_Repository\Erie\CommonResources\MainController.xls, CONSOLELOG_FILEPATH=C:\\ITAF_Repository\ErieFirstQuote\Resources\Results\\ConsoleOutputLog.txt, MSEXCEL=2003, BASEURL=https://www.erieinsurance.com/OnlineQuote/#/AboutYou?AgentNumber=DD1465, RESULT_FILEPATH=C:\\ITAF_Repository\ErieFirstQuote\Resources\Results\\, VERIFICATIONTABLELISTPATH=C:\\ITAF_Repository\ErieFirstQuote\CommonResources\VerificationTableList.xls, BROWSERTYPE=Chrome, PROJECT_NAME=Erie, EXECUTION_APPROACH=Linear, TRANSACTION_INPUT_FILEPATH=C:\ITAF_Repository\Erie\CommonResources\Transaction_Input_Files.xls, CYCLENUMBER=Cycle1, DASHBOARD_FILEPATH=C:\\ITAF_Repository\ErieFirstQuote\Resources\Results\\Results_Dashboard_Utility.xlsm, DYNAMICRESULTSPATH=C:\\ITAF_Repository\ErieFirstQuote\Resources\Results\\DynamicDetailed_Results.csv, INPUT_DATA_FILEPATH=C:\ITAF_Repository\Erie\Resources\Input\\\\\\\\\\\\\\\\\\\\\\\\\\\, EXPECTEDVALUESPATH=C:\ITAF_Repository\Erie\Resources\Verification\\\\\\\\\\\\\\\\\\\\\\\\\\\, EMAIL_ID=shalini.rajeev@majesco.com, TIMEOUT=100, VERIFCATIONTEMPLATEPATH=C:\\ITAF_Repository\ErieFirstQuote\Templates\\, HTMLREPORT_FILEPATH=C:\\ITAF_Repository\ErieFirstQuote\Resources\Results\\advancedReport.html, VERIFICATIONRESULTSPATH=C:\\ITAF_Repository\ErieFirstQuote\Resources\Results\\Summary_Results.csv, TRANSACTION_INFO=C:\ITAF_Repository\Erie\CommonResources\UniqueNumber.xls, USERINTERACTION=True}
{RESULTOUTPUT=C:\ITAF_Repository\Erie\Resources\Results\\Report.csv, DASHBOARDRESULTSPATH=C:\\ITAF_Repository\ErieFirstQuote\Resources\Results\\CompareDetailed_Results.csv, CONTROLLER_FILEPATH=C:\ITAF_Repository\Erie\CommonResources\MainController.xls, CONSOLELOG_FILEPATH=C:\\ITAF_Repository\ErieFirstQuote\Resources\Results\\ConsoleOutputLog.txt, MSEXCEL=2003, BASEURL=https://www.erieinsurance.com/OnlineQuote/#/AboutYou?AgentNumber=DD1465, RESULT_FILEPATH=C:\\ITAF_Repository\ErieFirstQuote\Resources\Results\\, VERIFICATIONTABLELISTPATH=C:\\ITAF_Repository\ErieFirstQuote\CommonResources\VerificationTableList.xls, BROWSERTYPE=Chrome, PROJECT_NAME=Erie, EXECUTION_APPROACH=Linear, TRANSACTION_INPUT_FILEPATH=C:\ITAF_Repository\Erie\CommonResources\Transaction_Input_Files.xls, CYCLENUMBER=Cycle1, DASHBOARD_FILEPATH=C:\\ITAF_Repository\ErieFirstQuote\Resources\Results\\Results_Dashboard_Utility.xlsm, DYNAMICRESULTSPATH=C:\\ITAF_Repository\ErieFirstQuote\Resources\Results\\DynamicDetailed_Results.csv, INPUT_DATA_FILEPATH=C:\ITAF_Repository\Erie\Resources\Input\\\\\\\\\\\\\\\\\\\\\\\\\\\, EXPECTEDVALUESPATH=C:\ITAF_Repository\Erie\Resources\Verification\\\\\\\\\\\\\\\\\\\\\\\\\\\, EMAIL_ID=shalini.rajeev@majesco.com, TIMEOUT=100, VERIFCATIONTEMPLATEPATH=C:\\ITAF_Repository\ErieFirstQuote\Templates\\, HTMLREPORT_FILEPATH=C:\\ITAF_Repository\ErieFirstQuote\Resources\Results\\advancedReport.html, VERIFICATIONRESULTSPATH=C:\\ITAF_Repository\ErieFirstQuote\Resources\Results\\Summary_Results.csv, TRANSACTION_INFO=C:\ITAF_Repository\Erie\CommonResources\UniqueNumber.xls, USERINTERACTION=True}
{RESULTOUTPUT=C:\ITAF_Repository\Erie\Resources\Results\\Report.csv, DASHBOARDRESULTSPATH=C:\\ITAF_Repository\ErieFirstQuote\Resources\Results\\CompareDetailed_Results.csv, CONTROLLER_FILEPATH=C:\ITAF_Repository\Erie\CommonResources\MainController.xls, CONSOLELOG_FILEPATH=C:\\ITAF_Repository\ErieFirstQuote\Resources\Results\\ConsoleOutputLog.txt, MSEXCEL=2003, BASEURL=https://www.erieinsurance.com/OnlineQuote/#/AboutYou?AgentNumber=DD1465, RESULT_FILEPATH=C:\\ITAF_Repository\ErieFirstQuote\Resources\Results\\, VERIFICATIONTABLELISTPATH=C:\\ITAF_Repository\ErieFirstQuote\CommonResources\VerificationTableList.xls, BROWSERTYPE=Chrome, PROJECT_NAME=Erie, EXECUTION_APPROACH=Linear, TRANSACTION_INPUT_FILEPATH=C:\ITAF_Repository\Erie\CommonResources\Transaction_Input_Files.xls, CYCLENUMBER=Cycle1, DASHBOARD_FILEPATH=C:\\ITAF_Repository\ErieFirstQuote\Resources\Results\\Results_Dashboard_Utility.xlsm, DYNAMICRESULTSPATH=C:\\ITAF_Repository\ErieFirstQuote\Resources\Results\\DynamicDetailed_Results.csv, INPUT_DATA_FILEPATH=C:\ITAF_Repository\Erie\Resources\Input\\\\\\\\\\\\\\\\\\\\\\\\\\\, EXPECTEDVALUESPATH=C:\ITAF_Repository\Erie\Resources\Verification\\\\\\\\\\\\\\\\\\\\\\\\\\\, EMAIL_ID=shalini.rajeev@majesco.com, TIMEOUT=100, VERIFCATIONTEMPLATEPATH=C:\\ITAF_Repository\ErieFirstQuote\Templates\\, HTMLREPORT_FILEPATH=C:\\ITAF_Repository\ErieFirstQuote\Resources\Results\\advancedReport.html, VERIFICATIONRESULTSPATH=C:\\ITAF_Repository\ErieFirstQuote\Resources\Results\\Summary_Results.csv, TRANSACTION_INFO=C:\ITAF_Repository\Erie\CommonResources\UniqueNumber.xls, USERINTERACTION=True}
{RESULTOUTPUT=C:\ITAF_Repository\Erie\Resources\Results\\Report.csv, DASHBOARDRESULTSPATH=C:\ITAF_Repository\Erie\Resources\Results\\CompareDetailed_Results.csv, CONTROLLER_FILEPATH=C:\ITAF_Repository\Erie\CommonResources\MainController.xls, CONSOLELOG_FILEPATH=C:\\ITAF_Repository\ErieFirstQuote\Resources\Results\\ConsoleOutputLog.txt, MSEXCEL=2003, BASEURL=https://www.erieinsurance.com/OnlineQuote/#/AboutYou?AgentNumber=DD1465, RESULT_FILEPATH=C:\\ITAF_Repository\ErieFirstQuote\Resources\Results\\, VERIFICATIONTABLELISTPATH=C:\\ITAF_Repository\ErieFirstQuote\CommonResources\VerificationTableList.xls, BROWSERTYPE=Chrome, PROJECT_NAME=Erie, EXECUTION_APPROACH=Linear, TRANSACTION_INPUT_FILEPATH=C:\ITAF_Repository\Erie\CommonResources\Transaction_Input_Files.xls, CYCLENUMBER=Cycle1, DASHBOARD_FILEPATH=C:\\ITAF_Repository\ErieFirstQuote\Resources\Results\\Results_Dashboard_Utility.xlsm, DYNAMICRESULTSPATH=C:\\ITAF_Repository\ErieFirstQuote\Resources\Results\\DynamicDetailed_Results.csv, INPUT_DATA_FILEPATH=C:\ITAF_Repository\Erie\Resources\Input\\\\\\\\\\\\\\\\\\\\\\\\\\\, EXPECTEDVALUESPATH=C:\ITAF_Repository\Erie\Resources\Verification\\\\\\\\\\\\\\\\\\\\\\\\\\\, EMAIL_ID=shalini.rajeev@majesco.com, TIMEOUT=100, VERIFCATIONTEMPLATEPATH=C:\\ITAF_Repository\ErieFirstQuote\Templates\\, HTMLREPORT_FILEPATH=C:\\ITAF_Repository\ErieFirstQuote\Resources\Results\\advancedReport.html, VERIFICATIONRESULTSPATH=C:\\ITAF_Repository\ErieFirstQuote\Resources\Results\\Summary_Results.csv, TRANSACTION_INFO=C:\ITAF_Repository\Erie\CommonResources\UniqueNumber.xls, USERINTERACTION=True}
{RESULTOUTPUT=C:\ITAF_Repository\Erie\Resources\Results\\Report.csv, DASHBOARDRESULTSPATH=C:\ITAF_Repository\Erie\Resources\Results\\CompareDetailed_Results.csv, CONTROLLER_FILEPATH=C:\ITAF_Repository\Erie\CommonResources\MainController.xls, CONSOLELOG_FILEPATH=C:\\ITAF_Repository\ErieFirstQuote\Resources\Results\\ConsoleOutputLog.txt, MSEXCEL=2003, BASEURL=https://www.erieinsurance.com/OnlineQuote/#/AboutYou?AgentNumber=DD1465, RESULT_FILEPATH=C:\\ITAF_Repository\ErieFirstQuote\Resources\Results\\, VERIFICATIONTABLELISTPATH=C:\\ITAF_Repository\ErieFirstQuote\CommonResources\VerificationTableList.xls, BROWSERTYPE=Chrome, PROJECT_NAME=Erie, EXECUTION_APPROACH=Linear, TRANSACTION_INPUT_FILEPATH=C:\ITAF_Repository\Erie\CommonResources\Transaction_Input_Files.xls, CYCLENUMBER=Cycle1, DASHBOARD_FILEPATH=C:\\ITAF_Repository\ErieFirstQuote\Resources\Results\\Results_Dashboard_Utility.xlsm, DYNAMICRESULTSPATH=C:\ITAF_Repository\Erie\Resources\Results\\DynamicDetailed_Results.csv, INPUT_DATA_FILEPATH=C:\ITAF_Repository\Erie\Resources\Input\\\\\\\\\\\\\\\\\\\\\\\\\\\, EXPECTEDVALUESPATH=C:\ITAF_Repository\Erie\Resources\Verification\\\\\\\\\\\\\\\\\\\\\\\\\\\, EMAIL_ID=shalini.rajeev@majesco.com, TIMEOUT=100, VERIFCATIONTEMPLATEPATH=C:\\ITAF_Repository\ErieFirstQuote\Templates\\, HTMLREPORT_FILEPATH=C:\\ITAF_Repository\ErieFirstQuote\Resources\Results\\advancedReport.html, VERIFICATIONRESULTSPATH=C:\\ITAF_Repository\ErieFirstQuote\Resources\Results\\Summary_Results.csv, TRANSACTION_INFO=C:\ITAF_Repository\Erie\CommonResources\UniqueNumber.xls, USERINTERACTION=True}
{RESULTOUTPUT=C:\ITAF_Repository\Erie\Resources\Results\\Report.csv, DASHBOARDRESULTSPATH=C:\ITAF_Repository\Erie\Resources\Results\\CompareDetailed_Results.csv, CONTROLLER_FILEPATH=C:\ITAF_Repository\Erie\CommonResources\MainController.xls, CONSOLELOG_FILEPATH=C:\\ITAF_Repository\ErieFirstQuote\Resources\Results\\ConsoleOutputLog.txt, MSEXCEL=2003, BASEURL=https://www.erieinsurance.com/OnlineQuote/#/AboutYou?AgentNumber=DD1465, RESULT_FILEPATH=C:\\ITAF_Repository\ErieFirstQuote\Resources\Results\\, VERIFICATIONTABLELISTPATH=C:\\ITAF_Repository\ErieFirstQuote\CommonResources\VerificationTableList.xls, BROWSERTYPE=Chrome, PROJECT_NAME=Erie, EXECUTION_APPROACH=Linear, TRANSACTION_INPUT_FILEPATH=C:\ITAF_Repository\Erie\CommonResources\Transaction_Input_Files.xls, CYCLENUMBER=Cycle1, DASHBOARD_FILEPATH=C:\ITAF_Repository\Erie\Resources\Results\\Results_Dashboard_Utility.xlsm, DYNAMICRESULTSPATH=C:\ITAF_Repository\Erie\Resources\Results\\DynamicDetailed_Results.csv, INPUT_DATA_FILEPATH=C:\ITAF_Repository\Erie\Resources\Input\\\\\\\\\\\\\\\\\\\\\\\\\\\, EXPECTEDVALUESPATH=C:\ITAF_Repository\Erie\Resources\Verification\\\\\\\\\\\\\\\\\\\\\\\\\\\, EMAIL_ID=shalini.rajeev@majesco.com, TIMEOUT=100, VERIFCATIONTEMPLATEPATH=C:\\ITAF_Repository\ErieFirstQuote\Templates\\, HTMLREPORT_FILEPATH=C:\\ITAF_Repository\ErieFirstQuote\Resources\Results\\advancedReport.html, VERIFICATIONRESULTSPATH=C:\\ITAF_Repository\ErieFirstQuote\Resources\Results\\Summary_Results.csv, TRANSACTION_INFO=C:\ITAF_Repository\Erie\CommonResources\UniqueNumber.xls, USERINTERACTION=True}
{RESULTOUTPUT=C:\ITAF_Repository\Erie\Resources\Results\\Report.csv, DASHBOARDRESULTSPATH=C:\ITAF_Repository\Erie\Resources\Results\\CompareDetailed_Results.csv, CONTROLLER_FILEPATH=C:\ITAF_Repository\Erie\CommonResources\MainController.xls, CONSOLELOG_FILEPATH=C:\\ITAF_Repository\ErieFirstQuote\Resources\Results\\ConsoleOutputLog.txt, MSEXCEL=2003, BASEURL=https://www.erieinsurance.com/OnlineQuote/#/AboutYou?AgentNumber=DD1465, RESULT_FILEPATH=C:\\ITAF_Repository\ErieFirstQuote\Resources\Results\\, VERIFICATIONTABLELISTPATH=C:\\ITAF_Repository\ErieFirstQuote\CommonResources\VerificationTableList.xls, BROWSERTYPE=Chrome, PROJECT_NAME=Erie, EXECUTION_APPROACH=Linear, TRANSACTION_INPUT_FILEPATH=C:\ITAF_Repository\Erie\CommonResources\Transaction_Input_Files.xls, CYCLENUMBER=Cycle1, DASHBOARD_FILEPATH=C:\ITAF_Repository\Erie\Resources\Results\\Results_Dashboard_Utility.xlsm, DYNAMICRESULTSPATH=C:\ITAF_Repository\Erie\Resources\Results\\DynamicDetailed_Results.csv, INPUT_DATA_FILEPATH=C:\ITAF_Repository\Erie\Resources\Input\\\\\\\\\\\\\\\\\\\\\\\\\\\, EXPECTEDVALUESPATH=C:\ITAF_Repository\Erie\Resources\Verification\\\\\\\\\\\\\\\\\\\\\\\\\\\, EMAIL_ID=shalini.rajeev@majesco.com, TIMEOUT=100, VERIFCATIONTEMPLATEPATH=C:\\ITAF_Repository\ErieFirstQuote\Templates\\, HTMLREPORT_FILEPATH=C:\ITAF_Repository\Erie\Resources\Results\\advancedReport.html, VERIFICATIONRESULTSPATH=C:\\ITAF_Repository\ErieFirstQuote\Resources\Results\\Summary_Results.csv, TRANSACTION_INFO=C:\ITAF_Repository\Erie\CommonResources\UniqueNumber.xls, USERINTERACTION=True}
{RESULTOUTPUT=C:\ITAF_Repository\Erie\Resources\Results\\Report.csv, DASHBOARDRESULTSPATH=C:\ITAF_Repository\Erie\Resources\Results\\CompareDetailed_Results.csv, CONTROLLER_FILEPATH=C:\ITAF_Repository\Erie\CommonResources\MainController.xls, CONSOLELOG_FILEPATH=C:\ITAF_Repository\Erie\Resources\Results\\ConsoleOutputLog.txt, MSEXCEL=2003, BASEURL=https://www.erieinsurance.com/OnlineQuote/#/AboutYou?AgentNumber=DD1465, RESULT_FILEPATH=C:\\ITAF_Repository\ErieFirstQuote\Resources\Results\\, VERIFICATIONTABLELISTPATH=C:\\ITAF_Repository\ErieFirstQuote\CommonResources\VerificationTableList.xls, BROWSERTYPE=Chrome, PROJECT_NAME=Erie, EXECUTION_APPROACH=Linear, TRANSACTION_INPUT_FILEPATH=C:\ITAF_Repository\Erie\CommonResources\Transaction_Input_Files.xls, CYCLENUMBER=Cycle1, DASHBOARD_FILEPATH=C:\ITAF_Repository\Erie\Resources\Results\\Results_Dashboard_Utility.xlsm, DYNAMICRESULTSPATH=C:\ITAF_Repository\Erie\Resources\Results\\DynamicDetailed_Results.csv, INPUT_DATA_FILEPATH=C:\ITAF_Repository\Erie\Resources\Input\\\\\\\\\\\\\\\\\\\\\\\\\\\, EXPECTEDVALUESPATH=C:\ITAF_Repository\Erie\Resources\Verification\\\\\\\\\\\\\\\\\\\\\\\\\\\, EMAIL_ID=shalini.rajeev@majesco.com, TIMEOUT=100, VERIFCATIONTEMPLATEPATH=C:\\ITAF_Repository\ErieFirstQuote\Templates\\, HTMLREPORT_FILEPATH=C:\ITAF_Repository\Erie\Resources\Results\\advancedReport.html, VERIFICATIONRESULTSPATH=C:\\ITAF_Repository\ErieFirstQuote\Resources\Results\\Summary_Results.csv, TRANSACTION_INFO=C:\ITAF_Repository\Erie\CommonResources\UniqueNumber.xls, USERINTERACTION=True}
{RESULTOUTPUT=C:\ITAF_Repository\Erie\Resources\Results\\Report.csv, DASHBOARDRESULTSPATH=C:\ITAF_Repository\Erie\Resources\Results\\CompareDetailed_Results.csv, CONTROLLER_FILEPATH=C:\ITAF_Repository\Erie\CommonResources\MainController.xls, CONSOLELOG_FILEPATH=C:\ITAF_Repository\Erie\Resources\Results\\ConsoleOutputLog.txt, MSEXCEL=2003, BASEURL=https://www.erieinsurance.com/OnlineQuote/#/AboutYou?AgentNumber=DD1465, RESULT_FILEPATH=C:\\ITAF_Repository\ErieFirstQuote\Resources\Results\\, VERIFICATIONTABLELISTPATH=C:\\ITAF_Repository\ErieFirstQuote\CommonResources\VerificationTableList.xls, BROWSERTYPE=Chrome, PROJECT_NAME=Erie, EXECUTION_APPROACH=Linear, TRANSACTION_INPUT_FILEPATH=C:\ITAF_Repository\Erie\CommonResources\Transaction_Input_Files.xls, CYCLENUMBER=Cycle1, DASHBOARD_FILEPATH=C:\ITAF_Repository\Erie\Resources\Results\\Results_Dashboard_Utility.xlsm, DYNAMICRESULTSPATH=C:\ITAF_Repository\Erie\Resources\Results\\DynamicDetailed_Results.csv, INPUT_DATA_FILEPATH=C:\ITAF_Repository\Erie\Resources\Input\\\\\\\\\\\\\\\\\\\\\\\\\\\, EXPECTEDVALUESPATH=C:\ITAF_Repository\Erie\Resources\Verification\\\\\\\\\\\\\\\\\\\\\\\\\\\, EMAIL_ID=shalini.rajeev@majesco.com, TIMEOUT=100, VERIFCATIONTEMPLATEPATH=C:\\ITAF_Repository\ErieFirstQuote\Templates\\, HTMLREPORT_FILEPATH=C:\ITAF_Repository\Erie\Resources\Results\\advancedReport.html, VERIFICATIONRESULTSPATH=C:\ITAF_Repository\Erie\Resources\Results\\Summary_Results.csv, TRANSACTION_INFO=C:\ITAF_Repository\Erie\CommonResources\UniqueNumber.xls, USERINTERACTION=True}
{RESULTOUTPUT=C:\ITAF_Repository\Erie\Resources\Results\\Report.csv, DASHBOARDRESULTSPATH=C:\ITAF_Repository\Erie\Resources\Results\\CompareDetailed_Results.csv, CONTROLLER_FILEPATH=C:\ITAF_Repository\Erie\CommonResources\MainController.xls, CONSOLELOG_FILEPATH=C:\ITAF_Repository\Erie\Resources\Results\\ConsoleOutputLog.txt, MSEXCEL=2003, BASEURL=https://www.erieinsurance.com/OnlineQuote/#/AboutYou?AgentNumber=DD1465, RESULT_FILEPATH=C:\\ITAF_Repository\ErieFirstQuote\Resources\Results\\, VERIFICATIONTABLELISTPATH=C:\\ITAF_Repository\ErieFirstQuote\CommonResources\VerificationTableList.xls, BROWSERTYPE=Chrome, PROJECT_NAME=Erie, EXECUTION_APPROACH=Linear, TRANSACTION_INPUT_FILEPATH=C:\ITAF_Repository\Erie\CommonResources\Transaction_Input_Files.xls, CYCLENUMBER=Cycle1, DASHBOARD_FILEPATH=C:\ITAF_Repository\Erie\Resources\Results\\Results_Dashboard_Utility.xlsm, DYNAMICRESULTSPATH=C:\ITAF_Repository\Erie\Resources\Results\\DynamicDetailed_Results.csv, INPUT_DATA_FILEPATH=C:\ITAF_Repository\Erie\Resources\Input\\\\\\\\\\\\\\\\\\\\\\\\\\\, EXPECTEDVALUESPATH=C:\ITAF_Repository\Erie\Resources\Verification\\\\\\\\\\\\\\\\\\\\\\\\\\\, EMAIL_ID=shalini.rajeev@majesco.com, TIMEOUT=100, VERIFCATIONTEMPLATEPATH=C:\\ITAF_Repository\ErieFirstQuote\Templates\\, HTMLREPORT_FILEPATH=C:\ITAF_Repository\Erie\Resources\Results\\advancedReport.html, VERIFICATIONRESULTSPATH=C:\ITAF_Repository\Erie\Resources\Results\\Summary_Results.csv, TRANSACTION_INFO=C:\ITAF_Repository\Erie\CommonResources\UniqueNumber.xls, USERINTERACTION=True}
{RESULTOUTPUT=C:\ITAF_Repository\Erie\Resources\Results\\Report.csv, DASHBOARDRESULTSPATH=C:\ITAF_Repository\Erie\Resources\Results\\CompareDetailed_Results.csv, CONTROLLER_FILEPATH=C:\ITAF_Repository\Erie\CommonResources\MainController.xls, CONSOLELOG_FILEPATH=C:\ITAF_Repository\Erie\Resources\Results\\ConsoleOutputLog.txt, MSEXCEL=2003, BASEURL=https://www.erieinsurance.com/OnlineQuote/#/AboutYou?AgentNumber=DD1465, RESULT_FILEPATH=C:\\ITAF_Repository\ErieFirstQuote\Resources\Results\\, VERIFICATIONTABLELISTPATH=C:\\ITAF_Repository\ErieFirstQuote\CommonResources\VerificationTableList.xls, BROWSERTYPE=Chrome, PROJECT_NAME=Erie, EXECUTION_APPROACH=Linear, TRANSACTION_INPUT_FILEPATH=C:\ITAF_Repository\Erie\CommonResources\Transaction_Input_Files.xls, CYCLENUMBER=Cycle1, DASHBOARD_FILEPATH=C:\ITAF_Repository\Erie\Resources\Results\\Results_Dashboard_Utility.xlsm, DYNAMICRESULTSPATH=C:\ITAF_Repository\Erie\Resources\Results\\DynamicDetailed_Results.csv, INPUT_DATA_FILEPATH=C:\ITAF_Repository\Erie\Resources\Input\\\\\\\\\\\\\\\\\\\\\\\\\\\, EXPECTEDVALUESPATH=C:\ITAF_Repository\Erie\Resources\Verification\\\\\\\\\\\\\\\\\\\\\\\\\\\, EMAIL_ID=shalini.rajeev@majesco.com, TIMEOUT=60, VERIFCATIONTEMPLATEPATH=C:\\ITAF_Repository\ErieFirstQuote\Templates\\, HTMLREPORT_FILEPATH=C:\ITAF_Repository\Erie\Resources\Results\\advancedReport.html, VERIFICATIONRESULTSPATH=C:\ITAF_Repository\Erie\Resources\Results\\Summary_Results.csv, TRANSACTION_INFO=C:\ITAF_Repository\Erie\CommonResources\UniqueNumber.xls, USERINTERACTION=True}
{RESULTOUTPUT=C:\ITAF_Repository\Erie\Resources\Results\\Report.csv, DASHBOARDRESULTSPATH=C:\ITAF_Repository\Erie\Resources\Results\\CompareDetailed_Results.csv, CONTROLLER_FILEPATH=C:\ITAF_Repository\Erie\CommonResources\MainController.xls, CONSOLELOG_FILEPATH=C:\ITAF_Repository\Erie\Resources\Results\\ConsoleOutputLog.txt, MSEXCEL=2003, BASEURL=https://www.erieinsurance.com/OnlineQuote/#/AboutYou?AgentNumber=DD1465, RESULT_FILEPATH=C:\\ITAF_Repository\ErieFirstQuote\Resources\Results\\, VERIFICATIONTABLELISTPATH=C:\\ITAF_Repository\ErieFirstQuote\CommonResources\VerificationTableList.xls, BROWSERTYPE=Chrome, PROJECT_NAME=Erie, EXECUTION_APPROACH=Linear, TRANSACTION_INPUT_FILEPATH=C:\ITAF_Repository\Erie\CommonResources\Transaction_Input_Files.xls, CYCLENUMBER=Cycle1, DASHBOARD_FILEPATH=C:\ITAF_Repository\Erie\Resources\Results\\Results_Dashboard_Utility.xlsm, DYNAMICRESULTSPATH=C:\ITAF_Repository\Erie\Resources\Results\\DynamicDetailed_Results.csv, INPUT_DATA_FILEPATH=C:\ITAF_Repository\Erie\Resources\Input\\\\\\\\\\\\\\\\\\\\\\\\\\\, EXPECTEDVALUESPATH=C:\ITAF_Repository\Erie\Resources\Verification\\\\\\\\\\\\\\\\\\\\\\\\\\\, EMAIL_ID=shalini.rajeev@majesco.com, TIMEOUT=60, VERIFCATIONTEMPLATEPATH=C:\ITAF_Repository\Erie\Templates\\\\\\\\\\\\\\\\\\\\\\\\\\\, HTMLREPORT_FILEPATH=C:\ITAF_Repository\Erie\Resources\Results\\advancedReport.html, VERIFICATIONRESULTSPATH=C:\ITAF_Repository\Erie\Resources\Results\\Summary_Results.csv, TRANSACTION_INFO=C:\ITAF_Repository\Erie\CommonResources\UniqueNumber.xls, USERINTERACTION=True}
{RESULTOUTPUT=C:\ITAF_Repository\Erie\Resources\Results\\Report.csv, DASHBOARDRESULTSPATH=C:\ITAF_Repository\Erie\Resources\Results\\CompareDetailed_Results.csv, CONTROLLER_FILEPATH=C:\ITAF_Repository\Erie\CommonResources\MainController.xls, CONSOLELOG_FILEPATH=C:\ITAF_Repository\Erie\Resources\Results\\ConsoleOutputLog.txt, MSEXCEL=2003, BASEURL=https://www.erieinsurance.com/OnlineQuote/#/AboutYou?AgentNumber=DD1465, RESULT_FILEPATH=C:\ITAF_Repository\Erie\Resources\Results\\\\\\\\\\\\\\\\\\\\\\\\\\\, VERIFICATIONTABLELISTPATH=C:\\ITAF_Repository\ErieFirstQuote\CommonResources\VerificationTableList.xls, BROWSERTYPE=Chrome, PROJECT_NAME=Erie, EXECUTION_APPROACH=Linear, TRANSACTION_INPUT_FILEPATH=C:\ITAF_Repository\Erie\CommonResources\Transaction_Input_Files.xls, CYCLENUMBER=Cycle1, DASHBOARD_FILEPATH=C:\ITAF_Repository\Erie\Resources\Results\\Results_Dashboard_Utility.xlsm, DYNAMICRESULTSPATH=C:\ITAF_Repository\Erie\Resources\Results\\DynamicDetailed_Results.csv, INPUT_DATA_FILEPATH=C:\ITAF_Repository\Erie\Resources\Input\\\\\\\\\\\\\\\\\\\\\\\\\\\, EXPECTEDVALUESPATH=C:\ITAF_Repository\Erie\Resources\Verification\\\\\\\\\\\\\\\\\\\\\\\\\\\, EMAIL_ID=shalini.rajeev@majesco.com, TIMEOUT=60, VERIFCATIONTEMPLATEPATH=C:\ITAF_Repository\Erie\Templates\\\\\\\\\\\\\\\\\\\\\\\\\\\, HTMLREPORT_FILEPATH=C:\ITAF_Repository\Erie\Resources\Results\\advancedReport.html, VERIFICATIONRESULTSPATH=C:\ITAF_Repository\Erie\Resources\Results\\Summary_Results.csv, TRANSACTION_INFO=C:\ITAF_Repository\Erie\CommonResources\UniqueNumber.xls, USERINTERACTION=True}
{RESULTOUTPUT=C:\ITAF_Repository\Erie\Resources\Results\\Report.csv, DASHBOARDRESULTSPATH=C:\ITAF_Repository\Erie\Resources\Results\\CompareDetailed_Results.csv, CONTROLLER_FILEPATH=C:\ITAF_Repository\Erie\CommonResources\MainController.xls, CONSOLELOG_FILEPATH=C:\ITAF_Repository\Erie\Resources\Results\\ConsoleOutputLog.txt, MSEXCEL=2003, BASEURL=https://www.erieinsurance.com/OnlineQuote/#/AboutYou?AgentNumber=DD1465, RESULT_FILEPATH=C:\ITAF_Repository\Erie\Resources\Results\\\\\\\\\\\\\\\\\\\\\\\\\\\, VERIFICATIONTABLELISTPATH=C:\ITAF_Repository\Erie\CommonResources\VerificationTableList.xls, BROWSERTYPE=Chrome, PROJECT_NAME=Erie, EXECUTION_APPROACH=Linear, TRANSACTION_INPUT_FILEPATH=C:\ITAF_Repository\Erie\CommonResources\Transaction_Input_Files.xls, CYCLENUMBER=Cycle1, DASHBOARD_FILEPATH=C:\ITAF_Repository\Erie\Resources\Results\\Results_Dashboard_Utility.xlsm, DYNAMICRESULTSPATH=C:\ITAF_Repository\Erie\Resources\Results\\DynamicDetailed_Results.csv, INPUT_DATA_FILEPATH=C:\ITAF_Repository\Erie\Resources\Input\\\\\\\\\\\\\\\\\\\\\\\\\\\, EXPECTEDVALUESPATH=C:\ITAF_Repository\Erie\Resources\Verification\\\\\\\\\\\\\\\\\\\\\\\\\\\, EMAIL_ID=shalini.rajeev@majesco.com, TIMEOUT=60, VERIFCATIONTEMPLATEPATH=C:\ITAF_Repository\Erie\Templates\\\\\\\\\\\\\\\\\\\\\\\\\\\, HTMLREPORT_FILEPATH=C:\ITAF_Repository\Erie\Resources\Results\\advancedReport.html, VERIFICATIONRESULTSPATH=C:\ITAF_Repository\Erie\Resources\Results\\Summary_Results.csv, TRANSACTION_INFO=C:\ITAF_Repository\Erie\CommonResources\UniqueNumber.xls, USERINTERACTION=True}
{RESULTOUTPUT=C:\ITAF_Repository\Erie\Resources\Results\\Report.csv, DASHBOARDRESULTSPATH=C:\ITAF_Repository\Erie\Resources\Results\\CompareDetailed_Results.csv, CONTROLLER_FILEPATH=C:\ITAF_Repository\Erie\CommonResources\MainController.xls, CONSOLELOG_FILEPATH=C:\ITAF_Repository\Erie\Resources\Results\\ConsoleOutputLog.txt, MSEXCEL=2003, BASEURL=https://www.erieinsurance.com/OnlineQuote/#/AboutYou?AgentNumber=DD1465, RESULT_FILEPATH=C:\ITAF_Repository\Erie\Resources\Results\\\\\\\\\\\\\\\\\\\\\\\\\\\, VERIFICATIONTABLELISTPATH=C:\ITAF_Repository\Erie\CommonResources\VerificationTableList.xls, BROWSERTYPE=Chrome, PROJECT_NAME=Erie, EXECUTION_APPROACH=Linear, TRANSACTION_INPUT_FILEPATH=C:\ITAF_Repository\Erie\CommonResources\Transaction_Input_Files.xls, CYCLENUMBER=Cycle1, DASHBOARD_FILEPATH=C:\ITAF_Repository\Erie\Resources\Results\\Results_Dashboard_Utility.xlsm, DYNAMICRESULTSPATH=C:\ITAF_Repository\Erie\Resources\Results\\DynamicDetailed_Results.csv, INPUT_DATA_FILEPATH=C:\ITAF_Repository\Erie\Resources\Input\\\\\\\\\\\\\\\\\\\\\\\\\\\, EXPECTEDVALUESPATH=C:\ITAF_Repository\Erie\Resources\Verification\\\\\\\\\\\\\\\\\\\\\\\\\\\, EMAIL_ID=anurag.bhadoria@majesco.com, TIMEOUT=60, VERIFCATIONTEMPLATEPATH=C:\ITAF_Repository\Erie\Templates\\\\\\\\\\\\\\\\\\\\\\\\\\\, HTMLREPORT_FILEPATH=C:\ITAF_Repository\Erie\Resources\Results\\advancedReport.html, VERIFICATIONRESULTSPATH=C:\ITAF_Repository\Erie\Resources\Results\\Summary_Results.csv, TRANSACTION_INFO=C:\ITAF_Repository\Erie\CommonResources\UniqueNumber.xls, USERINTERACTION=True}
project name: Erie
%%%%%%%%%%%%%%%%%%%
%%%%%%%%%%%%%%%%%%%=D:\Apache Software Foundation\Tomcat 8.5\webapps\ITAFWebApplication\WEB-INF\extent-config.xml
