/D:/Testing_Workspace/iTAFSeleniumWeb/bin/
Extent Reports config file path is: D:\Testing_Workspace\iTAFSeleniumWeb\extent-config.xml
formula or string:D:\Testing_Workspace\iTAFSeleniumWeb\Erie\CommonResources\MainController.xls
In MainController value of pauseExecution1:false
FilePath is:D:\Testing_Workspace\iTAFSeleniumWeb\Erie\CommonResources\MainController.xls
SheetName is:MainControlSheet
bhaskar exception
Execute Flag is N
In MainController value of pauseExecution2:false
Value of controllerTransactionType: CustomerInfo
FilePath is:D:\Testing_Workspace\iTAFSeleniumWeb\Erie\CommonResources\Transaction_Input_Files.xls
SheetName is:Web_Transaction_Input_Files
bhaskar transactionType:CustomerInfo
bhaskar directoryPath:Erie
bhaskar inputExcel:CustomerInfo.xls
operationType is:Input
D:\Testing_Workspace\iTAFSeleniumWeb\Erie\Resources\Input\Erie\CustomerInfo.xls
filePath is:D:\Testing_Workspace\iTAFSeleniumWeb\Erie\Resources\Input\Erie\CustomerInfo.xls

FilePath is:D:\Testing_Workspace\iTAFSeleniumWeb\Erie\Resources\Input\Erie\CustomerInfo.xls
SheetName is:Values
bhaskar tCase:TC1
bhaskar tType:CustomerInfo
1
FilePath is:D:\Testing_Workspace\iTAFSeleniumWeb\Erie\Resources\Input\Erie\CustomerInfo.xls
SheetName is:Values
Null
!@#$%^&*!@#$%^&*ctrlValue:John
!@#$%^&*!@#$%^&*ctrlValue:M
!@#$%^&*!@#$%^&*ctrlValue:Stoces
inside bhaskar2
WebList ctrlValue is:Jr
Null
!@#$%^&*!@#$%^&*ctrlValue:09
!@#$%^&*!@#$%^&*ctrlValue:24
!@#$%^&*!@#$%^&*ctrlValue:1986
Null
!@#$%^&*!@#$%^&*ctrlValue:105 Random Hills Park
Null
!@#$%^&*!@#$%^&*ctrlValue:23901
!@#$%^&*!@#$%^&*ctrlValue:FairFax
Null
inside bhaskar2
WebList ctrlValue is:Buckingham
ImageType is Null
Index is Null
ColumnName is Null
RowNo is Null
ColumnNo is Null
DynamicIndex is Null
Null
ImageType is Null
Index is Null
ColumnName is Null
RowNo is Null
ColumnNo is Null
DynamicIndex is Null
Null
ImageType is Null
Index is Null
ColumnName is Null
RowNo is Null
ColumnNo is Null
DynamicIndex is Null
Null
deleted existing report sheet
Value of controllerTransactionType: VehiclesInfo
FilePath is:D:\Testing_Workspace\iTAFSeleniumWeb\Erie\CommonResources\Transaction_Input_Files.xls
SheetName is:Web_Transaction_Input_Files
bhaskar transactionType:CustomerInfo
bhaskar directoryPath:Erie
bhaskar inputExcel:CustomerInfo.xls
bhaskar transactionType:VehiclesInfo
bhaskar directoryPath:Erie
bhaskar inputExcel:VehiclesInfo.xls
operationType is:Input
D:\Testing_Workspace\iTAFSeleniumWeb\Erie\Resources\Input\Erie\VehiclesInfo.xls
filePath is:D:\Testing_Workspace\iTAFSeleniumWeb\Erie\Resources\Input\Erie\VehiclesInfo.xls

FilePath is:D:\Testing_Workspace\iTAFSeleniumWeb\Erie\Resources\Input\Erie\VehiclesInfo.xls
SheetName is:Values
bhaskar tCase:TC1
bhaskar tType:VehiclesInfo
1
FilePath is:D:\Testing_Workspace\iTAFSeleniumWeb\Erie\Resources\Input\Erie\VehiclesInfo.xls
SheetName is:Values
inside bhaskar2
WebList ctrlValue is:Automobile
Null
inside bhaskar2
WebList ctrlValue is:Work/School
Null
!@#$%^&*!@#$%^&*ctrlValue:2012
Null
In method doaction debug1
Null
!@#$%^&*!@#$%^&*ctrlValue:10,000
Null
!@#$%^&*!@#$%^&*ctrlValue:Audi
Null
Null
Null
!@#$%^&*!@#$%^&*ctrlValue:A3 2.0T Tdi Premium
Null
Null
Null
Null
Null
ImageType is Null
Null
ImageType is Null
Index is Null
ColumnName is Null
RowNo is Null
ColumnNo is Null
DynamicIndex is Null
Null
deleted existing report sheet
Value of controllerTransactionType: DriverDetails
FilePath is:D:\Testing_Workspace\iTAFSeleniumWeb\Erie\CommonResources\Transaction_Input_Files.xls
SheetName is:Web_Transaction_Input_Files
bhaskar transactionType:CustomerInfo
bhaskar directoryPath:Erie
bhaskar inputExcel:CustomerInfo.xls
bhaskar transactionType:VehiclesInfo
bhaskar directoryPath:Erie
bhaskar inputExcel:VehiclesInfo.xls
bhaskar transactionType:DriverDetails
bhaskar directoryPath:Erie
bhaskar inputExcel:DriverDetails.xls
operationType is:Input
D:\Testing_Workspace\iTAFSeleniumWeb\Erie\Resources\Input\Erie\DriverDetails.xls
filePath is:D:\Testing_Workspace\iTAFSeleniumWeb\Erie\Resources\Input\Erie\DriverDetails.xls

FilePath is:D:\Testing_Workspace\iTAFSeleniumWeb\Erie\Resources\Input\Erie\DriverDetails.xls
SheetName is:Values
bhaskar tCase:TC1
bhaskar tType:DriverDetails
1
FilePath is:D:\Testing_Workspace\iTAFSeleniumWeb\Erie\Resources\Input\Erie\DriverDetails.xls
SheetName is:Values
Index is Null
ColumnName is Null
RowNo is Null
ColumnNo is Null
DynamicIndex is Null
Null
Index is Null
ColumnName is Null
RowNo is Null
ColumnNo is Null
DynamicIndex is Null
Null
Index is Null
ColumnName is Null
RowNo is Null
ColumnNo is Null
DynamicIndex is Null
inside bhaskar2
WebList ctrlValue is:Single
Index is Null
ColumnName is Null
RowNo is Null
ColumnNo is Null
DynamicIndex is Null
Null
Index is Null
ColumnName is Null
RowNo is Null
ColumnNo is Null
DynamicIndex is Null
Null
Index is Null
ColumnName is Null
RowNo is Null
ColumnNo is Null
DynamicIndex is Null
Null
Index is Null
ColumnName is Null
RowNo is Null
ColumnNo is Null
DynamicIndex is Null
!@#$%^&*!@#$%^&*ctrlValue:17
Index is Null
ColumnName is Null
RowNo is Null
ColumnNo is Null
DynamicIndex is Null
Null
Index is Null
ColumnName is Null
RowNo is Null
ColumnNo is Null
DynamicIndex is Null
Null
Index is Null
ColumnName is Null
RowNo is Null
ColumnNo is Null
DynamicIndex is Null
Null
ImageType is Null
Index is Null
ColumnName is Null
RowNo is Null
ColumnNo is Null
DynamicIndex is Null
Null
Index is Null
ColumnName is Null
RowNo is Null
ColumnNo is Null
DynamicIndex is Null
Null
deleted existing report sheet
Value of controllerTransactionType: FinalDetails
FilePath is:D:\Testing_Workspace\iTAFSeleniumWeb\Erie\CommonResources\Transaction_Input_Files.xls
SheetName is:Web_Transaction_Input_Files
bhaskar transactionType:CustomerInfo
bhaskar directoryPath:Erie
bhaskar inputExcel:CustomerInfo.xls
bhaskar transactionType:VehiclesInfo
bhaskar directoryPath:Erie
bhaskar inputExcel:VehiclesInfo.xls
bhaskar transactionType:DriverDetails
bhaskar directoryPath:Erie
bhaskar inputExcel:DriverDetails.xls
bhaskar transactionType:FinalDetails
bhaskar directoryPath:Erie
bhaskar inputExcel:FinalDetails.xls
operationType is:Input
D:\Testing_Workspace\iTAFSeleniumWeb\Erie\Resources\Input\Erie\FinalDetails.xls
filePath is:D:\Testing_Workspace\iTAFSeleniumWeb\Erie\Resources\Input\Erie\FinalDetails.xls

FilePath is:D:\Testing_Workspace\iTAFSeleniumWeb\Erie\Resources\Input\Erie\FinalDetails.xls
SheetName is:Values
bhaskar tCase:TC1
bhaskar tType:FinalDetails
1
FilePath is:D:\Testing_Workspace\iTAFSeleniumWeb\Erie\Resources\Input\Erie\FinalDetails.xls
SheetName is:Values
Null
!@#$%^&*!@#$%^&*ctrlValue:markhenry@gmail.com
Null
!@#$%^&*!@#$%^&*ctrlValue:4343924178
Null
Null
Null
!@#$%^&*!@#$%^&*ctrlValue:5652215235
Null
Index is Null
ColumnName is Null
RowNo is Null
ColumnNo is Null
DynamicIndex is Null
Null
ImageType is Null
Index is Null
ColumnName is Null
RowNo is Null
ColumnNo is Null
DynamicIndex is Null
Null
ImageType is Null
Index is Null
ColumnName is Null
RowNo is Null
ColumnNo is Null
DynamicIndex is Null
Null
ImageType is Null
Index is Null
ColumnName is Null
RowNo is Null
ColumnNo is Null
DynamicIndex is Null
Null
deleted existing report sheet
Value of controllerTransactionType: VerifyDetails
FilePath is:D:\Testing_Workspace\iTAFSeleniumWeb\Erie\CommonResources\Transaction_Input_Files.xls
SheetName is:Web_Transaction_Input_Files
bhaskar transactionType:CustomerInfo
bhaskar directoryPath:Erie
bhaskar inputExcel:CustomerInfo.xls
bhaskar transactionType:VehiclesInfo
bhaskar directoryPath:Erie
bhaskar inputExcel:VehiclesInfo.xls
bhaskar transactionType:DriverDetails
bhaskar directoryPath:Erie
bhaskar inputExcel:DriverDetails.xls
bhaskar transactionType:FinalDetails
bhaskar directoryPath:Erie
bhaskar inputExcel:FinalDetails.xls
bhaskar transactionType:VerifyDetails
bhaskar directoryPath:
bhaskar inputExcel:
operationType is:Verify
null
filePath is:null

------------------------------------------------------
-------------------------INPUT-----------------------------
------------------------------------------------------
FilePath is:D:\Testing_Workspace\iTAFSeleniumWeb\Erie\CommonResources\VerificationTableList.xls
SheetName is:VerificationTables
D:\Testing_Workspace\iTAFSeleniumWeb\Erie\Templates\VerifyDetails\VerifyDetails.xls
FilePath is:D:\Testing_Workspace\iTAFSeleniumWeb\Erie\Templates\VerifyDetails\VerifyDetails.xls
SheetName is:Layout
sval is :$194.00
sval is :$127.00
sval is :$47.00
sval is :$36.00
sval is :$4.00
TC1VerifyDetails2016/12/13 18:28:25$194.00$127.00$47.00$36.00$4.00deleted existing report sheet
Value of controllerTransactionType: 
No Transaction Found in the Maincontroller at Cell : 10
Value of controllerTransactionType: 
No Transaction Found in the Maincontroller at Cell : 11
Value of controllerTransactionType: 
No Transaction Found in the Maincontroller at Cell : 12
Value of controllerTransactionType: null
No Transaction Found in the Maincontroller at Cell : 13
In MainController value of pauseExecution3:false
